'code';'codeSystem';'displayName';'parentCodeSystemName';'concept_Beschreibung';'meaning';'hints';'orderNumber';'level';'type';'relationships';'einheit print';'einheit codiert';'codeSystemVersion'
'AHI001';'1.2.40.0.34.5.186';'Acel - P Lederle';'https://termgit.elga.gv.at/CodeSystem/eimpf-historischeimpfstoffe';;;;'1';'0';'L';;;;'2.1.0+20230829'
'AHI002';'1.2.40.0.34.5.186';'Act-HIB+DPT';'https://termgit.elga.gv.at/CodeSystem/eimpf-historischeimpfstoffe';;;;'2';'0';'L';;;;'2.1.0+20230829'
'AHI003';'1.2.40.0.34.5.186';'Addigrip';'https://termgit.elga.gv.at/CodeSystem/eimpf-historischeimpfstoffe';;;;'3';'0';'L';;;;'2.1.0+20230829'
'AHI004';'1.2.40.0.34.5.186';'Arepanrix';'https://termgit.elga.gv.at/CodeSystem/eimpf-historischeimpfstoffe';;;;'4';'0';'L';;;;'2.1.0+20230829'
'AHI005';'1.2.40.0.34.5.186';'Arilvax';'https://termgit.elga.gv.at/CodeSystem/eimpf-historischeimpfstoffe';;;;'5';'0';'L';;;;'2.1.0+20230829'
'AHI006';'1.2.40.0.34.5.186';'Batrevac';'https://termgit.elga.gv.at/CodeSystem/eimpf-historischeimpfstoffe';;;;'6';'0';'L';;;;'2.1.0+20230829'
'AHI007';'1.2.40.0.34.5.186';'BCG Vaccine ''Mérieux''';'https://termgit.elga.gv.at/CodeSystem/eimpf-historischeimpfstoffe';;;;'7';'0';'L';;;;'2.1.0+20230829'
'AHI008';'1.2.40.0.34.5.186';'Begrivac';'https://termgit.elga.gv.at/CodeSystem/eimpf-historischeimpfstoffe';;;;'8';'0';'L';;;;'2.1.0+20230829'
'AHI009';'1.2.40.0.34.5.186';'Celvapan';'https://termgit.elga.gv.at/CodeSystem/eimpf-historischeimpfstoffe';;;;'9';'0';'L';;;;'2.1.0+20230829'
'AHI010';'1.2.40.0.34.5.186';'Cholera - Impfstoff ''Berna''';'https://termgit.elga.gv.at/CodeSystem/eimpf-historischeimpfstoffe';;;;'10';'0';'L';;;;'2.1.0+20230829'
'AHI011';'1.2.40.0.34.5.186';'Cholera - Vakzine ''Sero''';'https://termgit.elga.gv.at/CodeSystem/eimpf-historischeimpfstoffe';;;;'11';'0';'L';;;;'2.1.0+20230829'
'AHI012';'1.2.40.0.34.5.186';'Daronrix';'https://termgit.elga.gv.at/CodeSystem/eimpf-historischeimpfstoffe';;;;'12';'0';'L';;;;'2.1.0+20230829'
'AHI013';'1.2.40.0.34.5.186';'Diftetall';'https://termgit.elga.gv.at/CodeSystem/eimpf-historischeimpfstoffe';;;;'13';'0';'L';;;;'2.1.0+20230829'
'AHI014';'1.2.40.0.34.5.186';'Diphtherie Adsorbat Impfstoff ''Behring''';'https://termgit.elga.gv.at/CodeSystem/eimpf-historischeimpfstoffe';;;;'14';'0';'L';;;;'2.1.0+20230829'
'AHI015';'1.2.40.0.34.5.186';'Ditanrix';'https://termgit.elga.gv.at/CodeSystem/eimpf-historischeimpfstoffe';;;;'15';'0';'L';;;;'2.1.0+20230829'
'AHI016';'1.2.40.0.34.5.186';'DiTe Anatoxal Berna';'https://termgit.elga.gv.at/CodeSystem/eimpf-historischeimpfstoffe';;;;'16';'0';'L';;;;'2.1.0+20230829'
'AHI017';'1.2.40.0.34.5.186';'DiTe Anatoxal(dT) Berna';'https://termgit.elga.gv.at/CodeSystem/eimpf-historischeimpfstoffe';;;;'17';'0';'L';;;;'2.1.0+20230829'
'AHI018';'1.2.40.0.34.5.186';'DiTePer Anatoxal Berna';'https://termgit.elga.gv.at/CodeSystem/eimpf-historischeimpfstoffe';;;;'18';'0';'L';;;;'2.1.0+20230829'
'AHI019';'1.2.40.0.34.5.186';'DT Adsorbat ''Mérieux''';'https://termgit.elga.gv.at/CodeSystem/eimpf-historischeimpfstoffe';;;;'19';'0';'L';;;;'2.1.0+20230829'
'AHI020';'1.2.40.0.34.5.186';'DPT Adsorbat ''Mérieux''';'https://termgit.elga.gv.at/CodeSystem/eimpf-historischeimpfstoffe';;;;'20';'0';'L';;;;'2.1.0+20230829'
'AHI021';'1.2.40.0.34.5.186';'DTaP Vakzine SSI';'https://termgit.elga.gv.at/CodeSystem/eimpf-historischeimpfstoffe';;;;'21';'0';'L';;;;'2.1.0+20230829'
'AHI022';'1.2.40.0.34.5.186';'D.T.Vax';'https://termgit.elga.gv.at/CodeSystem/eimpf-historischeimpfstoffe';;;;'22';'0';'L';;;;'2.1.0+20230829'
'AHI023';'1.2.40.0.34.5.186';'Epaxal';'https://termgit.elga.gv.at/CodeSystem/eimpf-historischeimpfstoffe';;;;'23';'0';'L';;;;'2.1.0+20230829'
'AHI024';'1.2.40.0.34.5.186';'Ervevax';'https://termgit.elga.gv.at/CodeSystem/eimpf-historischeimpfstoffe';;;;'24';'0';'L';;;;'2.1.0+20230829'
'AHI025';'1.2.40.0.34.5.186';'Fluarix';'https://termgit.elga.gv.at/CodeSystem/eimpf-historischeimpfstoffe';;;;'25';'0';'L';;;;'2.1.0+20230829'
'AHI026';'1.2.40.0.34.5.186';'Fluenz';'https://termgit.elga.gv.at/CodeSystem/eimpf-historischeimpfstoffe';;;;'26';'0';'L';;;;'2.1.0+20230829'
'AHI027';'1.2.40.0.34.5.186';'Fluvirin';'https://termgit.elga.gv.at/CodeSystem/eimpf-historischeimpfstoffe';;;;'27';'0';'L';;;;'2.1.0+20230829'
'AHI028';'1.2.40.0.34.5.186';'Focetria';'https://termgit.elga.gv.at/CodeSystem/eimpf-historischeimpfstoffe';;;;'28';'0';'L';;;;'2.1.0+20230829'
'AHI029';'1.2.40.0.34.5.186';'Gen-HB-vax 10 ug';'https://termgit.elga.gv.at/CodeSystem/eimpf-historischeimpfstoffe';;;;'29';'0';'L';;;;'2.1.0+20230829'
'AHI030';'1.2.40.0.34.5.186';'Havrix 360 E.I.U./ml';'https://termgit.elga.gv.at/CodeSystem/eimpf-historischeimpfstoffe';;;;'30';'0';'L';;;;'2.1.0+20230829'
'AHI031';'1.2.40.0.34.5.186';'Hepacare';'https://termgit.elga.gv.at/CodeSystem/eimpf-historischeimpfstoffe';;;;'31';'0';'L';;;;'2.1.0+20230829'
'AHI032';'1.2.40.0.34.5.186';'Hepatyrix';'https://termgit.elga.gv.at/CodeSystem/eimpf-historischeimpfstoffe';;;;'32';'0';'L';;;;'2.1.0+20230829'
'AHI033';'1.2.40.0.34.5.186';'Hevac B ''Pasteur''';'https://termgit.elga.gv.at/CodeSystem/eimpf-historischeimpfstoffe';;;;'33';'0';'L';;;;'2.1.0+20230829'
'AHI034';'1.2.40.0.34.5.186';'Hexavac';'https://termgit.elga.gv.at/CodeSystem/eimpf-historischeimpfstoffe';;;;'34';'0';'L';;;;'2.1.0+20230829'
'AHI036';'1.2.40.0.34.5.186';'Hiberix';'https://termgit.elga.gv.at/CodeSystem/eimpf-historischeimpfstoffe';;;;'35';'0';'L';;;;'2.1.0+20230829'
'AHI037';'1.2.40.0.34.5.186';'Humenza';'https://termgit.elga.gv.at/CodeSystem/eimpf-historischeimpfstoffe';;;;'36';'0';'L';;;;'2.1.0+20230829'
'AHI038';'1.2.40.0.34.5.186';'IDflu';'https://termgit.elga.gv.at/CodeSystem/eimpf-historischeimpfstoffe';;;;'37';'0';'L';;;;'2.1.0+20230829'
'AHI039';'1.2.40.0.34.5.186';'Immugrip';'https://termgit.elga.gv.at/CodeSystem/eimpf-historischeimpfstoffe';;;;'38';'0';'L';;;;'2.1.0+20230829'
'AHI040';'1.2.40.0.34.5.186';'Immovax Polio';'https://termgit.elga.gv.at/CodeSystem/eimpf-historischeimpfstoffe';;;;'39';'0';'L';;;;'2.1.0+20230829'
'AHI041';'1.2.40.0.34.5.186';'Infanrix';'https://termgit.elga.gv.at/CodeSystem/eimpf-historischeimpfstoffe';;;;'40';'0';'L';;;;'2.1.0+20230829'
'AHI042';'1.2.40.0.34.5.186';'Infanrix Penta';'https://termgit.elga.gv.at/CodeSystem/eimpf-historischeimpfstoffe';;;;'41';'0';'L';;;;'2.1.0+20230829'
'AHI043';'1.2.40.0.34.5.186';'Infanrix Tetra';'https://termgit.elga.gv.at/CodeSystem/eimpf-historischeimpfstoffe';;;;'42';'0';'L';;;;'2.1.0+20230829'
'AHI044';'1.2.40.0.34.5.186';'Infanrix + HepB';'https://termgit.elga.gv.at/CodeSystem/eimpf-historischeimpfstoffe';;;;'43';'0';'L';;;;'2.1.0+20230829'
'AHI045';'1.2.40.0.34.5.186';'Infanrix + HiB';'https://termgit.elga.gv.at/CodeSystem/eimpf-historischeimpfstoffe';;;;'44';'0';'L';;;;'2.1.0+20230829'
'AHI046';'1.2.40.0.34.5.186';'Inflexal V';'https://termgit.elga.gv.at/CodeSystem/eimpf-historischeimpfstoffe';;;;'45';'0';'L';;;;'2.1.0+20230829'
'AHI047';'1.2.40.0.34.5.186';'Intanza';'https://termgit.elga.gv.at/CodeSystem/eimpf-historischeimpfstoffe';;;;'46';'0';'L';;;;'2.1.0+20230829'
'AHI048';'1.2.40.0.34.5.186';'Invivac';'https://termgit.elga.gv.at/CodeSystem/eimpf-historischeimpfstoffe';;;;'47';'0';'L';;;;'2.1.0+20230829'
'AHI049';'1.2.40.0.34.5.186';'IPV Mérieux';'https://termgit.elga.gv.at/CodeSystem/eimpf-historischeimpfstoffe';;;;'48';'0';'L';;;;'2.1.0+20230829'
'AHI050';'1.2.40.0.34.5.186';'JE - Vax';'https://termgit.elga.gv.at/CodeSystem/eimpf-historischeimpfstoffe';;;;'49';'0';'L';;;;'2.1.0+20230829'
'AHI051';'1.2.40.0.34.5.186';'Japan B Encephalitis Vaccine';'https://termgit.elga.gv.at/CodeSystem/eimpf-historischeimpfstoffe';;;;'50';'0';'L';;;;'2.1.0+20230829'
'AHI052';'1.2.40.0.34.5.186';'Laevactin';'https://termgit.elga.gv.at/CodeSystem/eimpf-historischeimpfstoffe';;;;'51';'0';'L';;;;'2.1.0+20230829'
'AHI053';'1.2.40.0.34.5.186';'Masern Vaccine ''Mérieux''';'https://termgit.elga.gv.at/CodeSystem/eimpf-historischeimpfstoffe';;;;'52';'0';'L';;;;'2.1.0+20230829'
'AHI054';'1.2.40.0.34.5.186';'Menomune ACWY';'https://termgit.elga.gv.at/CodeSystem/eimpf-historischeimpfstoffe';;;;'53';'0';'L';;;;'2.1.0+20230829'
'AHI055';'1.2.40.0.34.5.186';'Mumps Vaccine ''Merieux''';'https://termgit.elga.gv.at/CodeSystem/eimpf-historischeimpfstoffe';;;;'54';'0';'L';;;;'2.1.0+20230829'
'AHI056';'1.2.40.0.34.5.186';'MMR Triplovax';'https://termgit.elga.gv.at/CodeSystem/eimpf-historischeimpfstoffe';;;;'55';'0';'L';;;;'2.1.0+20230829'
'AHI057';'1.2.40.0.34.5.186';'Mencevax ACWY';'https://termgit.elga.gv.at/CodeSystem/eimpf-historischeimpfstoffe';;;;'56';'0';'L';;;;'2.1.0+20230829'
'AHI058';'1.2.40.0.34.5.186';'Meningovax A+C';'https://termgit.elga.gv.at/CodeSystem/eimpf-historischeimpfstoffe';;;;'57';'0';'L';;;;'2.1.0+20230829'
'AHI059';'1.2.40.0.34.5.186';'Menactra';'https://termgit.elga.gv.at/CodeSystem/eimpf-historischeimpfstoffe';;;;'58';'0';'L';;;;'2.1.0+20230829'
'AHI060';'1.2.40.0.34.5.186';'Meningokokken-Impfstoff A+C Mérieux';'https://termgit.elga.gv.at/CodeSystem/eimpf-historischeimpfstoffe';;;;'59';'0';'L';;;;'2.1.0+20230829'
'AHI061';'1.2.40.0.34.5.186';'Meninvact C';'https://termgit.elga.gv.at/CodeSystem/eimpf-historischeimpfstoffe';;;;'60';'0';'L';;;;'2.1.0+20230829'
'AHI062';'1.2.40.0.34.5.186';'Mutagrip';'https://termgit.elga.gv.at/CodeSystem/eimpf-historischeimpfstoffe';;;;'61';'0';'L';;;;'2.1.0+20230829'
'AHI063';'1.2.40.0.34.5.186';'Optaflu';'https://termgit.elga.gv.at/CodeSystem/eimpf-historischeimpfstoffe';;;;'62';'0';'L';;;;'2.1.0+20230829'
'AHI064';'1.2.40.0.34.5.186';'Orochol';'https://termgit.elga.gv.at/CodeSystem/eimpf-historischeimpfstoffe';;;;'63';'0';'L';;;;'2.1.0+20230829'
'AHI065';'1.2.40.0.34.5.186';'PAC-Mérieux';'https://termgit.elga.gv.at/CodeSystem/eimpf-historischeimpfstoffe';;;;'64';'0';'L';;;;'2.1.0+20230829'
'AHI066';'1.2.40.0.34.5.186';'Pandemrix';'https://termgit.elga.gv.at/CodeSystem/eimpf-historischeimpfstoffe';;;;'65';'0';'L';;;;'2.1.0+20230829'
'AHI067';'1.2.40.0.34.5.186';'Pariorix';'https://termgit.elga.gv.at/CodeSystem/eimpf-historischeimpfstoffe';;;;'66';'0';'L';;;;'2.1.0+20230829'
'AHI068';'1.2.40.0.34.5.186';'Pediacel';'https://termgit.elga.gv.at/CodeSystem/eimpf-historischeimpfstoffe';;;;'67';'0';'L';;;;'2.1.0+20230829'
'AHI069';'1.2.40.0.34.5.186';'Pent-Act-HiB';'https://termgit.elga.gv.at/CodeSystem/eimpf-historischeimpfstoffe';;;;'68';'0';'L';;;;'2.1.0+20230829'
'AHI070';'1.2.40.0.34.5.186';'Pentavac';'https://termgit.elga.gv.at/CodeSystem/eimpf-historischeimpfstoffe';;;;'69';'0';'L';;;;'2.1.0+20230829'
'AHI071';'1.2.40.0.34.5.186';'Pertoral';'https://termgit.elga.gv.at/CodeSystem/eimpf-historischeimpfstoffe';;;;'70';'0';'L';;;;'2.1.0+20230829'
'AHI072';'1.2.40.0.34.5.186';'Pocken Vaccine';'https://termgit.elga.gv.at/CodeSystem/eimpf-historischeimpfstoffe';;;;'71';'0';'L';;;;'2.1.0+20230829'
'AHI073';'1.2.40.0.34.5.186';'Polio Sabin (oral) ''SB'' - Tropfen und Zuckersuspension';'https://termgit.elga.gv.at/CodeSystem/eimpf-historischeimpfstoffe';;;;'72';'0';'L';;;;'2.1.0+20230829'
'AHI074';'1.2.40.0.34.5.186';'Poliomyelitis Vaccine ''Berna''';'https://termgit.elga.gv.at/CodeSystem/eimpf-historischeimpfstoffe';;;;'73';'0';'L';;;;'2.1.0+20230829'
'AHI075';'1.2.40.0.34.5.186';'Pneumo 23 ''Merieux''';'https://termgit.elga.gv.at/CodeSystem/eimpf-historischeimpfstoffe';;;;'74';'0';'L';;;;'2.1.0+20230829'
'AHI076';'1.2.40.0.34.5.186';'PNU-Imune';'https://termgit.elga.gv.at/CodeSystem/eimpf-historischeimpfstoffe';;;;'75';'0';'L';;;;'2.1.0+20230829'
'AHI077';'1.2.40.0.34.5.186';'Präpandemischer Impfstoff (H5N1) GSK';'https://termgit.elga.gv.at/CodeSystem/eimpf-historischeimpfstoffe';;;;'76';'0';'L';;;;'2.1.0+20230829'
'AHI078';'1.2.40.0.34.5.186';'Präpandemischer Impfstoff (H5N1) Novartis';'https://termgit.elga.gv.at/CodeSystem/eimpf-historischeimpfstoffe';;;;'77';'0';'L';;;;'2.1.0+20230829'
'AHI079';'1.2.40.0.34.5.186';'Prévigrip';'https://termgit.elga.gv.at/CodeSystem/eimpf-historischeimpfstoffe';;;;'78';'0';'L';;;;'2.1.0+20230829'
'AHI080';'1.2.40.0.34.5.186';'Prevenar (7-valent)';'https://termgit.elga.gv.at/CodeSystem/eimpf-historischeimpfstoffe';;;;'79';'0';'L';;;;'2.1.0+20230829'
'AHI081';'1.2.40.0.34.5.186';'Primavax';'https://termgit.elga.gv.at/CodeSystem/eimpf-historischeimpfstoffe';;;;'80';'0';'L';;;;'2.1.0+20230829'
'AHI082';'1.2.40.0.34.5.186';'Procomvax';'https://termgit.elga.gv.at/CodeSystem/eimpf-historischeimpfstoffe';;;;'81';'0';'L';;;;'2.1.0+20230829'
'AHI083';'1.2.40.0.34.5.186';'Provarivax';'https://termgit.elga.gv.at/CodeSystem/eimpf-historischeimpfstoffe';;;;'82';'0';'L';;;;'2.1.0+20230829'
'AHI084';'1.2.40.0.34.5.186';'ProHIBiT';'https://termgit.elga.gv.at/CodeSystem/eimpf-historischeimpfstoffe';;;;'83';'0';'L';;;;'2.1.0+20230829'
'AHI085';'1.2.40.0.34.5.186';'Pumarix';'https://termgit.elga.gv.at/CodeSystem/eimpf-historischeimpfstoffe';;;;'84';'0';'L';;;;'2.1.0+20230829'
'AHI086';'1.2.40.0.34.5.186';'Quatrovirelon';'https://termgit.elga.gv.at/CodeSystem/eimpf-historischeimpfstoffe';;;;'85';'0';'L';;;;'2.1.0+20230829'
'AHI087';'1.2.40.0.34.5.186';'Quintanrix';'https://termgit.elga.gv.at/CodeSystem/eimpf-historischeimpfstoffe';;;;'86';'0';'L';;;;'2.1.0+20230829'
'AHI088';'1.2.40.0.34.5.186';'Quintovirelon';'https://termgit.elga.gv.at/CodeSystem/eimpf-historischeimpfstoffe';;;;'87';'0';'L';;;;'2.1.0+20230829'
'AHI089';'1.2.40.0.34.5.186';'Rabies Imovax';'https://termgit.elga.gv.at/CodeSystem/eimpf-historischeimpfstoffe';;;;'88';'0';'L';;;;'2.1.0+20230829'
'AHI090';'1.2.40.0.34.5.186';'Rimparix';'https://termgit.elga.gv.at/CodeSystem/eimpf-historischeimpfstoffe';;;;'89';'0';'L';;;;'2.1.0+20230829'
'AHI091';'1.2.40.0.34.5.186';'Rimevax';'https://termgit.elga.gv.at/CodeSystem/eimpf-historischeimpfstoffe';;;;'90';'0';'L';;;;'2.1.0+20230829'
'AHI092';'1.2.40.0.34.5.186';'Rouvax';'https://termgit.elga.gv.at/CodeSystem/eimpf-historischeimpfstoffe';;;;'91';'0';'L';;;;'2.1.0+20230829'
'AHI093';'1.2.40.0.34.5.186';'Rudivax';'https://termgit.elga.gv.at/CodeSystem/eimpf-historischeimpfstoffe';;;;'92';'0';'L';;;;'2.1.0+20230829'
'AHI094';'1.2.40.0.34.5.186';'RotaShield';'https://termgit.elga.gv.at/CodeSystem/eimpf-historischeimpfstoffe';;;;'93';'0';'L';;;;'2.1.0+20230829'
'AHI095';'1.2.40.0.34.5.186';'Röteln-Impfstoff HDC Mérieux';'https://termgit.elga.gv.at/CodeSystem/eimpf-historischeimpfstoffe';;;;'94';'0';'L';;;;'2.1.0+20230829'
'AHI096';'1.2.40.0.34.5.186';'Rubeaten ''Berna''';'https://termgit.elga.gv.at/CodeSystem/eimpf-historischeimpfstoffe';;;;'95';'0';'L';;;;'2.1.0+20230829'
'AHI097';'1.2.40.0.34.5.186';'Spirolept';'https://termgit.elga.gv.at/CodeSystem/eimpf-historischeimpfstoffe';;;;'96';'0';'L';;;;'2.1.0+20230829'
'AHI098';'1.2.40.0.34.5.186';'Tanrix';'https://termgit.elga.gv.at/CodeSystem/eimpf-historischeimpfstoffe';;;;'97';'0';'L';;;;'2.1.0+20230829'
'AHI099';'1.2.40.0.34.5.186';'Te-Anatoxal ''Berna''';'https://termgit.elga.gv.at/CodeSystem/eimpf-historischeimpfstoffe';;;;'98';'0';'L';;;;'2.1.0+20230829'
'AHI100';'1.2.40.0.34.5.186';'Tetanol';'https://termgit.elga.gv.at/CodeSystem/eimpf-historischeimpfstoffe';;;;'99';'0';'L';;;;'2.1.0+20230829'
'AHI101';'1.2.40.0.34.5.186';'Tetanus-Adsorbat ''Merieux''';'https://termgit.elga.gv.at/CodeSystem/eimpf-historischeimpfstoffe';;;;'100';'0';'L';;;;'2.1.0+20230829'
'AHI102';'1.2.40.0.34.5.186';'Td-Rix';'https://termgit.elga.gv.at/CodeSystem/eimpf-historischeimpfstoffe';;;;'101';'0';'L';;;;'2.1.0+20230829'
'AHI103';'1.2.40.0.34.5.186';'Tetagrip';'https://termgit.elga.gv.at/CodeSystem/eimpf-historischeimpfstoffe';;;;'102';'0';'L';;;;'2.1.0+20230829'
'AHI104';'1.2.40.0.34.5.186';'Tetracoq';'https://termgit.elga.gv.at/CodeSystem/eimpf-historischeimpfstoffe';;;;'103';'0';'L';;;;'2.1.0+20230829'
'AHI105';'1.2.40.0.34.5.186';'Triacelluvax';'https://termgit.elga.gv.at/CodeSystem/eimpf-historischeimpfstoffe';;;;'104';'0';'L';;;;'2.1.0+20230829'
'AHI106';'1.2.40.0.34.5.186';'Triaxis Polio';'https://termgit.elga.gv.at/CodeSystem/eimpf-historischeimpfstoffe';;;;'105';'0';'L';;;;'2.1.0+20230829'
'AHI107';'1.2.40.0.34.5.186';'Ticovac junior';'https://termgit.elga.gv.at/CodeSystem/eimpf-historischeimpfstoffe';;;;'106';'0';'L';;;;'2.1.0+20230829'
'AHI108';'1.2.40.0.34.5.186';'Ticovac';'https://termgit.elga.gv.at/CodeSystem/eimpf-historischeimpfstoffe';;;;'107';'0';'L';;;;'2.1.0+20230829'
'AHI109';'1.2.40.0.34.5.186';'Tollwut Vakzine ''Pasteur Merieux''';'https://termgit.elga.gv.at/CodeSystem/eimpf-historischeimpfstoffe';;;;'108';'0';'L';;;;'2.1.0+20230829'
'AHI110';'1.2.40.0.34.5.186';'Tritanrix DTPw';'https://termgit.elga.gv.at/CodeSystem/eimpf-historischeimpfstoffe';;;;'109';'0';'L';;;;'2.1.0+20230829'
'AHI111';'1.2.40.0.34.5.186';'Tollwut Vaccine HDC';'https://termgit.elga.gv.at/CodeSystem/eimpf-historischeimpfstoffe';;;;'110';'0';'L';;;;'2.1.0+20230829'
'AHI112';'1.2.40.0.34.5.186';'Tritanrix HepB';'https://termgit.elga.gv.at/CodeSystem/eimpf-historischeimpfstoffe';;;;'111';'0';'L';;;;'2.1.0+20230829'
'AHI113';'1.2.40.0.34.5.186';'Tyavax';'https://termgit.elga.gv.at/CodeSystem/eimpf-historischeimpfstoffe';;;;'112';'0';'L';;;;'2.1.0+20230829'
'AHI114';'1.2.40.0.34.5.186';'Typherix';'https://termgit.elga.gv.at/CodeSystem/eimpf-historischeimpfstoffe';;;;'113';'0';'L';;;;'2.1.0+20230829'
'AHI115';'1.2.40.0.34.5.186';'Typhoral';'https://termgit.elga.gv.at/CodeSystem/eimpf-historischeimpfstoffe';;;;'114';'0';'L';;;;'2.1.0+20230829'
'AHI116';'1.2.40.0.34.5.186';'Vaccin Rabique inactivé Mérieux HDCV';'https://termgit.elga.gv.at/CodeSystem/eimpf-historischeimpfstoffe';;;;'115';'0';'L';;;;'2.1.0+20230829'
'AHI117';'1.2.40.0.34.5.186';'Vaccin GenHevac B Pasteur';'https://termgit.elga.gv.at/CodeSystem/eimpf-historischeimpfstoffe';;;;'116';'0';'L';;;;'2.1.0+20230829'
'AHI118';'1.2.40.0.34.5.186';'Vaccine Rabique Pasteur';'https://termgit.elga.gv.at/CodeSystem/eimpf-historischeimpfstoffe';;;;'117';'0';'L';;;;'2.1.0+20230829'
'AHI119';'1.2.40.0.34.5.186';'Vaccine Tétamique Pasteur';'https://termgit.elga.gv.at/CodeSystem/eimpf-historischeimpfstoffe';;;;'118';'0';'L';;;;'2.1.0+20230829'
'AHI120';'1.2.40.0.34.5.186';'Vaccine Boostrixtetra';'https://termgit.elga.gv.at/CodeSystem/eimpf-historischeimpfstoffe';;;;'119';'0';'L';;;;'2.1.0+20230829'
'AHI121';'1.2.40.0.34.5.186';'Varicella Impfstoff SB';'https://termgit.elga.gv.at/CodeSystem/eimpf-historischeimpfstoffe';;;;'120';'0';'L';;;;'2.1.0+20230829'
'AHI122';'1.2.40.0.34.5.186';'Vaxigrip junior';'https://termgit.elga.gv.at/CodeSystem/eimpf-historischeimpfstoffe';;;;'121';'0';'L';;;;'2.1.0+20230829'
'AHI123';'1.2.40.0.34.5.186';'Vaxigrip';'https://termgit.elga.gv.at/CodeSystem/eimpf-historischeimpfstoffe';;;;'122';'0';'L';;;;'2.1.0+20230829'
'AHI124';'1.2.40.0.34.5.186';'Preflucel';'https://termgit.elga.gv.at/CodeSystem/eimpf-historischeimpfstoffe';;;;'123';'0';'L';;;;'2.1.0+20230829'
'AHI125';'1.2.40.0.34.5.186';'Sandovac';'https://termgit.elga.gv.at/CodeSystem/eimpf-historischeimpfstoffe';;;;'124';'0';'L';;;;'2.1.0+20230829'
'AHI126';'1.2.40.0.34.5.186';'Vepacel';'https://termgit.elga.gv.at/CodeSystem/eimpf-historischeimpfstoffe';;;;'125';'0';'L';;;;'2.1.0+20230829'
'AHI127';'1.2.40.0.34.5.186';'Fluvaccinol Subunit';'https://termgit.elga.gv.at/CodeSystem/eimpf-historischeimpfstoffe';;;;'126';'0';'L';;;;'2.1.0+20230829'
'AHI128';'1.2.40.0.34.5.186';'Silgard';'https://termgit.elga.gv.at/CodeSystem/eimpf-historischeimpfstoffe';;;;'127';'0';'L';;;;'2.1.0+20230829'
'AHI129';'1.2.40.0.34.5.186';'HIB-Titer';'https://termgit.elga.gv.at/CodeSystem/eimpf-historischeimpfstoffe';;;;'128';'0';'L';;;;'2.1.0+20230829'
'AHI130';'1.2.40.0.34.5.186';'Avaxim';'https://termgit.elga.gv.at/CodeSystem/eimpf-historischeimpfstoffe';;;;'129';'0';'L';;;;'2.1.0+20230829'
'AHI131';'1.2.40.0.34.5.186';'Fluad';'https://termgit.elga.gv.at/CodeSystem/eimpf-historischeimpfstoffe';;;;'130';'0';'L';;;;'2.1.0+20230829'
'AHI132';'1.2.40.0.34.5.186';'Prepandrix';'https://termgit.elga.gv.at/CodeSystem/eimpf-historischeimpfstoffe';;;;'131';'0';'L';;;;'2.1.0+20230829'
'AHI133';'1.2.40.0.34.5.186';'Tetravac';'https://termgit.elga.gv.at/CodeSystem/eimpf-historischeimpfstoffe';;;;'132';'0';'L';;;;'2.1.0+20230829'
'AHI134';'1.2.40.0.34.5.186';'Menjugate';'https://termgit.elga.gv.at/CodeSystem/eimpf-historischeimpfstoffe';;;;'133';'0';'L';;;;'2.1.0+20230829'
'AHI135';'1.2.40.0.34.5.186';'Influvac';'https://termgit.elga.gv.at/CodeSystem/eimpf-historischeimpfstoffe';;;;'134';'0';'L';;;;'2.1.0+20230829'
'AHI136';'1.2.40.0.34.5.186';'Tetanol pur';'https://termgit.elga.gv.at/CodeSystem/eimpf-historischeimpfstoffe';;;;'135';'0';'L';;;;'2.1.0+20230829'
