"resource";"id";"url";"version";"name";"title";"status";"profile";"description";"identifier";"date";"publisher";"contact";"count"
"ValueSet";"elga-insuredassocentity";"https://termgit.elga.gv.at/ValueSet/elga-insuredassocentity";"1.3.0+20240820";"elga-insuredassocentity";"ELGA_InsuredAssocEntity";"active";"http://hl7.at/fhir/HL7ATCoreProfiles/4.0.1/StructureDefinition/at-core-valueset";"**Description:** Codes for a further detailed description of the insurance relationship. Excerpt of the 'CoverageRoleType' of the Rolecode-Codelist. Currently the ELGA_InsuredAssocEntity value set only uses two codes from the parent code system.

**Beschreibung:** Codes zur näheren Beschreibung des Versicherungsverhältnisses. Auszug aus dem Bereich 'CoverageRoleType' der Codeliste RoleCode. Derzeit werden nur zwei Codes aus der Liste verwendet.";"1.2.40.0.34.10.9";"2024-08-20";"ELGA GmbH";"https://www.elga.gv.at|url^https://www.elga.gv.at^^^^";"2"

"system";"version";"code";"display";"designation";"designation";"extension"
"http://terminology.hl7.org/CodeSystem/v3-RoleCode";"2.2.0";"FAMDEP";"family dependent";"de-AT|^^^^|Mitversichert";"|https://termgit.elga.gv.at/CodeSystem/austrian-designation-use^^concept_beschreibung^concept_beschreibung^|Patient ist bei einem Familienmitglied mitversichert";"http://hl7.at/fhir/HL7ATCoreProfiles/4.0.1/StructureDefinition/at-core-ext-valueset-systemoid|urn:oid:2.16.840.1.113883.5.111|oid"
"http://terminology.hl7.org/CodeSystem/v3-RoleCode";"2.2.0";"SELF";"self";"de-AT|^^^^|Selbstversichert";"|https://termgit.elga.gv.at/CodeSystem/austrian-designation-use^^concept_beschreibung^concept_beschreibung^|Patient ist selbst der Versicherte";"http://hl7.at/fhir/HL7ATCoreProfiles/4.0.1/StructureDefinition/at-core-ext-valueset-systemoid|urn:oid:2.16.840.1.113883.5.111|oid"