'code';'codeSystem';'displayName';'parentCodeSystemName';'concept_Beschreibung';'meaning';'hints';'orderNumber';'level';'type';'relationships';'einheit print';'einheit codiert';'codeSystemVersion'
'no-allergy-info';'http://hl7.org/fhir/uv/ips/CodeSystem/absent-unknown-uv-ips';'No information about allergies';'http://hl7.org/fhir/uv/ips/CodeSystem/absent-unknown-uv-ips';;'keine Information über Überempfindlichkeiten verfügbar';;'1';'0';'L';;;;'1.1.0'
'no-known-allergies';'http://hl7.org/fhir/uv/ips/CodeSystem/absent-unknown-uv-ips';'No known allergies';'http://hl7.org/fhir/uv/ips/CodeSystem/absent-unknown-uv-ips';;'keine Überempfindlichkeiten';;'2';'0';'S';;;;'1.1.0'
'no-known-medication-allergies';'http://hl7.org/fhir/uv/ips/CodeSystem/absent-unknown-uv-ips';'No known medication allergies';'http://hl7.org/fhir/uv/ips/CodeSystem/absent-unknown-uv-ips';;'keine Arzneimittelallergien';;'3';'1';'L';;;;'1.1.0'
'no-known-environmental-allergies';'http://hl7.org/fhir/uv/ips/CodeSystem/absent-unknown-uv-ips';'No known environmental allergies';'http://hl7.org/fhir/uv/ips/CodeSystem/absent-unknown-uv-ips';;'keine Umweltallergien';;'4';'1';'L';;;;'1.1.0'
'no-known-food-allergies';'http://hl7.org/fhir/uv/ips/CodeSystem/absent-unknown-uv-ips';'No known food allergies';'http://hl7.org/fhir/uv/ips/CodeSystem/absent-unknown-uv-ips';;'keine Lebensmittelallergien';;'5';'1';'L';;;;'1.1.0'
