'code';'codeSystem';'displayName';'parentCodeSystemName';'concept_Beschreibung';'meaning';'hints';'orderNumber';'level';'type';'relationships';'einheit print';'einheit codiert';'codeSystemVersion'
'_ActEncounterCode';'2.16.840.1.113883.5.4';'ActEncounterCode';'http://terminology.hl7.org/CodeSystem/v3-ActCode';;;'(Wird nicht verwendet)';'1';'0';'A';;;;'8.0.0'
'AMB';'2.16.840.1.113883.5.4';'ambulatory';'http://terminology.hl7.org/CodeSystem/v3-ActCode';'''Ambulant von  bis''';'Ambulante Aufnahme / Ordinationsbesuch';'Ambulante Aufnahme / Ordinationsbesuch';'2';'1';'L';;;;'8.0.0'
'EMER';'2.16.840.1.113883.5.4';'emergency';'http://terminology.hl7.org/CodeSystem/v3-ActCode';'''Akutbehandlung von .. bis''';'Notfallkontakt (in den Räumlichkeiten des GDA)';'Notfallkontakt (in den Räumlichkeiten des GDA)';'3';'1';'L';;;;'8.0.0'
'FLD';'2.16.840.1.113883.5.4';'field';'http://terminology.hl7.org/CodeSystem/v3-ActCode';'''Notfall, Rettung, erste Hilfe''';'Patientenkontakt außerhalb der Räumlichkeit eines GDA';'Patientenkontakt außerhalb der Räumlichkeit eines GDA';'4';'1';'L';;;;'8.0.0'
'HH';'2.16.840.1.113883.5.4';'home health';'http://terminology.hl7.org/CodeSystem/v3-ActCode';'''Hausbesuch(e) von  bis''';'Hausbesuche, Hausbetreuung';'Hausbesuch, Hausbetreuung, mobile Betreuung';'5';'1';'L';;;;'8.0.0'
'IMP';'2.16.840.1.113883.5.4';'inpatient encounter';'http://terminology.hl7.org/CodeSystem/v3-ActCode';'''Stationär von  bis''';'Stationäre Aufnahme';'Stationäre Aufnahme';'6';'1';'S';;;;'8.0.0'
'ACUTE';'2.16.840.1.113883.5.4';'inpatient acute';'http://terminology.hl7.org/CodeSystem/v3-ActCode';'''Stationär von  bis''';'Akute stationäre Aufnahme';'Akute stationäre Aufnahme';'7';'2';'L';;;;'8.0.0'
'NONAC';'2.16.840.1.113883.5.4';'inpatient non-acute';'http://terminology.hl7.org/CodeSystem/v3-ActCode';'''Stationär von  bis''';'Nicht-akute (geplante) stationäre Aufnahme';'Nicht-akute (geplante) stationäre Aufnahme';'8';'2';'L';;;;'8.0.0'
'PRENC';'2.16.840.1.113883.5.4';'pre-admission';'http://terminology.hl7.org/CodeSystem/v3-ActCode';'''Prästationär von  bis''';'Prästationäre Aufnahme';'Prästationäre Aufnahme';'9';'1';'L';;;;'8.0.0'
'SS';'2.16.840.1.113883.5.4';'short stay';'http://terminology.hl7.org/CodeSystem/v3-ActCode';'''Tagesklinisch von  bis''';'Tagesbetreuung';'Tagesbetreuung, teilstationäre / tagesklinische Aufnahmen (''Null-Tagesfälle''),  Tageszentrum';'10';'1';'L';;;;'8.0.0'
'VR';'2.16.840.1.113883.5.4';'virtual';'http://terminology.hl7.org/CodeSystem/v3-ActCode';'''Behandlung von  bis''';'Virtueller Kontakt (Telemedizin, Telefonkontakt, )';'Virtueller Kontakt (Telemedizin, Telefonkontakt, )';'11';'1';'L';;;;'8.0.0'
