{
  "resourceType": "ValueSet",
  "id": "eimpf-immunizationtarget",
  "meta": {
    "profile": [
      "http://hl7.at/fhir/HL7ATCoreProfiles/4.0.1/StructureDefinition/at-core-valueset"
    ]
  },
  "url": "https://termgit.elga.gv.at/ValueSet/eimpf-immunizationtarget",
  "identifier": [
    {
      "use": "official",
      "system": "urn:ietf:rfc:3986",
      "value": "urn:oid:1.2.40.0.34.6.0.10.4"
    }
  ],
  "version": "1.13.0+20250225",
  "name": "eimpf-immunizationtarget",
  "title": "eImpf_ImmunizationTarget",
  "status": "active",
  "date": "2025-02-25",
  "description": "**Description:** Vaccines against a specific disease or pathogen. Substances in this value set represent the individual vaccines (e.g. measles vaccines). Among the combinations are those vaccines that protect against several diseases (e.g. Measles-Mumps-Rubella). Contains information protected by copyright of SNOMED International. Any use of SNOMED CT in Austria requires a valid affiliate license or sublicense. The corresponding license is free of charge, provided that the use only takes place in Austria and fulfills the conditions of the Affiliate License Agreement. Affiliate licenses can be requested directly from the respective NRC via the Member Licensing and Distribution Service (MLDS). https://mlds.ihtsdotools.org/#/landing/AT?lang=de\n\n**Beschreibung:** Impfstoffe gegen eine bestimmte Krankheit oder einen Erreger. Substanzen stellen in diesem Value Set die einzelnen Impfstoffe dar (z.B. Masern Impfstoffe). Unter den Kombinationen sind jene Impfstoffe zu finden, die gegen mehrere Krankheiten sch\u00fctzen (z.B. Masern-Mumps-R\u00f6teln Impfschutz). Enth\u00e4lt durch SNOMED International urheberrechtlich gesch\u00fctzte Information. Jede Verwendung von SNOMED CT in \u00d6sterreich erfordert eine aufrechte Affiliate Lizenz oder eine Sublizenz. Die entsprechende Lizenz ist kostenlos, vorausgesetzt die Verwendung findet nur in \u00d6sterreich statt und erf\u00fcllt die Bedingungen des Affiliate License Agreements. Affiliate Lizenzen k\u00f6nnen \u00fcber das Member Licensing and Distribution Service (MLDS) direkt beim jeweiligen NRC beantragt werden. https://mlds.ihtsdotools.org/#/landing/AT?lang=de",
  "compose": {
    "include": [
      {
        "extension": [
          {
            "url": "http://hl7.at/fhir/HL7ATCoreProfiles/4.0.1/StructureDefinition/at-core-ext-valueset-systemoid",
            "valueOid": "urn:oid:1.2.40.0.34.5.183"
          }
        ],
        "system": "https://termgit.elga.gv.at/CodeSystem/eimpf-ergaenzung",
        "version": "2.26.0+20250225",
        "concept": [
          {
            "code": "_Einzel",
            "display": "Impfungen",
            "designation": [
              {
                "use": {
                  "system": "https://termgit.elga.gv.at/CodeSystem/austrian-designation-use",
                  "code": "hinweise",
                  "display": "hinweise"
                },
                "value": "1..* Substanz pro ASP"
              }
            ]
          },
          {
            "code": "_Empfohlene",
            "display": "Allgemein empfohlene Impfungen"
          },
          {
            "code": "_Reise",
            "display": "Reise-/Indikationsimpfungen"
          },
          {
            "code": "_Weitere",
            "display": "Weitere Impfungen"
          },
          {
            "code": "_Kombinationen",
            "display": "Kombinationsimpfungen"
          }
        ]
      },
      {
        "extension": [
          {
            "url": "http://hl7.at/fhir/HL7ATCoreProfiles/4.0.1/StructureDefinition/at-core-ext-valueset-systemoid",
            "valueOid": "urn:oid:2.16.840.1.113883.6.96"
          }
        ],
        "system": "https://termgit.elga.gv.at/CodeSystem/snomed-ct-auszug",
        "version": "1.8.0+20241115",
        "concept": [
          {
            "code": "836381006",
            "display": "Diphtherie Impfstoff",
            "designation": [
              {
                "language": "de-AT",
                "value": "Diphtherie"
              }
            ]
          },
          {
            "code": "836403007",
            "display": "Fr\u00fchsommer-Meningoenzephalitis Impfstoff",
            "designation": [
              {
                "language": "de-AT",
                "value": "Fr\u00fchsommer-Meningoenzephalitis (FSME, Zecken-Impfung)"
              }
            ]
          },
          {
            "code": "836380007",
            "display": "Haemophilus influenzae Typ B Impfstoff",
            "designation": [
              {
                "language": "de-AT",
                "value": "Haemophilus-influenzae B"
              }
            ]
          },
          {
            "code": "836374004",
            "display": "Hepatitis B Impfstoff",
            "designation": [
              {
                "language": "de-AT",
                "value": "Hepatitis B"
              }
            ]
          },
          {
            "code": "871919004",
            "display": "Herpes Zoster Impfstoff",
            "designation": [
              {
                "language": "de-AT",
                "value": "Herpes Zoster (G\u00fcrtelrose)"
              }
            ]
          },
          {
            "code": "836379009",
            "display": "Humane Papillomaviren Impfstoff",
            "designation": [
              {
                "language": "de-AT",
                "value": "Humane Papillomaviren (HPV)"
              }
            ]
          },
          {
            "code": "836377006",
            "display": "Influenza Impfstoff",
            "designation": [
              {
                "language": "de-AT",
                "value": "Influenza ('echte Grippe')"
              }
            ]
          },
          {
            "code": "836382004",
            "display": "Masern Impfstoff",
            "designation": [
              {
                "language": "de-AT",
                "value": "Masern"
              }
            ]
          },
          {
            "code": "836401009",
            "display": "Meningokokken Impfstoff",
            "designation": [
              {
                "language": "de-AT",
                "value": "Meningokokken"
              }
            ]
          },
          {
            "code": "1981000221108",
            "display": "Meningokokken Serotyp B Impfstoff",
            "designation": [
              {
                "language": "de-AT",
                "value": "Meningokokken B"
              }
            ]
          },
          {
            "code": "871866001",
            "display": "Meningokokken Serotyp C Impfstoff",
            "designation": [
              {
                "language": "de-AT",
                "value": "Meningokokken C"
              }
            ]
          },
          {
            "code": "871873006",
            "display": "Meningokokken Serotyp A+C+W135+Y Impfstoff",
            "designation": [
              {
                "language": "de-AT",
                "value": "Meningokokken ACWY"
              }
            ]
          },
          {
            "code": "871738001",
            "display": "Mumps Impfstoff",
            "designation": [
              {
                "language": "de-AT",
                "value": "Mumps"
              }
            ]
          },
          {
            "code": "601000221108",
            "display": "Pertussis Impfstoff",
            "designation": [
              {
                "language": "de-AT",
                "value": "Pertussis (Keuchhusten)"
              }
            ]
          },
          {
            "code": "836398006",
            "display": "Pneumokokken Impfstoff",
            "designation": [
              {
                "language": "de-AT",
                "value": "Pneumokokken"
              }
            ]
          },
          {
            "code": "1031000221108",
            "display": "Poliomyelitis Impfstoff",
            "designation": [
              {
                "language": "de-AT",
                "value": "Poliomyelitis (Kinderl\u00e4hmung)"
              }
            ]
          },
          {
            "code": "836387005",
            "display": "Rotavirus Impfstoff",
            "designation": [
              {
                "language": "de-AT",
                "value": "Rotavirus"
              }
            ]
          },
          {
            "code": "836388000",
            "display": "R\u00f6teln Impfstoff",
            "designation": [
              {
                "language": "de-AT",
                "value": "R\u00f6teln"
              }
            ]
          },
          {
            "code": "1101000221104",
            "display": "Tetanus Impfstoff",
            "designation": [
              {
                "language": "de-AT",
                "value": "Tetanus (Wundstarrkrampf)"
              }
            ]
          },
          {
            "code": "836495005",
            "display": "Varizellen Impfstoff",
            "designation": [
              {
                "language": "de-AT",
                "value": "Varizellen (Windpocken, Feuchtblattern)"
              }
            ]
          },
          {
            "code": "840534001",
            "display": "COVID-19 Impfstoff",
            "designation": [
              {
                "language": "de-AT",
                "value": "COVID-19"
              }
            ]
          },
          {
            "code": "108723008",
            "display": "Respiratorisches Synzytial-Virus Impfstoff",
            "designation": [
              {
                "language": "de-AT",
                "value": "Respiratorisches Synzytial-Virus (RSV)"
              }
            ]
          },
          {
            "code": "1345042009",
            "display": "Chikungunya Impfstoff",
            "designation": [
              {
                "language": "de-AT",
                "value": "Chikungunya"
              }
            ]
          },
          {
            "code": "836383009",
            "display": "Cholera Impfstoff",
            "designation": [
              {
                "language": "de-AT",
                "value": "Cholera"
              }
            ]
          },
          {
            "code": "840563003",
            "display": "Dengue-Fieber Impfstoff",
            "designation": [
              {
                "language": "de-AT",
                "value": "Dengue-Fieber"
              }
            ]
          },
          {
            "code": "836385002",
            "display": "Gelbfieber Impfstoff",
            "designation": [
              {
                "language": "de-AT",
                "value": "Gelbfieber"
              }
            ]
          },
          {
            "code": "836375003",
            "display": "Hepatitis A Impfstoff",
            "designation": [
              {
                "language": "de-AT",
                "value": "Hepatitis A"
              }
            ]
          },
          {
            "code": "30041000234101",
            "display": "Influenza (H5N8) Impfstoff",
            "designation": [
              {
                "language": "de-AT",
                "value": "Zoonotische Influenza (H5N8)"
              }
            ]
          },
          {
            "code": "836378001",
            "display": "Japanische Enzephalitis Impfstoff",
            "designation": [
              {
                "language": "de-AT",
                "value": "Japanische Enzephalitis"
              }
            ]
          },
          {
            "code": "871871008",
            "display": "Meningokokken Serotyp A+C Impfstoff",
            "designation": [
              {
                "language": "de-AT",
                "value": "Meningokokken AC"
              }
            ]
          },
          {
            "code": "836389008",
            "display": "Mpox/Pocken Impfstoff",
            "designation": [
              {
                "language": "de-AT",
                "value": "Mpox/Pocken"
              }
            ]
          },
          {
            "code": "836393002",
            "display": "Tollwut Impfstoff",
            "designation": [
              {
                "language": "de-AT",
                "value": "Tollwut"
              }
            ]
          },
          {
            "code": "836390004",
            "display": "Typhus Impfstoff",
            "designation": [
              {
                "language": "de-AT",
                "value": "Typhus "
              }
            ]
          },
          {
            "code": "836402002",
            "display": "Tuberkulose Impfstoff",
            "designation": [
              {
                "language": "de-AT",
                "value": "Tuberkulose"
              }
            ]
          },
          {
            "code": "871772009",
            "display": "Influenza (H1N1) Impfstoff",
            "designation": [
              {
                "language": "de-AT",
                "value": "H1N1 Grippeviren (Influenza)"
              }
            ]
          },
          {
            "code": "427036009",
            "display": "Influenza (H5N1) Impfstoff",
            "designation": [
              {
                "language": "de-AT",
                "value": "H5N1 Grippeviren (Influenza)"
              }
            ]
          },
          {
            "code": "840564009",
            "display": "Leptospirose Impfstoff",
            "designation": [
              {
                "language": "de-AT",
                "value": "Leptospirose"
              },
              {
                "use": {
                  "system": "https://termgit.elga.gv.at/CodeSystem/austrian-designation-use",
                  "code": "hinweise",
                  "display": "hinweise"
                },
                "value": "f\u00fcr historische Impfstoffe"
              }
            ]
          },
          {
            "code": "836421005",
            "display": "Ebola Impfstoff",
            "designation": [
              {
                "language": "de-AT",
                "value": "Ebola"
              }
            ]
          },
          {
            "code": "871896006",
            "display": "Diphtherie-Haemophilus-influenzae B-Pertussis-Poliomyelitis-Tetanus-Hepatitis B Impfstoffkombination",
            "designation": [
              {
                "language": "de-AT",
                "value": "Diphtherie-Haemophilus-influenzae B-Pertussis-Poliomyelitis-Tetanus-Hepatitis B"
              },
              {
                "use": {
                  "system": "https://termgit.elga.gv.at/CodeSystem/austrian-designation-use",
                  "code": "relationships",
                  "display": "relationships"
                },
                "value": "2.16.840.1.113883.6.96:836381006~2.16.840.1.113883.6.96:836380007~2.16.840.1.113883.6.96:601000221108~2.16.840.1.113883.6.96:1031000221108~2.16.840.1.113883.6.96:1101000221104~2.16.840.1.113883.6.96:836374004"
              }
            ]
          },
          {
            "code": "871917002",
            "display": "Diphtheria-Tetanus-Pertussis-Hepatitis B Impfstoffkombination",
            "designation": [
              {
                "language": "de-AT",
                "value": "Diphtheria-Tetanus-Pertussis-Hepatitis B"
              },
              {
                "use": {
                  "system": "https://termgit.elga.gv.at/CodeSystem/austrian-designation-use",
                  "code": "relationships",
                  "display": "relationships"
                },
                "value": "2.16.840.1.113883.6.96:836381006~2.16.840.1.113883.6.96:1101000221104~2.16.840.1.113883.6.96:601000221108~2.16.840.1.113883.6.96:836374004"
              }
            ]
          },
          {
            "code": "871889009",
            "display": "Diphtherie-Pertussis-Hepatitis B-Polio Impfstoffkombination",
            "designation": [
              {
                "language": "de-AT",
                "value": "Diphtherie-Pertussis-Hepatitis B-Polio"
              },
              {
                "use": {
                  "system": "https://termgit.elga.gv.at/CodeSystem/austrian-designation-use",
                  "code": "relationships",
                  "display": "relationships"
                },
                "value": "2.16.840.1.113883.6.96:836381006~2.16.840.1.113883.6.96:601000221108~2.16.840.1.113883.6.96:836374004~2.16.840.1.113883.6.96:1031000221108"
              }
            ]
          },
          {
            "code": "836508001",
            "display": "Diphtherie-Pertussis-Poliomyelitis-Tetanus Impfstoffkombination",
            "designation": [
              {
                "language": "de-AT",
                "value": "Diphtherie-Pertussis-Poliomyelitis-Tetanus"
              },
              {
                "use": {
                  "system": "https://termgit.elga.gv.at/CodeSystem/austrian-designation-use",
                  "code": "relationships",
                  "display": "relationships"
                },
                "value": "2.16.840.1.113883.6.96:836381006~2.16.840.1.113883.6.96:601000221108~2.16.840.1.113883.6.96:1031000221108~2.16.840.1.113883.6.96:1101000221104"
              }
            ]
          },
          {
            "code": "836503005",
            "display": "Diphtherie-Pertussis-Tetanus Impfstoffkombination",
            "designation": [
              {
                "language": "de-AT",
                "value": "Diphtherie-Pertussis-Tetanus"
              },
              {
                "use": {
                  "system": "https://termgit.elga.gv.at/CodeSystem/austrian-designation-use",
                  "code": "relationships",
                  "display": "relationships"
                },
                "value": "2.16.840.1.113883.6.96:836381006~2.16.840.1.113883.6.96:601000221108~2.16.840.1.113883.6.96:1101000221104"
              }
            ]
          },
          {
            "code": "836507006",
            "display": "Diphtherie-Pertussis-Tetanus-Haemophilus-influenzae B Impfstoffkombination",
            "designation": [
              {
                "language": "de-AT",
                "value": "Diphtherie-Pertussis-Tetanus-Haemophilus-influenzae B"
              },
              {
                "use": {
                  "system": "https://termgit.elga.gv.at/CodeSystem/austrian-designation-use",
                  "code": "relationships",
                  "display": "relationships"
                },
                "value": "2.16.840.1.113883.6.96:836381006~2.16.840.1.113883.6.96:601000221108~2.16.840.1.113883.6.96:1101000221104~2.16.840.1.113883.6.96:836380007"
              }
            ]
          },
          {
            "code": "871928003",
            "display": "Diphtherie-Pertussis-Tetanus-Polio-Masern Impfstoffkombination",
            "designation": [
              {
                "language": "de-AT",
                "value": "Diphtherie-Pertussis-Tetanus-Polio-Masern"
              },
              {
                "use": {
                  "system": "https://termgit.elga.gv.at/CodeSystem/austrian-designation-use",
                  "code": "relationships",
                  "display": "relationships"
                },
                "value": "2.16.840.1.113883.6.96:836381006~2.16.840.1.113883.6.96:601000221108~2.16.840.1.113883.6.96:1101000221104~2.16.840.1.113883.6.96:1031000221108~2.16.840.1.113883.6.96:836382004"
              }
            ]
          },
          {
            "code": "838279002",
            "display": "Diphtherie-Pertussis-Tetanus-Poliomyelitis-Haemophilus-influenzae B Impfstoffkombination",
            "designation": [
              {
                "language": "de-AT",
                "value": "Diphtherie-Pertussis-Tetanus-Poliomyelitis-Haemophilus-influenzae B"
              },
              {
                "use": {
                  "system": "https://termgit.elga.gv.at/CodeSystem/austrian-designation-use",
                  "code": "relationships",
                  "display": "relationships"
                },
                "value": "2.16.840.1.113883.6.96:836381006~2.16.840.1.113883.6.96:601000221108~2.16.840.1.113883.6.96:1101000221104~2.16.840.1.113883.6.96:1031000221108~2.16.840.1.113883.6.96:836380007"
              }
            ]
          },
          {
            "code": "871892008",
            "display": "Diphtherie-Pertussis-Tetanus-Poliomyelitis-Hepatitis B Impfstoffkombination",
            "designation": [
              {
                "language": "de-AT",
                "value": "Diphtherie-Pertussis-Tetanus-Poliomyelitis-Hepatitis B"
              },
              {
                "use": {
                  "system": "https://termgit.elga.gv.at/CodeSystem/austrian-designation-use",
                  "code": "relationships",
                  "display": "relationships"
                },
                "value": "2.16.840.1.113883.6.96:836381006~2.16.840.1.113883.6.96:601000221108~2.16.840.1.113883.6.96:1101000221104~2.16.840.1.113883.6.96:1031000221108~2.16.840.1.113883.6.96:836374004"
              }
            ]
          },
          {
            "code": "836505003",
            "display": "Diphtherie-Poliomyelitis-Tetanus Impfstoffkombination",
            "designation": [
              {
                "language": "de-AT",
                "value": "Diphtherie-Poliomyelitis-Tetanus"
              },
              {
                "use": {
                  "system": "https://termgit.elga.gv.at/CodeSystem/austrian-designation-use",
                  "code": "relationships",
                  "display": "relationships"
                },
                "value": "2.16.840.1.113883.6.96:836381006~2.16.840.1.113883.6.96:1031000221108~2.16.840.1.113883.6.96:1101000221104"
              }
            ]
          },
          {
            "code": "836502000",
            "display": "Diphtherie-Tetanus Impfstoffkombination",
            "designation": [
              {
                "language": "de-AT",
                "value": "Diphtherie-Tetanus"
              },
              {
                "use": {
                  "system": "https://termgit.elga.gv.at/CodeSystem/austrian-designation-use",
                  "code": "relationships",
                  "display": "relationships"
                },
                "value": "2.16.840.1.113883.6.96:836381006~2.16.840.1.113883.6.96:1101000221104"
              }
            ]
          },
          {
            "code": "871929006",
            "display": "Diphtherie-Tetanus-Hepatitis B Impfstoffkombination",
            "designation": [
              {
                "language": "de-AT",
                "value": "Diphtherie-Tetanus-Hepatitis B"
              },
              {
                "use": {
                  "system": "https://termgit.elga.gv.at/CodeSystem/austrian-designation-use",
                  "code": "relationships",
                  "display": "relationships"
                },
                "value": "2.16.840.1.113883.6.96:836381006~2.16.840.1.113883.6.96:1101000221104~2.16.840.1.113883.6.96:836374004"
              }
            ]
          },
          {
            "code": "836504004",
            "display": "Haemophilus influenzae Type B-Tetanus Impfstoffkombination",
            "designation": [
              {
                "language": "de-AT",
                "value": "Haemophilus influenzae Type B-Tetanus"
              },
              {
                "use": {
                  "system": "https://termgit.elga.gv.at/CodeSystem/austrian-designation-use",
                  "code": "relationships",
                  "display": "relationships"
                },
                "value": "2.16.840.1.113883.6.96:836380007~2.16.840.1.113883.6.96:1101000221104"
              }
            ]
          },
          {
            "code": "836493003",
            "display": "Hepatitis A-Hepatitis B Impfstoffkombination",
            "designation": [
              {
                "language": "de-AT",
                "value": "Hepatitis A-Hepatitis B"
              },
              {
                "use": {
                  "system": "https://termgit.elga.gv.at/CodeSystem/austrian-designation-use",
                  "code": "relationships",
                  "display": "relationships"
                },
                "value": "2.16.840.1.113883.6.96:836375003~2.16.840.1.113883.6.96:836374004"
              }
            ]
          },
          {
            "code": "865946000",
            "display": "Hepatitis B-Haemophilus-influenzae B Impfstoffkombination",
            "designation": [
              {
                "language": "de-AT",
                "value": "Hepatitis B-Haemophilus-influenzae B"
              },
              {
                "use": {
                  "system": "https://termgit.elga.gv.at/CodeSystem/austrian-designation-use",
                  "code": "relationships",
                  "display": "relationships"
                },
                "value": "2.16.840.1.113883.6.96:836374004~2.16.840.1.113883.6.96:836380007"
              }
            ]
          },
          {
            "code": "836499004",
            "display": "Masern-Mumps Impfstoffkombination",
            "designation": [
              {
                "language": "de-AT",
                "value": "Masern-Mumps"
              },
              {
                "use": {
                  "system": "https://termgit.elga.gv.at/CodeSystem/austrian-designation-use",
                  "code": "relationships",
                  "display": "relationships"
                },
                "value": "2.16.840.1.113883.6.96:836382004~2.16.840.1.113883.6.96:871738001"
              }
            ]
          },
          {
            "code": "836494009",
            "display": "Masern-Mumps-R\u00f6teln Impfstoffkombination",
            "designation": [
              {
                "language": "de-AT",
                "value": "Masern-Mumps-R\u00f6teln"
              },
              {
                "use": {
                  "system": "https://termgit.elga.gv.at/CodeSystem/austrian-designation-use",
                  "code": "relationships",
                  "display": "relationships"
                },
                "value": "2.16.840.1.113883.6.96:836382004~2.16.840.1.113883.6.96:871738001~2.16.840.1.113883.6.96:836388000"
              }
            ]
          },
          {
            "code": "838280004",
            "display": "Masern-Mumps-R\u00f6teln-Varizellen Impfstoffkombination",
            "designation": [
              {
                "language": "de-AT",
                "value": "Masern-Mumps-R\u00f6teln-Varizellen"
              },
              {
                "use": {
                  "system": "https://termgit.elga.gv.at/CodeSystem/austrian-designation-use",
                  "code": "relationships",
                  "display": "relationships"
                },
                "value": "2.16.840.1.113883.6.96:836382004~2.16.840.1.113883.6.96:871738001~2.16.840.1.113883.6.96:836388000~2.16.840.1.113883.6.96:836495005"
              }
            ]
          },
          {
            "code": "836501007",
            "display": "Typhus-Hepatitis A Impfstoffkombination",
            "designation": [
              {
                "language": "de-AT",
                "value": "Typhus-Hepatitis A"
              },
              {
                "use": {
                  "system": "https://termgit.elga.gv.at/CodeSystem/austrian-designation-use",
                  "code": "relationships",
                  "display": "relationships"
                },
                "value": "2.16.840.1.113883.6.96:836390004~2.16.840.1.113883.6.96:836375003"
              }
            ]
          }
        ]
      }
    ]
  },
  "expansion": {
    "timestamp": "2025-02-25T13:41:33+00:00",
    "contains": [
      {
        "extension": [
          {
            "url": "http://hl7.at/fhir/HL7ATCoreProfiles/4.0.1/StructureDefinition/at-core-ext-valueset-systemoid",
            "valueOid": "urn:oid:1.2.40.0.34.5.183"
          }
        ],
        "system": "https://termgit.elga.gv.at/CodeSystem/eimpf-ergaenzung",
        "abstract": true,
        "version": "2.26.0+20250225",
        "code": "_Einzel",
        "display": "Impfungen",
        "designation": [
          {
            "use": {
              "system": "https://termgit.elga.gv.at/CodeSystem/austrian-designation-use",
              "code": "hinweise",
              "display": "hinweise"
            },
            "value": "1..* Substanz pro ASP"
          }
        ],
        "contains": [
          {
            "extension": [
              {
                "url": "http://hl7.at/fhir/HL7ATCoreProfiles/4.0.1/StructureDefinition/at-core-ext-valueset-systemoid",
                "valueOid": "urn:oid:1.2.40.0.34.5.183"
              }
            ],
            "system": "https://termgit.elga.gv.at/CodeSystem/eimpf-ergaenzung",
            "abstract": true,
            "version": "2.26.0+20250225",
            "code": "_Empfohlene",
            "display": "Allgemein empfohlene Impfungen",
            "contains": [
              {
                "extension": [
                  {
                    "url": "http://hl7.at/fhir/HL7ATCoreProfiles/4.0.1/StructureDefinition/at-core-ext-valueset-systemoid",
                    "valueOid": "urn:oid:2.16.840.1.113883.6.96"
                  }
                ],
                "system": "https://termgit.elga.gv.at/CodeSystem/snomed-ct-auszug",
                "version": "1.8.0+20241115",
                "code": "836381006",
                "display": "Diphtherie Impfstoff",
                "designation": [
                  {
                    "language": "de-AT",
                    "value": "Diphtherie"
                  }
                ]
              },
              {
                "extension": [
                  {
                    "url": "http://hl7.at/fhir/HL7ATCoreProfiles/4.0.1/StructureDefinition/at-core-ext-valueset-systemoid",
                    "valueOid": "urn:oid:2.16.840.1.113883.6.96"
                  }
                ],
                "system": "https://termgit.elga.gv.at/CodeSystem/snomed-ct-auszug",
                "version": "1.8.0+20241115",
                "code": "836403007",
                "display": "Fr\u00fchsommer-Meningoenzephalitis Impfstoff",
                "designation": [
                  {
                    "language": "de-AT",
                    "value": "Fr\u00fchsommer-Meningoenzephalitis (FSME, Zecken-Impfung)"
                  }
                ]
              },
              {
                "extension": [
                  {
                    "url": "http://hl7.at/fhir/HL7ATCoreProfiles/4.0.1/StructureDefinition/at-core-ext-valueset-systemoid",
                    "valueOid": "urn:oid:2.16.840.1.113883.6.96"
                  }
                ],
                "system": "https://termgit.elga.gv.at/CodeSystem/snomed-ct-auszug",
                "version": "1.8.0+20241115",
                "code": "836380007",
                "display": "Haemophilus influenzae Typ B Impfstoff",
                "designation": [
                  {
                    "language": "de-AT",
                    "value": "Haemophilus-influenzae B"
                  }
                ]
              },
              {
                "extension": [
                  {
                    "url": "http://hl7.at/fhir/HL7ATCoreProfiles/4.0.1/StructureDefinition/at-core-ext-valueset-systemoid",
                    "valueOid": "urn:oid:2.16.840.1.113883.6.96"
                  }
                ],
                "system": "https://termgit.elga.gv.at/CodeSystem/snomed-ct-auszug",
                "version": "1.8.0+20241115",
                "code": "836374004",
                "display": "Hepatitis B Impfstoff",
                "designation": [
                  {
                    "language": "de-AT",
                    "value": "Hepatitis B"
                  }
                ]
              },
              {
                "extension": [
                  {
                    "url": "http://hl7.at/fhir/HL7ATCoreProfiles/4.0.1/StructureDefinition/at-core-ext-valueset-systemoid",
                    "valueOid": "urn:oid:2.16.840.1.113883.6.96"
                  }
                ],
                "system": "https://termgit.elga.gv.at/CodeSystem/snomed-ct-auszug",
                "version": "1.8.0+20241115",
                "code": "871919004",
                "display": "Herpes Zoster Impfstoff",
                "designation": [
                  {
                    "language": "de-AT",
                    "value": "Herpes Zoster (G\u00fcrtelrose)"
                  }
                ]
              },
              {
                "extension": [
                  {
                    "url": "http://hl7.at/fhir/HL7ATCoreProfiles/4.0.1/StructureDefinition/at-core-ext-valueset-systemoid",
                    "valueOid": "urn:oid:2.16.840.1.113883.6.96"
                  }
                ],
                "system": "https://termgit.elga.gv.at/CodeSystem/snomed-ct-auszug",
                "version": "1.8.0+20241115",
                "code": "836379009",
                "display": "Humane Papillomaviren Impfstoff",
                "designation": [
                  {
                    "language": "de-AT",
                    "value": "Humane Papillomaviren (HPV)"
                  }
                ]
              },
              {
                "extension": [
                  {
                    "url": "http://hl7.at/fhir/HL7ATCoreProfiles/4.0.1/StructureDefinition/at-core-ext-valueset-systemoid",
                    "valueOid": "urn:oid:2.16.840.1.113883.6.96"
                  }
                ],
                "system": "https://termgit.elga.gv.at/CodeSystem/snomed-ct-auszug",
                "version": "1.8.0+20241115",
                "code": "836377006",
                "display": "Influenza Impfstoff",
                "designation": [
                  {
                    "language": "de-AT",
                    "value": "Influenza ('echte Grippe')"
                  }
                ]
              },
              {
                "extension": [
                  {
                    "url": "http://hl7.at/fhir/HL7ATCoreProfiles/4.0.1/StructureDefinition/at-core-ext-valueset-systemoid",
                    "valueOid": "urn:oid:2.16.840.1.113883.6.96"
                  }
                ],
                "system": "https://termgit.elga.gv.at/CodeSystem/snomed-ct-auszug",
                "version": "1.8.0+20241115",
                "code": "836382004",
                "display": "Masern Impfstoff",
                "designation": [
                  {
                    "language": "de-AT",
                    "value": "Masern"
                  }
                ]
              },
              {
                "extension": [
                  {
                    "url": "http://hl7.at/fhir/HL7ATCoreProfiles/4.0.1/StructureDefinition/at-core-ext-valueset-systemoid",
                    "valueOid": "urn:oid:2.16.840.1.113883.6.96"
                  }
                ],
                "system": "https://termgit.elga.gv.at/CodeSystem/snomed-ct-auszug",
                "version": "1.8.0+20241115",
                "code": "836401009",
                "display": "Meningokokken Impfstoff",
                "designation": [
                  {
                    "language": "de-AT",
                    "value": "Meningokokken"
                  }
                ]
              },
              {
                "extension": [
                  {
                    "url": "http://hl7.at/fhir/HL7ATCoreProfiles/4.0.1/StructureDefinition/at-core-ext-valueset-systemoid",
                    "valueOid": "urn:oid:2.16.840.1.113883.6.96"
                  }
                ],
                "system": "https://termgit.elga.gv.at/CodeSystem/snomed-ct-auszug",
                "version": "1.8.0+20241115",
                "code": "1981000221108",
                "display": "Meningokokken Serotyp B Impfstoff",
                "designation": [
                  {
                    "language": "de-AT",
                    "value": "Meningokokken B"
                  }
                ]
              },
              {
                "extension": [
                  {
                    "url": "http://hl7.at/fhir/HL7ATCoreProfiles/4.0.1/StructureDefinition/at-core-ext-valueset-systemoid",
                    "valueOid": "urn:oid:2.16.840.1.113883.6.96"
                  }
                ],
                "system": "https://termgit.elga.gv.at/CodeSystem/snomed-ct-auszug",
                "version": "1.8.0+20241115",
                "code": "871866001",
                "display": "Meningokokken Serotyp C Impfstoff",
                "designation": [
                  {
                    "language": "de-AT",
                    "value": "Meningokokken C"
                  }
                ]
              },
              {
                "extension": [
                  {
                    "url": "http://hl7.at/fhir/HL7ATCoreProfiles/4.0.1/StructureDefinition/at-core-ext-valueset-systemoid",
                    "valueOid": "urn:oid:2.16.840.1.113883.6.96"
                  }
                ],
                "system": "https://termgit.elga.gv.at/CodeSystem/snomed-ct-auszug",
                "version": "1.8.0+20241115",
                "code": "871873006",
                "display": "Meningokokken Serotyp A+C+W135+Y Impfstoff",
                "designation": [
                  {
                    "language": "de-AT",
                    "value": "Meningokokken ACWY"
                  }
                ]
              },
              {
                "extension": [
                  {
                    "url": "http://hl7.at/fhir/HL7ATCoreProfiles/4.0.1/StructureDefinition/at-core-ext-valueset-systemoid",
                    "valueOid": "urn:oid:2.16.840.1.113883.6.96"
                  }
                ],
                "system": "https://termgit.elga.gv.at/CodeSystem/snomed-ct-auszug",
                "version": "1.8.0+20241115",
                "code": "871738001",
                "display": "Mumps Impfstoff",
                "designation": [
                  {
                    "language": "de-AT",
                    "value": "Mumps"
                  }
                ]
              },
              {
                "extension": [
                  {
                    "url": "http://hl7.at/fhir/HL7ATCoreProfiles/4.0.1/StructureDefinition/at-core-ext-valueset-systemoid",
                    "valueOid": "urn:oid:2.16.840.1.113883.6.96"
                  }
                ],
                "system": "https://termgit.elga.gv.at/CodeSystem/snomed-ct-auszug",
                "version": "1.8.0+20241115",
                "code": "601000221108",
                "display": "Pertussis Impfstoff",
                "designation": [
                  {
                    "language": "de-AT",
                    "value": "Pertussis (Keuchhusten)"
                  }
                ]
              },
              {
                "extension": [
                  {
                    "url": "http://hl7.at/fhir/HL7ATCoreProfiles/4.0.1/StructureDefinition/at-core-ext-valueset-systemoid",
                    "valueOid": "urn:oid:2.16.840.1.113883.6.96"
                  }
                ],
                "system": "https://termgit.elga.gv.at/CodeSystem/snomed-ct-auszug",
                "version": "1.8.0+20241115",
                "code": "836398006",
                "display": "Pneumokokken Impfstoff",
                "designation": [
                  {
                    "language": "de-AT",
                    "value": "Pneumokokken"
                  }
                ]
              },
              {
                "extension": [
                  {
                    "url": "http://hl7.at/fhir/HL7ATCoreProfiles/4.0.1/StructureDefinition/at-core-ext-valueset-systemoid",
                    "valueOid": "urn:oid:2.16.840.1.113883.6.96"
                  }
                ],
                "system": "https://termgit.elga.gv.at/CodeSystem/snomed-ct-auszug",
                "version": "1.8.0+20241115",
                "code": "1031000221108",
                "display": "Poliomyelitis Impfstoff",
                "designation": [
                  {
                    "language": "de-AT",
                    "value": "Poliomyelitis (Kinderl\u00e4hmung)"
                  }
                ]
              },
              {
                "extension": [
                  {
                    "url": "http://hl7.at/fhir/HL7ATCoreProfiles/4.0.1/StructureDefinition/at-core-ext-valueset-systemoid",
                    "valueOid": "urn:oid:2.16.840.1.113883.6.96"
                  }
                ],
                "system": "https://termgit.elga.gv.at/CodeSystem/snomed-ct-auszug",
                "version": "1.8.0+20241115",
                "code": "836387005",
                "display": "Rotavirus Impfstoff",
                "designation": [
                  {
                    "language": "de-AT",
                    "value": "Rotavirus"
                  }
                ]
              },
              {
                "extension": [
                  {
                    "url": "http://hl7.at/fhir/HL7ATCoreProfiles/4.0.1/StructureDefinition/at-core-ext-valueset-systemoid",
                    "valueOid": "urn:oid:2.16.840.1.113883.6.96"
                  }
                ],
                "system": "https://termgit.elga.gv.at/CodeSystem/snomed-ct-auszug",
                "version": "1.8.0+20241115",
                "code": "836388000",
                "display": "R\u00f6teln Impfstoff",
                "designation": [
                  {
                    "language": "de-AT",
                    "value": "R\u00f6teln"
                  }
                ]
              },
              {
                "extension": [
                  {
                    "url": "http://hl7.at/fhir/HL7ATCoreProfiles/4.0.1/StructureDefinition/at-core-ext-valueset-systemoid",
                    "valueOid": "urn:oid:2.16.840.1.113883.6.96"
                  }
                ],
                "system": "https://termgit.elga.gv.at/CodeSystem/snomed-ct-auszug",
                "version": "1.8.0+20241115",
                "code": "1101000221104",
                "display": "Tetanus Impfstoff",
                "designation": [
                  {
                    "language": "de-AT",
                    "value": "Tetanus (Wundstarrkrampf)"
                  }
                ]
              },
              {
                "extension": [
                  {
                    "url": "http://hl7.at/fhir/HL7ATCoreProfiles/4.0.1/StructureDefinition/at-core-ext-valueset-systemoid",
                    "valueOid": "urn:oid:2.16.840.1.113883.6.96"
                  }
                ],
                "system": "https://termgit.elga.gv.at/CodeSystem/snomed-ct-auszug",
                "version": "1.8.0+20241115",
                "code": "836495005",
                "display": "Varizellen Impfstoff",
                "designation": [
                  {
                    "language": "de-AT",
                    "value": "Varizellen (Windpocken, Feuchtblattern)"
                  }
                ]
              },
              {
                "extension": [
                  {
                    "url": "http://hl7.at/fhir/HL7ATCoreProfiles/4.0.1/StructureDefinition/at-core-ext-valueset-systemoid",
                    "valueOid": "urn:oid:2.16.840.1.113883.6.96"
                  }
                ],
                "system": "https://termgit.elga.gv.at/CodeSystem/snomed-ct-auszug",
                "version": "1.8.0+20241115",
                "code": "840534001",
                "display": "COVID-19 Impfstoff",
                "designation": [
                  {
                    "language": "de-AT",
                    "value": "COVID-19"
                  }
                ]
              },
              {
                "extension": [
                  {
                    "url": "http://hl7.at/fhir/HL7ATCoreProfiles/4.0.1/StructureDefinition/at-core-ext-valueset-systemoid",
                    "valueOid": "urn:oid:2.16.840.1.113883.6.96"
                  }
                ],
                "system": "https://termgit.elga.gv.at/CodeSystem/snomed-ct-auszug",
                "version": "1.8.0+20241115",
                "code": "108723008",
                "display": "Respiratorisches Synzytial-Virus Impfstoff",
                "designation": [
                  {
                    "language": "de-AT",
                    "value": "Respiratorisches Synzytial-Virus (RSV)"
                  }
                ]
              }
            ]
          },
          {
            "extension": [
              {
                "url": "http://hl7.at/fhir/HL7ATCoreProfiles/4.0.1/StructureDefinition/at-core-ext-valueset-systemoid",
                "valueOid": "urn:oid:1.2.40.0.34.5.183"
              }
            ],
            "system": "https://termgit.elga.gv.at/CodeSystem/eimpf-ergaenzung",
            "abstract": true,
            "version": "2.26.0+20250225",
            "code": "_Reise",
            "display": "Reise-/Indikationsimpfungen",
            "contains": [
              {
                "extension": [
                  {
                    "url": "http://hl7.at/fhir/HL7ATCoreProfiles/4.0.1/StructureDefinition/at-core-ext-valueset-systemoid",
                    "valueOid": "urn:oid:2.16.840.1.113883.6.96"
                  }
                ],
                "system": "https://termgit.elga.gv.at/CodeSystem/snomed-ct-auszug",
                "version": "1.8.0+20241115",
                "code": "1345042009",
                "display": "Chikungunya Impfstoff",
                "designation": [
                  {
                    "language": "de-AT",
                    "value": "Chikungunya"
                  }
                ]
              },
              {
                "extension": [
                  {
                    "url": "http://hl7.at/fhir/HL7ATCoreProfiles/4.0.1/StructureDefinition/at-core-ext-valueset-systemoid",
                    "valueOid": "urn:oid:2.16.840.1.113883.6.96"
                  }
                ],
                "system": "https://termgit.elga.gv.at/CodeSystem/snomed-ct-auszug",
                "version": "1.8.0+20241115",
                "code": "836383009",
                "display": "Cholera Impfstoff",
                "designation": [
                  {
                    "language": "de-AT",
                    "value": "Cholera"
                  }
                ]
              },
              {
                "extension": [
                  {
                    "url": "http://hl7.at/fhir/HL7ATCoreProfiles/4.0.1/StructureDefinition/at-core-ext-valueset-systemoid",
                    "valueOid": "urn:oid:2.16.840.1.113883.6.96"
                  }
                ],
                "system": "https://termgit.elga.gv.at/CodeSystem/snomed-ct-auszug",
                "version": "1.8.0+20241115",
                "code": "840563003",
                "display": "Dengue-Fieber Impfstoff",
                "designation": [
                  {
                    "language": "de-AT",
                    "value": "Dengue-Fieber"
                  }
                ]
              },
              {
                "extension": [
                  {
                    "url": "http://hl7.at/fhir/HL7ATCoreProfiles/4.0.1/StructureDefinition/at-core-ext-valueset-systemoid",
                    "valueOid": "urn:oid:2.16.840.1.113883.6.96"
                  }
                ],
                "system": "https://termgit.elga.gv.at/CodeSystem/snomed-ct-auszug",
                "version": "1.8.0+20241115",
                "code": "836385002",
                "display": "Gelbfieber Impfstoff",
                "designation": [
                  {
                    "language": "de-AT",
                    "value": "Gelbfieber"
                  }
                ]
              },
              {
                "extension": [
                  {
                    "url": "http://hl7.at/fhir/HL7ATCoreProfiles/4.0.1/StructureDefinition/at-core-ext-valueset-systemoid",
                    "valueOid": "urn:oid:2.16.840.1.113883.6.96"
                  }
                ],
                "system": "https://termgit.elga.gv.at/CodeSystem/snomed-ct-auszug",
                "version": "1.8.0+20241115",
                "code": "836375003",
                "display": "Hepatitis A Impfstoff",
                "designation": [
                  {
                    "language": "de-AT",
                    "value": "Hepatitis A"
                  }
                ]
              },
              {
                "extension": [
                  {
                    "url": "http://hl7.at/fhir/HL7ATCoreProfiles/4.0.1/StructureDefinition/at-core-ext-valueset-systemoid",
                    "valueOid": "urn:oid:2.16.840.1.113883.6.96"
                  }
                ],
                "system": "https://termgit.elga.gv.at/CodeSystem/snomed-ct-auszug",
                "version": "1.8.0+20241115",
                "code": "30041000234101",
                "display": "Influenza (H5N8) Impfstoff",
                "designation": [
                  {
                    "language": "de-AT",
                    "value": "Zoonotische Influenza (H5N8)"
                  }
                ]
              },
              {
                "extension": [
                  {
                    "url": "http://hl7.at/fhir/HL7ATCoreProfiles/4.0.1/StructureDefinition/at-core-ext-valueset-systemoid",
                    "valueOid": "urn:oid:2.16.840.1.113883.6.96"
                  }
                ],
                "system": "https://termgit.elga.gv.at/CodeSystem/snomed-ct-auszug",
                "version": "1.8.0+20241115",
                "code": "836378001",
                "display": "Japanische Enzephalitis Impfstoff",
                "designation": [
                  {
                    "language": "de-AT",
                    "value": "Japanische Enzephalitis"
                  }
                ]
              },
              {
                "extension": [
                  {
                    "url": "http://hl7.at/fhir/HL7ATCoreProfiles/4.0.1/StructureDefinition/at-core-ext-valueset-systemoid",
                    "valueOid": "urn:oid:2.16.840.1.113883.6.96"
                  }
                ],
                "system": "https://termgit.elga.gv.at/CodeSystem/snomed-ct-auszug",
                "version": "1.8.0+20241115",
                "code": "871871008",
                "display": "Meningokokken Serotyp A+C Impfstoff",
                "designation": [
                  {
                    "language": "de-AT",
                    "value": "Meningokokken AC"
                  }
                ]
              },
              {
                "extension": [
                  {
                    "url": "http://hl7.at/fhir/HL7ATCoreProfiles/4.0.1/StructureDefinition/at-core-ext-valueset-systemoid",
                    "valueOid": "urn:oid:2.16.840.1.113883.6.96"
                  }
                ],
                "system": "https://termgit.elga.gv.at/CodeSystem/snomed-ct-auszug",
                "version": "1.8.0+20241115",
                "code": "836389008",
                "display": "Mpox/Pocken Impfstoff",
                "designation": [
                  {
                    "language": "de-AT",
                    "value": "Mpox/Pocken"
                  }
                ]
              },
              {
                "extension": [
                  {
                    "url": "http://hl7.at/fhir/HL7ATCoreProfiles/4.0.1/StructureDefinition/at-core-ext-valueset-systemoid",
                    "valueOid": "urn:oid:2.16.840.1.113883.6.96"
                  }
                ],
                "system": "https://termgit.elga.gv.at/CodeSystem/snomed-ct-auszug",
                "version": "1.8.0+20241115",
                "code": "836393002",
                "display": "Tollwut Impfstoff",
                "designation": [
                  {
                    "language": "de-AT",
                    "value": "Tollwut"
                  }
                ]
              },
              {
                "extension": [
                  {
                    "url": "http://hl7.at/fhir/HL7ATCoreProfiles/4.0.1/StructureDefinition/at-core-ext-valueset-systemoid",
                    "valueOid": "urn:oid:2.16.840.1.113883.6.96"
                  }
                ],
                "system": "https://termgit.elga.gv.at/CodeSystem/snomed-ct-auszug",
                "version": "1.8.0+20241115",
                "code": "836390004",
                "display": "Typhus Impfstoff",
                "designation": [
                  {
                    "language": "de-AT",
                    "value": "Typhus "
                  }
                ]
              },
              {
                "extension": [
                  {
                    "url": "http://hl7.at/fhir/HL7ATCoreProfiles/4.0.1/StructureDefinition/at-core-ext-valueset-systemoid",
                    "valueOid": "urn:oid:2.16.840.1.113883.6.96"
                  }
                ],
                "system": "https://termgit.elga.gv.at/CodeSystem/snomed-ct-auszug",
                "version": "1.8.0+20241115",
                "code": "836402002",
                "display": "Tuberkulose Impfstoff",
                "designation": [
                  {
                    "language": "de-AT",
                    "value": "Tuberkulose"
                  }
                ]
              }
            ]
          },
          {
            "extension": [
              {
                "url": "http://hl7.at/fhir/HL7ATCoreProfiles/4.0.1/StructureDefinition/at-core-ext-valueset-systemoid",
                "valueOid": "urn:oid:1.2.40.0.34.5.183"
              }
            ],
            "system": "https://termgit.elga.gv.at/CodeSystem/eimpf-ergaenzung",
            "abstract": true,
            "version": "2.26.0+20250225",
            "code": "_Weitere",
            "display": "Weitere Impfungen",
            "contains": [
              {
                "extension": [
                  {
                    "url": "http://hl7.at/fhir/HL7ATCoreProfiles/4.0.1/StructureDefinition/at-core-ext-valueset-systemoid",
                    "valueOid": "urn:oid:2.16.840.1.113883.6.96"
                  }
                ],
                "system": "https://termgit.elga.gv.at/CodeSystem/snomed-ct-auszug",
                "version": "1.8.0+20241115",
                "code": "871772009",
                "display": "Influenza (H1N1) Impfstoff",
                "designation": [
                  {
                    "language": "de-AT",
                    "value": "H1N1 Grippeviren (Influenza)"
                  }
                ]
              },
              {
                "extension": [
                  {
                    "url": "http://hl7.at/fhir/HL7ATCoreProfiles/4.0.1/StructureDefinition/at-core-ext-valueset-systemoid",
                    "valueOid": "urn:oid:2.16.840.1.113883.6.96"
                  }
                ],
                "system": "https://termgit.elga.gv.at/CodeSystem/snomed-ct-auszug",
                "version": "1.8.0+20241115",
                "code": "427036009",
                "display": "Influenza (H5N1) Impfstoff",
                "designation": [
                  {
                    "language": "de-AT",
                    "value": "H5N1 Grippeviren (Influenza)"
                  }
                ]
              },
              {
                "extension": [
                  {
                    "url": "http://hl7.at/fhir/HL7ATCoreProfiles/4.0.1/StructureDefinition/at-core-ext-valueset-systemoid",
                    "valueOid": "urn:oid:2.16.840.1.113883.6.96"
                  }
                ],
                "system": "https://termgit.elga.gv.at/CodeSystem/snomed-ct-auszug",
                "version": "1.8.0+20241115",
                "code": "840564009",
                "display": "Leptospirose Impfstoff",
                "designation": [
                  {
                    "language": "de-AT",
                    "value": "Leptospirose"
                  },
                  {
                    "use": {
                      "system": "https://termgit.elga.gv.at/CodeSystem/austrian-designation-use",
                      "code": "hinweise",
                      "display": "hinweise"
                    },
                    "value": "f\u00fcr historische Impfstoffe"
                  }
                ]
              },
              {
                "extension": [
                  {
                    "url": "http://hl7.at/fhir/HL7ATCoreProfiles/4.0.1/StructureDefinition/at-core-ext-valueset-systemoid",
                    "valueOid": "urn:oid:2.16.840.1.113883.6.96"
                  }
                ],
                "system": "https://termgit.elga.gv.at/CodeSystem/snomed-ct-auszug",
                "version": "1.8.0+20241115",
                "code": "836421005",
                "display": "Ebola Impfstoff",
                "designation": [
                  {
                    "language": "de-AT",
                    "value": "Ebola"
                  }
                ]
              }
            ]
          }
        ]
      },
      {
        "extension": [
          {
            "url": "http://hl7.at/fhir/HL7ATCoreProfiles/4.0.1/StructureDefinition/at-core-ext-valueset-systemoid",
            "valueOid": "urn:oid:1.2.40.0.34.5.183"
          }
        ],
        "system": "https://termgit.elga.gv.at/CodeSystem/eimpf-ergaenzung",
        "abstract": true,
        "version": "2.26.0+20250225",
        "code": "_Kombinationen",
        "display": "Kombinationsimpfungen",
        "contains": [
          {
            "extension": [
              {
                "url": "http://hl7.at/fhir/HL7ATCoreProfiles/4.0.1/StructureDefinition/at-core-ext-valueset-systemoid",
                "valueOid": "urn:oid:2.16.840.1.113883.6.96"
              }
            ],
            "system": "https://termgit.elga.gv.at/CodeSystem/snomed-ct-auszug",
            "version": "1.8.0+20241115",
            "code": "871896006",
            "display": "Diphtherie-Haemophilus-influenzae B-Pertussis-Poliomyelitis-Tetanus-Hepatitis B Impfstoffkombination",
            "designation": [
              {
                "language": "de-AT",
                "value": "Diphtherie-Haemophilus-influenzae B-Pertussis-Poliomyelitis-Tetanus-Hepatitis B"
              },
              {
                "use": {
                  "system": "https://termgit.elga.gv.at/CodeSystem/austrian-designation-use",
                  "code": "relationships",
                  "display": "relationships"
                },
                "value": "2.16.840.1.113883.6.96:836381006~2.16.840.1.113883.6.96:836380007~2.16.840.1.113883.6.96:601000221108~2.16.840.1.113883.6.96:1031000221108~2.16.840.1.113883.6.96:1101000221104~2.16.840.1.113883.6.96:836374004"
              }
            ]
          },
          {
            "extension": [
              {
                "url": "http://hl7.at/fhir/HL7ATCoreProfiles/4.0.1/StructureDefinition/at-core-ext-valueset-systemoid",
                "valueOid": "urn:oid:2.16.840.1.113883.6.96"
              }
            ],
            "system": "https://termgit.elga.gv.at/CodeSystem/snomed-ct-auszug",
            "version": "1.8.0+20241115",
            "code": "871917002",
            "display": "Diphtheria-Tetanus-Pertussis-Hepatitis B Impfstoffkombination",
            "designation": [
              {
                "language": "de-AT",
                "value": "Diphtheria-Tetanus-Pertussis-Hepatitis B"
              },
              {
                "use": {
                  "system": "https://termgit.elga.gv.at/CodeSystem/austrian-designation-use",
                  "code": "relationships",
                  "display": "relationships"
                },
                "value": "2.16.840.1.113883.6.96:836381006~2.16.840.1.113883.6.96:1101000221104~2.16.840.1.113883.6.96:601000221108~2.16.840.1.113883.6.96:836374004"
              }
            ]
          },
          {
            "extension": [
              {
                "url": "http://hl7.at/fhir/HL7ATCoreProfiles/4.0.1/StructureDefinition/at-core-ext-valueset-systemoid",
                "valueOid": "urn:oid:2.16.840.1.113883.6.96"
              }
            ],
            "system": "https://termgit.elga.gv.at/CodeSystem/snomed-ct-auszug",
            "version": "1.8.0+20241115",
            "code": "871889009",
            "display": "Diphtherie-Pertussis-Hepatitis B-Polio Impfstoffkombination",
            "designation": [
              {
                "language": "de-AT",
                "value": "Diphtherie-Pertussis-Hepatitis B-Polio"
              },
              {
                "use": {
                  "system": "https://termgit.elga.gv.at/CodeSystem/austrian-designation-use",
                  "code": "relationships",
                  "display": "relationships"
                },
                "value": "2.16.840.1.113883.6.96:836381006~2.16.840.1.113883.6.96:601000221108~2.16.840.1.113883.6.96:836374004~2.16.840.1.113883.6.96:1031000221108"
              }
            ]
          },
          {
            "extension": [
              {
                "url": "http://hl7.at/fhir/HL7ATCoreProfiles/4.0.1/StructureDefinition/at-core-ext-valueset-systemoid",
                "valueOid": "urn:oid:2.16.840.1.113883.6.96"
              }
            ],
            "system": "https://termgit.elga.gv.at/CodeSystem/snomed-ct-auszug",
            "version": "1.8.0+20241115",
            "code": "836508001",
            "display": "Diphtherie-Pertussis-Poliomyelitis-Tetanus Impfstoffkombination",
            "designation": [
              {
                "language": "de-AT",
                "value": "Diphtherie-Pertussis-Poliomyelitis-Tetanus"
              },
              {
                "use": {
                  "system": "https://termgit.elga.gv.at/CodeSystem/austrian-designation-use",
                  "code": "relationships",
                  "display": "relationships"
                },
                "value": "2.16.840.1.113883.6.96:836381006~2.16.840.1.113883.6.96:601000221108~2.16.840.1.113883.6.96:1031000221108~2.16.840.1.113883.6.96:1101000221104"
              }
            ]
          },
          {
            "extension": [
              {
                "url": "http://hl7.at/fhir/HL7ATCoreProfiles/4.0.1/StructureDefinition/at-core-ext-valueset-systemoid",
                "valueOid": "urn:oid:2.16.840.1.113883.6.96"
              }
            ],
            "system": "https://termgit.elga.gv.at/CodeSystem/snomed-ct-auszug",
            "version": "1.8.0+20241115",
            "code": "836503005",
            "display": "Diphtherie-Pertussis-Tetanus Impfstoffkombination",
            "designation": [
              {
                "language": "de-AT",
                "value": "Diphtherie-Pertussis-Tetanus"
              },
              {
                "use": {
                  "system": "https://termgit.elga.gv.at/CodeSystem/austrian-designation-use",
                  "code": "relationships",
                  "display": "relationships"
                },
                "value": "2.16.840.1.113883.6.96:836381006~2.16.840.1.113883.6.96:601000221108~2.16.840.1.113883.6.96:1101000221104"
              }
            ]
          },
          {
            "extension": [
              {
                "url": "http://hl7.at/fhir/HL7ATCoreProfiles/4.0.1/StructureDefinition/at-core-ext-valueset-systemoid",
                "valueOid": "urn:oid:2.16.840.1.113883.6.96"
              }
            ],
            "system": "https://termgit.elga.gv.at/CodeSystem/snomed-ct-auszug",
            "version": "1.8.0+20241115",
            "code": "836507006",
            "display": "Diphtherie-Pertussis-Tetanus-Haemophilus-influenzae B Impfstoffkombination",
            "designation": [
              {
                "language": "de-AT",
                "value": "Diphtherie-Pertussis-Tetanus-Haemophilus-influenzae B"
              },
              {
                "use": {
                  "system": "https://termgit.elga.gv.at/CodeSystem/austrian-designation-use",
                  "code": "relationships",
                  "display": "relationships"
                },
                "value": "2.16.840.1.113883.6.96:836381006~2.16.840.1.113883.6.96:601000221108~2.16.840.1.113883.6.96:1101000221104~2.16.840.1.113883.6.96:836380007"
              }
            ]
          },
          {
            "extension": [
              {
                "url": "http://hl7.at/fhir/HL7ATCoreProfiles/4.0.1/StructureDefinition/at-core-ext-valueset-systemoid",
                "valueOid": "urn:oid:2.16.840.1.113883.6.96"
              }
            ],
            "system": "https://termgit.elga.gv.at/CodeSystem/snomed-ct-auszug",
            "version": "1.8.0+20241115",
            "code": "871928003",
            "display": "Diphtherie-Pertussis-Tetanus-Polio-Masern Impfstoffkombination",
            "designation": [
              {
                "language": "de-AT",
                "value": "Diphtherie-Pertussis-Tetanus-Polio-Masern"
              },
              {
                "use": {
                  "system": "https://termgit.elga.gv.at/CodeSystem/austrian-designation-use",
                  "code": "relationships",
                  "display": "relationships"
                },
                "value": "2.16.840.1.113883.6.96:836381006~2.16.840.1.113883.6.96:601000221108~2.16.840.1.113883.6.96:1101000221104~2.16.840.1.113883.6.96:1031000221108~2.16.840.1.113883.6.96:836382004"
              }
            ]
          },
          {
            "extension": [
              {
                "url": "http://hl7.at/fhir/HL7ATCoreProfiles/4.0.1/StructureDefinition/at-core-ext-valueset-systemoid",
                "valueOid": "urn:oid:2.16.840.1.113883.6.96"
              }
            ],
            "system": "https://termgit.elga.gv.at/CodeSystem/snomed-ct-auszug",
            "version": "1.8.0+20241115",
            "code": "838279002",
            "display": "Diphtherie-Pertussis-Tetanus-Poliomyelitis-Haemophilus-influenzae B Impfstoffkombination",
            "designation": [
              {
                "language": "de-AT",
                "value": "Diphtherie-Pertussis-Tetanus-Poliomyelitis-Haemophilus-influenzae B"
              },
              {
                "use": {
                  "system": "https://termgit.elga.gv.at/CodeSystem/austrian-designation-use",
                  "code": "relationships",
                  "display": "relationships"
                },
                "value": "2.16.840.1.113883.6.96:836381006~2.16.840.1.113883.6.96:601000221108~2.16.840.1.113883.6.96:1101000221104~2.16.840.1.113883.6.96:1031000221108~2.16.840.1.113883.6.96:836380007"
              }
            ]
          },
          {
            "extension": [
              {
                "url": "http://hl7.at/fhir/HL7ATCoreProfiles/4.0.1/StructureDefinition/at-core-ext-valueset-systemoid",
                "valueOid": "urn:oid:2.16.840.1.113883.6.96"
              }
            ],
            "system": "https://termgit.elga.gv.at/CodeSystem/snomed-ct-auszug",
            "version": "1.8.0+20241115",
            "code": "871892008",
            "display": "Diphtherie-Pertussis-Tetanus-Poliomyelitis-Hepatitis B Impfstoffkombination",
            "designation": [
              {
                "language": "de-AT",
                "value": "Diphtherie-Pertussis-Tetanus-Poliomyelitis-Hepatitis B"
              },
              {
                "use": {
                  "system": "https://termgit.elga.gv.at/CodeSystem/austrian-designation-use",
                  "code": "relationships",
                  "display": "relationships"
                },
                "value": "2.16.840.1.113883.6.96:836381006~2.16.840.1.113883.6.96:601000221108~2.16.840.1.113883.6.96:1101000221104~2.16.840.1.113883.6.96:1031000221108~2.16.840.1.113883.6.96:836374004"
              }
            ]
          },
          {
            "extension": [
              {
                "url": "http://hl7.at/fhir/HL7ATCoreProfiles/4.0.1/StructureDefinition/at-core-ext-valueset-systemoid",
                "valueOid": "urn:oid:2.16.840.1.113883.6.96"
              }
            ],
            "system": "https://termgit.elga.gv.at/CodeSystem/snomed-ct-auszug",
            "version": "1.8.0+20241115",
            "code": "836505003",
            "display": "Diphtherie-Poliomyelitis-Tetanus Impfstoffkombination",
            "designation": [
              {
                "language": "de-AT",
                "value": "Diphtherie-Poliomyelitis-Tetanus"
              },
              {
                "use": {
                  "system": "https://termgit.elga.gv.at/CodeSystem/austrian-designation-use",
                  "code": "relationships",
                  "display": "relationships"
                },
                "value": "2.16.840.1.113883.6.96:836381006~2.16.840.1.113883.6.96:1031000221108~2.16.840.1.113883.6.96:1101000221104"
              }
            ]
          },
          {
            "extension": [
              {
                "url": "http://hl7.at/fhir/HL7ATCoreProfiles/4.0.1/StructureDefinition/at-core-ext-valueset-systemoid",
                "valueOid": "urn:oid:2.16.840.1.113883.6.96"
              }
            ],
            "system": "https://termgit.elga.gv.at/CodeSystem/snomed-ct-auszug",
            "version": "1.8.0+20241115",
            "code": "836502000",
            "display": "Diphtherie-Tetanus Impfstoffkombination",
            "designation": [
              {
                "language": "de-AT",
                "value": "Diphtherie-Tetanus"
              },
              {
                "use": {
                  "system": "https://termgit.elga.gv.at/CodeSystem/austrian-designation-use",
                  "code": "relationships",
                  "display": "relationships"
                },
                "value": "2.16.840.1.113883.6.96:836381006~2.16.840.1.113883.6.96:1101000221104"
              }
            ]
          },
          {
            "extension": [
              {
                "url": "http://hl7.at/fhir/HL7ATCoreProfiles/4.0.1/StructureDefinition/at-core-ext-valueset-systemoid",
                "valueOid": "urn:oid:2.16.840.1.113883.6.96"
              }
            ],
            "system": "https://termgit.elga.gv.at/CodeSystem/snomed-ct-auszug",
            "version": "1.8.0+20241115",
            "code": "871929006",
            "display": "Diphtherie-Tetanus-Hepatitis B Impfstoffkombination",
            "designation": [
              {
                "language": "de-AT",
                "value": "Diphtherie-Tetanus-Hepatitis B"
              },
              {
                "use": {
                  "system": "https://termgit.elga.gv.at/CodeSystem/austrian-designation-use",
                  "code": "relationships",
                  "display": "relationships"
                },
                "value": "2.16.840.1.113883.6.96:836381006~2.16.840.1.113883.6.96:1101000221104~2.16.840.1.113883.6.96:836374004"
              }
            ]
          },
          {
            "extension": [
              {
                "url": "http://hl7.at/fhir/HL7ATCoreProfiles/4.0.1/StructureDefinition/at-core-ext-valueset-systemoid",
                "valueOid": "urn:oid:2.16.840.1.113883.6.96"
              }
            ],
            "system": "https://termgit.elga.gv.at/CodeSystem/snomed-ct-auszug",
            "version": "1.8.0+20241115",
            "code": "836504004",
            "display": "Haemophilus influenzae Type B-Tetanus Impfstoffkombination",
            "designation": [
              {
                "language": "de-AT",
                "value": "Haemophilus influenzae Type B-Tetanus"
              },
              {
                "use": {
                  "system": "https://termgit.elga.gv.at/CodeSystem/austrian-designation-use",
                  "code": "relationships",
                  "display": "relationships"
                },
                "value": "2.16.840.1.113883.6.96:836380007~2.16.840.1.113883.6.96:1101000221104"
              }
            ]
          },
          {
            "extension": [
              {
                "url": "http://hl7.at/fhir/HL7ATCoreProfiles/4.0.1/StructureDefinition/at-core-ext-valueset-systemoid",
                "valueOid": "urn:oid:2.16.840.1.113883.6.96"
              }
            ],
            "system": "https://termgit.elga.gv.at/CodeSystem/snomed-ct-auszug",
            "version": "1.8.0+20241115",
            "code": "836493003",
            "display": "Hepatitis A-Hepatitis B Impfstoffkombination",
            "designation": [
              {
                "language": "de-AT",
                "value": "Hepatitis A-Hepatitis B"
              },
              {
                "use": {
                  "system": "https://termgit.elga.gv.at/CodeSystem/austrian-designation-use",
                  "code": "relationships",
                  "display": "relationships"
                },
                "value": "2.16.840.1.113883.6.96:836375003~2.16.840.1.113883.6.96:836374004"
              }
            ]
          },
          {
            "extension": [
              {
                "url": "http://hl7.at/fhir/HL7ATCoreProfiles/4.0.1/StructureDefinition/at-core-ext-valueset-systemoid",
                "valueOid": "urn:oid:2.16.840.1.113883.6.96"
              }
            ],
            "system": "https://termgit.elga.gv.at/CodeSystem/snomed-ct-auszug",
            "version": "1.8.0+20241115",
            "code": "865946000",
            "display": "Hepatitis B-Haemophilus-influenzae B Impfstoffkombination",
            "designation": [
              {
                "language": "de-AT",
                "value": "Hepatitis B-Haemophilus-influenzae B"
              },
              {
                "use": {
                  "system": "https://termgit.elga.gv.at/CodeSystem/austrian-designation-use",
                  "code": "relationships",
                  "display": "relationships"
                },
                "value": "2.16.840.1.113883.6.96:836374004~2.16.840.1.113883.6.96:836380007"
              }
            ]
          },
          {
            "extension": [
              {
                "url": "http://hl7.at/fhir/HL7ATCoreProfiles/4.0.1/StructureDefinition/at-core-ext-valueset-systemoid",
                "valueOid": "urn:oid:2.16.840.1.113883.6.96"
              }
            ],
            "system": "https://termgit.elga.gv.at/CodeSystem/snomed-ct-auszug",
            "version": "1.8.0+20241115",
            "code": "836499004",
            "display": "Masern-Mumps Impfstoffkombination",
            "designation": [
              {
                "language": "de-AT",
                "value": "Masern-Mumps"
              },
              {
                "use": {
                  "system": "https://termgit.elga.gv.at/CodeSystem/austrian-designation-use",
                  "code": "relationships",
                  "display": "relationships"
                },
                "value": "2.16.840.1.113883.6.96:836382004~2.16.840.1.113883.6.96:871738001"
              }
            ]
          },
          {
            "extension": [
              {
                "url": "http://hl7.at/fhir/HL7ATCoreProfiles/4.0.1/StructureDefinition/at-core-ext-valueset-systemoid",
                "valueOid": "urn:oid:2.16.840.1.113883.6.96"
              }
            ],
            "system": "https://termgit.elga.gv.at/CodeSystem/snomed-ct-auszug",
            "version": "1.8.0+20241115",
            "code": "836494009",
            "display": "Masern-Mumps-R\u00f6teln Impfstoffkombination",
            "designation": [
              {
                "language": "de-AT",
                "value": "Masern-Mumps-R\u00f6teln"
              },
              {
                "use": {
                  "system": "https://termgit.elga.gv.at/CodeSystem/austrian-designation-use",
                  "code": "relationships",
                  "display": "relationships"
                },
                "value": "2.16.840.1.113883.6.96:836382004~2.16.840.1.113883.6.96:871738001~2.16.840.1.113883.6.96:836388000"
              }
            ]
          },
          {
            "extension": [
              {
                "url": "http://hl7.at/fhir/HL7ATCoreProfiles/4.0.1/StructureDefinition/at-core-ext-valueset-systemoid",
                "valueOid": "urn:oid:2.16.840.1.113883.6.96"
              }
            ],
            "system": "https://termgit.elga.gv.at/CodeSystem/snomed-ct-auszug",
            "version": "1.8.0+20241115",
            "code": "838280004",
            "display": "Masern-Mumps-R\u00f6teln-Varizellen Impfstoffkombination",
            "designation": [
              {
                "language": "de-AT",
                "value": "Masern-Mumps-R\u00f6teln-Varizellen"
              },
              {
                "use": {
                  "system": "https://termgit.elga.gv.at/CodeSystem/austrian-designation-use",
                  "code": "relationships",
                  "display": "relationships"
                },
                "value": "2.16.840.1.113883.6.96:836382004~2.16.840.1.113883.6.96:871738001~2.16.840.1.113883.6.96:836388000~2.16.840.1.113883.6.96:836495005"
              }
            ]
          },
          {
            "extension": [
              {
                "url": "http://hl7.at/fhir/HL7ATCoreProfiles/4.0.1/StructureDefinition/at-core-ext-valueset-systemoid",
                "valueOid": "urn:oid:2.16.840.1.113883.6.96"
              }
            ],
            "system": "https://termgit.elga.gv.at/CodeSystem/snomed-ct-auszug",
            "version": "1.8.0+20241115",
            "code": "836501007",
            "display": "Typhus-Hepatitis A Impfstoffkombination",
            "designation": [
              {
                "language": "de-AT",
                "value": "Typhus-Hepatitis A"
              },
              {
                "use": {
                  "system": "https://termgit.elga.gv.at/CodeSystem/austrian-designation-use",
                  "code": "relationships",
                  "display": "relationships"
                },
                "value": "2.16.840.1.113883.6.96:836390004~2.16.840.1.113883.6.96:836375003"
              }
            ]
          }
        ]
      }
    ]
  }
}