'code';'codeSystem';'displayName';'parentCode';'concept_Beschreibung';'meaning';'hints';'level';'type';'relationships'
'D';'1.2.40.0.34.5.224';'Divers';;;;;'0';'L';
'I';'1.2.40.0.34.5.224';'Inter';;;;;'0';'L';
'O';'1.2.40.0.34.5.224';'Offen';;;;;'0';'L';
