"resource";"id";"url";"version";"name";"title";"status";"description";"content";"identifier";"date";"publisher";"contact";"count";"property";"property"
"CodeSystem";"elga-auditparticipantobjecttyperole";"https://termgit.elga.gv.at/CodeSystem/elga-auditparticipantobjecttyperole";"1.1.0+20240820";"elga-auditparticipantobjecttyperole";"ELGA_AuditParticipantObjectTypeRole";"active";"Liste der ELGA spezifischen Audit Participant Object Type Code Roles. Die Audit Participant Object Type Role definiert die Verwendung eines Objekts, welches im Audit Event referenziert ist.";"complete";"1.2.40.0.34.5.154";"2024-08-20";"ELGA GmbH";"https://www.elga.gv.at|url^https://www.elga.gv.at^^^^";"15";"child|||code";"parent|||code"

"code";"display";"property";"property";"property";"property";"property";"property"
"100";"Policy";"child|101|code";"child|102|code"
"101";"Generelle Policy";"parent|100|code";""
"102";"Patientenzustimmung";"parent|100|code";""
"110";"Kontaktbestätigung";"child|111|code";"child|112|code";"child|113|code"
"111";"Bürgerkarte";"parent|110|code";"";""
"112";"e-card";"parent|110|code";"";""
"113";"Delegierter Kontakt";"parent|110|code";"";""
"120";"Security Token";"child|121|code";"child|122|code";"child|123|code";"child|124|code";"child|125|code";"child|126|code"
"121";"HCP Assertion";"parent|120|code";"";"";"";"";""
"122";"User 1 Assertion";"parent|120|code";"";"";"";"";""
"123";"Mandate 1 Assertion";"parent|120|code";"";"";"";"";""
"124";"Treatment Assertion";"parent|120|code";"";"";"";"";""
"125";"User 2 Assertion";"parent|120|code";"";"";"";"";""
"126";"Mandate 2 Assertion";"parent|120|code";"";"";"";"";""
"130";"Vollmacht";"";"";"";"";"";""