'code';'codeSystem';'displayName';'parentCode';'concept_Beschreibung';'meaning';'hints';'level';'type';'relationships'
'E';'2.16.840.1.113883.5.61';'Excellent';'';'';'';'';'0';'L';''
'F';'2.16.840.1.113883.5.61';'Fair';'';'';'';'';'0';'L';''
'G';'2.16.840.1.113883.5.61';'Good';'';'';'';'';'0';'L';''
'P';'2.16.840.1.113883.5.61';'Poor';'';'';'';'';'0';'L';''
