{
  "resourceType": "ValueSet",
  "id": "elga-sectionsserviceevents",
  "meta": {
    "profile": [
      "http://hl7.at/fhir/HL7ATCoreProfiles/4.0.1/StructureDefinition/at-core-valueset"
    ]
  },
  "url": "https://termgit.elga.gv.at/ValueSet/elga-sectionsserviceevents",
  "identifier": [
    {
      "use": "official",
      "system": "urn:ietf:rfc:3986",
      "value": "urn:oid:1.2.40.0.34.10.360"
    }
  ],
  "version": "1.1.0+20240325",
  "name": "elga-sectionsserviceevents",
  "title": "ELGA_SectionsServiceEvents",
  "status": "active",
  "date": "2024-03-25",
  "description": "**Description:** This artefact includes content from SNOMED Clinical Terms (SNOMED CT) which is copyright of the International Health Terminology Standards Development Organisation (IHTSDO). Implementers of these artefacts must have the appropriate SNOMED CT Affiliate license - for more information contact http://www.snomed.org/snomed-ct/getsnomed-ct or info@snomed.org.\n\n**Beschreibung:** Enth\u00e4lt durch SNOMED International urheberrechtlich gesch\u00fctzte Information. Jede Verwendung von SNOMED CT in \u00d6sterreich erfordert eine aufrechte Affiliate Lizenz oder eine Sublizenz. Die entsprechende Lizenz ist kostenlos, vorausgesetzt die Verwendung findet nur in \u00d6sterreich statt und erf\u00fcllt die Bedingungen des Affiliate License Agreements. Affiliate Lizenzen k\u00f6nnen \u00fcber das Member Licensing and Distribution Service (MLDS) direkt beim jeweiligen NRC beantragt werden. https://mlds.ihtsdotools.org/#/landing/AT?lang=de",
  "compose": {
    "include": [
      {
        "extension": [
          {
            "url": "http://hl7.at/fhir/HL7ATCoreProfiles/4.0.1/StructureDefinition/at-core-ext-valueset-systemoid",
            "valueOid": "urn:oid:2.16.840.1.113883.6.1"
          }
        ],
        "system": "http://loinc.org",
        "version": "2.73",
        "concept": [
          {
            "code": "46239-0",
            "display": "Chief complaint+Reason for visit Narrative"
          },
          {
            "code": "10160-0",
            "display": "History of Medication use Narrative"
          },
          {
            "code": "48765-2",
            "display": "Allergies and adverse reactions Document"
          },
          {
            "code": "10164-2",
            "display": "History of Present illness Narrative"
          },
          {
            "code": "56825-3",
            "display": "Problem time course"
          },
          {
            "code": "29554-3",
            "display": "Procedure Narrative"
          },
          {
            "code": "75311-1",
            "display": "Discharge medications Narrative"
          },
          {
            "code": "59772-4",
            "display": "Planned procedure Narrative"
          },
          {
            "code": "55752-0",
            "display": "Clinical information"
          },
          {
            "code": "67781-5",
            "display": "Summarization of encounter note Narrative"
          },
          {
            "code": "42348-3",
            "display": "Advance directives"
          }
        ]
      },
      {
        "extension": [
          {
            "url": "http://hl7.at/fhir/HL7ATCoreProfiles/4.0.1/StructureDefinition/at-core-ext-valueset-systemoid",
            "valueOid": "urn:oid:2.16.840.1.113883.6.96"
          }
        ],
        "system": "https://termgit.elga.gv.at/CodeSystem/snomed-ct-auszug",
        "version": "1.0.0+20230131",
        "concept": [
          {
            "code": "424836000",
            "display": "Assessment section"
          },
          {
            "code": "423100009",
            "display": "Results section"
          },
          {
            "code": "439401001",
            "display": "Diagnosis"
          }
        ]
      },
      {
        "extension": [
          {
            "url": "http://hl7.at/fhir/HL7ATCoreProfiles/4.0.1/StructureDefinition/at-core-ext-valueset-systemoid",
            "valueOid": "urn:oid:1.2.40.0.34.5.40"
          }
        ],
        "system": "https://termgit.elga.gv.at/CodeSystem/elga-sections",
        "version": "1.0.0+20230131",
        "concept": [
          {
            "code": "BEIL",
            "display": "Beilagen"
          }
        ]
      }
    ]
  },
  "expansion": {
    "timestamp": "2024-03-25T06:36:54+00:00",
    "contains": [
      {
        "extension": [
          {
            "url": "http://hl7.at/fhir/HL7ATCoreProfiles/4.0.1/StructureDefinition/at-core-ext-valueset-systemoid",
            "valueOid": "urn:oid:2.16.840.1.113883.6.1"
          }
        ],
        "system": "http://loinc.org",
        "version": "2.73",
        "code": "46239-0",
        "display": "Chief complaint+Reason for visit Narrative"
      },
      {
        "extension": [
          {
            "url": "http://hl7.at/fhir/HL7ATCoreProfiles/4.0.1/StructureDefinition/at-core-ext-valueset-systemoid",
            "valueOid": "urn:oid:2.16.840.1.113883.6.1"
          }
        ],
        "system": "http://loinc.org",
        "version": "2.73",
        "code": "10160-0",
        "display": "History of Medication use Narrative"
      },
      {
        "extension": [
          {
            "url": "http://hl7.at/fhir/HL7ATCoreProfiles/4.0.1/StructureDefinition/at-core-ext-valueset-systemoid",
            "valueOid": "urn:oid:2.16.840.1.113883.6.1"
          }
        ],
        "system": "http://loinc.org",
        "version": "2.73",
        "code": "48765-2",
        "display": "Allergies and adverse reactions Document"
      },
      {
        "extension": [
          {
            "url": "http://hl7.at/fhir/HL7ATCoreProfiles/4.0.1/StructureDefinition/at-core-ext-valueset-systemoid",
            "valueOid": "urn:oid:2.16.840.1.113883.6.1"
          }
        ],
        "system": "http://loinc.org",
        "version": "2.73",
        "code": "10164-2",
        "display": "History of Present illness Narrative"
      },
      {
        "extension": [
          {
            "url": "http://hl7.at/fhir/HL7ATCoreProfiles/4.0.1/StructureDefinition/at-core-ext-valueset-systemoid",
            "valueOid": "urn:oid:2.16.840.1.113883.6.1"
          }
        ],
        "system": "http://loinc.org",
        "version": "2.73",
        "code": "56825-3",
        "display": "Problem time course"
      },
      {
        "extension": [
          {
            "url": "http://hl7.at/fhir/HL7ATCoreProfiles/4.0.1/StructureDefinition/at-core-ext-valueset-systemoid",
            "valueOid": "urn:oid:2.16.840.1.113883.6.1"
          }
        ],
        "system": "http://loinc.org",
        "version": "2.73",
        "code": "29554-3",
        "display": "Procedure Narrative"
      },
      {
        "extension": [
          {
            "url": "http://hl7.at/fhir/HL7ATCoreProfiles/4.0.1/StructureDefinition/at-core-ext-valueset-systemoid",
            "valueOid": "urn:oid:2.16.840.1.113883.6.1"
          }
        ],
        "system": "http://loinc.org",
        "version": "2.73",
        "code": "75311-1",
        "display": "Discharge medications Narrative"
      },
      {
        "extension": [
          {
            "url": "http://hl7.at/fhir/HL7ATCoreProfiles/4.0.1/StructureDefinition/at-core-ext-valueset-systemoid",
            "valueOid": "urn:oid:2.16.840.1.113883.6.1"
          }
        ],
        "system": "http://loinc.org",
        "version": "2.73",
        "code": "59772-4",
        "display": "Planned procedure Narrative"
      },
      {
        "extension": [
          {
            "url": "http://hl7.at/fhir/HL7ATCoreProfiles/4.0.1/StructureDefinition/at-core-ext-valueset-systemoid",
            "valueOid": "urn:oid:2.16.840.1.113883.6.1"
          }
        ],
        "system": "http://loinc.org",
        "version": "2.73",
        "code": "55752-0",
        "display": "Clinical information"
      },
      {
        "extension": [
          {
            "url": "http://hl7.at/fhir/HL7ATCoreProfiles/4.0.1/StructureDefinition/at-core-ext-valueset-systemoid",
            "valueOid": "urn:oid:2.16.840.1.113883.6.1"
          }
        ],
        "system": "http://loinc.org",
        "version": "2.73",
        "code": "67781-5",
        "display": "Summarization of encounter note Narrative"
      },
      {
        "extension": [
          {
            "url": "http://hl7.at/fhir/HL7ATCoreProfiles/4.0.1/StructureDefinition/at-core-ext-valueset-systemoid",
            "valueOid": "urn:oid:2.16.840.1.113883.6.1"
          }
        ],
        "system": "http://loinc.org",
        "version": "2.73",
        "code": "42348-3",
        "display": "Advance directives"
      },
      {
        "extension": [
          {
            "url": "http://hl7.at/fhir/HL7ATCoreProfiles/4.0.1/StructureDefinition/at-core-ext-valueset-systemoid",
            "valueOid": "urn:oid:2.16.840.1.113883.6.96"
          }
        ],
        "system": "https://termgit.elga.gv.at/CodeSystem/snomed-ct-auszug",
        "version": "1.0.0+20230131",
        "code": "424836000",
        "display": "Assessment section"
      },
      {
        "extension": [
          {
            "url": "http://hl7.at/fhir/HL7ATCoreProfiles/4.0.1/StructureDefinition/at-core-ext-valueset-systemoid",
            "valueOid": "urn:oid:2.16.840.1.113883.6.96"
          }
        ],
        "system": "https://termgit.elga.gv.at/CodeSystem/snomed-ct-auszug",
        "version": "1.0.0+20230131",
        "code": "423100009",
        "display": "Results section"
      },
      {
        "extension": [
          {
            "url": "http://hl7.at/fhir/HL7ATCoreProfiles/4.0.1/StructureDefinition/at-core-ext-valueset-systemoid",
            "valueOid": "urn:oid:2.16.840.1.113883.6.96"
          }
        ],
        "system": "https://termgit.elga.gv.at/CodeSystem/snomed-ct-auszug",
        "version": "1.0.0+20230131",
        "code": "439401001",
        "display": "Diagnosis"
      },
      {
        "extension": [
          {
            "url": "http://hl7.at/fhir/HL7ATCoreProfiles/4.0.1/StructureDefinition/at-core-ext-valueset-systemoid",
            "valueOid": "urn:oid:1.2.40.0.34.5.40"
          }
        ],
        "system": "https://termgit.elga.gv.at/CodeSystem/elga-sections",
        "version": "1.0.0+20230131",
        "code": "BEIL",
        "display": "Beilagen"
      }
    ]
  }
}