'code';'codeSystem';'displayName';'parentCodeSystemName';'concept_Beschreibung';'meaning';'hints';'orderNumber';'level';'type';'relationships';'einheit print';'einheit codiert';'codeSystemVersion'
'0';'1.2.40.0.34.5.38.3';'Prozedur nicht näher bestimmt';'https://termgit.elga.gv.at/CodeSystem/appc-prozeduren';;;'APPC: 1.2.40.0.34.5.38';'1';'0';'S';;;;'1.0.0+20230131'
'0-1';'1.2.40.0.34.5.38.3';'Tomographie';'https://termgit.elga.gv.at/CodeSystem/appc-prozeduren';;;'APPC: 1.2.40.0.34.5.38';'2';'1';'S';;;;'1.0.0+20230131'
'0-1-1';'1.2.40.0.34.5.38.3';'Tomosynthese';'https://termgit.elga.gv.at/CodeSystem/appc-prozeduren';;;'APPC: 1.2.40.0.34.5.38';'3';'2';'L';;;;'1.0.0+20230131'
'0-2';'1.2.40.0.34.5.38.3';'Dual-energy X-ray absorptiometry (Dual-Energy)';'https://termgit.elga.gv.at/CodeSystem/appc-prozeduren';;;'APPC: 1.2.40.0.34.5.38';'4';'1';'L';;;;'1.0.0+20230131'
'1';'1.2.40.0.34.5.38.3';'Füllung präformierter Gangsysteme';'https://termgit.elga.gv.at/CodeSystem/appc-prozeduren';;;'APPC: 1.2.40.0.34.5.38';'5';'0';'S';;;;'1.0.0+20230131'
'1-1';'1.2.40.0.34.5.38.3';'Enteroklysma';'https://termgit.elga.gv.at/CodeSystem/appc-prozeduren';;;'APPC: 1.2.40.0.34.5.38';'6';'1';'L';;;;'1.0.0+20230131'
'1-2';'1.2.40.0.34.5.38.3';'Gefäßdarstellung';'https://termgit.elga.gv.at/CodeSystem/appc-prozeduren';;;'APPC: 1.2.40.0.34.5.38';'7';'1';'S';;;;'1.0.0+20230131'
'1-2-1';'1.2.40.0.34.5.38.3';'Angiographie';'https://termgit.elga.gv.at/CodeSystem/appc-prozeduren';;;'APPC: 1.2.40.0.34.5.38';'8';'2';'S';;;;'1.0.0+20230131'
'1-2-1-1';'1.2.40.0.34.5.38.3';'Angiographie nativ (FD, MR Phasenkontrast etc.)';'https://termgit.elga.gv.at/CodeSystem/appc-prozeduren';;;'APPC: 1.2.40.0.34.5.38';'9';'3';'L';;;;'1.0.0+20230131'
'1-2-1-2';'1.2.40.0.34.5.38.3';'Angiographie KM (i.v. CT Angio, MR Angio, iv. DSA etc.)';'https://termgit.elga.gv.at/CodeSystem/appc-prozeduren';;;'APPC: 1.2.40.0.34.5.38';'10';'3';'L';;;;'1.0.0+20230131'
'1-2-1-3';'1.2.40.0.34.5.38.3';'Angiographie Katheter (invasiv, selektiv etc.)';'https://termgit.elga.gv.at/CodeSystem/appc-prozeduren';;;'APPC: 1.2.40.0.34.5.38';'11';'3';'L';;;;'1.0.0+20230131'
'1-2-2';'1.2.40.0.34.5.38.3';'Phlebographie';'https://termgit.elga.gv.at/CodeSystem/appc-prozeduren';;;'APPC: 1.2.40.0.34.5.38';'12';'2';'S';;;;'1.0.0+20230131'
'1-2-2-1';'1.2.40.0.34.5.38.3';'Phlebographie nativ';'https://termgit.elga.gv.at/CodeSystem/appc-prozeduren';;;'APPC: 1.2.40.0.34.5.38';'13';'3';'L';;;;'1.0.0+20230131'
'1-2-2-2';'1.2.40.0.34.5.38.3';'Phlebographie KM';'https://termgit.elga.gv.at/CodeSystem/appc-prozeduren';;;'APPC: 1.2.40.0.34.5.38';'14';'3';'L';;;;'1.0.0+20230131'
'1-2-2-3';'1.2.40.0.34.5.38.3';'Phlebographie Katheter';'https://termgit.elga.gv.at/CodeSystem/appc-prozeduren';;;'APPC: 1.2.40.0.34.5.38';'15';'3';'L';;;;'1.0.0+20230131'
'1-2-3';'1.2.40.0.34.5.38.3';'Lymphographie';'https://termgit.elga.gv.at/CodeSystem/appc-prozeduren';;;'APPC: 1.2.40.0.34.5.38';'16';'2';'S';;;;'1.0.0+20230131'
'1-2-3-1';'1.2.40.0.34.5.38.3';'Lymphographie nativ';'https://termgit.elga.gv.at/CodeSystem/appc-prozeduren';;;'APPC: 1.2.40.0.34.5.38';'17';'3';'L';;;;'1.0.0+20230131'
'1-2-3-2';'1.2.40.0.34.5.38.3';'Lymphographie KM';'https://termgit.elga.gv.at/CodeSystem/appc-prozeduren';;;'APPC: 1.2.40.0.34.5.38';'18';'3';'L';;;;'1.0.0+20230131'
'1-2-3-3';'1.2.40.0.34.5.38.3';'Lymphographie Katheter';'https://termgit.elga.gv.at/CodeSystem/appc-prozeduren';;;'APPC: 1.2.40.0.34.5.38';'19';'3';'L';;;;'1.0.0+20230131'
'1-3';'1.2.40.0.34.5.38.3';'Fistulographie';'https://termgit.elga.gv.at/CodeSystem/appc-prozeduren';;;'APPC: 1.2.40.0.34.5.38';'20';'1';'L';;;;'1.0.0+20230131'
'1-4';'1.2.40.0.34.5.38.3';'Myelographie';'https://termgit.elga.gv.at/CodeSystem/appc-prozeduren';;;'APPC: 1.2.40.0.34.5.38';'21';'1';'L';;;;'1.0.0+20230131'
'1-5';'1.2.40.0.34.5.38.3';'Arthrographie';'https://termgit.elga.gv.at/CodeSystem/appc-prozeduren';;;'APPC: 1.2.40.0.34.5.38';'22';'1';'L';;;;'1.0.0+20230131'
'1-6';'1.2.40.0.34.5.38.3';'retrograde KM Füllung';'https://termgit.elga.gv.at/CodeSystem/appc-prozeduren';;'retrograde KM Füllung (Pyelo, Uretro, Vesico, Urethro, HSG, ERCP, PTC...)';'APPC: 1.2.40.0.34.5.38';'23';'1';'L';;;;'1.0.0+20230131'
'1-7';'1.2.40.0.34.5.38.3';'endocavitäre Applikation';'https://termgit.elga.gv.at/CodeSystem/appc-prozeduren';;;'APPC: 1.2.40.0.34.5.38';'24';'1';'L';;;;'1.0.0+20230131'
'2';'1.2.40.0.34.5.38.3';'Quantitative Analysen/Rekonstruktionen aus Datensätzen';'https://termgit.elga.gv.at/CodeSystem/appc-prozeduren';;;'APPC: 1.2.40.0.34.5.38';'25';'0';'S';;;;'1.0.0+20230131'
'2-1';'1.2.40.0.34.5.38.3';'Osteo Densitometrie';'https://termgit.elga.gv.at/CodeSystem/appc-prozeduren';;;'APPC: 1.2.40.0.34.5.38';'26';'1';'L';;;;'1.0.0+20230131'
'2-2';'1.2.40.0.34.5.38.3';'Dental CT';'https://termgit.elga.gv.at/CodeSystem/appc-prozeduren';;;'APPC: 1.2.40.0.34.5.38';'27';'1';'L';;;;'1.0.0+20230131'
'2-3';'1.2.40.0.34.5.38.3';'Berechnungen aus Datensätzen';'https://termgit.elga.gv.at/CodeSystem/appc-prozeduren';;;'APPC: 1.2.40.0.34.5.38';'28';'1';'S';;;;'1.0.0+20230131'
'2-3-1';'1.2.40.0.34.5.38.3';'Volumetrie';'https://termgit.elga.gv.at/CodeSystem/appc-prozeduren';;;'APPC: 1.2.40.0.34.5.38';'29';'2';'L';;;;'1.0.0+20230131'
'2-3-2';'1.2.40.0.34.5.38.3';'Fluss-/Durchfluss-Messung';'https://termgit.elga.gv.at/CodeSystem/appc-prozeduren';;'Flussmessung / Farbcodierung (FD) / KM-Anflutung / Intensitätsprofile / Perfusion';'APPC: 1.2.40.0.34.5.38';'30';'2';'L';;;;'1.0.0+20230131'
'2-3-3';'1.2.40.0.34.5.38.3';'MPR';'https://termgit.elga.gv.at/CodeSystem/appc-prozeduren';;;'APPC: 1.2.40.0.34.5.38';'31';'2';'L';;;;'1.0.0+20230131'
'2-3-4';'1.2.40.0.34.5.38.3';'3D / 4D';'https://termgit.elga.gv.at/CodeSystem/appc-prozeduren';;;'APPC: 1.2.40.0.34.5.38';'32';'2';'L';;;;'1.0.0+20230131'
'2-3-5';'1.2.40.0.34.5.38.3';'HR';'https://termgit.elga.gv.at/CodeSystem/appc-prozeduren';;;'APPC: 1.2.40.0.34.5.38';'33';'2';'L';;;;'1.0.0+20230131'
'2-3-6';'1.2.40.0.34.5.38.3';'errechnete Gefäß / Gang Darstellung';'https://termgit.elga.gv.at/CodeSystem/appc-prozeduren';;;'APPC: 1.2.40.0.34.5.38';'34';'2';'L';;;;'1.0.0+20230131'
'2-3-7';'1.2.40.0.34.5.38.3';'Virtuelle Endoskopie';'https://termgit.elga.gv.at/CodeSystem/appc-prozeduren';;;'APPC: 1.2.40.0.34.5.38';'35';'2';'L';;;;'1.0.0+20230131'
'2-3-8';'1.2.40.0.34.5.38.3';'Winkel- und Achsenmessungen';'https://termgit.elga.gv.at/CodeSystem/appc-prozeduren';;;'APPC: 1.2.40.0.34.5.38';'36';'2';'L';;;;'1.0.0+20230131'
'2-4';'1.2.40.0.34.5.38.3';'Spektroskopie';'https://termgit.elga.gv.at/CodeSystem/appc-prozeduren';;;'APPC: 1.2.40.0.34.5.38';'37';'1';'L';;;;'1.0.0+20230131'
'2-5';'1.2.40.0.34.5.38.3';'Videoauswertung von Bewegungsstudien';'https://termgit.elga.gv.at/CodeSystem/appc-prozeduren';;;'APPC: 1.2.40.0.34.5.38';'38';'1';'L';;;;'1.0.0+20230131'
'2-6';'1.2.40.0.34.5.38.3';'Bildfusion';'https://termgit.elga.gv.at/CodeSystem/appc-prozeduren';;;'APPC: 1.2.40.0.34.5.38';'39';'1';'L';;;;'1.0.0+20230131'
'2-7';'1.2.40.0.34.5.38.3';'Navigation';'https://termgit.elga.gv.at/CodeSystem/appc-prozeduren';;;'APPC: 1.2.40.0.34.5.38';'40';'1';'L';;;;'1.0.0+20230131'
'2-8';'1.2.40.0.34.5.38.3';'US-Kontrastmittel';'https://termgit.elga.gv.at/CodeSystem/appc-prozeduren';;;'APPC: 1.2.40.0.34.5.38';'41';'1';'L';;;;'1.0.0+20230131'
'3';'1.2.40.0.34.5.38.3';'Dokumentation von Interventionen über künstlichen Zugang';'https://termgit.elga.gv.at/CodeSystem/appc-prozeduren';;;'APPC: 1.2.40.0.34.5.38';'42';'0';'S';;;;'1.0.0+20230131'
'3-1';'1.2.40.0.34.5.38.3';'Nadel Biopsie / Punktion';'https://termgit.elga.gv.at/CodeSystem/appc-prozeduren';;;'APPC: 1.2.40.0.34.5.38';'43';'1';'L';;;;'1.0.0+20230131'
'3-2';'1.2.40.0.34.5.38.3';'Vakuum Nadel Biopsie';'https://termgit.elga.gv.at/CodeSystem/appc-prozeduren';;;'APPC: 1.2.40.0.34.5.38';'44';'1';'L';;;;'1.0.0+20230131'
'3-3';'1.2.40.0.34.5.38.3';'(Verweil-) Katheterplacierung / Drainage / Stoma';'https://termgit.elga.gv.at/CodeSystem/appc-prozeduren';;;'APPC: 1.2.40.0.34.5.38';'45';'1';'S';;;;'1.0.0+20230131'
'3-3-1';'1.2.40.0.34.5.38.3';'Permacat';'https://termgit.elga.gv.at/CodeSystem/appc-prozeduren';;;'APPC: 1.2.40.0.34.5.38';'46';'2';'L';;;;'1.0.0+20230131'
'3-3-2';'1.2.40.0.34.5.38.3';'Portacat';'https://termgit.elga.gv.at/CodeSystem/appc-prozeduren';;;'APPC: 1.2.40.0.34.5.38';'47';'2';'L';;;;'1.0.0+20230131'
'3-3-3';'1.2.40.0.34.5.38.3';'Katheter - Drainage';'https://termgit.elga.gv.at/CodeSystem/appc-prozeduren';;;'APPC: 1.2.40.0.34.5.38';'48';'2';'L';;;;'1.0.0+20230131'
'3-3-4';'1.2.40.0.34.5.38.3';'TIPPS';'https://termgit.elga.gv.at/CodeSystem/appc-prozeduren';;;'APPC: 1.2.40.0.34.5.38';'49';'2';'L';;;;'1.0.0+20230131'
'3-3-5';'1.2.40.0.34.5.38.3';'PEG Sonde';'https://termgit.elga.gv.at/CodeSystem/appc-prozeduren';;;'APPC: 1.2.40.0.34.5.38';'50';'2';'L';;;;'1.0.0+20230131'
'3-3-6';'1.2.40.0.34.5.38.3';'Nephrostomie';'https://termgit.elga.gv.at/CodeSystem/appc-prozeduren';;;'APPC: 1.2.40.0.34.5.38';'51';'2';'L';;;;'1.0.0+20230131'
'3-3-7';'1.2.40.0.34.5.38.3';'Pacemaker';'https://termgit.elga.gv.at/CodeSystem/appc-prozeduren';;;'APPC: 1.2.40.0.34.5.38';'52';'2';'L';;;;'1.0.0+20230131'
'3-3-8';'1.2.40.0.34.5.38.3';'US Sonde endovasculär';'https://termgit.elga.gv.at/CodeSystem/appc-prozeduren';;;'APPC: 1.2.40.0.34.5.38';'53';'2';'L';;;;'1.0.0+20230131'
'3-4';'1.2.40.0.34.5.38.3';'Bougierung';'https://termgit.elga.gv.at/CodeSystem/appc-prozeduren';;;'APPC: 1.2.40.0.34.5.38';'54';'1';'L';;;;'1.0.0+20230131'
'3-5';'1.2.40.0.34.5.38.3';'Dilatation / Rekanalisation / Stein- / Fremdkörperentfernung';'https://termgit.elga.gv.at/CodeSystem/appc-prozeduren';;;'APPC: 1.2.40.0.34.5.38';'55';'1';'S';;;;'1.0.0+20230131'
'3-5-1';'1.2.40.0.34.5.38.3';'Lyse';'https://termgit.elga.gv.at/CodeSystem/appc-prozeduren';;;'APPC: 1.2.40.0.34.5.38';'56';'2';'L';;;;'1.0.0+20230131'
'3-5-2';'1.2.40.0.34.5.38.3';'Embolektomie / Thrombektomie / Rekanalisation';'https://termgit.elga.gv.at/CodeSystem/appc-prozeduren';;;'APPC: 1.2.40.0.34.5.38';'57';'2';'L';;;;'1.0.0+20230131'
'3-5-3';'1.2.40.0.34.5.38.3';'Ballondilatation';'https://termgit.elga.gv.at/CodeSystem/appc-prozeduren';;;'APPC: 1.2.40.0.34.5.38';'58';'2';'L';;;;'1.0.0+20230131'
'3-5-4';'1.2.40.0.34.5.38.3';'Stent';'https://termgit.elga.gv.at/CodeSystem/appc-prozeduren';;;'APPC: 1.2.40.0.34.5.38';'59';'2';'L';;;;'1.0.0+20230131'
'3-5-5';'1.2.40.0.34.5.38.3';'Stentgraft';'https://termgit.elga.gv.at/CodeSystem/appc-prozeduren';;;'APPC: 1.2.40.0.34.5.38';'60';'2';'L';;;;'1.0.0+20230131'
'3-5-6';'1.2.40.0.34.5.38.3';'Filter (Cavaschirm)';'https://termgit.elga.gv.at/CodeSystem/appc-prozeduren';;;'APPC: 1.2.40.0.34.5.38';'61';'2';'L';;;;'1.0.0+20230131'
'3-5-7';'1.2.40.0.34.5.38.3';'Stein / Fremdkörperentfernung';'https://termgit.elga.gv.at/CodeSystem/appc-prozeduren';;;'APPC: 1.2.40.0.34.5.38';'62';'2';'L';;;;'1.0.0+20230131'
'3-6';'1.2.40.0.34.5.38.3';'Embolisation';'https://termgit.elga.gv.at/CodeSystem/appc-prozeduren';;;'APPC: 1.2.40.0.34.5.38';'63';'1';'S';;;;'1.0.0+20230131'
'3-6-1';'1.2.40.0.34.5.38.3';'Organ';'https://termgit.elga.gv.at/CodeSystem/appc-prozeduren';;;'APPC: 1.2.40.0.34.5.38';'64';'2';'L';;;;'1.0.0+20230131'
'3-6-2';'1.2.40.0.34.5.38.3';'Aneurysma';'https://termgit.elga.gv.at/CodeSystem/appc-prozeduren';;;'APPC: 1.2.40.0.34.5.38';'65';'2';'L';;;;'1.0.0+20230131'
'3-6-3';'1.2.40.0.34.5.38.3';'Arterio-Venöse Malformation';'https://termgit.elga.gv.at/CodeSystem/appc-prozeduren';;;'APPC: 1.2.40.0.34.5.38';'66';'2';'L';;;;'1.0.0+20230131'
'3-7';'1.2.40.0.34.5.38.3';'lokale Prozeduren';'https://termgit.elga.gv.at/CodeSystem/appc-prozeduren';;;'APPC: 1.2.40.0.34.5.38';'67';'1';'S';;;;'1.0.0+20230131'
'3-7-1';'1.2.40.0.34.5.38.3';'Nukleolyse';'https://termgit.elga.gv.at/CodeSystem/appc-prozeduren';;;'APPC: 1.2.40.0.34.5.38';'68';'2';'L';;;;'1.0.0+20230131'
'3-7-2';'1.2.40.0.34.5.38.3';'Ganglionblockade';'https://termgit.elga.gv.at/CodeSystem/appc-prozeduren';;;'APPC: 1.2.40.0.34.5.38';'69';'2';'L';;;;'1.0.0+20230131'
'3-7-3';'1.2.40.0.34.5.38.3';'Intervertebralgelenk';'https://termgit.elga.gv.at/CodeSystem/appc-prozeduren';;;'APPC: 1.2.40.0.34.5.38';'70';'2';'L';;;;'1.0.0+20230131'
'3-7-4';'1.2.40.0.34.5.38.3';'Radiofrequenzablation / Thermoablation / Markierung';'https://termgit.elga.gv.at/CodeSystem/appc-prozeduren';;;'APPC: 1.2.40.0.34.5.38';'71';'2';'L';;;;'1.0.0+20230131'
'3-7-5';'1.2.40.0.34.5.38.3';'Kryoablation';'https://termgit.elga.gv.at/CodeSystem/appc-prozeduren';;;'APPC: 1.2.40.0.34.5.38';'72';'2';'L';;;;'1.0.0+20230131'
'3-7-6';'1.2.40.0.34.5.38.3';'Laserablation';'https://termgit.elga.gv.at/CodeSystem/appc-prozeduren';;;'APPC: 1.2.40.0.34.5.38';'73';'2';'L';;;;'1.0.0+20230131'
'3-7-7';'1.2.40.0.34.5.38.3';'Alkoholablation';'https://termgit.elga.gv.at/CodeSystem/appc-prozeduren';;;'APPC: 1.2.40.0.34.5.38';'74';'2';'L';;;;'1.0.0+20230131'
'3-7-8';'1.2.40.0.34.5.38.3';'Venensampling';'https://termgit.elga.gv.at/CodeSystem/appc-prozeduren';;;'APPC: 1.2.40.0.34.5.38';'75';'2';'L';;;;'1.0.0+20230131'
'3-7-9';'1.2.40.0.34.5.38.3';'Infiltration/Sklerosierung';'https://termgit.elga.gv.at/CodeSystem/appc-prozeduren';;;'APPC: 1.2.40.0.34.5.38';'76';'2';'L';;;;'1.0.0+20230131'
'3-7-10';'1.2.40.0.34.5.38.3';'Probenentnahme';'https://termgit.elga.gv.at/CodeSystem/appc-prozeduren';;;'APPC: 1.2.40.0.34.5.38';'77';'2';'L';;;;'1.0.0+20230131'
'3-7-11';'1.2.40.0.34.5.38.3';'Präparat';'https://termgit.elga.gv.at/CodeSystem/appc-prozeduren';;;'APPC: 1.2.40.0.34.5.38';'78';'2';'L';;;;'1.0.0+20230131'
'3-8';'1.2.40.0.34.5.38.3';'Vertebroplastie / Zementauffüllung';'https://termgit.elga.gv.at/CodeSystem/appc-prozeduren';;;'APPC: 1.2.40.0.34.5.38';'79';'1';'L';;;;'1.0.0+20230131'
'3-9';'1.2.40.0.34.5.38.3';'Markierung';'https://termgit.elga.gv.at/CodeSystem/appc-prozeduren';;;'APPC: 1.2.40.0.34.5.38';'80';'1';'S';;;;'1.0.0+20230131'
'3-9-1';'1.2.40.0.34.5.38.3';'Draht';'https://termgit.elga.gv.at/CodeSystem/appc-prozeduren';;;'APPC: 1.2.40.0.34.5.38';'81';'2';'L';;;;'1.0.0+20230131'
'3-9-2';'1.2.40.0.34.5.38.3';'Farbstoff';'https://termgit.elga.gv.at/CodeSystem/appc-prozeduren';;;'APPC: 1.2.40.0.34.5.38';'82';'2';'L';;;;'1.0.0+20230131'
'3-9-3';'1.2.40.0.34.5.38.3';'radioaktive Substanz';'https://termgit.elga.gv.at/CodeSystem/appc-prozeduren';;;'APPC: 1.2.40.0.34.5.38';'83';'2';'L';;;;'1.0.0+20230131'
'3-9-4';'1.2.40.0.34.5.38.3';'Clipmarkierung';'https://termgit.elga.gv.at/CodeSystem/appc-prozeduren';;;'APPC: 1.2.40.0.34.5.38';'84';'2';'L';;;;'1.0.0+20230131'
'4';'1.2.40.0.34.5.38.3';'NUK Diagnostik mit offenen radioaktiven Stoffen';'https://termgit.elga.gv.at/CodeSystem/appc-prozeduren';;;'APPC: 1.2.40.0.34.5.38';'85';'0';'S';;;;'1.0.0+20230131'
'4-1';'1.2.40.0.34.5.38.3';'Perfusion';'https://termgit.elga.gv.at/CodeSystem/appc-prozeduren';;;'APPC: 1.2.40.0.34.5.38';'86';'1';'L';;;;'1.0.0+20230131'
'4-2';'1.2.40.0.34.5.38.3';'Metabolismus / Organfunktion';'https://termgit.elga.gv.at/CodeSystem/appc-prozeduren';;;'APPC: 1.2.40.0.34.5.38';'87';'1';'L';;;;'1.0.0+20230131'
'4-3';'1.2.40.0.34.5.38.3';'Knochenszintigrafie';'https://termgit.elga.gv.at/CodeSystem/appc-prozeduren';;;'APPC: 1.2.40.0.34.5.38';'88';'1';'S';;;;'1.0.0+20230131'
'4-3-1';'1.2.40.0.34.5.38.3';'Knochenszintigrafie Mehrphasen';'https://termgit.elga.gv.at/CodeSystem/appc-prozeduren';;;'APPC: 1.2.40.0.34.5.38';'89';'2';'L';;;;'1.0.0+20230131'
'4-3-2';'1.2.40.0.34.5.38.3';'Knochenszintigrafie statisch';'https://termgit.elga.gv.at/CodeSystem/appc-prozeduren';;;'APPC: 1.2.40.0.34.5.38';'90';'2';'L';;;;'1.0.0+20230131'
'4-4';'1.2.40.0.34.5.38.3';'Rezeptorszintigrafie';'https://termgit.elga.gv.at/CodeSystem/appc-prozeduren';;;'APPC: 1.2.40.0.34.5.38';'91';'1';'L';;;;'1.0.0+20230131'
'4-5';'1.2.40.0.34.5.38.3';'Nierenszintigrafie';'https://termgit.elga.gv.at/CodeSystem/appc-prozeduren';;;'APPC: 1.2.40.0.34.5.38';'92';'1';'S';;;;'1.0.0+20230131'
'4-5-1';'1.2.40.0.34.5.38.3';'Nierenszintigrafie Dynamisch (ING,CNG,DNG)';'https://termgit.elga.gv.at/CodeSystem/appc-prozeduren';;;'APPC: 1.2.40.0.34.5.38';'93';'2';'L';;;;'1.0.0+20230131'
'4-5-2';'1.2.40.0.34.5.38.3';'Nierenszintigrafie Statisch (DMSA)';'https://termgit.elga.gv.at/CodeSystem/appc-prozeduren';;;'APPC: 1.2.40.0.34.5.38';'94';'2';'L';;;;'1.0.0+20230131'
'4-5-3';'1.2.40.0.34.5.38.3';'Nierenszintigrafie Indirekte Miktionsszintigrafie';'https://termgit.elga.gv.at/CodeSystem/appc-prozeduren';;;'APPC: 1.2.40.0.34.5.38';'95';'2';'L';;;;'1.0.0+20230131'
'4-6';'1.2.40.0.34.5.38.3';'Ventilation';'https://termgit.elga.gv.at/CodeSystem/appc-prozeduren';;;'APPC: 1.2.40.0.34.5.38';'96';'1';'L';;;;'1.0.0+20230131'
'4-7';'1.2.40.0.34.5.38.3';'GI Transit';'https://termgit.elga.gv.at/CodeSystem/appc-prozeduren';;;'APPC: 1.2.40.0.34.5.38';'97';'1';'L';;;;'1.0.0+20230131'
'4-8';'1.2.40.0.34.5.38.3';'Knochenmarks-Szintigraphie';'https://termgit.elga.gv.at/CodeSystem/appc-prozeduren';;;'APPC: 1.2.40.0.34.5.38';'98';'1';'L';;;;'1.0.0+20230131'
'4-9';'1.2.40.0.34.5.38.3';'Lymphszintigrafie';'https://termgit.elga.gv.at/CodeSystem/appc-prozeduren';;;'APPC: 1.2.40.0.34.5.38';'99';'1';'L';;;;'1.0.0+20230131'
'4-10';'1.2.40.0.34.5.38.3';'Liquorszintigrafie';'https://termgit.elga.gv.at/CodeSystem/appc-prozeduren';;;'APPC: 1.2.40.0.34.5.38';'100';'1';'L';;;;'1.0.0+20230131'
'4-11';'1.2.40.0.34.5.38.3';'Galliumscan';'https://termgit.elga.gv.at/CodeSystem/appc-prozeduren';;;'APPC: 1.2.40.0.34.5.38';'101';'1';'L';;;;'1.0.0+20230131'
'4-12';'1.2.40.0.34.5.38.3';'Meckelscan';'https://termgit.elga.gv.at/CodeSystem/appc-prozeduren';;;'APPC: 1.2.40.0.34.5.38';'102';'1';'L';;;;'1.0.0+20230131'
'4-13';'1.2.40.0.34.5.38.3';'markierte Blutzellen';'https://termgit.elga.gv.at/CodeSystem/appc-prozeduren';;'markierte Blutzellen (Blutungsscan, Leukozytenscan, Thrombozytenscan)';'APPC: 1.2.40.0.34.5.38';'103';'1';'L';;;;'1.0.0+20230131'
'4-14';'1.2.40.0.34.5.38.3';'Direkte Miktionszytourethrografie';'https://termgit.elga.gv.at/CodeSystem/appc-prozeduren';;;'APPC: 1.2.40.0.34.5.38';'104';'1';'L';;;;'1.0.0+20230131'
'4-15';'1.2.40.0.34.5.38.3';'Jodganzkörperscan';'https://termgit.elga.gv.at/CodeSystem/appc-prozeduren';;;'APPC: 1.2.40.0.34.5.38';'105';'1';'L';;;;'1.0.0+20230131'
'4-16';'1.2.40.0.34.5.38.3';'Herzszintigraphie';'https://termgit.elga.gv.at/CodeSystem/appc-prozeduren';;;'APPC: 1.2.40.0.34.5.38';'106';'1';'S';;;;'1.0.0+20230131'
'4-16-1';'1.2.40.0.34.5.38.3';'Myocardszintigraphie';'https://termgit.elga.gv.at/CodeSystem/appc-prozeduren';;;'APPC: 1.2.40.0.34.5.38';'107';'2';'L';;;;'1.0.0+20230131'
'4-16-2';'1.2.40.0.34.5.38.3';'Radionuklidventrikulografie';'https://termgit.elga.gv.at/CodeSystem/appc-prozeduren';;;'APPC: 1.2.40.0.34.5.38';'108';'2';'L';;;;'1.0.0+20230131'
'4-16-3';'1.2.40.0.34.5.38.3';'Gated Myokard SPECT';'https://termgit.elga.gv.at/CodeSystem/appc-prozeduren';;;'APPC: 1.2.40.0.34.5.38';'109';'2';'L';;;;'1.0.0+20230131'
