"resource";"id";"url";"version";"name";"title";"status";"content";"identifier";"date";"count";"property";"property"
"CodeSystem";"hl7-participation-type";"https://termgit.elga.gv.at/CodeSystem/hl7-participation-type";"1.0.0+20230131";"hl7-participation-type";"HL7 Participation Type";"retired";"complete";"2.16.840.1.113883.5.90";"2023-06-30";"60";"child|||code";"parent|||code"

"code";"display";"property";"property";"property";"property";"property";"property";"property";"property";"property";"property";"property"
"PART";"Participation";"child|CST|code";"child|DIR|code";"child|IND|code";"child|IRCP|code";"child|LOC|code";"child|PRF|code";"child|RESP|code";"child|VRF|code";"child|_ParticipationAncillary|code";"child|_ParticipationInformationGenerator|code"
"CST";"custodian";"parent|PART|code";"";"";"";"";"";"";"";"";""
"DIR";"direct target";"parent|PART|code";"child|ALY|code";"child|BBY|code";"child|CAT|code";"child|CSM|code";"child|DEV|code";"child|DON|code";"child|EXPAGNT|code";"child|EXPART|code";"child|PRD|code";"child|SBJ|code"
"ALY";"analyte";"parent|DIR|code";"";"";"";"";"";"";"";"";"";""
"BBY";"baby";"parent|DIR|code";"";"";"";"";"";"";"";"";"";""
"CAT";"catalyst";"parent|DIR|code";"";"";"";"";"";"";"";"";"";""
"CSM";"consumable";"parent|DIR|code";"";"";"";"";"";"";"";"";"";""
"DEV";"device";"parent|DIR|code";"child|NRD|code";"child|RDV|code";"";"";"";"";"";"";"";""
"NRD";"non-reuseable device";"parent|DEV|code";"";"";"";"";"";"";"";"";"";""
"RDV";"reusable device";"parent|DEV|code";"";"";"";"";"";"";"";"";"";""
"DON";"donor";"parent|DIR|code";"";"";"";"";"";"";"";"";"";""
"EXPAGNT";"ExposureAgent";"parent|DIR|code";"";"";"";"";"";"";"";"";"";""
"EXPART";"ExposureParticipation";"parent|DIR|code";"child|EXPTRGT|code";"child|EXSRC|code";"";"";"";"";"";"";"";""
"EXPTRGT";"ExposureTarget";"parent|EXPART|code";"";"";"";"";"";"";"";"";"";""
"EXSRC";"ExposureSource";"parent|EXPART|code";"";"";"";"";"";"";"";"";"";""
"PRD";"product";"parent|DIR|code";"";"";"";"";"";"";"";"";"";""
"SBJ";"subject";"parent|DIR|code";"child|SPC|code";"";"";"";"";"";"";"";"";""
"SPC";"specimen";"parent|SBJ|code";"";"";"";"";"";"";"";"";"";""
"IND";"indirect target";"parent|PART|code";"child|BEN|code";"child|CAGNT|code";"child|COV|code";"child|GUAR|code";"child|HLD|code";"child|RCT|code";"child|RCV|code";"";"";""
"BEN";"beneficiary";"parent|IND|code";"";"";"";"";"";"";"";"";"";""
"CAGNT";"causative agent";"parent|IND|code";"";"";"";"";"";"";"";"";"";""
"COV";"coverage target";"parent|IND|code";"";"";"";"";"";"";"";"";"";""
"GUAR";"guarantor party";"parent|IND|code";"";"";"";"";"";"";"";"";"";""
"HLD";"holder";"parent|IND|code";"";"";"";"";"";"";"";"";"";""
"RCT";"record target";"parent|IND|code";"";"";"";"";"";"";"";"";"";""
"RCV";"receiver";"parent|IND|code";"";"";"";"";"";"";"";"";"";""
"IRCP";"information recipient";"parent|PART|code";"child|NOT|code";"child|PRCP|code";"child|REFB|code";"child|REFT|code";"child|TRC|code";"";"";"";"";""
"NOT";"ugent notification contact";"parent|IRCP|code";"";"";"";"";"";"";"";"";"";""
"PRCP";"primary information recipient";"parent|IRCP|code";"";"";"";"";"";"";"";"";"";""
"REFB";"Referred By";"parent|IRCP|code";"";"";"";"";"";"";"";"";"";""
"REFT";"Referred to";"parent|IRCP|code";"";"";"";"";"";"";"";"";"";""
"TRC";"tracker";"parent|IRCP|code";"";"";"";"";"";"";"";"";"";""
"LOC";"location";"parent|PART|code";"child|DST|code";"child|ELOC|code";"child|ORG|code";"child|RML|code";"child|VIA|code";"";"";"";"";""
"DST";"destination";"parent|LOC|code";"";"";"";"";"";"";"";"";"";""
"ELOC";"entry location";"parent|LOC|code";"";"";"";"";"";"";"";"";"";""
"ORG";"origin";"parent|LOC|code";"";"";"";"";"";"";"";"";"";""
"RML";"remote";"parent|LOC|code";"";"";"";"";"";"";"";"";"";""
"VIA";"via";"parent|LOC|code";"";"";"";"";"";"";"";"";"";""
"PRF";"performer";"parent|PART|code";"child|DIST|code";"child|PPRF|code";"child|SPRF|code";"";"";"";"";"";"";""
"DIST";"distributor";"parent|PRF|code";"";"";"";"";"";"";"";"";"";""
"PPRF";"primary performer";"parent|PRF|code";"";"";"";"";"";"";"";"";"";""
"SPRF";"secondary performer";"parent|PRF|code";"";"";"";"";"";"";"";"";"";""
"RESP";"responsible party";"parent|PART|code";"";"";"";"";"";"";"";"";"";""
"VRF";"verifier";"parent|PART|code";"child|AUTHEN|code";"child|LA|code";"";"";"";"";"";"";"";""
"AUTHEN";"authenticator";"parent|VRF|code";"";"";"";"";"";"";"";"";"";""
"LA";"legal authenticator";"parent|VRF|code";"";"";"";"";"";"";"";"";"";""
"_ParticipationAncillary";"ParticipationAncillary";"parent|PART|code";"child|ADM|code";"child|ATND|code";"child|CALLBCK|code";"child|CON|code";"child|DIS|code";"child|ESC|code";"child|REF|code";"";"";""
"ADM";"admitter";"parent|_ParticipationAncillary|code";"";"";"";"";"";"";"";"";"";""
"ATND";"attender";"parent|_ParticipationAncillary|code";"";"";"";"";"";"";"";"";"";""
"CALLBCK";"callback contact";"parent|_ParticipationAncillary|code";"";"";"";"";"";"";"";"";"";""
"CON";"consultant";"parent|_ParticipationAncillary|code";"";"";"";"";"";"";"";"";"";""
"DIS";"discharger";"parent|_ParticipationAncillary|code";"";"";"";"";"";"";"";"";"";""
"ESC";"escort";"parent|_ParticipationAncillary|code";"";"";"";"";"";"";"";"";"";""
"REF";"referrer";"parent|_ParticipationAncillary|code";"";"";"";"";"";"";"";"";"";""
"_ParticipationInformationGenerator";"ParticipationInformationGenerator";"parent|PART|code";"child|AUT|code";"child|INF|code";"child|TRANS|code";"child|WIT|code";"";"";"";"";"";""
"AUT";"author (originator)";"parent|_ParticipationInformationGenerator|code";"";"";"";"";"";"";"";"";"";""
"INF";"informant";"parent|_ParticipationInformationGenerator|code";"";"";"";"";"";"";"";"";"";""
"TRANS";"Transcriber";"parent|_ParticipationInformationGenerator|code";"child|ENT|code";"";"";"";"";"";"";"";"";""
"ENT";"data entry person";"parent|TRANS|code";"";"";"";"";"";"";"";"";"";""
"WIT";"witness";"parent|_ParticipationInformationGenerator|code";"";"";"";"";"";"";"";"";"";""