'code';'codeSystem';'displayName';'parentCode';'concept_Beschreibung';'meaning';'hints';'level';'type';'relationships'
'HAEMOPHILUS';'1.2.40.0.34.5.92';'Haemophilus influenzae';;;;;'0';'S';
'A';'1.2.40.0.34.5.92';'Paratyphi A';;;;;'1';'L';
'B';'1.2.40.0.34.5.92';'Paratyphi B';;;;;'1';'L';
'C';'1.2.40.0.34.5.92';'Paratyphi C';;;;;'1';'L';
'D';'1.2.40.0.34.5.92';'H influenzae type d';;;;;'1';'L';
'E';'1.2.40.0.34.5.92';'H influenzae type e';;;;;'1';'L';
'F';'1.2.40.0.34.5.92';'H influenzae type f';;;;;'1';'L';
'NON_B';'1.2.40.0.34.5.92';'non-b H influenzae strain';;;;;'1';'L';
'NON_CAPS';'1.2.40.0.34.5.92';'non-capsulated H influenzae strain';;;;;'1';'L';
'LISTERIOSE';'1.2.40.0.34.5.92';'Listeriose';;;;;'0';'S';
'1_2';'1.2.40.0.34.5.92';'1/2';;;;;'1';'L';
'1_2A';'1.2.40.0.34.5.92';'1/2a';;;;;'1';'L';
'1_2B';'1.2.40.0.34.5.92';'1/2b';;;;;'1';'L';
'1_2C';'1.2.40.0.34.5.92';'1/2c';;;;;'1';'L';
'3A';'1.2.40.0.34.5.92';'3a';;;;;'1';'L';
'3B';'1.2.40.0.34.5.92';'3b';;;;;'1';'L';
'3C';'1.2.40.0.34.5.92';'3c';;;;;'1';'L';
'4';'1.2.40.0.34.5.92';'4';;;;;'1';'L';
'4A';'1.2.40.0.34.5.92';'4a';;;;;'1';'L';
'4AB';'1.2.40.0.34.5.92';'4ab';;;;;'1';'L';
'4B';'1.2.40.0.34.5.92';'4b';;;;;'1';'L';
'4C';'1.2.40.0.34.5.92';'4c';;;;;'1';'L';
'4D';'1.2.40.0.34.5.92';'4d';;;;;'1';'L';
'4E';'1.2.40.0.34.5.92';'4e';;;;;'1';'L';
'7';'1.2.40.0.34.5.92';'7';;;;;'1';'L';
'MENINGOKOKKEN';'1.2.40.0.34.5.92';'Meningokokken-Erkrankung, invasiv';;;;;'0';'S';
'NOTEST';'1.2.40.0.34.5.92';'not tested';;;;;'1';'L';
'NOTYPE';'1.2.40.0.34.5.92';'Not typeable';;;;;'1';'L';
'P2_2A';'1.2.40.0.34.5.92';'serotype P2.2a';;;;;'1';'L';
'P2_2B';'1.2.40.0.34.5.92';'serotype P2.2b';;;;;'1';'L';
'P2_2C';'1.2.40.0.34.5.92';'serotype P2.2c';;;;;'1';'L';
'P3_1';'1.2.40.0.34.5.92';'serotype P3.1';;;;;'1';'L';
'P3_14';'1.2.40.0.34.5.92';'serotype P3.14';;;;;'1';'L';
'P3_15';'1.2.40.0.34.5.92';'serotype P3.15';;;;;'1';'L';
'P3_16';'1.2.40.0.34.5.92';'serotype P3.16';;;;;'1';'L';
'P3_21';'1.2.40.0.34.5.92';'serotype P3.21';;;;;'1';'L';
'P3_22';'1.2.40.0.34.5.92';'serotype P3.22';;;;;'1';'L';
'P3_23';'1.2.40.0.34.5.92';'serotype P3.23';;;;;'1';'L';
'P3_4';'1.2.40.0.34.5.92';'serotype P3.4';;;;;'1';'L';
'PARATYPHUS';'1.2.40.0.34.5.92';'Paratyphus';;;;;'0';'S';
'PNEUMOKOKKEN';'1.2.40.0.34.5.92';'Pneumokokken-Erkrankung, invasiv';;;;;'0';'S';
'1';'1.2.40.0.34.5.92';'1';;;;;'1';'L';
'10A';'1.2.40.0.34.5.92';'10A';;;;;'1';'L';
'10B';'1.2.40.0.34.5.92';'10B';;;;;'1';'L';
'10C';'1.2.40.0.34.5.92';'10C';;;;;'1';'L';
'10F';'1.2.40.0.34.5.92';'10F';;;;;'1';'L';
'11';'1.2.40.0.34.5.92';'11';;;;;'1';'L';
'11A';'1.2.40.0.34.5.92';'11A';;;;;'1';'L';
'11B';'1.2.40.0.34.5.92';'11B';;;;;'1';'L';
'11C';'1.2.40.0.34.5.92';'11C';;;;;'1';'L';
'11D';'1.2.40.0.34.5.92';'11D';;;;;'1';'L';
'11F';'1.2.40.0.34.5.92';'11F';;;;;'1';'L';
'12';'1.2.40.0.34.5.92';'12';;;;;'1';'L';
'12A';'1.2.40.0.34.5.92';'12A';;;;;'1';'L';
'12B';'1.2.40.0.34.5.92';'12B';;;;;'1';'L';
'12F';'1.2.40.0.34.5.92';'12F';;;;;'1';'L';
'13';'1.2.40.0.34.5.92';'13';;;;;'1';'L';
'14';'1.2.40.0.34.5.92';'14';;;;;'1';'L';
'15';'1.2.40.0.34.5.92';'15';;;;;'1';'L';
'15A';'1.2.40.0.34.5.92';'15A';;;;;'1';'L';
'15B';'1.2.40.0.34.5.92';'15B';;;;;'1';'L';
'15B/C';'1.2.40.0.34.5.92';'15B/C';;;;;'1';'L';
'15C';'1.2.40.0.34.5.92';'15C';;;;;'1';'L';
'15F';'1.2.40.0.34.5.92';'15F';;;;;'1';'L';
'16';'1.2.40.0.34.5.92';'16';;;;;'1';'L';
'16A';'1.2.40.0.34.5.92';'16A';;;;;'1';'L';
'16F';'1.2.40.0.34.5.92';'16F';;;;;'1';'L';
'17';'1.2.40.0.34.5.92';'17';;;;;'1';'L';
'17A';'1.2.40.0.34.5.92';'17A';;;;;'1';'L';
'17F';'1.2.40.0.34.5.92';'17F';;;;;'1';'L';
'18';'1.2.40.0.34.5.92';'18';;;;;'1';'L';
'18A';'1.2.40.0.34.5.92';'18A';;;;;'1';'L';
'18B';'1.2.40.0.34.5.92';'18B';;;;;'1';'L';
'18C';'1.2.40.0.34.5.92';'18C';;;;;'1';'L';
'18F';'1.2.40.0.34.5.92';'18F';;;;;'1';'L';
'19';'1.2.40.0.34.5.92';'19';;;;;'1';'L';
'19A';'1.2.40.0.34.5.92';'19A';;;;;'1';'L';
'19B';'1.2.40.0.34.5.92';'19B';;;;;'1';'L';
'19C';'1.2.40.0.34.5.92';'19C';;;;;'1';'L';
'19F';'1.2.40.0.34.5.92';'19F';;;;;'1';'L';
'2';'1.2.40.0.34.5.92';'2';;;;;'1';'L';
'20';'1.2.40.0.34.5.92';'20';;;;;'1';'L';
'21';'1.2.40.0.34.5.92';'21';;;;;'1';'L';
'22';'1.2.40.0.34.5.92';'22';;;;;'1';'L';
'22A';'1.2.40.0.34.5.92';'22A';;;;;'1';'L';
'22F';'1.2.40.0.34.5.92';'22F';;;;;'1';'L';
'23';'1.2.40.0.34.5.92';'23';;;;;'1';'L';
'23A';'1.2.40.0.34.5.92';'23A';;;;;'1';'L';
'23B';'1.2.40.0.34.5.92';'23B';;;;;'1';'L';
'23F';'1.2.40.0.34.5.92';'23F';;;;;'1';'L';
'24';'1.2.40.0.34.5.92';'24';;;;;'1';'L';
'24A';'1.2.40.0.34.5.92';'24A';;;;;'1';'L';
'24B';'1.2.40.0.34.5.92';'24B';;;;;'1';'L';
'24F';'1.2.40.0.34.5.92';'24F';;;;;'1';'L';
'25';'1.2.40.0.34.5.92';'25';;;;;'1';'L';
'25A';'1.2.40.0.34.5.92';'25A';;;;;'1';'L';
'25F';'1.2.40.0.34.5.92';'25F';;;;;'1';'L';
'27';'1.2.40.0.34.5.92';'27';;;;;'1';'L';
'28';'1.2.40.0.34.5.92';'28';;;;;'1';'L';
'28A';'1.2.40.0.34.5.92';'28A';;;;;'1';'L';
'28F';'1.2.40.0.34.5.92';'28F';;;;;'1';'L';
'29';'1.2.40.0.34.5.92';'29';;;;;'1';'L';
'3';'1.2.40.0.34.5.92';'3';;;;;'1';'L';
'31';'1.2.40.0.34.5.92';'31';;;;;'1';'L';
'32';'1.2.40.0.34.5.92';'32';;;;;'1';'L';
'32A';'1.2.40.0.34.5.92';'32A';;;;;'1';'L';
'32F';'1.2.40.0.34.5.92';'32F';;;;;'1';'L';
'33';'1.2.40.0.34.5.92';'33';;;;;'1';'L';
'33A';'1.2.40.0.34.5.92';'33A';;;;;'1';'L';
'33B';'1.2.40.0.34.5.92';'33B';;;;;'1';'L';
'33C';'1.2.40.0.34.5.92';'33C';;;;;'1';'L';
'33D';'1.2.40.0.34.5.92';'33D';;;;;'1';'L';
'33F';'1.2.40.0.34.5.92';'33F';;;;;'1';'L';
'34';'1.2.40.0.34.5.92';'34';;;;;'1';'L';
'35';'1.2.40.0.34.5.92';'35';;;;;'1';'L';
'35A';'1.2.40.0.34.5.92';'35A';;;;;'1';'L';
'35B';'1.2.40.0.34.5.92';'35B';;;;;'1';'L';
'35C';'1.2.40.0.34.5.92';'35C';;;;;'1';'L';
'35F';'1.2.40.0.34.5.92';'35F';;;;;'1';'L';
'36';'1.2.40.0.34.5.92';'36';;;;;'1';'L';
'37';'1.2.40.0.34.5.92';'37';;;;;'1';'L';
'38';'1.2.40.0.34.5.92';'38';;;;;'1';'L';
'39';'1.2.40.0.34.5.92';'39';;;;;'1';'L';
'40';'1.2.40.0.34.5.92';'40';;;;;'1';'L';
'41';'1.2.40.0.34.5.92';'41';;;;;'1';'L';
'41A';'1.2.40.0.34.5.92';'41A';;;;;'1';'L';
'41F';'1.2.40.0.34.5.92';'41F';;;;;'1';'L';
'42';'1.2.40.0.34.5.92';'42';;;;;'1';'L';
'43';'1.2.40.0.34.5.92';'43';;;;;'1';'L';
'44';'1.2.40.0.34.5.92';'44';;;;;'1';'L';
'45';'1.2.40.0.34.5.92';'45';;;;;'1';'L';
'46';'1.2.40.0.34.5.92';'46';;;;;'1';'L';
'47';'1.2.40.0.34.5.92';'47';;;;;'1';'L';
'47A';'1.2.40.0.34.5.92';'47A';;;;;'1';'L';
'47F';'1.2.40.0.34.5.92';'47F';;;;;'1';'L';
'48';'1.2.40.0.34.5.92';'48';;;;;'1';'L';
'5';'1.2.40.0.34.5.92';'5';;;;;'1';'L';
'6';'1.2.40.0.34.5.92';'6';;;;;'1';'L';
'6A';'1.2.40.0.34.5.92';'6A';;;;;'1';'L';
'6B';'1.2.40.0.34.5.92';'6B';;;;;'1';'L';
'6C';'1.2.40.0.34.5.92';'6C';;;;;'1';'L';
'6D';'1.2.40.0.34.5.92';'6D';;;;;'1';'L';
'7A';'1.2.40.0.34.5.92';'7A';;;;;'1';'L';
'7B';'1.2.40.0.34.5.92';'7B';;;;;'1';'L';
'7C';'1.2.40.0.34.5.92';'7C';;;;;'1';'L';
'7F';'1.2.40.0.34.5.92';'7F';;;;;'1';'L';
'8';'1.2.40.0.34.5.92';'8';;;;;'1';'L';
'9';'1.2.40.0.34.5.92';'9';;;;;'1';'L';
'9A';'1.2.40.0.34.5.92';'9A';;;;;'1';'L';
'9L';'1.2.40.0.34.5.92';'9L';;;;;'1';'L';
'9N';'1.2.40.0.34.5.92';'9N';;;;;'1';'L';
'9V';'1.2.40.0.34.5.92';'9V';;;;;'1';'L';
'SALMONELLA';'1.2.40.0.34.5.92';'Salmonella spp.';;;;;'0';'S';
'AACHEN';'1.2.40.0.34.5.92';'Aachen';;;;;'1';'L';
'AARHUS';'1.2.40.0.34.5.92';'Aarhus';;;;;'1';'L';
'ABA';'1.2.40.0.34.5.92';'Aba';;;;;'1';'L';
'ABADINA';'1.2.40.0.34.5.92';'Abadina';;;;;'1';'L';
'ABAETETUBA';'1.2.40.0.34.5.92';'Abaetetuba';;;;;'1';'L';
'ABERDEEN';'1.2.40.0.34.5.92';'Aberdeen';;;;;'1';'L';
'ABIDJAN';'1.2.40.0.34.5.92';'Abidjan';;;;;'1';'L';
'ABLOGAME';'1.2.40.0.34.5.92';'Ablogame';;;;;'1';'L';
'ABOBO';'1.2.40.0.34.5.92';'Abobo';;;;;'1';'L';
'ABONY';'1.2.40.0.34.5.92';'Abony';;;;;'1';'L';
'ABORTUSEQUI';'1.2.40.0.34.5.92';'Abortusequi';;;;;'1';'L';
'ABORTUSOVIS';'1.2.40.0.34.5.92';'Abortusovis';;;;;'1';'L';
'ABUJA';'1.2.40.0.34.5.92';'Abuja';;;;;'1';'L';
'ACCRA';'1.2.40.0.34.5.92';'Accra';;;;;'1';'L';
'ACKWEPE';'1.2.40.0.34.5.92';'Ackwepe';;;;;'1';'L';
'ADABRAKA';'1.2.40.0.34.5.92';'Adabraka';;;;;'1';'L';
'ADAMSTOWN';'1.2.40.0.34.5.92';'Adamstown';;;;;'1';'L';
'ADAMSTUA';'1.2.40.0.34.5.92';'Adamstua';;;;;'1';'L';
'ADANA';'1.2.40.0.34.5.92';'Adana';;;;;'1';'L';
'ADELAIDE';'1.2.40.0.34.5.92';'Adelaide';;;;;'1';'L';
'ADEOYO';'1.2.40.0.34.5.92';'Adeoyo';;;;;'1';'L';
'ADERIKE';'1.2.40.0.34.5.92';'Aderike';;;;;'1';'L';
'ADIME';'1.2.40.0.34.5.92';'Adime';;;;;'1';'L';
'ADJAME';'1.2.40.0.34.5.92';'Adjame';;;;;'1';'L';
'AEQUATORIA';'1.2.40.0.34.5.92';'Aequatoria';;;;;'1';'L';
'AESCH';'1.2.40.0.34.5.92';'Aesch';;;;;'1';'L';
'AFLAO';'1.2.40.0.34.5.92';'Aflao';;;;;'1';'L';
'AFRICANA';'1.2.40.0.34.5.92';'Africana';;;;;'1';'L';
'AFULA';'1.2.40.0.34.5.92';'Afula';;;;;'1';'L';
'AGAMA';'1.2.40.0.34.5.92';'Agama';;;;;'1';'L';
'AGBARA';'1.2.40.0.34.5.92';'Agbara';;;;;'1';'L';
'AGBENI';'1.2.40.0.34.5.92';'Agbeni';;;;;'1';'L';
'AGEGE';'1.2.40.0.34.5.92';'Agege';;;;;'1';'L';
'AGO';'1.2.40.0.34.5.92';'Ago';;;;;'1';'L';
'AGODI';'1.2.40.0.34.5.92';'Agodi';;;;;'1';'L';
'AGONA';'1.2.40.0.34.5.92';'Agona';;;;;'1';'L';
'AGOUEVE';'1.2.40.0.34.5.92';'Agoueve';;;;;'1';'L';
'AHANOU';'1.2.40.0.34.5.92';'Ahanou';;;;;'1';'L';
'AHEPE';'1.2.40.0.34.5.92';'Ahepe';;;;;'1';'L';
'AHMADI';'1.2.40.0.34.5.92';'Ahmadi';;;;;'1';'L';
'AHOUTOUE';'1.2.40.0.34.5.92';'Ahoutoue';;;;;'1';'L';
'AHUZA';'1.2.40.0.34.5.92';'Ahuza';;;;;'1';'L';
'AJIOBO';'1.2.40.0.34.5.92';'Ajiobo';;;;;'1';'L';
'AKANJI';'1.2.40.0.34.5.92';'Akanji';;;;;'1';'L';
'AKUAFO';'1.2.40.0.34.5.92';'Akuafo';;;;;'1';'L';
'ALABAMA';'1.2.40.0.34.5.92';'Alabama';;;;;'1';'L';
'ALACHUA';'1.2.40.0.34.5.92';'Alachua';;;;;'1';'L';
'ALAGBON';'1.2.40.0.34.5.92';'Alagbon';;;;;'1';'L';
'ALAMO';'1.2.40.0.34.5.92';'Alamo';;;;;'1';'L';
'ALBANY';'1.2.40.0.34.5.92';'Albany';;;;;'1';'L';
'ALBERT';'1.2.40.0.34.5.92';'Albert';;;;;'1';'L';
'ALBERTBANJUL';'1.2.40.0.34.5.92';'Albertbanjul';;;;;'1';'L';
'ALBERTSLUND';'1.2.40.0.34.5.92';'Albertslund';;;;;'1';'L';
'ALBUQUERQUE';'1.2.40.0.34.5.92';'Albuquerque';;;;;'1';'L';
'ALEXANDERPLATZ';'1.2.40.0.34.5.92';'Alexanderplatz';;;;;'1';'L';
'ALEXANDERPOLDER';'1.2.40.0.34.5.92';'Alexanderpolder';;;;;'1';'L';
'ALFORT';'1.2.40.0.34.5.92';'Alfort';;;;;'1';'L';
'ALGER';'1.2.40.0.34.5.92';'Alger';;;;;'1';'L';
'ALKMAAR';'1.2.40.0.34.5.92';'Alkmaar';;;;;'1';'L';
'ALLANDALE';'1.2.40.0.34.5.92';'Allandale';;;;;'1';'L';
'ALLERTON';'1.2.40.0.34.5.92';'Allerton';;;;;'1';'L';
'ALMA';'1.2.40.0.34.5.92';'Alma';;;;;'1';'L';
'ALMINKO';'1.2.40.0.34.5.92';'Alminko';;;;;'1';'L';
'ALPENQUAI';'1.2.40.0.34.5.92';'Alpenquai';;;;;'1';'L';
'ALTENDORF';'1.2.40.0.34.5.92';'Altendorf';;;;;'1';'L';
'ALTONA';'1.2.40.0.34.5.92';'Altona';;;;;'1';'L';
'AMAGER';'1.2.40.0.34.5.92';'Amager';;;;;'1';'L';
'AMAGER_VAR_15+';'1.2.40.0.34.5.92';'Amager var. 15+';;;;;'1';'L';
'AMBA';'1.2.40.0.34.5.92';'Amba';;;;;'1';'L';
'AMERSFOORT';'1.2.40.0.34.5.92';'Amersfoort';;;;;'1';'L';
'AMERSFOORT_VAR_14+';'1.2.40.0.34.5.92';'Amersfoort var. 14+';;;;;'1';'L';
'AMHERSTIANA';'1.2.40.0.34.5.92';'Amherstiana';;;;;'1';'L';
'AMINA';'1.2.40.0.34.5.92';'Amina';;;;;'1';'L';
'AMINATU';'1.2.40.0.34.5.92';'Aminatu';;;;;'1';'L';
'AMOUNDERNESS';'1.2.40.0.34.5.92';'Amounderness';;;;;'1';'L';
'AMOUTIVE';'1.2.40.0.34.5.92';'Amoutive';;;;;'1';'L';
'AMSTERDAM';'1.2.40.0.34.5.92';'Amsterdam';;;;;'1';'L';
'AMSTERDAM_VAR_15+';'1.2.40.0.34.5.92';'Amsterdam var. 15+';;;;;'1';'L';
'AMUNIGUN';'1.2.40.0.34.5.92';'Amunigun';;;;;'1';'L';
'ANATUM';'1.2.40.0.34.5.92';'Anatum';;;;;'1';'L';
'ANATUM_VAR_15+_';'1.2.40.0.34.5.92';'Anatum var. 15+';;;;;'1';'L';
'ANATUM_VAR_15+_34+_';'1.2.40.0.34.5.92';'Anatum var. 15+, 34+';;;;;'1';'L';
'ANDERLECHT';'1.2.40.0.34.5.92';'Anderlecht';;;;;'1';'L';
'ANECHO';'1.2.40.0.34.5.92';'Anecho';;;;;'1';'L';
'ANFO';'1.2.40.0.34.5.92';'Anfo';;;;;'1';'L';
'ANGERS';'1.2.40.0.34.5.92';'Angers';;;;;'1';'L';
'ANGODA';'1.2.40.0.34.5.92';'Angoda';;;;;'1';'L';
'ANGOULEME';'1.2.40.0.34.5.92';'Angouleme';;;;;'1';'L';
'ANK';'1.2.40.0.34.5.92';'Ank';;;;;'1';'L';
'ANNA';'1.2.40.0.34.5.92';'Anna';;;;;'1';'L';
'ANNEDAL';'1.2.40.0.34.5.92';'Annedal';;;;;'1';'L';
'ANTARCTICA';'1.2.40.0.34.5.92';'Antarctica';;;;;'1';'L';
'ANTONIO';'1.2.40.0.34.5.92';'Antonio';;;;;'1';'L';
'ANTSALOVA';'1.2.40.0.34.5.92';'Antsalova';;;;;'1';'L';
'ANTWERPEN';'1.2.40.0.34.5.92';'Antwerpen';;;;;'1';'L';
'APAPA';'1.2.40.0.34.5.92';'Apapa';;;;;'1';'L';
'APEYEME';'1.2.40.0.34.5.92';'Apeyeme';;;;;'1';'L';
'APRAD';'1.2.40.0.34.5.92';'Aprad';;;;;'1';'L';
'AQUA';'1.2.40.0.34.5.92';'Aqua';;;;;'1';'L';
'ARAGUA';'1.2.40.0.34.5.92';'Aragua';;;;;'1';'L';
'ARAPAHOE';'1.2.40.0.34.5.92';'Arapahoe';;;;;'1';'L';
'ARECHAVALETA';'1.2.40.0.34.5.92';'Arechavaleta';;;;;'1';'L';
'ARGENTEUIL';'1.2.40.0.34.5.92';'Argenteuil';;;;;'1';'L';
'ARIZONAE';'1.2.40.0.34.5.92';'Arizonae (Subsp IIIa)';;;;;'1';'L';
'ARUSHA';'1.2.40.0.34.5.92';'Arusha';;;;;'1';'L';
'ASCHERSLEBEN';'1.2.40.0.34.5.92';'Aschersleben';;;;;'1';'L';
'ASHANTI';'1.2.40.0.34.5.92';'Ashanti';;;;;'1';'L';
'ASSEN';'1.2.40.0.34.5.92';'Assen';;;;;'1';'L';
'ASSINIE';'1.2.40.0.34.5.92';'Assinie';;;;;'1';'L';
'ASTRIDPLEIN';'1.2.40.0.34.5.92';'Astridplein';;;;;'1';'L';
'ASYLANTA';'1.2.40.0.34.5.92';'Asylanta';;;;;'1';'L';
'ATAKPAME';'1.2.40.0.34.5.92';'Atakpame';;;;;'1';'L';
'ATENTO';'1.2.40.0.34.5.92';'Atento';;;;;'1';'L';
'ATHENS';'1.2.40.0.34.5.92';'Athens';;;;;'1';'L';
'ATHINAI';'1.2.40.0.34.5.92';'Athinai';;;;;'1';'L';
'ATI';'1.2.40.0.34.5.92';'Ati';;;;;'1';'L';
'AUGUSTENBORG';'1.2.40.0.34.5.92';'Augustenborg';;;;;'1';'L';
'AURELIANIS';'1.2.40.0.34.5.92';'Aurelianis';;;;;'1';'L';
'AUSTIN';'1.2.40.0.34.5.92';'Austin';;;;;'1';'L';
'AUSTRALIA';'1.2.40.0.34.5.92';'Australia';;;;;'1';'L';
'AVIGNON';'1.2.40.0.34.5.92';'Avignon';;;;;'1';'L';
'AVONMOUTH';'1.2.40.0.34.5.92';'Avonmouth';;;;;'1';'L';
'AXIM';'1.2.40.0.34.5.92';'Axim';;;;;'1';'L';
'AYINDE';'1.2.40.0.34.5.92';'Ayinde';;;;;'1';'L';
'AYTON';'1.2.40.0.34.5.92';'Ayton';;;;;'1';'L';
'AZTECA';'1.2.40.0.34.5.92';'Azteca';;;;;'1';'L';
'BABELSBERG';'1.2.40.0.34.5.92';'Babelsberg';;;;;'1';'L';
'BABILI';'1.2.40.0.34.5.92';'Babili';;;;;'1';'L';
'BADAGRY';'1.2.40.0.34.5.92';'Badagry';;;;;'1';'L';
'BAGUIDA';'1.2.40.0.34.5.92';'Baguida';;;;;'1';'L';
'BAGUIRMI';'1.2.40.0.34.5.92';'Baguirmi';;;;;'1';'L';
'BAHATI';'1.2.40.0.34.5.92';'Bahati';;;;;'1';'L';
'BAHRENFELD';'1.2.40.0.34.5.92';'Bahrenfeld';;;;;'1';'L';
'BAIBOUKOUM';'1.2.40.0.34.5.92';'Baiboukoum';;;;;'1';'L';
'BAILDON';'1.2.40.0.34.5.92';'Baildon';;;;;'1';'L';
'BAKAU';'1.2.40.0.34.5.92';'Bakau';;;;;'1';'L';
'BALCONES';'1.2.40.0.34.5.92';'Balcones';;;;;'1';'L';
'BALL';'1.2.40.0.34.5.92';'Ball';;;;;'1';'L';
'BAMA';'1.2.40.0.34.5.92';'Bama';;;;;'1';'L';
'BAMBOYE';'1.2.40.0.34.5.92';'Bamboye';;;;;'1';'L';
'BAMBYLOR';'1.2.40.0.34.5.92';'Bambylor';;;;;'1';'L';
'BANALIA';'1.2.40.0.34.5.92';'Banalia';;;;;'1';'L';
'BANANA';'1.2.40.0.34.5.92';'Banana';;;;;'1';'L';
'BANCO';'1.2.40.0.34.5.92';'Banco';;;;;'1';'L';
'BANDIA';'1.2.40.0.34.5.92';'Bandia';;;;;'1';'L';
'BANDIM';'1.2.40.0.34.5.92';'Bandim';;;;;'1';'L';
'BANGKOK';'1.2.40.0.34.5.92';'Bangkok';;;;;'1';'L';
'BANGUI';'1.2.40.0.34.5.92';'Bangui';;;;;'1';'L';
'BANJUL';'1.2.40.0.34.5.92';'Banjul';;;;;'1';'L';
'BARDO';'1.2.40.0.34.5.92';'Bardo';;;;;'1';'L';
'BAREILLY';'1.2.40.0.34.5.92';'Bareilly';;;;;'1';'L';
'BARGNY';'1.2.40.0.34.5.92';'Bargny';;;;;'1';'L';
'BARMBEK';'1.2.40.0.34.5.92';'Barmbek';;;;;'1';'L';
'BARRANQUILLA';'1.2.40.0.34.5.92';'Barranquilla';;;;;'1';'L';
'BARRY';'1.2.40.0.34.5.92';'Barry';;;;;'1';'L';
'BASINGSTOKE';'1.2.40.0.34.5.92';'Basingstoke';;;;;'1';'L';
'BASSA';'1.2.40.0.34.5.92';'Bassa';;;;;'1';'L';
'BASSADJI';'1.2.40.0.34.5.92';'Bassadji';;;;;'1';'L';
'BATA';'1.2.40.0.34.5.92';'Bata';;;;;'1';'L';
'BATONROUGE';'1.2.40.0.34.5.92';'Batonrouge';;;;;'1';'L';
'BATTLE';'1.2.40.0.34.5.92';'Battle';;;;;'1';'L';
'BAZENHEID';'1.2.40.0.34.5.92';'Bazenheid';;;;;'1';'L';
'BE';'1.2.40.0.34.5.92';'Be';;;;;'1';'L';
'BEAUDESERT';'1.2.40.0.34.5.92';'Beaudesert';;;;;'1';'L';
'BEDFORD';'1.2.40.0.34.5.92';'Bedford';;;;;'1';'L';
'BELEM';'1.2.40.0.34.5.92';'Belem';;;;;'1';'L';
'BELFAST';'1.2.40.0.34.5.92';'Belfast';;;;;'1';'L';
'BELLEVUE';'1.2.40.0.34.5.92';'Bellevue';;;;;'1';'L';
'BENFICA';'1.2.40.0.34.5.92';'Benfica';;;;;'1';'L';
'BENGUELLA';'1.2.40.0.34.5.92';'Benguella';;;;;'1';'L';
'BENIN';'1.2.40.0.34.5.92';'Benin';;;;;'1';'L';
'BENUE';'1.2.40.0.34.5.92';'Benue';;;;;'1';'L';
'BERE';'1.2.40.0.34.5.92';'Bere';;;;;'1';'L';
'BERGEDORF';'1.2.40.0.34.5.92';'Bergedorf';;;;;'1';'L';
'BERGEN';'1.2.40.0.34.5.92';'Bergen';;;;;'1';'L';
'BERGUES';'1.2.40.0.34.5.92';'Bergues';;;;;'1';'L';
'BERKELEY';'1.2.40.0.34.5.92';'Berkeley';;;;;'1';'L';
'BERLIN';'1.2.40.0.34.5.92';'Berlin';;;;;'1';'L';
'BERTA';'1.2.40.0.34.5.92';'Berta';;;;;'1';'L';
'BESSI';'1.2.40.0.34.5.92';'Bessi';;;;;'1';'L';
'BETHUNE';'1.2.40.0.34.5.92';'Bethune';;;;;'1';'L';
'BIAFRA';'1.2.40.0.34.5.92';'Biafra';;;;;'1';'L';
'BIDA';'1.2.40.0.34.5.92';'Bida';;;;;'1';'L';
'BIETRI';'1.2.40.0.34.5.92';'Bietri';;;;;'1';'L';
'BIGNONA';'1.2.40.0.34.5.92';'Bignona';;;;;'1';'L';
'BIJLMER';'1.2.40.0.34.5.92';'Bijlmer';;;;;'1';'L';
'BILU';'1.2.40.0.34.5.92';'Bilu';;;;;'1';'L';
'BINCHE';'1.2.40.0.34.5.92';'Binche';;;;;'1';'L';
'BINGERVILLE';'1.2.40.0.34.5.92';'Bingerville';;;;;'1';'L';
'BINNINGEN';'1.2.40.0.34.5.92';'Binningen';;;;;'1';'L';
'BIRKENHEAD';'1.2.40.0.34.5.92';'Birkenhead';;;;;'1';'L';
'BIRMINGHAM';'1.2.40.0.34.5.92';'Birmingham';;;;;'1';'L';
'BISPEBJERG';'1.2.40.0.34.5.92';'Bispebjerg';;;;;'1';'L';
'BISSAU';'1.2.40.0.34.5.92';'Bissau';;;;;'1';'L';
'BLANCMESNIL';'1.2.40.0.34.5.92';'Blancmesnil';;;;;'1';'L';
'BLEGDAM';'1.2.40.0.34.5.92';'Blegdam';;;;;'1';'L';
'BLIJDORP';'1.2.40.0.34.5.92';'Blijdorp';;;;;'1';'L';
'BLITTA';'1.2.40.0.34.5.92';'Blitta';;;;;'1';'L';
'BLOCKLEY';'1.2.40.0.34.5.92';'Blockley';;;;;'1';'L';
'BLOOMSBURY';'1.2.40.0.34.5.92';'Bloomsbury';;;;;'1';'L';
'BLUKWA';'1.2.40.0.34.5.92';'Blukwa';;;;;'1';'L';
'BOBO';'1.2.40.0.34.5.92';'Bobo';;;;;'1';'L';
'BOCHUM';'1.2.40.0.34.5.92';'Bochum';;;;;'1';'L';
'BODJONEGORO';'1.2.40.0.34.5.92';'Bodjonegoro';;;;;'1';'L';
'BOECKER';'1.2.40.0.34.5.92';'Boecker';;;;;'1';'L';
'BOFFLENS';'1.2.40.0.34.5.92';'Bofflens';;;;;'1';'L';
'BOKANJAC';'1.2.40.0.34.5.92';'Bokanjac';;;;;'1';'L';
'BOLAMA';'1.2.40.0.34.5.92';'Bolama';;;;;'1';'L';
'BOLOMBO';'1.2.40.0.34.5.92';'Bolombo';;;;;'1';'L';
'BOLTON';'1.2.40.0.34.5.92';'Bolton';;;;;'1';'L';
'BONAMES';'1.2.40.0.34.5.92';'Bonames';;;;;'1';'L';
'BONARIENSIS';'1.2.40.0.34.5.92';'Bonariensis';;;;;'1';'L';
'BONN';'1.2.40.0.34.5.92';'Bonn';;;;;'1';'L';
'BOOTLE';'1.2.40.0.34.5.92';'Bootle';;;;;'1';'L';
'BORBECK';'1.2.40.0.34.5.92';'Borbeck';;;;;'1';'L';
'BORDEAUX';'1.2.40.0.34.5.92';'Bordeaux';;;;;'1';'L';
'BORREZE';'1.2.40.0.34.5.92';'Borreze';;;;;'1';'L';
'BORROMEA';'1.2.40.0.34.5.92';'Borromea';;;;;'1';'L';
'BOUAKE';'1.2.40.0.34.5.92';'Bouake';;;;;'1';'L';
'BOURNEMOUTH';'1.2.40.0.34.5.92';'Bournemouth';;;;;'1';'L';
'BOUSSO';'1.2.40.0.34.5.92';'Bousso';;;;;'1';'L';
'BOVISMORBIFICANS';'1.2.40.0.34.5.92';'Bovismorbificans';;;;;'1';'L';
'BRACKENRIDGE';'1.2.40.0.34.5.92';'Brackenridge';;;;;'1';'L';
'BRACKNELL';'1.2.40.0.34.5.92';'Bracknell';;;;;'1';'L';
'BRADFORD';'1.2.40.0.34.5.92';'Bradford';;;;;'1';'L';
'BRAENDERUP';'1.2.40.0.34.5.92';'Braenderup';;;;;'1';'L';
'BRANCASTER';'1.2.40.0.34.5.92';'Brancaster';;;;;'1';'L';
'BRANDENBURG';'1.2.40.0.34.5.92';'Brandenburg';;;;;'1';'L';
'BRAZIL';'1.2.40.0.34.5.92';'Brazil';;;;;'1';'L';
'BRAZOS';'1.2.40.0.34.5.92';'Brazos';;;;;'1';'L';
'BRAZZAVILLE';'1.2.40.0.34.5.92';'Brazzaville';;;;;'1';'L';
'BREDA';'1.2.40.0.34.5.92';'Breda';;;;;'1';'L';
'BREDENEY';'1.2.40.0.34.5.92';'Bredeney';;;;;'1';'L';
'BREFET';'1.2.40.0.34.5.92';'Brefet';;;;;'1';'L';
'BREUKELEN';'1.2.40.0.34.5.92';'Breukelen';;;;;'1';'L';
'BREVIK';'1.2.40.0.34.5.92';'Brevik';;;;;'1';'L';
'BREZANY';'1.2.40.0.34.5.92';'Brezany';;;;;'1';'L';
'BRIJBHUMI';'1.2.40.0.34.5.92';'Brijbhumi';;;;;'1';'L';
'BRIKAMA';'1.2.40.0.34.5.92';'Brikama';;;;;'1';'L';
'BRINDISI';'1.2.40.0.34.5.92';'Brindisi';;;;;'1';'L';
'BRISBANE';'1.2.40.0.34.5.92';'Brisbane';;;;;'1';'L';
'BRISTOL';'1.2.40.0.34.5.92';'Bristol';;;;;'1';'L';
'BRIVE';'1.2.40.0.34.5.92';'Brive';;;;;'1';'L';
'BROC';'1.2.40.0.34.5.92';'Broc';;;;;'1';'L';
'BRON';'1.2.40.0.34.5.92';'Bron';;;;;'1';'L';
'BRONX';'1.2.40.0.34.5.92';'Bronx';;;;;'1';'L';
'BROOKLYN';'1.2.40.0.34.5.92';'Brooklyn';;;;;'1';'L';
'BROUGHTON';'1.2.40.0.34.5.92';'Broughton';;;;;'1';'L';
'BRUCK';'1.2.40.0.34.5.92';'Bruck';;;;;'1';'L';
'BRUEBACH';'1.2.40.0.34.5.92';'Bruebach';;;;;'1';'L';
'BRUNEI';'1.2.40.0.34.5.92';'Brunei';;;;;'1';'L';
'BRUNFLO';'1.2.40.0.34.5.92';'Brunflo';;;;;'1';'L';
'BSILLA';'1.2.40.0.34.5.92';'Bsilla';;;;;'1';'L';
'BUCKEYE';'1.2.40.0.34.5.92';'Buckeye';;;;;'1';'L';
'BUDAPEST';'1.2.40.0.34.5.92';'Budapest';;;;;'1';'L';
'BUKAVU';'1.2.40.0.34.5.92';'Bukavu';;;;;'1';'L';
'BUKURU';'1.2.40.0.34.5.92';'Bukuru';;;;;'1';'L';
'BULGARIA';'1.2.40.0.34.5.92';'Bulgaria';;;;;'1';'L';
'BULLBAY';'1.2.40.0.34.5.92';'Bullbay';;;;;'1';'L';
'BULOVKA';'1.2.40.0.34.5.92';'Bulovka';;;;;'1';'L';
'BURGAS';'1.2.40.0.34.5.92';'Burgas';;;;;'1';'L';
'BURUNDI';'1.2.40.0.34.5.92';'Burundi';;;;;'1';'L';
'BURY';'1.2.40.0.34.5.92';'Bury';;;;;'1';'L';
'BUSINGA';'1.2.40.0.34.5.92';'Businga';;;;;'1';'L';
'BUTANTAN';'1.2.40.0.34.5.92';'Butantan';;;;;'1';'L';
'BUTANTAN_VAR_15+';'1.2.40.0.34.5.92';'Butantan var. 15+';;;;;'1';'L';
'BUTARE';'1.2.40.0.34.5.92';'Butare';;;;;'1';'L';
'BUZU';'1.2.40.0.34.5.92';'Buzu';;;;;'1';'L';
'CAEN';'1.2.40.0.34.5.92';'Caen';;;;;'1';'L';
'CAIRINA';'1.2.40.0.34.5.92';'Cairina';;;;;'1';'L';
'CAIRNS';'1.2.40.0.34.5.92';'Cairns';;;;;'1';'L';
'CALABAR';'1.2.40.0.34.5.92';'Calabar';;;;;'1';'L';
'CALIFORNIA';'1.2.40.0.34.5.92';'California';;;;;'1';'L';
'CAMBERENE';'1.2.40.0.34.5.92';'Camberene';;;;;'1';'L';
'CAMBERWELL';'1.2.40.0.34.5.92';'Camberwell';;;;;'1';'L';
'CAMPINENSE';'1.2.40.0.34.5.92';'Campinense';;;;;'1';'L';
'CANADA';'1.2.40.0.34.5.92';'Canada';;;;;'1';'L';
'CANARY';'1.2.40.0.34.5.92';'Canary';;;;;'1';'L';
'CANNOBIO';'1.2.40.0.34.5.92';'Cannobio';;;;;'1';'L';
'CANNONHILL';'1.2.40.0.34.5.92';'Cannonhill';;;;;'1';'L';
'CANNSTATT';'1.2.40.0.34.5.92';'Cannstatt';;;;;'1';'L';
'CANTON';'1.2.40.0.34.5.92';'Canton';;;;;'1';'L';
'CARACAS';'1.2.40.0.34.5.92';'Caracas';;;;;'1';'L';
'CARDONER';'1.2.40.0.34.5.92';'Cardoner';;;;;'1';'L';
'CARMEL';'1.2.40.0.34.5.92';'Carmel';;;;;'1';'L';
'CARNAC';'1.2.40.0.34.5.92';'Carnac';;;;;'1';'L';
'CARNO';'1.2.40.0.34.5.92';'Carno';;;;;'1';'L';
'CARPENTRAS';'1.2.40.0.34.5.92';'Carpentras';;;;;'1';'L';
'CARRAU';'1.2.40.0.34.5.92';'Carrau';;;;;'1';'L';
'CARSWELL';'1.2.40.0.34.5.92';'Carswell';;;;;'1';'L';
'CASABLANCA';'1.2.40.0.34.5.92';'Casablanca';;;;;'1';'L';
'CASAMANCE';'1.2.40.0.34.5.92';'Casamance';;;;;'1';'L';
'CATALUNIA';'1.2.40.0.34.5.92';'Catalunia';;;;;'1';'L';
'CATANZARO';'1.2.40.0.34.5.92';'Catanzaro';;;;;'1';'L';
'CATUMAGOS';'1.2.40.0.34.5.92';'Catumagos';;;;;'1';'L';
'CAYAR';'1.2.40.0.34.5.92';'Cayar';;;;;'1';'L';
'CERRO';'1.2.40.0.34.5.92';'Cerro';;;;;'1';'L';
'CERRO_VAR_14+';'1.2.40.0.34.5.92';'Cerro var. 14+';;;;;'1';'L';
'CEYCO';'1.2.40.0.34.5.92';'Ceyco';;;;;'1';'L';
'CHAGOUA';'1.2.40.0.34.5.92';'Chagoua';;;;;'1';'L';
'CHAILEY';'1.2.40.0.34.5.92';'Chailey';;;;;'1';'L';
'CHAMPAIGN';'1.2.40.0.34.5.92';'Champaign';;;;;'1';'L';
'CHANDANS';'1.2.40.0.34.5.92';'Chandans';;;;;'1';'L';
'CHARITY';'1.2.40.0.34.5.92';'Charity';;;;;'1';'L';
'CHARLOTTENBURG';'1.2.40.0.34.5.92';'Charlottenburg';;;;;'1';'L';
'CHARTRES';'1.2.40.0.34.5.92';'Chartres';;;;;'1';'L';
'CHELTENHAM';'1.2.40.0.34.5.92';'Cheltenham';;;;;'1';'L';
'CHENNAI';'1.2.40.0.34.5.92';'Chennai';;;;;'1';'L';
'CHESTER';'1.2.40.0.34.5.92';'Chester';;;;;'1';'L';
'CHICAGO';'1.2.40.0.34.5.92';'Chicago';;;;;'1';'L';
'CHICHESTER';'1.2.40.0.34.5.92';'Chichester';;;;;'1';'L';
'CHICHIRI';'1.2.40.0.34.5.92';'Chichiri';;;;;'1';'L';
'CHILE';'1.2.40.0.34.5.92';'Chile';;;;;'1';'L';
'CHINCOL';'1.2.40.0.34.5.92';'Chincol';;;;;'1';'L';
'CHINGOLA';'1.2.40.0.34.5.92';'Chingola';;;;;'1';'L';
'CHIREDZI';'1.2.40.0.34.5.92';'Chiredzi';;;;;'1';'L';
'CHITTAGONG';'1.2.40.0.34.5.92';'Chittagong';;;;;'1';'L';
'CHOLERAESUIS';'1.2.40.0.34.5.92';'Choleraesuis';;;;;'1';'L';
'CHOLERAESUIS_VAR_DECATUR';'1.2.40.0.34.5.92';'Choleraesuis var. Decatur';;;;;'1';'L';
'CHOLERAESUIS_VAR_KUNZENDORF';'1.2.40.0.34.5.92';'Choleraesuis var. Kunzendorf';;;;;'1';'L';
'CHOMEDEY';'1.2.40.0.34.5.92';'Chomedey';;;;;'1';'L';
'CHRISTIANSBORG';'1.2.40.0.34.5.92';'Christiansborg';;;;;'1';'L';
'CLACKAMAS';'1.2.40.0.34.5.92';'Clackamas';;;;;'1';'L';
'CLAIBORNEI';'1.2.40.0.34.5.92';'Claibornei';;;;;'1';'L';
'CLANVILLIAN';'1.2.40.0.34.5.92';'Clanvillian';;;;;'1';'L';
'CLERKENWELL';'1.2.40.0.34.5.92';'Clerkenwell';;;;;'1';'L';
'CLEVELAND';'1.2.40.0.34.5.92';'Cleveland';;;;;'1';'L';
'CLONTARF';'1.2.40.0.34.5.92';'Clontarf';;;;;'1';'L';
'COCHIN';'1.2.40.0.34.5.92';'Cochin';;;;;'1';'L';
'COCHISE';'1.2.40.0.34.5.92';'Cochise';;;;;'1';'L';
'COCODY';'1.2.40.0.34.5.92';'Cocody';;;;;'1';'L';
'COELN';'1.2.40.0.34.5.92';'Coeln';;;;;'1';'L';
'COLEYPARK';'1.2.40.0.34.5.92';'Coleypark';;;;;'1';'L';
'COLINDALE';'1.2.40.0.34.5.92';'Colindale';;;;;'1';'L';
'COLOBANE';'1.2.40.0.34.5.92';'Colobane';;;;;'1';'L';
'COLOMBO';'1.2.40.0.34.5.92';'Colombo';;;;;'1';'L';
'COLORADO';'1.2.40.0.34.5.92';'Colorado';;;;;'1';'L';
'CONCORD';'1.2.40.0.34.5.92';'Concord';;;;;'1';'L';
'CONNECTICUT';'1.2.40.0.34.5.92';'Connecticut';;;;;'1';'L';
'COOGEE';'1.2.40.0.34.5.92';'Coogee';;;;;'1';'L';
'COQUILHATVILLE';'1.2.40.0.34.5.92';'Coquilhatville';;;;;'1';'L';
'COROMANDEL';'1.2.40.0.34.5.92';'Coromandel';;;;;'1';'L';
'CORVALLIS';'1.2.40.0.34.5.92';'Corvallis';;;;;'1';'L';
'COTHAM';'1.2.40.0.34.5.92';'Cotham';;;;;'1';'L';
'COTIA';'1.2.40.0.34.5.92';'Cotia';;;;;'1';'L';
'COTONOU';'1.2.40.0.34.5.92';'Cotonou';;;;;'1';'L';
'CREMIEU';'1.2.40.0.34.5.92';'Cremieu';;;;;'1';'L';
'CREWE';'1.2.40.0.34.5.92';'Crewe';;;;;'1';'L';
'CROFT';'1.2.40.0.34.5.92';'Croft';;;;;'1';'L';
'CROSSNESS';'1.2.40.0.34.5.92';'Crossness';;;;;'1';'L';
'CUBANA';'1.2.40.0.34.5.92';'Cubana';;;;;'1';'L';
'CUCKMERE';'1.2.40.0.34.5.92';'Cuckmere';;;;;'1';'L';
'CULLINGWORTH';'1.2.40.0.34.5.92';'Cullingworth';;;;;'1';'L';
'CUMBERLAND';'1.2.40.0.34.5.92';'Cumberland';;;;;'1';'L';
'CURACAO';'1.2.40.0.34.5.92';'Curacao';;;;;'1';'L';
'CYPRUS';'1.2.40.0.34.5.92';'Cyprus';;;;;'1';'L';
'CZERNYRING';'1.2.40.0.34.5.92';'Czernyring';;;;;'1';'L';
'DAARLE';'1.2.40.0.34.5.92';'Daarle';;;;;'1';'L';
'DABOU';'1.2.40.0.34.5.92';'Dabou';;;;;'1';'L';
'DADZIE';'1.2.40.0.34.5.92';'Dadzie';;;;;'1';'L';
'DAHLEM';'1.2.40.0.34.5.92';'Dahlem';;;;;'1';'L';
'DAHOMEY';'1.2.40.0.34.5.92';'Dahomey';;;;;'1';'L';
'DAHRA';'1.2.40.0.34.5.92';'Dahra';;;;;'1';'L';
'DAKAR';'1.2.40.0.34.5.92';'Dakar';;;;;'1';'L';
'DAKOTA';'1.2.40.0.34.5.92';'Dakota';;;;;'1';'L';
'DALLGOW';'1.2.40.0.34.5.92';'Dallgow';;;;;'1';'L';
'DAMMAN';'1.2.40.0.34.5.92';'Damman';;;;;'1';'L';
'DAN';'1.2.40.0.34.5.92';'Dan';;;;;'1';'L';
'DAPANGO';'1.2.40.0.34.5.92';'Dapango';;;;;'1';'L';
'DAULA';'1.2.40.0.34.5.92';'Daula';;;;;'1';'L';
'DAYTONA';'1.2.40.0.34.5.92';'Daytona';;;;;'1';'L';
'DECKSTEIN';'1.2.40.0.34.5.92';'Deckstein';;;;;'1';'L';
'DELAN';'1.2.40.0.34.5.92';'Delan';;;;;'1';'L';
'DELMENHORST';'1.2.40.0.34.5.92';'Delmenhorst';;;;;'1';'L';
'DEMBE';'1.2.40.0.34.5.92';'Dembe';;;;;'1';'L';
'DEMERARA';'1.2.40.0.34.5.92';'Demerara';;;;;'1';'L';
'DENVER';'1.2.40.0.34.5.92';'Denver';;;;;'1';'L';
'DERBY';'1.2.40.0.34.5.92';'Derby';;;;;'1';'L';
'DERKLE';'1.2.40.0.34.5.92';'Derkle';;;;;'1';'L';
'DESSAU';'1.2.40.0.34.5.92';'Dessau';;;;;'1';'L';
'DETMOLD';'1.2.40.0.34.5.92';'Detmold';;;;;'1';'L';
'DEVERSOIR';'1.2.40.0.34.5.92';'Deversoir';;;;;'1';'L';
'DIBRA';'1.2.40.0.34.5.92';'Dibra';;;;;'1';'L';
'DIETRICHSDORF';'1.2.40.0.34.5.92';'Dietrichsdorf';;;;;'1';'L';
'DIEUPPEUL';'1.2.40.0.34.5.92';'Dieuppeul';;;;;'1';'L';
'DIGUEL';'1.2.40.0.34.5.92';'Diguel';;;;;'1';'L';
'DINGIRI';'1.2.40.0.34.5.92';'Dingiri';;;;;'1';'L';
'DIOGOYE';'1.2.40.0.34.5.92';'Diogoye';;;;;'1';'L';
'DIOURBEL';'1.2.40.0.34.5.92';'Diourbel';;;;;'1';'L';
'DJAKARTA';'1.2.40.0.34.5.92';'Djakarta';;;;;'1';'L';
'DJAMA';'1.2.40.0.34.5.92';'Djama';;;;;'1';'L';
'DJELFA';'1.2.40.0.34.5.92';'Djelfa';;;;;'1';'L';
'DJERMAIA';'1.2.40.0.34.5.92';'Djermaia';;;;;'1';'L';
'DJIBOUTI';'1.2.40.0.34.5.92';'Djibouti';;;;;'1';'L';
'DJINTEN';'1.2.40.0.34.5.92';'Djinten';;;;;'1';'L';
'DJUGU';'1.2.40.0.34.5.92';'Djugu';;;;;'1';'L';
'DOBA';'1.2.40.0.34.5.92';'Doba';;;;;'1';'L';
'DOEL';'1.2.40.0.34.5.92';'Doel';;;;;'1';'L';
'DONCASTER';'1.2.40.0.34.5.92';'Doncaster';;;;;'1';'L';
'DONNA';'1.2.40.0.34.5.92';'Donna';;;;;'1';'L';
'DOORN';'1.2.40.0.34.5.92';'Doorn';;;;;'1';'L';
'DORTMUND';'1.2.40.0.34.5.92';'Dortmund';;;;;'1';'L';
'DOUALA';'1.2.40.0.34.5.92';'Douala';;;;;'1';'L';
'DOUGI';'1.2.40.0.34.5.92';'Dougi';;;;;'1';'L';
'DOULASSAME';'1.2.40.0.34.5.92';'Doulassame';;;;;'1';'L';
'DRAC';'1.2.40.0.34.5.92';'Drac';;;;;'1';'L';
'DRESDEN';'1.2.40.0.34.5.92';'Dresden';;;;;'1';'L';
'DRIFFIELD';'1.2.40.0.34.5.92';'Driffield';;;;;'1';'L';
'DROGANA';'1.2.40.0.34.5.92';'Drogana';;;;;'1';'L';
'DUBLIN';'1.2.40.0.34.5.92';'Dublin';;;;;'1';'L';
'DUESSELDORF';'1.2.40.0.34.5.92';'Duesseldorf';;;;;'1';'L';
'DUGBE';'1.2.40.0.34.5.92';'Dugbe';;;;;'1';'L';
'DUISBURG';'1.2.40.0.34.5.92';'Duisburg';;;;;'1';'L';
'DUMFRIES';'1.2.40.0.34.5.92';'Dumfries';;;;;'1';'L';
'DUNKWA';'1.2.40.0.34.5.92';'Dunkwa';;;;;'1';'L';
'DURBAN';'1.2.40.0.34.5.92';'Durban';;;;;'1';'L';
'DURHAM';'1.2.40.0.34.5.92';'Durham';;;;;'1';'L';
'DUVAL';'1.2.40.0.34.5.92';'Duval';;;;;'1';'L';
'EALING';'1.2.40.0.34.5.92';'Ealing';;;;;'1';'L';
'EASTBOURNE';'1.2.40.0.34.5.92';'Eastbourne';;;;;'1';'L';
'EASTGLAM';'1.2.40.0.34.5.92';'Eastglam';;;;;'1';'L';
'EAUBONNE';'1.2.40.0.34.5.92';'Eaubonne';;;;;'1';'L';
'EBERSWALDE';'1.2.40.0.34.5.92';'Eberswalde';;;;;'1';'L';
'EBOKO';'1.2.40.0.34.5.92';'Eboko';;;;;'1';'L';
'EBRIE';'1.2.40.0.34.5.92';'Ebrie';;;;;'1';'L';
'ECHA';'1.2.40.0.34.5.92';'Echa';;;;;'1';'L';
'EDE';'1.2.40.0.34.5.92';'Ede';;;;;'1';'L';
'EDINBURG';'1.2.40.0.34.5.92';'Edinburg';;;;;'1';'L';
'EDMONTON';'1.2.40.0.34.5.92';'Edmonton';;;;;'1';'L';
'EGUSI';'1.2.40.0.34.5.92';'Egusi';;;;;'1';'L';
'EGUSITOO';'1.2.40.0.34.5.92';'Egusitoo';;;;;'1';'L';
'EINGEDI';'1.2.40.0.34.5.92';'Eingedi';;;;;'1';'L';
'EKO';'1.2.40.0.34.5.92';'Eko';;;;;'1';'L';
'EKOTEDO';'1.2.40.0.34.5.92';'Ekotedo';;;;;'1';'L';
'EKPOUI';'1.2.40.0.34.5.92';'Ekpoui';;;;;'1';'L';
'ELISABETHVILLE';'1.2.40.0.34.5.92';'Elisabethville';;;;;'1';'L';
'ELOKATE';'1.2.40.0.34.5.92';'Elokate';;;;;'1';'L';
'ELOMRANE';'1.2.40.0.34.5.92';'Elomrane';;;;;'1';'L';
'EMEK';'1.2.40.0.34.5.92';'Emek';;;;;'1';'L';
'EMMASTAD';'1.2.40.0.34.5.92';'Emmastad';;;;;'1';'L';
'ENCINO';'1.2.40.0.34.5.92';'Encino';;;;;'1';'L';
'ENSCHEDE';'1.2.40.0.34.5.92';'Enschede';;;;;'1';'L';
'ENTEBBE';'1.2.40.0.34.5.92';'Entebbe';;;;;'1';'L';
'ENTERICA';'1.2.40.0.34.5.92';'Enterica (Subsp I)';;;;;'1';'L';
'ENTERICA_MONO';'1.2.40.0.34.5.92';'Enterica monophasic';;;;;'1';'L';
'ENTERITIDIS';'1.2.40.0.34.5.92';'Enteritidis';;;;;'1';'L';
'ENUGU';'1.2.40.0.34.5.92';'Enugu';;;;;'1';'L';
'EPALINGES';'1.2.40.0.34.5.92';'Epalinges';;;;;'1';'L';
'EPICRATES';'1.2.40.0.34.5.92';'Epicrates';;;;;'1';'L';
'EPINAY';'1.2.40.0.34.5.92';'Epinay';;;;;'1';'L';
'EPPENDORF';'1.2.40.0.34.5.92';'Eppendorf';;;;;'1';'L';
'ERFURT';'1.2.40.0.34.5.92';'Erfurt';;;;;'1';'L';
'ESCANABA';'1.2.40.0.34.5.92';'Escanaba';;;;;'1';'L';
'ESCHBERG';'1.2.40.0.34.5.92';'Eschberg';;;;;'1';'L';
'ESCHWEILER';'1.2.40.0.34.5.92';'Eschweiler';;;;;'1';'L';
'ESSEN';'1.2.40.0.34.5.92';'Essen';;;;;'1';'L';
'ESSINGEN';'1.2.40.0.34.5.92';'Essingen';;;;;'1';'L';
'ETTERBEEK';'1.2.40.0.34.5.92';'Etterbeek';;;;;'1';'L';
'EUSTON';'1.2.40.0.34.5.92';'Euston';;;;;'1';'L';
'EVERLEIGH';'1.2.40.0.34.5.92';'Everleigh';;;;;'1';'L';
'EVRY';'1.2.40.0.34.5.92';'Evry';;;;;'1';'L';
'EZRA';'1.2.40.0.34.5.92';'Ezra';;;;;'1';'L';
'FAIRFIELD';'1.2.40.0.34.5.92';'Fairfield';;;;;'1';'L';
'FAJARA';'1.2.40.0.34.5.92';'Fajara';;;;;'1';'L';
'FAJI';'1.2.40.0.34.5.92';'Faji';;;;;'1';'L';
'FALKENSEE';'1.2.40.0.34.5.92';'Falkensee';;;;;'1';'L';
'FALLOWFIELD';'1.2.40.0.34.5.92';'Fallowfield';;;;;'1';'L';
'FANN';'1.2.40.0.34.5.92';'Fann';;;;;'1';'L';
'FANTI';'1.2.40.0.34.5.92';'Fanti';;;;;'1';'L';
'FARAKAN';'1.2.40.0.34.5.92';'Farakan';;;;;'1';'L';
'FARCHA';'1.2.40.0.34.5.92';'Farcha';;;;;'1';'L';
'FAREHAM';'1.2.40.0.34.5.92';'Fareham';;;;;'1';'L';
'FARMINGDALE';'1.2.40.0.34.5.92';'Farmingdale';;;;;'1';'L';
'FARMSEN';'1.2.40.0.34.5.92';'Farmsen';;;;;'1';'L';
'FARSTA';'1.2.40.0.34.5.92';'Farsta';;;;;'1';'L';
'FASS';'1.2.40.0.34.5.92';'Fass';;;;;'1';'L';
'FAYED';'1.2.40.0.34.5.92';'Fayed';;;;;'1';'L';
'FEHRBELLIN';'1.2.40.0.34.5.92';'Fehrbellin';;;;;'1';'L';
'FERLO';'1.2.40.0.34.5.92';'Ferlo';;;;;'1';'L';
'FERRUCH';'1.2.40.0.34.5.92';'Ferruch';;;;;'1';'L';
'FILLMORE';'1.2.40.0.34.5.92';'Fillmore';;;;;'1';'L';
'FINAGHY';'1.2.40.0.34.5.92';'Finaghy';;;;;'1';'L';
'FINDORFF';'1.2.40.0.34.5.92';'Findorff';;;;;'1';'L';
'FINKENWERDER';'1.2.40.0.34.5.92';'Finkenwerder';;;;;'1';'L';
'FISCHERHUETTE';'1.2.40.0.34.5.92';'Fischerhuette';;;;;'1';'L';
'FISCHERKIETZ';'1.2.40.0.34.5.92';'Fischerkietz';;;;;'1';'L';
'FISCHERSTRASSE';'1.2.40.0.34.5.92';'Fischerstrasse';;;;;'1';'L';
'FITZROY';'1.2.40.0.34.5.92';'Fitzroy';;;;;'1';'L';
'FLORIAN';'1.2.40.0.34.5.92';'Florian';;;;;'1';'L';
'FLORIDA';'1.2.40.0.34.5.92';'Florida';;;;;'1';'L';
'FLOTTBEK';'1.2.40.0.34.5.92';'Flottbek';;;;;'1';'L';
'FLUNTERN';'1.2.40.0.34.5.92';'Fluntern';;;;;'1';'L';
'FOMECO';'1.2.40.0.34.5.92';'Fomeco';;;;;'1';'L';
'FORTLAMY';'1.2.40.0.34.5.92';'Fortlamy';;;;;'1';'L';
'FORTUNE';'1.2.40.0.34.5.92';'Fortune';;;;;'1';'L';
'FRANKEN';'1.2.40.0.34.5.92';'Franken';;;;;'1';'L';
'FRANKFURT';'1.2.40.0.34.5.92';'Frankfurt';;;;;'1';'L';
'FREDERIKSBERG';'1.2.40.0.34.5.92';'Frederiksberg';;;;;'1';'L';
'FREEFALLS';'1.2.40.0.34.5.92';'Freefalls';;;;;'1';'L';
'FREETOWN';'1.2.40.0.34.5.92';'Freetown';;;;;'1';'L';
'FREIBURG';'1.2.40.0.34.5.92';'Freiburg';;;;;'1';'L';
'FRESNO';'1.2.40.0.34.5.92';'Fresno';;;;;'1';'L';
'FRIEDENAU';'1.2.40.0.34.5.92';'Friedenau';;;;;'1';'L';
'FRIEDRICHSFELDE';'1.2.40.0.34.5.92';'Friedrichsfelde';;;;;'1';'L';
'FRINTROP';'1.2.40.0.34.5.92';'Frintrop';;;;;'1';'L';
'FUFU';'1.2.40.0.34.5.92';'Fufu';;;;;'1';'L';
'FULDA';'1.2.40.0.34.5.92';'Fulda';;;;;'1';'L';
'FULICA';'1.2.40.0.34.5.92';'Fulica';;;;;'1';'L';
'FYRIS';'1.2.40.0.34.5.92';'Fyris';;;;;'1';'L';
'GABON';'1.2.40.0.34.5.92';'Gabon';;;;;'1';'L';
'GAFSA';'1.2.40.0.34.5.92';'Gafsa';;;;;'1';'L';
'GAILLAC';'1.2.40.0.34.5.92';'Gaillac';;;;;'1';'L';
'GALIEMA';'1.2.40.0.34.5.92';'Galiema';;;;;'1';'L';
'GALIL';'1.2.40.0.34.5.92';'Galil';;;;;'1';'L';
'GALLEN';'1.2.40.0.34.5.92';'Gallen';;;;;'1';'L';
'GALLINARUM_';'1.2.40.0.34.5.92';'Gallinarum';;;;;'1';'L';
'GAMABA';'1.2.40.0.34.5.92';'Gamaba';;;;;'1';'L';
'GAMBAGA';'1.2.40.0.34.5.92';'Gambaga';;;;;'1';'L';
'GAMBIA';'1.2.40.0.34.5.92';'Gambia';;;;;'1';'L';
'GAMINARA';'1.2.40.0.34.5.92';'Gaminara';;;;;'1';'L';
'GARBA';'1.2.40.0.34.5.92';'Garba';;;;;'1';'L';
'GAROLI';'1.2.40.0.34.5.92';'Garoli';;;;;'1';'L';
'GASSI';'1.2.40.0.34.5.92';'Gassi';;;;;'1';'L';
'GATESHEAD';'1.2.40.0.34.5.92';'Gateshead';;;;;'1';'L';
'GATINEAU';'1.2.40.0.34.5.92';'Gatineau';;;;;'1';'L';
'GATOW';'1.2.40.0.34.5.92';'Gatow';;;;;'1';'L';
'GATUNI';'1.2.40.0.34.5.92';'Gatuni';;;;;'1';'L';
'GBADAGO';'1.2.40.0.34.5.92';'Gbadago';;;;;'1';'L';
'GDANSK';'1.2.40.0.34.5.92';'Gdansk';;;;;'1';'L';
'GDANSK_VAR_14+';'1.2.40.0.34.5.92';'Gdansk var. 14+';;;;;'1';'L';
'GEGE';'1.2.40.0.34.5.92';'Gege';;;;;'1';'L';
'GEORGIA';'1.2.40.0.34.5.92';'Georgia';;;;;'1';'L';
'GERA';'1.2.40.0.34.5.92';'Gera';;;;;'1';'L';
'GERALDTON';'1.2.40.0.34.5.92';'Geraldton';;;;;'1';'L';
'GERLAND';'1.2.40.0.34.5.92';'Gerland';;;;;'1';'L';
'GHANA';'1.2.40.0.34.5.92';'Ghana';;;;;'1';'L';
'GIESSEN';'1.2.40.0.34.5.92';'Giessen';;;;;'1';'L';
'GIVE';'1.2.40.0.34.5.92';'Give';;;;;'1';'L';
'GIVE_VAR_15+';'1.2.40.0.34.5.92';'Give var. 15+';;;;;'1';'L';
'GIVE_VAR_15+_34+';'1.2.40.0.34.5.92';'Give var. 15+, 34+';;;;;'1';'L';
'GIZA';'1.2.40.0.34.5.92';'Giza';;;;;'1';'L';
'GLASGOW';'1.2.40.0.34.5.92';'Glasgow';;;;;'1';'L';
'GLIDJI';'1.2.40.0.34.5.92';'Glidji';;;;;'1';'L';
'GLOSTRUP';'1.2.40.0.34.5.92';'Glostrup';;;;;'1';'L';
'GLOUCESTER';'1.2.40.0.34.5.92';'Gloucester';;;;;'1';'L';
'GNESTA';'1.2.40.0.34.5.92';'Gnesta';;;;;'1';'L';
'GODESBERG';'1.2.40.0.34.5.92';'Godesberg';;;;;'1';'L';
'GOELZAU';'1.2.40.0.34.5.92';'Goelzau';;;;;'1';'L';
'GOELZAU_VAR_15+';'1.2.40.0.34.5.92';'Goelzau var. 15+';;;;;'1';'L';
'GOETEBORG';'1.2.40.0.34.5.92';'Goeteborg';;;;;'1';'L';
'GOETTINGEN';'1.2.40.0.34.5.92';'Goettingen';;;;;'1';'L';
'GOKUL';'1.2.40.0.34.5.92';'Gokul';;;;;'1';'L';
'GOLDCOAST';'1.2.40.0.34.5.92';'Goldcoast';;;;;'1';'L';
'GOMA';'1.2.40.0.34.5.92';'Goma';;;;;'1';'L';
'GOMBE';'1.2.40.0.34.5.92';'Gombe';;;;;'1';'L';
'GOOD';'1.2.40.0.34.5.92';'Good';;;;;'1';'L';
'GORI';'1.2.40.0.34.5.92';'Gori';;;;;'1';'L';
'GOULFEY';'1.2.40.0.34.5.92';'Goulfey';;;;;'1';'L';
'GOULOUMBO';'1.2.40.0.34.5.92';'Gouloumbo';;;;;'1';'L';
'GOVERDHAN';'1.2.40.0.34.5.92';'Goverdhan';;;;;'1';'L';
'GOZO';'1.2.40.0.34.5.92';'Gozo';;;;;'1';'L';
'GRAMPIAN';'1.2.40.0.34.5.92';'Grampian';;;;;'1';'L';
'GRANCANARIA';'1.2.40.0.34.5.92';'Grancanaria';;;;;'1';'L';
'GRANDHAVEN';'1.2.40.0.34.5.92';'Grandhaven';;;;;'1';'L';
'GRANLO';'1.2.40.0.34.5.92';'Granlo';;;;;'1';'L';
'GRAZ';'1.2.40.0.34.5.92';'Graz';;;;;'1';'L';
'GREIZ';'1.2.40.0.34.5.92';'Greiz';;;;;'1';'L';
'GROENEKAN';'1.2.40.0.34.5.92';'Groenekan';;;;;'1';'L';
'GROUP11';'1.2.40.0.34.5.92';'Group O:11 (F)';;;;;'1';'L';
'GROUP13';'1.2.40.0.34.5.92';'Group O:13 (G)';;;;;'1';'L';
'GROUP16';'1.2.40.0.34.5.92';'Group O:16 (I)';;;;;'1';'L';
'GROUP17';'1.2.40.0.34.5.92';'Group O:17 (J)';;;;;'1';'L';
'GROUP18';'1.2.40.0.34.5.92';'Group O:18 (K)';;;;;'1';'L';
'GROUP1_3_19';'1.2.40.0.34.5.92';'Group (E4) O:1,3,19';;;;;'1';'L';
'GROUP2';'1.2.40.0.34.5.92';'Group O:2 (A)';;;;;'1';'L';
'GROUP21';'1.2.40.0.34.5.92';'Group O:21 (L)';;;;;'1';'L';
'GROUP28';'1.2.40.0.34.5.92';'Group O:28 (M)';;;;;'1';'L';
'GROUP30';'1.2.40.0.34.5.92';'Group O:30 (N)';;;;;'1';'L';
'GROUP35';'1.2.40.0.34.5.92';'Group O:35 (O)';;;;;'1';'L';
'GROUP38';'1.2.40.0.34.5.92';'Group O:38 (P)';;;;;'1';'L';
'GROUP39';'1.2.40.0.34.5.92';'Group O:39 (Q)';;;;;'1';'L';
'GROUP3_10';'1.2.40.0.34.5.92';'Group (E1) O:3,10';;;;;'1';'L';
'GROUP4';'1.2.40.0.34.5.92';'Group O:4 (B)';;;;;'1';'L';
'GROUP40';'1.2.40.0.34.5.92';'Group (R) O:40';;;;;'1';'L';
'GROUP41';'1.2.40.0.34.5.92';'Group O:41 (S)';;;;;'1';'L';
'GROUP42';'1.2.40.0.34.5.92';'Group O:42 (T)';;;;;'1';'L';
'GROUP43';'1.2.40.0.34.5.92';'Group O:43 (U)';;;;;'1';'L';
'GROUP44';'1.2.40.0.34.5.92';'Group O:44 (V)';;;;;'1';'L';
'GROUP45';'1.2.40.0.34.5.92';'Group O:45 (W)';;;;;'1';'L';
'GROUP47';'1.2.40.0.34.5.92';'Group O:47 (X)';;;;;'1';'L';
'GROUP48';'1.2.40.0.34.5.92';'Group O:48 (Y)';;;;;'1';'L';
'GROUP50';'1.2.40.0.34.5.92';'Group O:50 (Z)';;;;;'1';'L';
'GROUP51';'1.2.40.0.34.5.92';'Group O:51';;;;;'1';'L';
'GROUP52';'1.2.40.0.34.5.92';'Group O:52';;;;;'1';'L';
'GROUP53';'1.2.40.0.34.5.92';'Group O:53';;;;;'1';'L';
'GROUP54';'1.2.40.0.34.5.92';'Group O:54';;;;;'1';'L';
'GROUP55';'1.2.40.0.34.5.92';'Group O:55';;;;;'1';'L';
'GROUP56';'1.2.40.0.34.5.92';'Group O:56';;;;;'1';'L';
'GROUP57';'1.2.40.0.34.5.92';'Group O:57';;;;;'1';'L';
'GROUP58';'1.2.40.0.34.5.92';'Group O:58';;;;;'1';'L';
'GROUP59';'1.2.40.0.34.5.92';'Group O:59';;;;;'1';'L';
'GROUP60';'1.2.40.0.34.5.92';'Group O:60';;;;;'1';'L';
'GROUP61';'1.2.40.0.34.5.92';'Group O:61';;;;;'1';'L';
'GROUP62';'1.2.40.0.34.5.92';'Group O:62';;;;;'1';'L';
'GROUP63';'1.2.40.0.34.5.92';'Group O:63';;;;;'1';'L';
'GROUP65';'1.2.40.0.34.5.92';'Group O:65';;;;;'1';'L';
'GROUP66';'1.2.40.0.34.5.92';'Group O:66';;;;;'1';'L';
'GROUP67';'1.2.40.0.34.5.92';'Group O:67';;;;;'1';'L';
'GROUP6_14';'1.2.40.0.34.5.92';'Group (H) O:6,14';;;;;'1';'L';
'GROUP7';'1.2.40.0.34.5.92';'Group O:7 (C1)';;;;;'1';'L';
'GROUP8';'1.2.40.0.34.5.92';'Group O:8 (C2-C3)';;;;;'1';'L';
'GROUP9';'1.2.40.0.34.5.92';'Group O:9 (D1)';;;;;'1';'L';
'GROUP9_46';'1.2.40.0.34.5.92';'Group (D2) O:9,46';;;;;'1';'L';
'GROUP9_46_27';'1.2.40.0.34.5.92';'Group O:9,46,27 (D3)';;;;;'1';'L';
'GROUPA';'1.2.40.0.34.5.92';'Group (A) O:2';;;;;'1';'L';
'GROUPB';'1.2.40.0.34.5.92';'Group (B) O:4';;;;;'1';'L';
'GROUPC';'1.2.40.0.34.5.92';'GroupC';;;;;'1';'L';
'GROUPC1';'1.2.40.0.34.5.92';'Group (C1) O:7';;;;;'1';'L';
'GROUPC2';'1.2.40.0.34.5.92';'Group (C2-C3) O:8';;;;;'1';'L';
'GROUPD';'1.2.40.0.34.5.92';'GroupD';;;;;'1';'L';
'GROUPD1';'1.2.40.0.34.5.92';'Group (D1) O:9';;;;;'1';'L';
'GROUPD2';'1.2.40.0.34.5.92';'Group O:9,46 (D2)';;;;;'1';'L';
'GROUPD3';'1.2.40.0.34.5.92';'Group (D3) O:9,46,27';;;;;'1';'L';
'GROUPE';'1.2.40.0.34.5.92';'GroupE';;;;;'1';'L';
'GROUPE1';'1.2.40.0.34.5.92';'Group O:3,10 (E1)';;;;;'1';'L';
'GROUPE4';'1.2.40.0.34.5.92';'Group O:1,3,19 (E4)';;;;;'1';'L';
'GROUPG';'1.2.40.0.34.5.92';'Group (G) O:13';;;;;'1';'L';
'GROUPH';'1.2.40.0.34.5.92';'Group O:6,14 (H)';;;;;'1';'L';
'GROUPI';'1.2.40.0.34.5.92';'Group (I) O:16';;;;;'1';'L';
'GROUPJ';'1.2.40.0.34.5.92';'Group (J) O:17';;;;;'1';'L';
'GROUPK';'1.2.40.0.34.5.92';'Group (K) O:18';;;;;'1';'L';
'GROUPL';'1.2.40.0.34.5.92';'Group (L) O:21';;;;;'1';'L';
'GROUPM';'1.2.40.0.34.5.92';'Group (M) O:28';;;;;'1';'L';
'GROUPN';'1.2.40.0.34.5.92';'Group (N) O:30';;;;;'1';'L';
'GROUPO';'1.2.40.0.34.5.92';'Group (O) O:35';;;;;'1';'L';
'GROUPP';'1.2.40.0.34.5.92';'Group (P) O:38';;;;;'1';'L';
'GROUPQ';'1.2.40.0.34.5.92';'Group (Q) O:39';;;;;'1';'L';
'GROUPR';'1.2.40.0.34.5.92';'Group O:40 (R)';;;;;'1';'L';
'GROUPS';'1.2.40.0.34.5.92';'Group (S) O:41';;;;;'1';'L';
'GROUPT';'1.2.40.0.34.5.92';'Group (T) O:42';;;;;'1';'L';
'GROUPU';'1.2.40.0.34.5.92';'Group (U) O:43';;;;;'1';'L';
'GROUPV';'1.2.40.0.34.5.92';'Group (V) O:44';;;;;'1';'L';
'GROUPW';'1.2.40.0.34.5.92';'Group (W) O:45';;;;;'1';'L';
'GROUPX';'1.2.40.0.34.5.92';'Group (X) O:47';;;;;'1';'L';
'GROUPY';'1.2.40.0.34.5.92';'Group (Y) O:48';;;;;'1';'L';
'GROUPZ';'1.2.40.0.34.5.92';'Group (Z) O:50';;;;;'1';'L';
'GRUMPENSIS';'1.2.40.0.34.5.92';'Grumpensis';;;;;'1';'L';
'GUARAPIRANGA';'1.2.40.0.34.5.92';'Guarapiranga';;;;;'1';'L';
'GUERIN';'1.2.40.0.34.5.92';'Guerin';;;;;'1';'L';
'GUEULETAPEE';'1.2.40.0.34.5.92';'Gueuletapee';;;;;'1';'L';
'GUILDFORD';'1.2.40.0.34.5.92';'Guildford';;;;;'1';'L';
'GUINEA';'1.2.40.0.34.5.92';'Guinea';;;;;'1';'L';
'GUSTAVIA';'1.2.40.0.34.5.92';'Gustavia';;;;;'1';'L';
'GWALE';'1.2.40.0.34.5.92';'Gwale';;;;;'1';'L';
'GWOZA';'1.2.40.0.34.5.92';'Gwoza';;;;;'1';'L';
'HAARDT';'1.2.40.0.34.5.92';'Haardt';;;;;'1';'L';
'HADAR';'1.2.40.0.34.5.92';'Hadar';;;;;'1';'L';
'HADEJIA';'1.2.40.0.34.5.92';'Hadejia';;;;;'1';'L';
'HADUNA';'1.2.40.0.34.5.92';'Haduna';;;;;'1';'L';
'HAELSINGBORG';'1.2.40.0.34.5.92';'Haelsingborg';;;;;'1';'L';
'HAFERBREITE';'1.2.40.0.34.5.92';'Haferbreite';;;;;'1';'L';
'HAGA';'1.2.40.0.34.5.92';'Haga';;;;;'1';'L';
'HAIFA';'1.2.40.0.34.5.92';'Haifa';;;;;'1';'L';
'HALLE';'1.2.40.0.34.5.92';'Halle';;;;;'1';'L';
'HALLFOLD';'1.2.40.0.34.5.92';'Hallfold';;;;;'1';'L';
'HANDEN';'1.2.40.0.34.5.92';'Handen';;;;;'1';'L';
'HANN';'1.2.40.0.34.5.92';'Hann';;;;;'1';'L';
'HANNOVER';'1.2.40.0.34.5.92';'Hannover';;;;;'1';'L';
'HAOUARIA';'1.2.40.0.34.5.92';'Haouaria';;;;;'1';'L';
'HARBURG';'1.2.40.0.34.5.92';'Harburg';;;;;'1';'L';
'HARCOURT';'1.2.40.0.34.5.92';'Harcourt';;;;;'1';'L';
'HARLEYSTREET';'1.2.40.0.34.5.92';'Harleystreet';;;;;'1';'L';
'HARRISONBURG';'1.2.40.0.34.5.92';'Harrisonburg';;;;;'1';'L';
'HARTFORD';'1.2.40.0.34.5.92';'Hartford';;;;;'1';'L';
'HARVESTEHUDE';'1.2.40.0.34.5.92';'Harvestehude';;;;;'1';'L';
'HATFIELD';'1.2.40.0.34.5.92';'Hatfield';;;;;'1';'L';
'HATO';'1.2.40.0.34.5.92';'Hato';;;;;'1';'L';
'HAVANA';'1.2.40.0.34.5.92';'Havana';;;;;'1';'L';
'HAYINDOGO';'1.2.40.0.34.5.92';'Hayindogo';;;;;'1';'L';
'HEERLEN';'1.2.40.0.34.5.92';'Heerlen';;;;;'1';'L';
'HEGAU';'1.2.40.0.34.5.92';'Hegau';;;;;'1';'L';
'HEIDELBERG';'1.2.40.0.34.5.92';'Heidelberg';;;;;'1';'L';
'HEISTOPDENBERG';'1.2.40.0.34.5.92';'Heistopdenberg';;;;;'1';'L';
'HEMINGFORD';'1.2.40.0.34.5.92';'Hemingford';;;;;'1';'L';
'HENNEKAMP';'1.2.40.0.34.5.92';'Hennekamp';;;;;'1';'L';
'HERMANNSWERDER';'1.2.40.0.34.5.92';'Hermannswerder';;;;;'1';'L';
'HERON';'1.2.40.0.34.5.92';'Heron';;;;;'1';'L';
'HERSTON';'1.2.40.0.34.5.92';'Herston';;;;;'1';'L';
'HERZLIYA';'1.2.40.0.34.5.92';'Herzliya';;;;;'1';'L';
'HESSAREK';'1.2.40.0.34.5.92';'Hessarek';;;;;'1';'L';
'HIDALGO';'1.2.40.0.34.5.92';'Hidalgo';;;;;'1';'L';
'HIDUDDIFY';'1.2.40.0.34.5.92';'Hiduddify';;;;;'1';'L';
'HILLEGERSBERG';'1.2.40.0.34.5.92';'Hillegersberg';;;;;'1';'L';
'HILLINGDON';'1.2.40.0.34.5.92';'Hillingdon';;;;;'1';'L';
'HILLSBOROUGH';'1.2.40.0.34.5.92';'Hillsborough';;;;;'1';'L';
'HILVERSUM';'1.2.40.0.34.5.92';'Hilversum';;;;;'1';'L';
'HINDMARSH';'1.2.40.0.34.5.92';'Hindmarsh';;;;;'1';'L';
'HISINGEN';'1.2.40.0.34.5.92';'Hisingen';;;;;'1';'L';
'HISSAR';'1.2.40.0.34.5.92';'Hissar';;;;;'1';'L';
'HITHERGREEN';'1.2.40.0.34.5.92';'Hithergreen';;;;;'1';'L';
'HOBOKEN';'1.2.40.0.34.5.92';'Hoboken';;;;;'1';'L';
'HOFIT';'1.2.40.0.34.5.92';'Hofit';;;;;'1';'L';
'HOGHTON';'1.2.40.0.34.5.92';'Hoghton';;;;;'1';'L';
'HOHENTWIEL';'1.2.40.0.34.5.92';'Hohentwiel';;;;;'1';'L';
'HOLCOMB';'1.2.40.0.34.5.92';'Holcomb';;;;;'1';'L';
'HOMOSASSA';'1.2.40.0.34.5.92';'Homosassa';;;;;'1';'L';
'HONELIS';'1.2.40.0.34.5.92';'Honelis';;;;;'1';'L';
'HONGKONG';'1.2.40.0.34.5.92';'Hongkong';;;;;'1';'L';
'HORSHAM';'1.2.40.0.34.5.92';'Horsham';;;;;'1';'L';
'HOUSTON';'1.2.40.0.34.5.92';'Houston';;;;;'1';'L';
'HUDDINGE';'1.2.40.0.34.5.92';'Huddinge';;;;;'1';'L';
'HUETTWILEN';'1.2.40.0.34.5.92';'Huettwilen';;;;;'1';'L';
'HULL';'1.2.40.0.34.5.92';'Hull';;;;;'1';'L';
'HUVUDSTA';'1.2.40.0.34.5.92';'Huvudsta';;;;;'1';'L';
'HVITTINGFOSS';'1.2.40.0.34.5.92';'Hvittingfoss';;;;;'1';'L';
'HYDRA';'1.2.40.0.34.5.92';'Hydra';;;;;'1';'L';
'IBADAN';'1.2.40.0.34.5.92';'Ibadan';;;;;'1';'L';
'IBARAGI';'1.2.40.0.34.5.92';'Ibaragi';;;;;'1';'L';
'IDIKAN';'1.2.40.0.34.5.92';'Idikan';;;;;'1';'L';
'IKAYI';'1.2.40.0.34.5.92';'Ikayi';;;;;'1';'L';
'IKEJA';'1.2.40.0.34.5.92';'Ikeja';;;;;'1';'L';
'ILALA';'1.2.40.0.34.5.92';'Ilala';;;;;'1';'L';
'ILUGUN';'1.2.40.0.34.5.92';'Ilugun';;;;;'1';'L';
'IMO';'1.2.40.0.34.5.92';'Imo';;;;;'1';'L';
'INCHPARK';'1.2.40.0.34.5.92';'Inchpark';;;;;'1';'L';
'INDIA';'1.2.40.0.34.5.92';'India';;;;;'1';'L';
'INDIANA';'1.2.40.0.34.5.92';'Indiana';;;;;'1';'L';
'INFANTIS';'1.2.40.0.34.5.92';'Infantis';;;;;'1';'L';
'INGANDA';'1.2.40.0.34.5.92';'Inganda';;;;;'1';'L';
'INGLIS';'1.2.40.0.34.5.92';'Inglis';;;;;'1';'L';
'INPRAW';'1.2.40.0.34.5.92';'Inpraw';;;;;'1';'L';
'INVERNESS';'1.2.40.0.34.5.92';'Inverness';;;;;'1';'L';
'IPEKO';'1.2.40.0.34.5.92';'Ipeko';;;;;'1';'L';
'IPSWICH';'1.2.40.0.34.5.92';'Ipswich';;;;;'1';'L';
'IRCHEL';'1.2.40.0.34.5.92';'Irchel';;;;;'1';'L';
'IRENEA';'1.2.40.0.34.5.92';'Irenea';;;;;'1';'L';
'IRIGNY';'1.2.40.0.34.5.92';'Irigny';;;;;'1';'L';
'IRUMU';'1.2.40.0.34.5.92';'Irumu';;;;;'1';'L';
'ISANGI';'1.2.40.0.34.5.92';'Isangi';;;;;'1';'L';
'ISASZEG';'1.2.40.0.34.5.92';'Isaszeg';;;;;'1';'L';
'ISRAEL';'1.2.40.0.34.5.92';'Israel';;;;;'1';'L';
'ISTANBUL';'1.2.40.0.34.5.92';'Istanbul';;;;;'1';'L';
'ISTORIA';'1.2.40.0.34.5.92';'Istoria';;;;;'1';'L';
'ISUGE';'1.2.40.0.34.5.92';'Isuge';;;;;'1';'L';
'ITAMI';'1.2.40.0.34.5.92';'Itami';;;;;'1';'L';
'ITURI';'1.2.40.0.34.5.92';'Ituri';;;;;'1';'L';
'ITUTABA';'1.2.40.0.34.5.92';'Itutaba';;;;;'1';'L';
'IVORY';'1.2.40.0.34.5.92';'Ivory';;;;;'1';'L';
'IVORYCOAST';'1.2.40.0.34.5.92';'Ivorycoast';;;;;'1';'L';
'IVRYSURSEINE';'1.2.40.0.34.5.92';'Ivrysurseine';;;;;'1';'L';
'JAFFNA';'1.2.40.0.34.5.92';'Jaffna';;;;;'1';'L';
'JALISCO';'1.2.40.0.34.5.92';'Jalisco';;;;;'1';'L';
'JAMAICA';'1.2.40.0.34.5.92';'Jamaica';;;;;'1';'L';
'JAMBUR';'1.2.40.0.34.5.92';'Jambur';;;;;'1';'L';
'JANGWANI';'1.2.40.0.34.5.92';'Jangwani';;;;;'1';'L';
'JAVA';'1.2.40.0.34.5.92';'Java';;;;;'1';'L';
'JAVIANA';'1.2.40.0.34.5.92';'Javiana';;;;;'1';'L';
'JEDBURGH';'1.2.40.0.34.5.92';'Jedburgh';;;;;'1';'L';
'JERICHO';'1.2.40.0.34.5.92';'Jericho';;;;;'1';'L';
'JERUSALEM';'1.2.40.0.34.5.92';'Jerusalem';;;;;'1';'L';
'JOAL';'1.2.40.0.34.5.92';'Joal';;;;;'1';'L';
'JODHPUR';'1.2.40.0.34.5.92';'Jodhpur';;;;;'1';'L';
'JOHANNESBURG';'1.2.40.0.34.5.92';'Johannesburg';;;;;'1';'L';
'JOS';'1.2.40.0.34.5.92';'Jos';;;;;'1';'L';
'JUBA';'1.2.40.0.34.5.92';'Juba';;;;;'1';'L';
'JUBILEE';'1.2.40.0.34.5.92';'Jubilee';;;;;'1';'L';
'JUKESTOWN';'1.2.40.0.34.5.92';'Jukestown';;;;;'1';'L';
'KAAPSTAD';'1.2.40.0.34.5.92';'Kaapstad';;;;;'1';'L';
'KABETE';'1.2.40.0.34.5.92';'Kabete';;;;;'1';'L';
'KADUNA';'1.2.40.0.34.5.92';'Kaduna';;;;;'1';'L';
'KAEVLINGE';'1.2.40.0.34.5.92';'Kaevlinge';;;;;'1';'L';
'KAHLA';'1.2.40.0.34.5.92';'Kahla';;;;;'1';'L';
'KAINJI';'1.2.40.0.34.5.92';'Kainji';;;;;'1';'L';
'KAITAAN';'1.2.40.0.34.5.92';'Kaitaan';;;;;'1';'L';
'KALAMU';'1.2.40.0.34.5.92';'Kalamu';;;;;'1';'L';
'KALINA';'1.2.40.0.34.5.92';'Kalina';;;;;'1';'L';
'KALLO';'1.2.40.0.34.5.92';'Kallo';;;;;'1';'L';
'KALUMBURU';'1.2.40.0.34.5.92';'Kalumburu';;;;;'1';'L';
'KAMBOLE';'1.2.40.0.34.5.92';'Kambole';;;;;'1';'L';
'KAMORU';'1.2.40.0.34.5.92';'Kamoru';;;;;'1';'L';
'KAMPALA';'1.2.40.0.34.5.92';'Kampala';;;;;'1';'L';
'KANDE';'1.2.40.0.34.5.92';'Kande';;;;;'1';'L';
'KANDLA';'1.2.40.0.34.5.92';'Kandla';;;;;'1';'L';
'KANESHIE';'1.2.40.0.34.5.92';'Kaneshie';;;;;'1';'L';
'KANIFING';'1.2.40.0.34.5.92';'Kanifing';;;;;'1';'L';
'KANO';'1.2.40.0.34.5.92';'Kano';;;;;'1';'L';
'KAOLACK';'1.2.40.0.34.5.92';'Kaolack';;;;;'1';'L';
'KAPEMBA';'1.2.40.0.34.5.92';'Kapemba';;;;;'1';'L';
'KARACHI';'1.2.40.0.34.5.92';'Karachi';;;;;'1';'L';
'KARAMOJA';'1.2.40.0.34.5.92';'Karamoja';;;;;'1';'L';
'KARAYA';'1.2.40.0.34.5.92';'Karaya';;;;;'1';'L';
'KARLSHAMN';'1.2.40.0.34.5.92';'Karlshamn';;;;;'1';'L';
'KASENYI';'1.2.40.0.34.5.92';'Kasenyi';;;;;'1';'L';
'KASSBERG';'1.2.40.0.34.5.92';'Kassberg';;;;;'1';'L';
'KASSEL';'1.2.40.0.34.5.92';'Kassel';;;;;'1';'L';
'KASTRUP';'1.2.40.0.34.5.92';'Kastrup';;;;;'1';'L';
'KEDOUGOU';'1.2.40.0.34.5.92';'Kedougou';;;;;'1';'L';
'KENTUCKY';'1.2.40.0.34.5.92';'Kentucky';;;;;'1';'L';
'KENYA';'1.2.40.0.34.5.92';'Kenya';;;;;'1';'L';
'KERMEL';'1.2.40.0.34.5.92';'Kermel';;;;;'1';'L';
'KETHIABARNY';'1.2.40.0.34.5.92';'Kethiabarny';;;;;'1';'L';
'KEURMASSAR';'1.2.40.0.34.5.92';'Keurmassar';;;;;'1';'L';
'KEVE';'1.2.40.0.34.5.92';'Keve';;;;;'1';'L';
'KIAMBU';'1.2.40.0.34.5.92';'Kiambu';;;;;'1';'L';
'KIBI';'1.2.40.0.34.5.92';'Kibi';;;;;'1';'L';
'KIBUSI';'1.2.40.0.34.5.92';'Kibusi';;;;;'1';'L';
'KIDDERMINSTER';'1.2.40.0.34.5.92';'Kidderminster';;;;;'1';'L';
'KIEL';'1.2.40.0.34.5.92';'Kiel';;;;;'1';'L';
'KIKOMA';'1.2.40.0.34.5.92';'Kikoma';;;;;'1';'L';
'KIMBERLEY';'1.2.40.0.34.5.92';'Kimberley';;;;;'1';'L';
'KIMPESE';'1.2.40.0.34.5.92';'Kimpese';;;;;'1';'L';
'KIMUENZA';'1.2.40.0.34.5.92';'Kimuenza';;;;;'1';'L';
'KINDIA';'1.2.40.0.34.5.92';'Kindia';;;;;'1';'L';
'KINGABWA';'1.2.40.0.34.5.92';'Kingabwa';;;;;'1';'L';
'KINGSTON';'1.2.40.0.34.5.92';'Kingston';;;;;'1';'L';
'KINONDONI';'1.2.40.0.34.5.92';'Kinondoni';;;;;'1';'L';
'KINSON';'1.2.40.0.34.5.92';'Kinson';;;;;'1';'L';
'KINTAMBO';'1.2.40.0.34.5.92';'Kintambo';;;;;'1';'L';
'KIRKEE';'1.2.40.0.34.5.92';'Kirkee';;;;;'1';'L';
'KISANGANI';'1.2.40.0.34.5.92';'Kisangani';;;;;'1';'L';
'KISARAWE';'1.2.40.0.34.5.92';'Kisarawe';;;;;'1';'L';
'KISII';'1.2.40.0.34.5.92';'Kisii';;;;;'1';'L';
'KITENGE';'1.2.40.0.34.5.92';'Kitenge';;;;;'1';'L';
'KIVU';'1.2.40.0.34.5.92';'Kivu';;;;;'1';'L';
'KLOUTO';'1.2.40.0.34.5.92';'Klouto';;;;;'1';'L';
'KOBLENZ';'1.2.40.0.34.5.92';'Koblenz';;;;;'1';'L';
'KODJOVI';'1.2.40.0.34.5.92';'Kodjovi';;;;;'1';'L';
'KOENIGSTUHL';'1.2.40.0.34.5.92';'Koenigstuhl';;;;;'1';'L';
'KOESSEN';'1.2.40.0.34.5.92';'Koessen';;;;;'1';'L';
'KOFANDOKA';'1.2.40.0.34.5.92';'Kofandoka';;;;;'1';'L';
'KOKETIME';'1.2.40.0.34.5.92';'Koketime';;;;;'1';'L';
'KOKOLI';'1.2.40.0.34.5.92';'Kokoli';;;;;'1';'L';
'KOKOMLEMLE';'1.2.40.0.34.5.92';'Kokomlemle';;;;;'1';'L';
'KOLAR';'1.2.40.0.34.5.92';'Kolar';;;;;'1';'L';
'KOLDA';'1.2.40.0.34.5.92';'Kolda';;;;;'1';'L';
'KONOLFINGEN';'1.2.40.0.34.5.92';'Konolfingen';;;;;'1';'L';
'KONONGO';'1.2.40.0.34.5.92';'Konongo';;;;;'1';'L';
'KONSTANZ';'1.2.40.0.34.5.92';'Konstanz';;;;;'1';'L';
'KORBOL';'1.2.40.0.34.5.92';'Korbol';;;;;'1';'L';
'KORKEASAARI';'1.2.40.0.34.5.92';'Korkeasaari';;;;;'1';'L';
'KORLEBU';'1.2.40.0.34.5.92';'Korlebu';;;;;'1';'L';
'KOROVI';'1.2.40.0.34.5.92';'Korovi';;;;;'1';'L';
'KORTRIJK';'1.2.40.0.34.5.92';'Kortrijk';;;;;'1';'L';
'KOTTBUS';'1.2.40.0.34.5.92';'Kottbus';;;;;'1';'L';
'KOTTE';'1.2.40.0.34.5.92';'Kotte';;;;;'1';'L';
'KOTU';'1.2.40.0.34.5.92';'Kotu';;;;;'1';'L';
'KOUKA';'1.2.40.0.34.5.92';'Kouka';;;;;'1';'L';
'KOUMRA';'1.2.40.0.34.5.92';'Koumra';;;;;'1';'L';
'KPEME';'1.2.40.0.34.5.92';'Kpeme';;;;;'1';'L';
'KRALINGEN';'1.2.40.0.34.5.92';'Kralingen';;;;;'1';'L';
'KREFELD';'1.2.40.0.34.5.92';'Krefeld';;;;;'1';'L';
'KRISTIANSTAD';'1.2.40.0.34.5.92';'Kristianstad';;;;;'1';'L';
'KUA';'1.2.40.0.34.5.92';'Kua';;;;;'1';'L';
'KUBACHA';'1.2.40.0.34.5.92';'Kubacha';;;;;'1';'L';
'KUESSEL';'1.2.40.0.34.5.92';'Kuessel';;;;;'1';'L';
'KUMASI';'1.2.40.0.34.5.92';'Kumasi';;;;;'1';'L';
'KUNDUCHI';'1.2.40.0.34.5.92';'Kunduchi';;;;;'1';'L';
'KUNTAIR';'1.2.40.0.34.5.92';'Kuntair';;;;;'1';'L';
'KURU';'1.2.40.0.34.5.92';'Kuru';;;;;'1';'L';
'LABADI';'1.2.40.0.34.5.92';'Labadi';;;;;'1';'L';
'LAGOS';'1.2.40.0.34.5.92';'Lagos';;;;;'1';'L';
'LAMBERHURST';'1.2.40.0.34.5.92';'Lamberhurst';;;;;'1';'L';
'LAMIN';'1.2.40.0.34.5.92';'Lamin';;;;;'1';'L';
'LAMPHUN';'1.2.40.0.34.5.92';'Lamphun';;;;;'1';'L';
'LANCASTER';'1.2.40.0.34.5.92';'Lancaster';;;;;'1';'L';
'LANDALA';'1.2.40.0.34.5.92';'Landala';;;;;'1';'L';
'LANDAU';'1.2.40.0.34.5.92';'Landau';;;;;'1';'L';
'LANDWASSER';'1.2.40.0.34.5.92';'Landwasser';;;;;'1';'L';
'LANGENHORN';'1.2.40.0.34.5.92';'Langenhorn';;;;;'1';'L';
'LANGENSALZA';'1.2.40.0.34.5.92';'Langensalza';;;;;'1';'L';
'LANGEVELD';'1.2.40.0.34.5.92';'Langeveld';;;;;'1';'L';
'LANGFORD';'1.2.40.0.34.5.92';'Langford';;;;;'1';'L';
'LANSING';'1.2.40.0.34.5.92';'Lansing';;;;;'1';'L';
'LAREDO';'1.2.40.0.34.5.92';'Laredo';;;;;'1';'L';
'LAROCHELLE';'1.2.40.0.34.5.92';'Larochelle';;;;;'1';'L';
'LAROSE';'1.2.40.0.34.5.92';'Larose';;;;;'1';'L';
'LATTENKAMP';'1.2.40.0.34.5.92';'Lattenkamp';;;;;'1';'L';
'LAWNDALE';'1.2.40.0.34.5.92';'Lawndale';;;;;'1';'L';
'LAWRA';'1.2.40.0.34.5.92';'Lawra';;;;;'1';'L';
'LEATHERHEAD';'1.2.40.0.34.5.92';'Leatherhead';;;;;'1';'L';
'LECHLER';'1.2.40.0.34.5.92';'Lechler';;;;;'1';'L';
'LEDA';'1.2.40.0.34.5.92';'Leda';;;;;'1';'L';
'LEER';'1.2.40.0.34.5.92';'Leer';;;;;'1';'L';
'LEEUWARDEN';'1.2.40.0.34.5.92';'Leeuwarden';;;;;'1';'L';
'LEGON';'1.2.40.0.34.5.92';'Legon';;;;;'1';'L';
'LEHRTE';'1.2.40.0.34.5.92';'Lehrte';;;;;'1';'L';
'LEIDEN';'1.2.40.0.34.5.92';'Leiden';;;;;'1';'L';
'LEIPZIG';'1.2.40.0.34.5.92';'Leipzig';;;;;'1';'L';
'LEITH';'1.2.40.0.34.5.92';'Leith';;;;;'1';'L';
'LEKKE';'1.2.40.0.34.5.92';'Lekke';;;;;'1';'L';
'LENE';'1.2.40.0.34.5.92';'Lene';;;;;'1';'L';
'LEOBEN';'1.2.40.0.34.5.92';'Leoben';;;;;'1';'L';
'LEOPOLDVILLE';'1.2.40.0.34.5.92';'Leopoldville';;;;;'1';'L';
'LERUM';'1.2.40.0.34.5.92';'Lerum';;;;;'1';'L';
'LEXINGTON';'1.2.40.0.34.5.92';'Lexington';;;;;'1';'L';
'LEXINGTON_VAR_15+';'1.2.40.0.34.5.92';'Lexington var. 15+';;;;;'1';'L';
'LEXINGTON_VAR_15+_34+';'1.2.40.0.34.5.92';'Lexington var. 15+, 34+';;;;;'1';'L';
'LEZENNES';'1.2.40.0.34.5.92';'Lezennes';;;;;'1';'L';
'LIBREVILLE';'1.2.40.0.34.5.92';'Libreville';;;;;'1';'L';
'LIGEO';'1.2.40.0.34.5.92';'Ligeo';;;;;'1';'L';
'LIGNA';'1.2.40.0.34.5.92';'Ligna';;;;;'1';'L';
'LIKA';'1.2.40.0.34.5.92';'Lika';;;;;'1';'L';
'LILLE';'1.2.40.0.34.5.92';'Lille';;;;;'1';'L';
'LILLE_VAR_14+';'1.2.40.0.34.5.92';'Lille var. 14+';;;;;'1';'L';
'LIMETE';'1.2.40.0.34.5.92';'Limete';;;;;'1';'L';
'LINDENBURG';'1.2.40.0.34.5.92';'Lindenburg';;;;;'1';'L';
'LINDERN';'1.2.40.0.34.5.92';'Lindern';;;;;'1';'L';
'LINDI';'1.2.40.0.34.5.92';'Lindi';;;;;'1';'L';
'LINGUERE';'1.2.40.0.34.5.92';'Linguere';;;;;'1';'L';
'LINGWALA';'1.2.40.0.34.5.92';'Lingwala';;;;;'1';'L';
'LINTON';'1.2.40.0.34.5.92';'Linton';;;;;'1';'L';
'LISBOA';'1.2.40.0.34.5.92';'Lisboa';;;;;'1';'L';
'LISHABI';'1.2.40.0.34.5.92';'Lishabi';;;;;'1';'L';
'LITCHFIELD';'1.2.40.0.34.5.92';'Litchfield';;;;;'1';'L';
'LIVERPOOL';'1.2.40.0.34.5.92';'Liverpool';;;;;'1';'L';
'LIVINGSTONE';'1.2.40.0.34.5.92';'Livingstone';;;;;'1';'L';
'LIVINGSTONE_VAR_14+';'1.2.40.0.34.5.92';'Livingstone var. 14+';;;;;'1';'L';
'LIVULU';'1.2.40.0.34.5.92';'Livulu';;;;;'1';'L';
'LJUBLJANA';'1.2.40.0.34.5.92';'Ljubljana';;;;;'1';'L';
'LLANDOFF';'1.2.40.0.34.5.92';'Llandoff';;;;;'1';'L';
'LLOBREGAT';'1.2.40.0.34.5.92';'Llobregat';;;;;'1';'L';
'LOANDA';'1.2.40.0.34.5.92';'Loanda';;;;;'1';'L';
'LOCKLEAZE';'1.2.40.0.34.5.92';'Lockleaze';;;;;'1';'L';
'LODE';'1.2.40.0.34.5.92';'Lode';;;;;'1';'L';
'LODZ';'1.2.40.0.34.5.92';'Lodz';;;;;'1';'L';
'LOENGA';'1.2.40.0.34.5.92';'Loenga';;;;;'1';'L';
'LOGONE';'1.2.40.0.34.5.92';'Logone';;;;;'1';'L';
'LOKOMO';'1.2.40.0.34.5.92';'Lokomo';;;;;'1';'L';
'LOKSTEDT';'1.2.40.0.34.5.92';'Lokstedt';;;;;'1';'L';
'LOMALINDA';'1.2.40.0.34.5.92';'Lomalinda';;;;;'1';'L';
'LOME';'1.2.40.0.34.5.92';'Lome';;;;;'1';'L';
'LOMITA';'1.2.40.0.34.5.92';'Lomita';;;;;'1';'L';
'LOMNAVA';'1.2.40.0.34.5.92';'Lomnava';;;;;'1';'L';
'LONDON';'1.2.40.0.34.5.92';'London';;;;;'1';'L';
'LONDON_VAR_15+_';'1.2.40.0.34.5.92';'London var. 15+';;;;;'1';'L';
'LONESTAR';'1.2.40.0.34.5.92';'Lonestar';;;;;'1';'L';
'LOSANGELES';'1.2.40.0.34.5.92';'Losangeles';;;;;'1';'L';
'LOUBOMO';'1.2.40.0.34.5.92';'Loubomo';;;;;'1';'L';
'LOUGA';'1.2.40.0.34.5.92';'Louga';;;;;'1';'L';
'LOUISIANA';'1.2.40.0.34.5.92';'Louisiana';;;;;'1';'L';
'LOVELACE';'1.2.40.0.34.5.92';'Lovelace';;;;;'1';'L';
'LOWESTOFT';'1.2.40.0.34.5.92';'Lowestoft';;;;;'1';'L';
'LUBUMBASHI';'1.2.40.0.34.5.92';'Lubumbashi';;;;;'1';'L';
'LUCIANA';'1.2.40.0.34.5.92';'Luciana';;;;;'1';'L';
'LUCKENWALDE';'1.2.40.0.34.5.92';'Luckenwalde';;;;;'1';'L';
'LUEDINGHAUSEN';'1.2.40.0.34.5.92';'Luedinghausen';;;;;'1';'L';
'LUKE';'1.2.40.0.34.5.92';'Luke';;;;;'1';'L';
'LUND';'1.2.40.0.34.5.92';'Lund';;;;;'1';'L';
'LUTETIA';'1.2.40.0.34.5.92';'Lutetia';;;;;'1';'L';
'LYON';'1.2.40.0.34.5.92';'Lyon';;;;;'1';'L';
'MAASTRICHT';'1.2.40.0.34.5.92';'Maastricht';;;;;'1';'L';
'MACALLEN';'1.2.40.0.34.5.92';'Macallen';;;;;'1';'L';
'MACCLESFIELD';'1.2.40.0.34.5.92';'Macclesfield';;;;;'1';'L';
'MACHAGA';'1.2.40.0.34.5.92';'Machaga';;;;;'1';'L';
'MADELIA';'1.2.40.0.34.5.92';'Madelia';;;;;'1';'L';
'MADIAGO';'1.2.40.0.34.5.92';'Madiago';;;;;'1';'L';
'MADIGAN';'1.2.40.0.34.5.92';'Madigan';;;;;'1';'L';
'MADISON';'1.2.40.0.34.5.92';'Madison';;;;;'1';'L';
'MADJORIO';'1.2.40.0.34.5.92';'Madjorio';;;;;'1';'L';
'MADRAS';'1.2.40.0.34.5.92';'Madras';;;;;'1';'L';
'MAGHERAFELT';'1.2.40.0.34.5.92';'Magherafelt';;;;;'1';'L';
'MAGUMERI';'1.2.40.0.34.5.92';'Magumeri';;;;;'1';'L';
'MAGWA';'1.2.40.0.34.5.92';'Magwa';;;;;'1';'L';
'MAHINA';'1.2.40.0.34.5.92';'Mahina';;;;;'1';'L';
'MAIDUGURI';'1.2.40.0.34.5.92';'Maiduguri';;;;;'1';'L';
'MAKILING';'1.2.40.0.34.5.92';'Makiling';;;;;'1';'L';
'MAKISO';'1.2.40.0.34.5.92';'Makiso';;;;;'1';'L';
'MALAKAL';'1.2.40.0.34.5.92';'Malakal';;;;;'1';'L';
'MALAYSIA';'1.2.40.0.34.5.92';'Malaysia';;;;;'1';'L';
'MALIKA';'1.2.40.0.34.5.92';'Malika';;;;;'1';'L';
'MALMOE';'1.2.40.0.34.5.92';'Malmoe';;;;;'1';'L';
'MALSTATT';'1.2.40.0.34.5.92';'Malstatt';;;;;'1';'L';
'MAMPEZA';'1.2.40.0.34.5.92';'Mampeza';;;;;'1';'L';
'MAMPONG';'1.2.40.0.34.5.92';'Mampong';;;;;'1';'L';
'MANA';'1.2.40.0.34.5.92';'Mana';;;;;'1';'L';
'MANCHESTER';'1.2.40.0.34.5.92';'Manchester';;;;;'1';'L';
'MANDERA';'1.2.40.0.34.5.92';'Mandera';;;;;'1';'L';
'MANGO';'1.2.40.0.34.5.92';'Mango';;;;;'1';'L';
'MANHATTAN';'1.2.40.0.34.5.92';'Manhattan';;;;;'1';'L';
'MANNHEIM';'1.2.40.0.34.5.92';'Mannheim';;;;;'1';'L';
'MAPO';'1.2.40.0.34.5.92';'Mapo';;;;;'1';'L';
'MARA';'1.2.40.0.34.5.92';'Mara';;;;;'1';'L';
'MARACAIBO';'1.2.40.0.34.5.92';'Maracaibo';;;;;'1';'L';
'MARBURG';'1.2.40.0.34.5.92';'Marburg';;;;;'1';'L';
'MARICOPA';'1.2.40.0.34.5.92';'Maricopa';;;;;'1';'L';
'MARIENTHAL';'1.2.40.0.34.5.92';'Marienthal';;;;;'1';'L';
'MARITZBURG';'1.2.40.0.34.5.92';'Maritzburg';;;;;'1';'L';
'MARMANDE';'1.2.40.0.34.5.92';'Marmande';;;;;'1';'L';
'MARON';'1.2.40.0.34.5.92';'Maron';;;;;'1';'L';
'MAROUA';'1.2.40.0.34.5.92';'Maroua';;;;;'1';'L';
'MARSABIT';'1.2.40.0.34.5.92';'Marsabit';;;;;'1';'L';
'MARSEILLE';'1.2.40.0.34.5.92';'Marseille';;;;;'1';'L';
'MARSHALL';'1.2.40.0.34.5.92';'Marshall';;;;;'1';'L';
'MARTONOS';'1.2.40.0.34.5.92';'Martonos';;;;;'1';'L';
'MARYLAND';'1.2.40.0.34.5.92';'Maryland';;;;;'1';'L';
'MARYLEBONE';'1.2.40.0.34.5.92';'Marylebone';;;;;'1';'L';
'MASEMBE';'1.2.40.0.34.5.92';'Masembe';;;;;'1';'L';
'MASKA';'1.2.40.0.34.5.92';'Maska';;;;;'1';'L';
'MASSAKORY';'1.2.40.0.34.5.92';'Massakory';;;;;'1';'L';
'MASSENYA';'1.2.40.0.34.5.92';'Massenya';;;;;'1';'L';
'MASSILIA';'1.2.40.0.34.5.92';'Massilia';;;;;'1';'L';
'MATADI';'1.2.40.0.34.5.92';'Matadi';;;;;'1';'L';
'MATHURA';'1.2.40.0.34.5.92';'Mathura';;;;;'1';'L';
'MATOPENI';'1.2.40.0.34.5.92';'Matopeni';;;;;'1';'L';
'MATTENHOF';'1.2.40.0.34.5.92';'Mattenhof';;;;;'1';'L';
'MAUMEE';'1.2.40.0.34.5.92';'Maumee';;;;;'1';'L';
'MAYDAY';'1.2.40.0.34.5.92';'Mayday';;;;;'1';'L';
'MBANDAKA';'1.2.40.0.34.5.92';'Mbandaka';;;;;'1';'L';
'MBAO';'1.2.40.0.34.5.92';'Mbao';;;;;'1';'L';
'MEEKATHARRA';'1.2.40.0.34.5.92';'Meekatharra';;;;;'1';'L';
'MELAKA';'1.2.40.0.34.5.92';'Melaka';;;;;'1';'L';
'MELBOURNE';'1.2.40.0.34.5.92';'Melbourne';;;;;'1';'L';
'MELEAGRIDIS';'1.2.40.0.34.5.92';'Meleagridis';;;;;'1';'L';
'MELEAGRIDIS_VAR_15+';'1.2.40.0.34.5.92';'Meleagridis var. 15+';;;;;'1';'L';
'MELEAGRIDIS_VAR_15+_34+';'1.2.40.0.34.5.92';'Meleagridis var. 15+, 34+';;;;;'1';'L';
'MEMPHIS';'1.2.40.0.34.5.92';'Memphis';;;;;'1';'L';
'MENDEN';'1.2.40.0.34.5.92';'Menden';;;;;'1';'L';
'MENDOZA';'1.2.40.0.34.5.92';'Mendoza';;;;;'1';'L';
'MENSTON';'1.2.40.0.34.5.92';'Menston';;;;;'1';'L';
'MESBIT';'1.2.40.0.34.5.92';'Mesbit';;;;;'1';'L';
'MESKIN';'1.2.40.0.34.5.92';'Meskin';;;;;'1';'L';
'MESSINA';'1.2.40.0.34.5.92';'Messina';;;;;'1';'L';
'MGULANI';'1.2.40.0.34.5.92';'Mgulani';;;;;'1';'L';
'MIAMI';'1.2.40.0.34.5.92';'Miami';;;;;'1';'L';
'MICHIGAN';'1.2.40.0.34.5.92';'Michigan';;;;;'1';'L';
'MIDDLESBROUGH';'1.2.40.0.34.5.92';'Middlesbrough';;;;;'1';'L';
'MIDWAY';'1.2.40.0.34.5.92';'Midway';;;;;'1';'L';
'MIKAWASIMA';'1.2.40.0.34.5.92';'Mikawasima';;;;;'1';'L';
'MILLESI';'1.2.40.0.34.5.92';'Millesi';;;;;'1';'L';
'MILWAUKEE';'1.2.40.0.34.5.92';'Milwaukee';;;;;'1';'L';
'MIM';'1.2.40.0.34.5.92';'Mim';;;;;'1';'L';
'MINNA';'1.2.40.0.34.5.92';'Minna';;;;;'1';'L';
'MINNESOTA';'1.2.40.0.34.5.92';'Minnesota';;;;;'1';'L';
'MISHMARHAEMEK';'1.2.40.0.34.5.92';'Mishmarhaemek';;;;;'1';'L';
'MISSISSIPPI';'1.2.40.0.34.5.92';'Mississippi';;;;;'1';'L';
'MISSOURI';'1.2.40.0.34.5.92';'Missouri';;;;;'1';'L';
'MIYAZAKI';'1.2.40.0.34.5.92';'Miyazaki';;;;;'1';'L';
'MJORDAN';'1.2.40.0.34.5.92';'Mjordan';;;;;'1';'L';
'MKAMBA';'1.2.40.0.34.5.92';'Mkamba';;;;;'1';'L';
'MOABIT';'1.2.40.0.34.5.92';'Moabit';;;;;'1';'L';
'MOCAMEDES';'1.2.40.0.34.5.92';'Mocamedes';;;;;'1';'L';
'MOERO';'1.2.40.0.34.5.92';'Moero';;;;;'1';'L';
'MOERS';'1.2.40.0.34.5.92';'Moers';;;;;'1';'L';
'MOKOLA';'1.2.40.0.34.5.92';'Mokola';;;;;'1';'L';
'MOLADE';'1.2.40.0.34.5.92';'Molade';;;;;'1';'L';
'MOLESEY';'1.2.40.0.34.5.92';'Molesey';;;;;'1';'L';
'MONO';'1.2.40.0.34.5.92';'Mono';;;;;'1';'L';
'MONOPHASIC_14[5]12_I_-';'1.2.40.0.34.5.92';'Monophasic 1.4.[5].12:I:-';;;;;'1';'L';
'MONS';'1.2.40.0.34.5.92';'Mons';;;;;'1';'L';
'MONSCHAUI';'1.2.40.0.34.5.92';'Monschaui';;;;;'1';'L';
'MONTAIGU';'1.2.40.0.34.5.92';'Montaigu';;;;;'1';'L';
'MONTEVIDEO';'1.2.40.0.34.5.92';'Montevideo';;;;;'1';'L';
'MONTREAL';'1.2.40.0.34.5.92';'Montreal';;;;;'1';'L';
'MORBIHAN';'1.2.40.0.34.5.92';'Morbihan';;;;;'1';'L';
'MOREHEAD';'1.2.40.0.34.5.92';'Morehead';;;;;'1';'L';
'MORILLONS';'1.2.40.0.34.5.92';'Morillons';;;;;'1';'L';
'MORNINGSIDE';'1.2.40.0.34.5.92';'Morningside';;;;;'1';'L';
'MORNINGTON';'1.2.40.0.34.5.92';'Mornington';;;;;'1';'L';
'MOROCCO';'1.2.40.0.34.5.92';'Morocco';;;;;'1';'L';
'MOROTAI';'1.2.40.0.34.5.92';'Morotai';;;;;'1';'L';
'MOROTO';'1.2.40.0.34.5.92';'Moroto';;;;;'1';'L';
'MOSCOW';'1.2.40.0.34.5.92';'Moscow';;;;;'1';'L';
'MOUALINE';'1.2.40.0.34.5.92';'Moualine';;;;;'1';'L';
'MOUNDOU';'1.2.40.0.34.5.92';'Moundou';;;;;'1';'L';
'MOUNTMAGNET';'1.2.40.0.34.5.92';'Mountmagnet';;;;;'1';'L';
'MOUNTPLEASANT';'1.2.40.0.34.5.92';'Mountpleasant';;;;;'1';'L';
'MOUSSORO';'1.2.40.0.34.5.92';'Moussoro';;;;;'1';'L';
'MOWANJUM';'1.2.40.0.34.5.92';'Mowanjum';;;;;'1';'L';
'MPOUTO';'1.2.40.0.34.5.92';'Mpouto';;;;;'1';'L';
'MUENCHEN';'1.2.40.0.34.5.92';'Muenchen';;;;;'1';'L';
'MUENSTER';'1.2.40.0.34.5.92';'Muenster';;;;;'1';'L';
'MUENSTER_VAR_15+';'1.2.40.0.34.5.92';'Muenster var. 15+';;;;;'1';'L';
'MUENSTER_VAR_15+_34+_';'1.2.40.0.34.5.92';'Muenster var. 15+, 34+';;;;;'1';'L';
'MUGUGA';'1.2.40.0.34.5.92';'Muguga';;;;;'1';'L';
'MULHOUSE';'1.2.40.0.34.5.92';'Mulhouse';;;;;'1';'L';
'MUNDONOBO';'1.2.40.0.34.5.92';'Mundonobo';;;;;'1';'L';
'MUNDUBBERA';'1.2.40.0.34.5.92';'Mundubbera';;;;;'1';'L';
'MURA';'1.2.40.0.34.5.92';'Mura';;;;;'1';'L';
'MYGDAL';'1.2.40.0.34.5.92';'Mygdal';;;;;'1';'L';
'MYRRIA';'1.2.40.0.34.5.92';'Myrria';;;;;'1';'L';
'NAESTVED';'1.2.40.0.34.5.92';'Naestved';;;;;'1';'L';
'NAGOYA';'1.2.40.0.34.5.92';'Nagoya';;;;;'1';'L';
'NAKURU';'1.2.40.0.34.5.92';'Nakuru';;;;;'1';'L';
'NAMIBIA';'1.2.40.0.34.5.92';'Namibia';;;;;'1';'L';
'NAMODA';'1.2.40.0.34.5.92';'Namoda';;;;;'1';'L';
'NAMUR';'1.2.40.0.34.5.92';'Namur';;;;;'1';'L';
'NANERGOU';'1.2.40.0.34.5.92';'Nanergou';;;;;'1';'L';
'NANGA';'1.2.40.0.34.5.92';'Nanga';;;;;'1';'L';
'NANTES';'1.2.40.0.34.5.92';'Nantes';;;;;'1';'L';
'NAPOLI';'1.2.40.0.34.5.92';'Napoli';;;;;'1';'L';
'NARASHINO';'1.2.40.0.34.5.92';'Narashino';;;;;'1';'L';
'NASHUA';'1.2.40.0.34.5.92';'Nashua';;;;;'1';'L';
'NATAL';'1.2.40.0.34.5.92';'Natal';;;;;'1';'L';
'NAWARE';'1.2.40.0.34.5.92';'Naware';;;;;'1';'L';
'NCHANGA';'1.2.40.0.34.5.92';'Nchanga';;;;;'1';'L';
'NCHANGA_VAR_15+';'1.2.40.0.34.5.92';'Nchanga var. 15+';;;;;'1';'L';
'NDJAMENA';'1.2.40.0.34.5.92';'Ndjamena';;;;;'1';'L';
'NDOLO';'1.2.40.0.34.5.92';'Ndolo';;;;;'1';'L';
'NEFTENBACH';'1.2.40.0.34.5.92';'Neftenbach';;;;;'1';'L';
'NESSA';'1.2.40.0.34.5.92';'Nessa';;;;;'1';'L';
'NESSZIONA';'1.2.40.0.34.5.92';'Nessziona';;;;;'1';'L';
'NEUDORF';'1.2.40.0.34.5.92';'Neudorf';;;;;'1';'L';
'NEUKOELLN';'1.2.40.0.34.5.92';'Neukoelln';;;;;'1';'L';
'NEUMUENSTER';'1.2.40.0.34.5.92';'Neumuenster';;;;;'1';'L';
'NEUNKIRCHEN';'1.2.40.0.34.5.92';'Neunkirchen';;;;;'1';'L';
'NEWHOLLAND';'1.2.40.0.34.5.92';'Newholland';;;;;'1';'L';
'NEWJERSEY';'1.2.40.0.34.5.92';'Newjersey';;;;;'1';'L';
'NEWLANDS';'1.2.40.0.34.5.92';'Newlands';;;;;'1';'L';
'NEWMEXICO';'1.2.40.0.34.5.92';'Newmexico';;;;;'1';'L';
'NEWPORT';'1.2.40.0.34.5.92';'Newport';;;;;'1';'L';
'NEWROCHELLE';'1.2.40.0.34.5.92';'Newrochelle';;;;;'1';'L';
'NEWYORK';'1.2.40.0.34.5.92';'Newyork';;;;;'1';'L';
'NGAPAROU';'1.2.40.0.34.5.92';'Ngaparou';;;;;'1';'L';
'NGILI';'1.2.40.0.34.5.92';'Ngili';;;;;'1';'L';
'NGOR';'1.2.40.0.34.5.92';'Ngor';;;;;'1';'L';
'NIAKHAR';'1.2.40.0.34.5.92';'Niakhar';;;;;'1';'L';
'NIAMEY';'1.2.40.0.34.5.92';'Niamey';;;;;'1';'L';
'NIAREMBE';'1.2.40.0.34.5.92';'Niarembe';;;;;'1';'L';
'NIEDERODERWITZ';'1.2.40.0.34.5.92';'Niederoderwitz';;;;;'1';'L';
'NIEUKERK';'1.2.40.0.34.5.92';'Nieukerk';;;;;'1';'L';
'NIGERIA';'1.2.40.0.34.5.92';'Nigeria';;;;;'1';'L';
'NIJMEGEN';'1.2.40.0.34.5.92';'Nijmegen';;;;;'1';'L';
'NIKOLAIFLEET';'1.2.40.0.34.5.92';'Nikolaifleet';;;;;'1';'L';
'NILOESE';'1.2.40.0.34.5.92';'Niloese';;;;;'1';'L';
'NIMA';'1.2.40.0.34.5.92';'Nima';;;;;'1';'L';
'NIMES';'1.2.40.0.34.5.92';'Nimes';;;;;'1';'L';
'NITRA';'1.2.40.0.34.5.92';'Nitra';;;;;'1';'L';
'NIUMI';'1.2.40.0.34.5.92';'Niumi';;;;;'1';'L';
'NJALA';'1.2.40.0.34.5.92';'Njala';;;;;'1';'L';
'NOLA';'1.2.40.0.34.5.92';'Nola';;;;;'1';'L';
'NORDRHEIN';'1.2.40.0.34.5.92';'Nordrhein';;;;;'1';'L';
'NORDUFER';'1.2.40.0.34.5.92';'Nordufer';;;;;'1';'L';
'NORTON';'1.2.40.0.34.5.92';'Norton';;;;;'1';'L';
'NORWICH';'1.2.40.0.34.5.92';'Norwich';;;;;'1';'L';
'NOTTINGHAM';'1.2.40.0.34.5.92';'Nottingham';;;;;'1';'L';
'NOWAWES';'1.2.40.0.34.5.92';'Nowawes';;;;;'1';'L';
'NOYA';'1.2.40.0.34.5.92';'Noya';;;;;'1';'L';
'NUATJA';'1.2.40.0.34.5.92';'Nuatja';;;;;'1';'L';
'NYANZA';'1.2.40.0.34.5.92';'Nyanza';;;;;'1';'L';
'NYBORG';'1.2.40.0.34.5.92';'Nyborg';;;;;'1';'L';
'NYBORG_VAR_15+';'1.2.40.0.34.5.92';'Nyborg var. 15+';;;;;'1';'L';
'NYEKO';'1.2.40.0.34.5.92';'Nyeko';;;;;'1';'L';
'OAKEY';'1.2.40.0.34.5.92';'Oakey';;;;;'1';'L';
'OAKLAND';'1.2.40.0.34.5.92';'Oakland';;;;;'1';'L';
'OBOGU';'1.2.40.0.34.5.92';'Obogu';;;;;'1';'L';
'OCHIOGU';'1.2.40.0.34.5.92';'Ochiogu';;;;;'1';'L';
'OCHSENWERDER';'1.2.40.0.34.5.92';'Ochsenwerder';;;;;'1';'L';
'OCKENHEIM';'1.2.40.0.34.5.92';'Ockenheim';;;;;'1';'L';
'ODIENNE';'1.2.40.0.34.5.92';'Odienne';;;;;'1';'L';
'ODOZI';'1.2.40.0.34.5.92';'Odozi';;;;;'1';'L';
'OERLIKON';'1.2.40.0.34.5.92';'Oerlikon';;;;;'1';'L';
'OESTERBRO';'1.2.40.0.34.5.92';'Oesterbro';;;;;'1';'L';
'OFFA';'1.2.40.0.34.5.92';'Offa';;;;;'1';'L';
'OGBETE';'1.2.40.0.34.5.92';'Ogbete';;;;;'1';'L';
'OHIO';'1.2.40.0.34.5.92';'Ohio';;;;;'1';'L';
'OHIO_VAR_14+';'1.2.40.0.34.5.92';'Ohio var. 14+';;;;;'1';'L';
'OHLSTEDT';'1.2.40.0.34.5.92';'Ohlstedt';;;;;'1';'L';
'OKATIE';'1.2.40.0.34.5.92';'Okatie';;;;;'1';'L';
'OKEFOKO';'1.2.40.0.34.5.92';'Okefoko';;;;;'1';'L';
'OKERARA';'1.2.40.0.34.5.92';'Okerara';;;;;'1';'L';
'OLDENBURG';'1.2.40.0.34.5.92';'Oldenburg';;;;;'1';'L';
'OLTEN';'1.2.40.0.34.5.92';'Olten';;;;;'1';'L';
'OMIFISAN';'1.2.40.0.34.5.92';'Omifisan';;;;;'1';'L';
'OMUNA';'1.2.40.0.34.5.92';'Omuna';;;;;'1';'L';
'ONA';'1.2.40.0.34.5.92';'Ona';;;;;'1';'L';
'ONARIMON';'1.2.40.0.34.5.92';'Onarimon';;;;;'1';'L';
'ONDERSTEPOORT';'1.2.40.0.34.5.92';'Onderstepoort';;;;;'1';'L';
'ONIREKE';'1.2.40.0.34.5.92';'Onireke';;;;;'1';'L';
'ONTARIO';'1.2.40.0.34.5.92';'Ontario';;;;;'1';'L';
'ORAN';'1.2.40.0.34.5.92';'Oran';;;;;'1';'L';
'ORANIENBURG';'1.2.40.0.34.5.92';'Oranienburg';;;;;'1';'L';
'ORANIENBURG_VAR_14+';'1.2.40.0.34.5.92';'Oranienburg var. 14+';;;;;'1';'L';
'ORBE';'1.2.40.0.34.5.92';'Orbe';;;;;'1';'L';
'ORD';'1.2.40.0.34.5.92';'Ord';;;;;'1';'L';
'ORDONEZ';'1.2.40.0.34.5.92';'Ordonez';;;;;'1';'L';
'ORIENTALIS';'1.2.40.0.34.5.92';'Orientalis';;;;;'1';'L';
'ORION';'1.2.40.0.34.5.92';'Orion';;;;;'1';'L';
'ORION_VAR_15+_';'1.2.40.0.34.5.92';'Orion var. 15+';;;;;'1';'L';
'ORION_VAR_15+_34+';'1.2.40.0.34.5.92';'Orion var. 15+, 34+';;;;;'1';'L';
'ORITAMERIN';'1.2.40.0.34.5.92';'Oritamerin';;;;;'1';'L';
'ORLANDO';'1.2.40.0.34.5.92';'Orlando';;;;;'1';'L';
'ORLEANS';'1.2.40.0.34.5.92';'Orleans';;;;;'1';'L';
'OS';'1.2.40.0.34.5.92';'Os';;;;;'1';'L';
'OSKARSHAMN';'1.2.40.0.34.5.92';'Oskarshamn';;;;;'1';'L';
'OSLO';'1.2.40.0.34.5.92';'Oslo';;;;;'1';'L';
'OSNABRUECK';'1.2.40.0.34.5.92';'Osnabrueck';;;;;'1';'L';
'OTHER';'1.2.40.0.34.5.92';'Other';;;;;'1';'L';
'OTHMARSCHEN';'1.2.40.0.34.5.92';'Othmarschen';;;;;'1';'L';
'OTTAWA';'1.2.40.0.34.5.92';'Ottawa';;;;;'1';'L';
'OUAGADOUGOU';'1.2.40.0.34.5.92';'Ouagadougou';;;;;'1';'L';
'OUAKAM';'1.2.40.0.34.5.92';'Ouakam';;;;;'1';'L';
'OUDWIJK';'1.2.40.0.34.5.92';'Oudwijk';;;;;'1';'L';
'OVERCHURCH';'1.2.40.0.34.5.92';'Overchurch';;;;;'1';'L';
'OVERSCHIE';'1.2.40.0.34.5.92';'Overschie';;;;;'1';'L';
'OVERVECHT';'1.2.40.0.34.5.92';'Overvecht';;;;;'1';'L';
'OXFORD';'1.2.40.0.34.5.92';'Oxford';;;;;'1';'L';
'OXFORD_VAR_15+_';'1.2.40.0.34.5.92';'Oxford var. 15+';;;;;'1';'L';
'OXFORD_VAR_15+_34+';'1.2.40.0.34.5.92';'Oxford var. 15+, 34+';;;;;'1';'L';
'OYONNAX';'1.2.40.0.34.5.92';'Oyonnax';;;;;'1';'L';
'PAKISTAN';'1.2.40.0.34.5.92';'Pakistan';;;;;'1';'L';
'PALAMANER';'1.2.40.0.34.5.92';'Palamaner';;;;;'1';'L';
'PALIME';'1.2.40.0.34.5.92';'Palime';;;;;'1';'L';
'PANAMA';'1.2.40.0.34.5.92';'Panama';;;;;'1';'L';
'PAPUANA';'1.2.40.0.34.5.92';'Papuana';;;;;'1';'L';
'PARAKOU';'1.2.40.0.34.5.92';'Parakou';;;;;'1';'L';
'PARATYPHI';'1.2.40.0.34.5.92';'Salmonella Paratyphi';;;;;'1';'L';
'PARATYPHI_B_VAR_L(+)_TARTRATE+';'1.2.40.0.34.5.92';'Paratyphi B var. L(+) tartrate+ (variant Java)';;;;;'1';'L';
'PARIS';'1.2.40.0.34.5.92';'Paris';;;;;'1';'L';
'PARKROYAL';'1.2.40.0.34.5.92';'Parkroyal';;;;;'1';'L';
'PASING';'1.2.40.0.34.5.92';'Pasing';;;;;'1';'L';
'PATIENCE';'1.2.40.0.34.5.92';'Patience';;;;;'1';'L';
'PENARTH';'1.2.40.0.34.5.92';'Penarth';;;;;'1';'L';
'PENILLA';'1.2.40.0.34.5.92';'Penilla';;;;;'1';'L';
'PENSACOLA';'1.2.40.0.34.5.92';'Pensacola';;;;;'1';'L';
'PERTH';'1.2.40.0.34.5.92';'Perth';;;;;'1';'L';
'PETAHTIKVE';'1.2.40.0.34.5.92';'Petahtikve';;;;;'1';'L';
'PHALIRON';'1.2.40.0.34.5.92';'Phaliron';;;;;'1';'L';
'PHARR';'1.2.40.0.34.5.92';'Pharr';;;;;'1';'L';
'PICPUS';'1.2.40.0.34.5.92';'Picpus';;;;;'1';'L';
'PIETERSBURG';'1.2.40.0.34.5.92';'Pietersburg';;;;;'1';'L';
'PISA';'1.2.40.0.34.5.92';'Pisa';;;;;'1';'L';
'PLANCKENDAEL';'1.2.40.0.34.5.92';'Planckendael';;;;;'1';'L';
'PLOUFRAGAN';'1.2.40.0.34.5.92';'Ploufragan';;;;;'1';'L';
'PLUMAUGAT';'1.2.40.0.34.5.92';'Plumaugat';;;;;'1';'L';
'PLYMOUTH';'1.2.40.0.34.5.92';'Plymouth';;;;;'1';'L';
'POANO';'1.2.40.0.34.5.92';'Poano';;;;;'1';'L';
'PODIENSIS';'1.2.40.0.34.5.92';'Podiensis';;;;;'1';'L';
'POESELDORF';'1.2.40.0.34.5.92';'Poeseldorf';;;;;'1';'L';
'POITIERS';'1.2.40.0.34.5.92';'Poitiers';;;;;'1';'L';
'POMONA';'1.2.40.0.34.5.92';'Pomona';;;;;'1';'L';
'PONTYPRIDD';'1.2.40.0.34.5.92';'Pontypridd';;;;;'1';'L';
'POONA';'1.2.40.0.34.5.92';'Poona';;;;;'1';'L';
'PORTANIGRA';'1.2.40.0.34.5.92';'Portanigra';;;;;'1';'L';
'PORTLAND';'1.2.40.0.34.5.92';'Portland';;;;;'1';'L';
'POTENGI';'1.2.40.0.34.5.92';'Potengi';;;;;'1';'L';
'POTOSI';'1.2.40.0.34.5.92';'Potosi';;;;;'1';'L';
'POTSDAM';'1.2.40.0.34.5.92';'Potsdam';;;;;'1';'L';
'POTTO';'1.2.40.0.34.5.92';'Potto';;;;;'1';'L';
'POWELL';'1.2.40.0.34.5.92';'Powell';;;;;'1';'L';
'PRAHA';'1.2.40.0.34.5.92';'Praha';;;;;'1';'L';
'PRAMISO';'1.2.40.0.34.5.92';'Pramiso';;;;;'1';'L';
'PRESOV';'1.2.40.0.34.5.92';'Presov';;;;;'1';'L';
'PRESTON';'1.2.40.0.34.5.92';'Preston';;;;;'1';'L';
'PRETORIA';'1.2.40.0.34.5.92';'Pretoria';;;;;'1';'L';
'PUTTEN';'1.2.40.0.34.5.92';'Putten';;;;;'1';'L';
'QUEBEC';'1.2.40.0.34.5.92';'Quebec';;;;;'1';'L';
'QUENTIN';'1.2.40.0.34.5.92';'Quentin';;;;;'1';'L';
'QUINCY';'1.2.40.0.34.5.92';'Quincy';;;;;'1';'L';
'QUINHON';'1.2.40.0.34.5.92';'Quinhon';;;;;'1';'L';
'QUINIELA';'1.2.40.0.34.5.92';'Quiniela';;;;;'1';'L';
'RAMATGAN';'1.2.40.0.34.5.92';'Ramatgan';;;;;'1';'L';
'RAMSEY';'1.2.40.0.34.5.92';'Ramsey';;;;;'1';'L';
'RATCHABURI';'1.2.40.0.34.5.92';'Ratchaburi';;;;;'1';'L';
'RAUS';'1.2.40.0.34.5.92';'Raus';;;;;'1';'L';
'RAWASH';'1.2.40.0.34.5.92';'Rawash';;;;;'1';'L';
'READING';'1.2.40.0.34.5.92';'Reading';;;;;'1';'L';
'RECHOVOT';'1.2.40.0.34.5.92';'Rechovot';;;;;'1';'L';
'REDBA';'1.2.40.0.34.5.92';'Redba';;;;;'1';'L';
'REDHILL';'1.2.40.0.34.5.92';'Redhill';;;;;'1';'L';
'REDLANDS';'1.2.40.0.34.5.92';'Redlands';;;;;'1';'L';
'REGENT';'1.2.40.0.34.5.92';'Regent';;;;;'1';'L';
'REINICKENDORF';'1.2.40.0.34.5.92';'Reinickendorf';;;;;'1';'L';
'REMETE';'1.2.40.0.34.5.92';'Remete';;;;;'1';'L';
'REMIREMONT';'1.2.40.0.34.5.92';'Remiremont';;;;;'1';'L';
'REMO';'1.2.40.0.34.5.92';'Remo';;;;;'1';'L';
'REUBEUSS';'1.2.40.0.34.5.92';'Reubeuss';;;;;'1';'L';
'RHONE';'1.2.40.0.34.5.92';'Rhone';;;;;'1';'L';
'RHYDYFELIN';'1.2.40.0.34.5.92';'Rhydyfelin';;;;;'1';'L';
'RICHMOND';'1.2.40.0.34.5.92';'Richmond';;;;;'1';'L';
'RIDEAU';'1.2.40.0.34.5.92';'Rideau';;;;;'1';'L';
'RIDGE';'1.2.40.0.34.5.92';'Ridge';;;;;'1';'L';
'RIED';'1.2.40.0.34.5.92';'Ried';;;;;'1';'L';
'RIGGIL';'1.2.40.0.34.5.92';'Riggil';;;;;'1';'L';
'RIOGRANDE';'1.2.40.0.34.5.92';'Riogrande';;;;;'1';'L';
'RISSEN';'1.2.40.0.34.5.92';'Rissen';;;;;'1';'L';
'RISSEN_VAR_14+';'1.2.40.0.34.5.92';'Rissen var. 14+';;;;;'1';'L';
'RITTERSBACH';'1.2.40.0.34.5.92';'Rittersbach';;;;;'1';'L';
'RIVERSIDE';'1.2.40.0.34.5.92';'Riverside';;;;;'1';'L';
'ROAN';'1.2.40.0.34.5.92';'Roan';;;;;'1';'L';
'ROCHDALE';'1.2.40.0.34.5.92';'Rochdale';;;;;'1';'L';
'ROGY';'1.2.40.0.34.5.92';'Rogy';;;;;'1';'L';
'ROMANBY';'1.2.40.0.34.5.92';'Romanby';;;;;'1';'L';
'ROODEPOORT';'1.2.40.0.34.5.92';'Roodepoort';;;;;'1';'L';
'ROSENBERG';'1.2.40.0.34.5.92';'Rosenberg';;;;;'1';'L';
'ROSSLEBEN';'1.2.40.0.34.5.92';'Rossleben';;;;;'1';'L';
'ROSTOCK';'1.2.40.0.34.5.92';'Rostock';;;;;'1';'L';
'ROTHENBURGSORT';'1.2.40.0.34.5.92';'Rothenburgsort';;;;;'1';'L';
'ROTTNEST';'1.2.40.0.34.5.92';'Rottnest';;;;;'1';'L';
'ROVANIEMI';'1.2.40.0.34.5.92';'Rovaniemi';;;;;'1';'L';
'ROYAN';'1.2.40.0.34.5.92';'Royan';;;;;'1';'L';
'RUANDA';'1.2.40.0.34.5.92';'Ruanda';;;;;'1';'L';
'RUBISLAW';'1.2.40.0.34.5.92';'Rubislaw';;;;;'1';'L';
'RUIRU';'1.2.40.0.34.5.92';'Ruiru';;;;;'1';'L';
'RUMFORD';'1.2.40.0.34.5.92';'Rumford';;;;;'1';'L';
'RUNBY';'1.2.40.0.34.5.92';'Runby';;;;;'1';'L';
'RUZIZI';'1.2.40.0.34.5.92';'Ruzizi';;;;;'1';'L';
'SAARBRUECKEN';'1.2.40.0.34.5.92';'Saarbruecken';;;;;'1';'L';
'SABOYA';'1.2.40.0.34.5.92';'Saboya';;;;;'1';'L';
'SADA';'1.2.40.0.34.5.92';'Sada';;;;;'1';'L';
'SAINTEMARIE';'1.2.40.0.34.5.92';'Saintemarie';;;;;'1';'L';
'SAINTPAUL';'1.2.40.0.34.5.92';'Saintpaul';;;;;'1';'L';
'SALFORD';'1.2.40.0.34.5.92';'Salford';;;;;'1';'L';
'SALINAS';'1.2.40.0.34.5.92';'Salinas';;;;;'1';'L';
'SALLY';'1.2.40.0.34.5.92';'Sally';;;;;'1';'L';
'SALONIKI';'1.2.40.0.34.5.92';'Saloniki';;;;;'1';'L';
'SAMARU';'1.2.40.0.34.5.92';'Samaru';;;;;'1';'L';
'SAMBRE';'1.2.40.0.34.5.92';'Sambre';;;;;'1';'L';
'SANDAGA';'1.2.40.0.34.5.92';'Sandaga';;;;;'1';'L';
'SANDIEGO';'1.2.40.0.34.5.92';'Sandiego';;;;;'1';'L';
'SANDOW';'1.2.40.0.34.5.92';'Sandow';;;;;'1';'L';
'SANGA';'1.2.40.0.34.5.92';'Sanga';;;;;'1';'L';
'SANGALKAM';'1.2.40.0.34.5.92';'Sangalkam';;;;;'1';'L';
'SANGERA';'1.2.40.0.34.5.92';'Sangera';;;;;'1';'L';
'SANJUAN';'1.2.40.0.34.5.92';'Sanjuan';;;;;'1';'L';
'SANKTGEORG';'1.2.40.0.34.5.92';'Sanktgeorg';;;;;'1';'L';
'SANKTJOHANN';'1.2.40.0.34.5.92';'Sanktjohann';;;;;'1';'L';
'SANKTMARX';'1.2.40.0.34.5.92';'Sanktmarx';;;;;'1';'L';
'SANTANDER';'1.2.40.0.34.5.92';'Santander';;;;;'1';'L';
'SANTHIABA';'1.2.40.0.34.5.92';'Santhiaba';;;;;'1';'L';
'SANTIAGO';'1.2.40.0.34.5.92';'Santiago';;;;;'1';'L';
'SAO';'1.2.40.0.34.5.92';'Sao';;;;;'1';'L';
'SAPELE';'1.2.40.0.34.5.92';'Sapele';;;;;'1';'L';
'SAPHRA';'1.2.40.0.34.5.92';'Saphra';;;;;'1';'L';
'SARA';'1.2.40.0.34.5.92';'Sara';;;;;'1';'L';
'SARAJANE';'1.2.40.0.34.5.92';'Sarajane';;;;;'1';'L';
'SAUGUS';'1.2.40.0.34.5.92';'Saugus';;;;;'1';'L';
'SCARBOROUGH';'1.2.40.0.34.5.92';'Scarborough';;;;;'1';'L';
'SCHALKWIJK';'1.2.40.0.34.5.92';'Schalkwijk';;;;;'1';'L';
'SCHLEISSHEIM';'1.2.40.0.34.5.92';'Schleissheim';;;;;'1';'L';
'SCHOENEBERG';'1.2.40.0.34.5.92';'Schoeneberg';;;;;'1';'L';
'SCHWABACH';'1.2.40.0.34.5.92';'Schwabach';;;;;'1';'L';
'SCHWARZENGRUND';'1.2.40.0.34.5.92';'Schwarzengrund';;;;;'1';'L';
'SCHWERIN';'1.2.40.0.34.5.92';'Schwerin';;;;;'1';'L';
'SCULCOATES';'1.2.40.0.34.5.92';'Sculcoates';;;;;'1';'L';
'SEATTLE';'1.2.40.0.34.5.92';'Seattle';;;;;'1';'L';
'SEDGWICK';'1.2.40.0.34.5.92';'Sedgwick';;;;;'1';'L';
'SEEGEFELD';'1.2.40.0.34.5.92';'Seegefeld';;;;;'1';'L';
'SEKONDI';'1.2.40.0.34.5.92';'Sekondi';;;;;'1';'L';
'SELBY';'1.2.40.0.34.5.92';'Selby';;;;;'1';'L';
'SENDAI';'1.2.40.0.34.5.92';'Sendai';;;;;'1';'L';
'SENEGAL';'1.2.40.0.34.5.92';'Senegal';;;;;'1';'L';
'SENFTENBERG';'1.2.40.0.34.5.92';'Senftenberg';;;;;'1';'L';
'SENNEVILLE';'1.2.40.0.34.5.92';'Senneville';;;;;'1';'L';
'SEREMBAN';'1.2.40.0.34.5.92';'Seremban';;;;;'1';'L';
'SERREKUNDA';'1.2.40.0.34.5.92';'Serrekunda';;;;;'1';'L';
'SHAHALAM';'1.2.40.0.34.5.92';'Shahalam';;;;;'1';'L';
'SHAMBA';'1.2.40.0.34.5.92';'Shamba';;;;;'1';'L';
'SHANGANI';'1.2.40.0.34.5.92';'Shangani';;;;;'1';'L';
'SHANGANI_VAR_15+';'1.2.40.0.34.5.92';'Shangani var. 15+';;;;;'1';'L';
'SHANGHAI';'1.2.40.0.34.5.92';'Shanghai';;;;;'1';'L';
'SHANNON';'1.2.40.0.34.5.92';'Shannon';;;;;'1';'L';
'SHARON';'1.2.40.0.34.5.92';'Sharon';;;;;'1';'L';
'SHEFFIELD';'1.2.40.0.34.5.92';'Sheffield';;;;;'1';'L';
'SHERBROOKE';'1.2.40.0.34.5.92';'Sherbrooke';;;;;'1';'L';
'SHIKMONAH';'1.2.40.0.34.5.92';'Shikmonah';;;;;'1';'L';
'SHIPLEY';'1.2.40.0.34.5.92';'Shipley';;;;;'1';'L';
'SHOMOLU';'1.2.40.0.34.5.92';'Shomolu';;;;;'1';'L';
'SHOREDITCH';'1.2.40.0.34.5.92';'Shoreditch';;;;;'1';'L';
'SHUBRA';'1.2.40.0.34.5.92';'Shubra';;;;;'1';'L';
'SICA';'1.2.40.0.34.5.92';'Sica';;;;;'1';'L';
'SIMI';'1.2.40.0.34.5.92';'Simi';;;;;'1';'L';
'SINCHEW';'1.2.40.0.34.5.92';'Sinchew';;;;;'1';'L';
'SINDELFINGEN';'1.2.40.0.34.5.92';'Sindelfingen';;;;;'1';'L';
'SINGAPORE';'1.2.40.0.34.5.92';'Singapore';;;;;'1';'L';
'SINSTORF';'1.2.40.0.34.5.92';'Sinstorf';;;;;'1';'L';
'SINTHIA';'1.2.40.0.34.5.92';'Sinthia';;;;;'1';'L';
'SIPANE';'1.2.40.0.34.5.92';'Sipane';;;;;'1';'L';
'SKANSEN';'1.2.40.0.34.5.92';'Skansen';;;;;'1';'L';
'SLADE';'1.2.40.0.34.5.92';'Slade';;;;;'1';'L';
'SLJEME';'1.2.40.0.34.5.92';'Sljeme';;;;;'1';'L';
'SLOTERDIJK';'1.2.40.0.34.5.92';'Sloterdijk';;;;;'1';'L';
'SOAHANINA';'1.2.40.0.34.5.92';'Soahanina';;;;;'1';'L';
'SOERENGA';'1.2.40.0.34.5.92';'Soerenga';;;;;'1';'L';
'SOKODE';'1.2.40.0.34.5.92';'Sokode';;;;;'1';'L';
'SOLNA';'1.2.40.0.34.5.92';'Solna';;;;;'1';'L';
'SOLT';'1.2.40.0.34.5.92';'Solt';;;;;'1';'L';
'SOMONE';'1.2.40.0.34.5.92';'Somone';;;;;'1';'L';
'SONTHEIM';'1.2.40.0.34.5.92';'Sontheim';;;;;'1';'L';
'SOUMBEDIOUNE';'1.2.40.0.34.5.92';'Soumbedioune';;;;;'1';'L';
'SOUTHAMPTON';'1.2.40.0.34.5.92';'Southampton';;;;;'1';'L';
'SOUTHBANK';'1.2.40.0.34.5.92';'Southbank';;;;;'1';'L';
'SOUZA';'1.2.40.0.34.5.92';'Souza';;;;;'1';'L';
'SOUZA_VAR_15+';'1.2.40.0.34.5.92';'Souza var. 15+';;;;;'1';'L';
'SPALENTOR';'1.2.40.0.34.5.92';'Spalentor';;;;;'1';'L';
'SPARTEL';'1.2.40.0.34.5.92';'Spartel';;;;;'1';'L';
'SPLOTT';'1.2.40.0.34.5.92';'Splott';;;;;'1';'L';
'STACHUS';'1.2.40.0.34.5.92';'Stachus';;;;;'1';'L';
'STANLEY';'1.2.40.0.34.5.92';'Stanley';;;;;'1';'L';
'STANLEYVILLE';'1.2.40.0.34.5.92';'Stanleyville';;;;;'1';'L';
'STAOUELI';'1.2.40.0.34.5.92';'Staoueli';;;;;'1';'L';
'STEINPLATZ';'1.2.40.0.34.5.92';'Steinplatz';;;;;'1';'L';
'STEINWERDER';'1.2.40.0.34.5.92';'Steinwerder';;;;;'1';'L';
'STELLINGEN';'1.2.40.0.34.5.92';'Stellingen';;;;;'1';'L';
'STENDAL';'1.2.40.0.34.5.92';'Stendal';;;;;'1';'L';
'STERNSCHANZE';'1.2.40.0.34.5.92';'Sternschanze';;;;;'1';'L';
'STERRENBOS';'1.2.40.0.34.5.92';'Sterrenbos';;;;;'1';'L';
'STOCKHOLM';'1.2.40.0.34.5.92';'Stockholm';;;;;'1';'L';
'STOCKHOLM_VAR_15+';'1.2.40.0.34.5.92';'Stockholm var. 15+';;;;;'1';'L';
'STONEFERRY';'1.2.40.0.34.5.92';'Stoneferry';;;;;'1';'L';
'STORMONT';'1.2.40.0.34.5.92';'Stormont';;;;;'1';'L';
'STOURBRIDGE';'1.2.40.0.34.5.92';'Stourbridge';;;;;'1';'L';
'STRAENGNAES';'1.2.40.0.34.5.92';'Straengnaes';;;;;'1';'L';
'STRASBOURG';'1.2.40.0.34.5.92';'Strasbourg';;;;;'1';'L';
'STRATFORD';'1.2.40.0.34.5.92';'Stratford';;;;;'1';'L';
'STRATHCONA';'1.2.40.0.34.5.92';'Strathcona';;;;;'1';'L';
'STUIVENBERG';'1.2.40.0.34.5.92';'Stuivenberg';;;;;'1';'L';
'STUTTGART';'1.2.40.0.34.5.92';'Stuttgart';;;;;'1';'L';
'SUBERU';'1.2.40.0.34.5.92';'Suberu';;;;;'1';'L';
'SUBSPIIIA';'1.2.40.0.34.5.92';'Subspecies IIIa (arizonae)';;;;;'1';'L';
'SUBSPIIIB';'1.2.40.0.34.5.92';'Subspecies IIIb (diarizonae)';;;;;'1';'L';
'SUBSPII_';'1.2.40.0.34.5.92';'Subspecies II (salamae)';;;;;'1';'L';
'SUBSPIV';'1.2.40.0.34.5.92';'Subspecies IV (houtenae)';;;;;'1';'L';
'SUBSPI_';'1.2.40.0.34.5.92';'Subspecies I (enterica)';;;;;'1';'L';
'SUBSPV';'1.2.40.0.34.5.92';'Subspecies V (bongori, own specie)';;;;;'1';'L';
'SUBSPVI';'1.2.40.0.34.5.92';'Subspecies VI (indica)';;;;;'1';'L';
'SUDAN';'1.2.40.0.34.5.92';'Sudan';;;;;'1';'L';
'SUELLDORF';'1.2.40.0.34.5.92';'Suelldorf';;;;;'1';'L';
'SUNDSVALL';'1.2.40.0.34.5.92';'Sundsvall';;;;;'1';'L';
'SUNNYCOVE';'1.2.40.0.34.5.92';'Sunnycove';;;;;'1';'L';
'SURAT';'1.2.40.0.34.5.92';'Surat';;;;;'1';'L';
'SURREY';'1.2.40.0.34.5.92';'Surrey';;;;;'1';'L';
'SVEDVI';'1.2.40.0.34.5.92';'Svedvi';;;;;'1';'L';
'SYA';'1.2.40.0.34.5.92';'Sya';;;;;'1';'L';
'SYLVANIA';'1.2.40.0.34.5.92';'Sylvania';;;;;'1';'L';
'SZENTES';'1.2.40.0.34.5.92';'Szentes';;;;;'1';'L';
'TABLIGBO';'1.2.40.0.34.5.92';'Tabligbo';;;;;'1';'L';
'TADO';'1.2.40.0.34.5.92';'Tado';;;;;'1';'L';
'TAFO';'1.2.40.0.34.5.92';'Tafo';;;;;'1';'L';
'TAIPING';'1.2.40.0.34.5.92';'Taiping';;;;;'1';'L';
'TAKORADI';'1.2.40.0.34.5.92';'Takoradi';;;;;'1';'L';
'TAKSONY';'1.2.40.0.34.5.92';'Taksony';;;;;'1';'L';
'TALLAHASSEE';'1.2.40.0.34.5.92';'Tallahassee';;;;;'1';'L';
'TAMALE';'1.2.40.0.34.5.92';'Tamale';;;;;'1';'L';
'TAMBACOUNDA';'1.2.40.0.34.5.92';'Tambacounda';;;;;'1';'L';
'TAMBERMA';'1.2.40.0.34.5.92';'Tamberma';;;;;'1';'L';
'TAMILNADU';'1.2.40.0.34.5.92';'Tamilnadu';;;;;'1';'L';
'TAMPICO';'1.2.40.0.34.5.92';'Tampico';;;;;'1';'L';
'TANANARIVE';'1.2.40.0.34.5.92';'Tananarive';;;;;'1';'L';
'TANGER';'1.2.40.0.34.5.92';'Tanger';;;;;'1';'L';
'TANZANIA';'1.2.40.0.34.5.92';'Tanzania';;;;;'1';'L';
'TARSHYNE';'1.2.40.0.34.5.92';'Tarshyne';;;;;'1';'L';
'TASET';'1.2.40.0.34.5.92';'Taset';;;;;'1';'L';
'TAUNTON';'1.2.40.0.34.5.92';'Taunton';;;;;'1';'L';
'TAYLOR';'1.2.40.0.34.5.92';'Taylor';;;;;'1';'L';
'TCHAD';'1.2.40.0.34.5.92';'Tchad';;;;;'1';'L';
'TCHAMBA';'1.2.40.0.34.5.92';'Tchamba';;;;;'1';'L';
'TECHIMANI';'1.2.40.0.34.5.92';'Techimani';;;;;'1';'L';
'TEDDINGTON';'1.2.40.0.34.5.92';'Teddington';;;;;'1';'L';
'TEES';'1.2.40.0.34.5.92';'Tees';;;;;'1';'L';
'TEJAS';'1.2.40.0.34.5.92';'Tejas';;;;;'1';'L';
'TEKO';'1.2.40.0.34.5.92';'Teko';;;;;'1';'L';
'TELAVIV';'1.2.40.0.34.5.92';'Telaviv';;;;;'1';'L';
'TELELKEBIR';'1.2.40.0.34.5.92';'Telelkebir';;;;;'1';'L';
'TELHASHOMER';'1.2.40.0.34.5.92';'Telhashomer';;;;;'1';'L';
'TELTOW';'1.2.40.0.34.5.92';'Teltow';;;;;'1';'L';
'TEMA';'1.2.40.0.34.5.92';'Tema';;;;;'1';'L';
'TEMPE';'1.2.40.0.34.5.92';'Tempe';;;;;'1';'L';
'TENDEBA';'1.2.40.0.34.5.92';'Tendeba';;;;;'1';'L';
'TENNENLOHE';'1.2.40.0.34.5.92';'Tennenlohe';;;;;'1';'L';
'TENNESSEE';'1.2.40.0.34.5.92';'Tennessee';;;;;'1';'L';
'TENNYSON';'1.2.40.0.34.5.92';'Tennyson';;;;;'1';'L';
'TESHIE';'1.2.40.0.34.5.92';'Teshie';;;;;'1';'L';
'TEXAS';'1.2.40.0.34.5.92';'Texas';;;;;'1';'L';
'THAYNGEN';'1.2.40.0.34.5.92';'Thayngen';;;;;'1';'L';
'THETFORD';'1.2.40.0.34.5.92';'Thetford';;;;;'1';'L';
'THIAROYE';'1.2.40.0.34.5.92';'Thiaroye';;;;;'1';'L';
'THIES';'1.2.40.0.34.5.92';'Thies';;;;;'1';'L';
'THOMPSON';'1.2.40.0.34.5.92';'Thompson';;;;;'1';'L';
'TIBATI';'1.2.40.0.34.5.92';'Tibati';;;;;'1';'L';
'TIENBA';'1.2.40.0.34.5.92';'Tienba';;;;;'1';'L';
'TIERGARTEN';'1.2.40.0.34.5.92';'Tiergarten';;;;;'1';'L';
'TIKO';'1.2.40.0.34.5.92';'Tiko';;;;;'1';'L';
'TILBURG';'1.2.40.0.34.5.92';'Tilburg';;;;;'1';'L';
'TILENE';'1.2.40.0.34.5.92';'Tilene';;;;;'1';'L';
'TINDA';'1.2.40.0.34.5.92';'Tinda';;;;;'1';'L';
'TIONE';'1.2.40.0.34.5.92';'Tione';;;;;'1';'L';
'TOGBA';'1.2.40.0.34.5.92';'Togba';;;;;'1';'L';
'TOGO';'1.2.40.0.34.5.92';'Togo';;;;;'1';'L';
'TOKOIN';'1.2.40.0.34.5.92';'Tokoin';;;;;'1';'L';
'TOMEGBE';'1.2.40.0.34.5.92';'Tomegbe';;;;;'1';'L';
'TOMELILLA';'1.2.40.0.34.5.92';'Tomelilla';;;;;'1';'L';
'TONEV';'1.2.40.0.34.5.92';'Tonev';;;;;'1';'L';
'TOOWONG';'1.2.40.0.34.5.92';'Toowong';;;;;'1';'L';
'TORHOUT';'1.2.40.0.34.5.92';'Torhout';;;;;'1';'L';
'TORICADA';'1.2.40.0.34.5.92';'Toricada';;;;;'1';'L';
'TORNOW';'1.2.40.0.34.5.92';'Tornow';;;;;'1';'L';
'TORONTO';'1.2.40.0.34.5.92';'Toronto';;;;;'1';'L';
'TOUCRA';'1.2.40.0.34.5.92';'Toucra';;;;;'1';'L';
'TOULON';'1.2.40.0.34.5.92';'Toulon';;;;;'1';'L';
'TOUNOUMA';'1.2.40.0.34.5.92';'Tounouma';;;;;'1';'L';
'TOURS';'1.2.40.0.34.5.92';'Tours';;;;;'1';'L';
'TRACHAU';'1.2.40.0.34.5.92';'Trachau';;;;;'1';'L';
'TRANSVAAL';'1.2.40.0.34.5.92';'Transvaal';;;;;'1';'L';
'TRAVIS';'1.2.40.0.34.5.92';'Travis';;;;;'1';'L';
'TREFOREST';'1.2.40.0.34.5.92';'Treforest';;;;;'1';'L';
'TREGUIER';'1.2.40.0.34.5.92';'Treguier';;;;;'1';'L';
'TRIER';'1.2.40.0.34.5.92';'Trier';;;;;'1';'L';
'TRIMDON';'1.2.40.0.34.5.92';'Trimdon';;;;;'1';'L';
'TRIPOLI';'1.2.40.0.34.5.92';'Tripoli';;;;;'1';'L';
'TROTHA';'1.2.40.0.34.5.92';'Trotha';;;;;'1';'L';
'TROY';'1.2.40.0.34.5.92';'Troy';;;;;'1';'L';
'TRURO';'1.2.40.0.34.5.92';'Truro';;;;;'1';'L';
'TSCHANGU';'1.2.40.0.34.5.92';'Tschangu';;;;;'1';'L';
'TSEVIE';'1.2.40.0.34.5.92';'Tsevie';;;;;'1';'L';
'TSHIONGWE';'1.2.40.0.34.5.92';'Tshiongwe';;;;;'1';'L';
'TUCSON';'1.2.40.0.34.5.92';'Tucson';;;;;'1';'L';
'TUDU';'1.2.40.0.34.5.92';'Tudu';;;;;'1';'L';
'TUMODI';'1.2.40.0.34.5.92';'Tumodi';;;;;'1';'L';
'TUNIS';'1.2.40.0.34.5.92';'Tunis';;;;;'1';'L';
'TYPHIMURIUM';'1.2.40.0.34.5.92';'Typhimurium';;;;;'1';'L';
'TYPHIMURIUM_VAR_O_5-';'1.2.40.0.34.5.92';'Typhimurium var. O:5-';;;;;'1';'L';
'TYPHISUIS';'1.2.40.0.34.5.92';'Typhisuis';;;;;'1';'L';
'TYRESOE';'1.2.40.0.34.5.92';'Tyresoe';;;;;'1';'L';
'UCCLE';'1.2.40.0.34.5.92';'Uccle';;;;;'1';'L';
'UGANDA';'1.2.40.0.34.5.92';'Uganda';;;;;'1';'L';
'UGANDA_VAR_15+_';'1.2.40.0.34.5.92';'Uganda var. 15+';;;;;'1';'L';
'UGHELLI';'1.2.40.0.34.5.92';'Ughelli';;;;;'1';'L';
'UHLENHORST';'1.2.40.0.34.5.92';'Uhlenhorst';;;;;'1';'L';
'UITHOF';'1.2.40.0.34.5.92';'Uithof';;;;;'1';'L';
'ULLEVI';'1.2.40.0.34.5.92';'Ullevi';;;;;'1';'L';
'UMBADAH';'1.2.40.0.34.5.92';'Umbadah';;;;;'1';'L';
'UMBILO';'1.2.40.0.34.5.92';'Umbilo';;;;;'1';'L';
'UMHLALI';'1.2.40.0.34.5.92';'Umhlali';;;;;'1';'L';
'UMHLATAZANA';'1.2.40.0.34.5.92';'Umhlatazana';;;;;'1';'L';
'UNK';'1.2.40.0.34.5.92';'Unknown';;;;;'1';'L';
'UNO';'1.2.40.0.34.5.92';'Uno';;;;;'1';'L';
'UPPSALA';'1.2.40.0.34.5.92';'Uppsala';;;;;'1';'L';
'URBANA';'1.2.40.0.34.5.92';'Urbana';;;;;'1';'L';
'URSENBACH';'1.2.40.0.34.5.92';'Ursenbach';;;;;'1';'L';
'USUMBURA';'1.2.40.0.34.5.92';'Usumbura';;;;;'1';'L';
'UTAH';'1.2.40.0.34.5.92';'Utah';;;;;'1';'L';
'UTRECHT';'1.2.40.0.34.5.92';'Utrecht';;;;;'1';'L';
'UZARAMO';'1.2.40.0.34.5.92';'Uzaramo';;;;;'1';'L';
'VAERTAN';'1.2.40.0.34.5.92';'Vaertan';;;;;'1';'L';
'VALDOSTA';'1.2.40.0.34.5.92';'Valdosta';;;;;'1';'L';
'VANCOUVER';'1.2.40.0.34.5.92';'Vancouver';;;;;'1';'L';
'VANIER';'1.2.40.0.34.5.92';'Vanier';;;;;'1';'L';
'VAUGIRARD';'1.2.40.0.34.5.92';'Vaugirard';;;;;'1';'L';
'VEGESACK';'1.2.40.0.34.5.92';'Vegesack';;;;;'1';'L';
'VEJLE';'1.2.40.0.34.5.92';'Vejle';;;;;'1';'L';
'VEJLE_VAR_15+';'1.2.40.0.34.5.92';'Vejle var. 15+';;;;;'1';'L';
'VELLORE';'1.2.40.0.34.5.92';'Vellore';;;;;'1';'L';
'VENEZIANA';'1.2.40.0.34.5.92';'Veneziana';;;;;'1';'L';
'VERONA';'1.2.40.0.34.5.92';'Verona';;;;;'1';'L';
'VERVIERS';'1.2.40.0.34.5.92';'Verviers';;;;;'1';'L';
'VICTORIA';'1.2.40.0.34.5.92';'Victoria';;;;;'1';'L';
'VICTORIABORG';'1.2.40.0.34.5.92';'Victoriaborg';;;;;'1';'L';
'VIETNAM';'1.2.40.0.34.5.92';'Vietnam';;;;;'1';'L';
'VILVOORDE';'1.2.40.0.34.5.92';'Vilvoorde';;;;;'1';'L';
'VINOHRADY';'1.2.40.0.34.5.92';'Vinohrady';;;;;'1';'L';
'VIRCHOW';'1.2.40.0.34.5.92';'Virchow';;;;;'1';'L';
'VIRGINIA';'1.2.40.0.34.5.92';'Virginia';;;;;'1';'L';
'VISBY';'1.2.40.0.34.5.92';'Visby';;;;;'1';'L';
'VITKIN';'1.2.40.0.34.5.92';'Vitkin';;;;;'1';'L';
'VLEUTEN';'1.2.40.0.34.5.92';'Vleuten';;;;;'1';'L';
'VOGAN';'1.2.40.0.34.5.92';'Vogan';;;;;'1';'L';
'VOLKSMARSDORF';'1.2.40.0.34.5.92';'Volksmarsdorf';;;;;'1';'L';
'VOLTA';'1.2.40.0.34.5.92';'Volta';;;;;'1';'L';
'VOM';'1.2.40.0.34.5.92';'Vom';;;;;'1';'L';
'VOULTE';'1.2.40.0.34.5.92';'Voulte';;;;;'1';'L';
'VRIDI';'1.2.40.0.34.5.92';'Vridi';;;;;'1';'L';
'VUADENS';'1.2.40.0.34.5.92';'Vuadens';;;;;'1';'L';
'WA';'1.2.40.0.34.5.92';'Wa';;;;;'1';'L';
'WAEDENSWIL';'1.2.40.0.34.5.92';'Waedenswil';;;;;'1';'L';
'WAGADUGU';'1.2.40.0.34.5.92';'Wagadugu';;;;;'1';'L';
'WAGENIA';'1.2.40.0.34.5.92';'Wagenia';;;;;'1';'L';
'WANATAH';'1.2.40.0.34.5.92';'Wanatah';;;;;'1';'L';
'WANDSWORTH';'1.2.40.0.34.5.92';'Wandsworth';;;;;'1';'L';
'WANGATA';'1.2.40.0.34.5.92';'Wangata';;;;;'1';'L';
'WARAL';'1.2.40.0.34.5.92';'Waral';;;;;'1';'L';
'WARENGO';'1.2.40.0.34.5.92';'Warengo';;;;;'1';'L';
'WARMSEN';'1.2.40.0.34.5.92';'Warmsen';;;;;'1';'L';
'WARNEMUENDE';'1.2.40.0.34.5.92';'Warnemuende';;;;;'1';'L';
'WARNOW';'1.2.40.0.34.5.92';'Warnow';;;;;'1';'L';
'WARRAGUL';'1.2.40.0.34.5.92';'Warragul';;;;;'1';'L';
'WARRI';'1.2.40.0.34.5.92';'Warri';;;;;'1';'L';
'WASHINGTON';'1.2.40.0.34.5.92';'Washington';;;;;'1';'L';
'WAYCROSS';'1.2.40.0.34.5.92';'Waycross';;;;;'1';'L';
'WAYNE';'1.2.40.0.34.5.92';'Wayne';;;;;'1';'L';
'WEDDING';'1.2.40.0.34.5.92';'Wedding';;;;;'1';'L';
'WELIKADE';'1.2.40.0.34.5.92';'Welikade';;;;;'1';'L';
'WELTEVREDEN';'1.2.40.0.34.5.92';'Weltevreden';;;;;'1';'L';
'WELTEVREDEN_VAR_15+_';'1.2.40.0.34.5.92';'Weltevreden var. 15+';;;;;'1';'L';
'WENATCHEE';'1.2.40.0.34.5.92';'Wenatchee';;;;;'1';'L';
'WENTWORTH';'1.2.40.0.34.5.92';'Wentworth';;;;;'1';'L';
'WERNIGERODE';'1.2.40.0.34.5.92';'Wernigerode';;;;;'1';'L';
'WESLACO';'1.2.40.0.34.5.92';'Weslaco';;;;;'1';'L';
'WESTAFRICA';'1.2.40.0.34.5.92';'Westafrica';;;;;'1';'L';
'WESTEINDE';'1.2.40.0.34.5.92';'Westeinde';;;;;'1';'L';
'WESTERSTEDE';'1.2.40.0.34.5.92';'Westerstede';;;;;'1';'L';
'WESTHAMPTON';'1.2.40.0.34.5.92';'Westhampton';;;;;'1';'L';
'WESTHAMPTON_VAR_15+';'1.2.40.0.34.5.92';'Westhampton var. 15+';;;;;'1';'L';
'WESTHAMPTON_VAR_15+_34+_';'1.2.40.0.34.5.92';'Westhampton var. 15+, 34+';;;;;'1';'L';
'WESTMINSTER';'1.2.40.0.34.5.92';'Westminster';;;;;'1';'L';
'WESTON';'1.2.40.0.34.5.92';'Weston';;;;;'1';'L';
'WESTPHALIA';'1.2.40.0.34.5.92';'Westphalia';;;;;'1';'L';
'WEYBRIDGE';'1.2.40.0.34.5.92';'Weybridge';;;;;'1';'L';
'WICHITA';'1.2.40.0.34.5.92';'Wichita';;;;;'1';'L';
'WIDEMARSH';'1.2.40.0.34.5.92';'Widemarsh';;;;;'1';'L';
'WIEN';'1.2.40.0.34.5.92';'Wien';;;;;'1';'L';
'WIL';'1.2.40.0.34.5.92';'Wil';;;;;'1';'L';
'WILHELMSBURG';'1.2.40.0.34.5.92';'Wilhelmsburg';;;;;'1';'L';
'WILLAMETTE';'1.2.40.0.34.5.92';'Willamette';;;;;'1';'L';
'WILLEMSTAD';'1.2.40.0.34.5.92';'Willemstad';;;;;'1';'L';
'WILMINGTON';'1.2.40.0.34.5.92';'Wilmington';;;;;'1';'L';
'WIMBORNE';'1.2.40.0.34.5.92';'Wimborne';;;;;'1';'L';
'WINDERMERE';'1.2.40.0.34.5.92';'Windermere';;;;;'1';'L';
'WINDSHEIM';'1.2.40.0.34.5.92';'Windsheim';;;;;'1';'L';
'WINGROVE';'1.2.40.0.34.5.92';'Wingrove';;;;;'1';'L';
'WINNEBA';'1.2.40.0.34.5.92';'Winneba';;;;;'1';'L';
'WINNIPEG';'1.2.40.0.34.5.92';'Winnipeg';;;;;'1';'L';
'WINSLOW';'1.2.40.0.34.5.92';'Winslow';;;;;'1';'L';
'WINSTON';'1.2.40.0.34.5.92';'Winston';;;;;'1';'L';
'WINTERTHUR';'1.2.40.0.34.5.92';'Winterthur';;;;;'1';'L';
'WIPPRA';'1.2.40.0.34.5.92';'Wippra';;;;;'1';'L';
'WISBECH';'1.2.40.0.34.5.92';'Wisbech';;;;;'1';'L';
'WOHLEN';'1.2.40.0.34.5.92';'Wohlen';;;;;'1';'L';
'WOODHULL';'1.2.40.0.34.5.92';'Woodhull';;;;;'1';'L';
'WOODINVILLE';'1.2.40.0.34.5.92';'Woodinville';;;;;'1';'L';
'WORB';'1.2.40.0.34.5.92';'Worb';;;;;'1';'L';
'WORTHINGTON';'1.2.40.0.34.5.92';'Worthington';;;;;'1';'L';
'WOUMBOU';'1.2.40.0.34.5.92';'Woumbou';;;;;'1';'L';
'WUITI';'1.2.40.0.34.5.92';'Wuiti';;;;;'1';'L';
'WUPPERTAL';'1.2.40.0.34.5.92';'Wuppertal';;;;;'1';'L';
'WYLDEGREEN';'1.2.40.0.34.5.92';'Wyldegreen';;;;;'1';'L';
'YABA';'1.2.40.0.34.5.92';'Yaba';;;;;'1';'L';
'YALDING';'1.2.40.0.34.5.92';'Yalding';;;;;'1';'L';
'YAOUNDE';'1.2.40.0.34.5.92';'Yaounde';;;;;'1';'L';
'YARDLEY';'1.2.40.0.34.5.92';'Yardley';;;;;'1';'L';
'YARM';'1.2.40.0.34.5.92';'Yarm';;;;;'1';'L';
'YARRABAH';'1.2.40.0.34.5.92';'Yarrabah';;;;;'1';'L';
'YEERONGPILLY';'1.2.40.0.34.5.92';'Yeerongpilly';;;;;'1';'L';
'YEHUDA';'1.2.40.0.34.5.92';'Yehuda';;;;;'1';'L';
'YEKEPA';'1.2.40.0.34.5.92';'Yekepa';;;;;'1';'L';
'YELLOWKNIFE';'1.2.40.0.34.5.92';'Yellowknife';;;;;'1';'L';
'YENNE';'1.2.40.0.34.5.92';'Yenne';;;;;'1';'L';
'YERBA';'1.2.40.0.34.5.92';'Yerba';;;;;'1';'L';
'YOFF';'1.2.40.0.34.5.92';'Yoff';;;;;'1';'L';
'YOKOE';'1.2.40.0.34.5.92';'Yokoe';;;;;'1';'L';
'YOLO';'1.2.40.0.34.5.92';'Yolo';;;;;'1';'L';
'YOMBESALI';'1.2.40.0.34.5.92';'Yombesali';;;;;'1';'L';
'YOPOUGON';'1.2.40.0.34.5.92';'Yopougon';;;;;'1';'L';
'YORK';'1.2.40.0.34.5.92';'York';;;;;'1';'L';
'YORUBA';'1.2.40.0.34.5.92';'Yoruba';;;;;'1';'L';
'YOVOKOME';'1.2.40.0.34.5.92';'Yovokome';;;;;'1';'L';
'YUNDUM';'1.2.40.0.34.5.92';'Yundum';;;;;'1';'L';
'ZADAR';'1.2.40.0.34.5.92';'Zadar';;;;;'1';'L';
'ZAIMAN';'1.2.40.0.34.5.92';'Zaiman';;;;;'1';'L';
'ZAIRE';'1.2.40.0.34.5.92';'Zaire';;;;;'1';'L';
'ZANZIBAR';'1.2.40.0.34.5.92';'Zanzibar';;;;;'1';'L';
'ZARIA';'1.2.40.0.34.5.92';'Zaria';;;;;'1';'L';
'ZEGA';'1.2.40.0.34.5.92';'Zega';;;;;'1';'L';
'ZEHLENDORF';'1.2.40.0.34.5.92';'Zehlendorf';;;;;'1';'L';
'ZERIFIN';'1.2.40.0.34.5.92';'Zerifin';;;;;'1';'L';
'ZIGONG';'1.2.40.0.34.5.92';'Zigong';;;;;'1';'L';
'ZINDER';'1.2.40.0.34.5.92';'Zinder';;;;;'1';'L';
'ZONGO';'1.2.40.0.34.5.92';'Zongo';;;;;'1';'L';
'ZUILEN';'1.2.40.0.34.5.92';'Zuilen';;;;;'1';'L';
'ZWICKAU';'1.2.40.0.34.5.92';'Zwickau';;;;;'1';'L';
'SHIGELLOSE';'1.2.40.0.34.5.92';'Shigellose';;;;;'0';'S';
'10';'1.2.40.0.34.5.92';'10';;;;;'1';'L';
'1A';'1.2.40.0.34.5.92';'1a';;;;;'1';'L';
'1B';'1.2.40.0.34.5.92';'1b';;;;;'1';'L';
'2A';'1.2.40.0.34.5.92';'2a';;;;;'1';'L';
'2B';'1.2.40.0.34.5.92';'2b';;;;;'1';'L';
'5A';'1.2.40.0.34.5.92';'5a';;;;;'1';'L';
'5B';'1.2.40.0.34.5.92';'5b';;;;;'1';'L';
'X';'1.2.40.0.34.5.92';'X';;;;;'1';'L';
'Y';'1.2.40.0.34.5.92';'Y';;;;;'1';'L';
