'code';'codeSystem';'displayName';'parentCodeSystemName';'concept_Beschreibung';'meaning';'hints';'orderNumber';'level';'type';'relationships';'einheit print';'einheit codiert'
'344';'1.2.40.0.34.5.205';'SD BIOSENSOR Inc., STANDARD F COVID-19 Ag FIA';'https://termgit.elga.gv.at/CodeSystem/dgc-ratnamemanufacturer';'SD BIOSENSOR Inc., STANDARD F COVID-19 Ag FIA';'';'';'1';'0';'L';'1.2.40.0.34.5.205:344';'';''
'345';'1.2.40.0.34.5.205';'SD BIOSENSOR Inc., STANDARD Q COVID-19 Ag Test';'https://termgit.elga.gv.at/CodeSystem/dgc-ratnamemanufacturer';'SD BIOSENSOR Inc., STANDARD Q COVID-19 Ag Test';'';'';'2';'0';'L';'1.2.40.0.34.5.205:345';'';''
'768';'1.2.40.0.34.5.205';'ArcDia International Ltd, mariPOC SARS-CoV-2';'https://termgit.elga.gv.at/CodeSystem/dgc-ratnamemanufacturer';'ArcDia International Ltd, mariPOC SARS-CoV-2';'';'';'3';'0';'L';'1.2.40.0.34.5.205:768';'';''
'1097';'1.2.40.0.34.5.205';'Quidel Corporation, Sofia 2 SARS Antigen FIA';'https://termgit.elga.gv.at/CodeSystem/dgc-ratnamemanufacturer';'Quidel Corporation, Sofia 2 SARS Antigen FIA';'';'';'4';'0';'L';'1.2.40.0.34.5.205:1097';'';''
'1114';'1.2.40.0.34.5.205';'Sugentech, Inc., SGTi-flex COVID-19 Ag';'https://termgit.elga.gv.at/CodeSystem/dgc-ratnamemanufacturer';'Sugentech, Inc., SGTi-flex COVID-19 Ag';'';'';'5';'0';'L';'1.2.40.0.34.5.205:1114';'';''
'1180';'1.2.40.0.34.5.205';'MEDsan GmbH, MEDsan SARS-CoV-2 Antigen Rapid Test';'https://termgit.elga.gv.at/CodeSystem/dgc-ratnamemanufacturer';'MEDsan GmbH, MEDsan SARS-CoV-2 Antigen Rapid Test';'';'';'6';'0';'L';'1.2.40.0.34.5.205:1180';'';''
'1190';'1.2.40.0.34.5.205';'möLab, COVID-19 Rapid Antigen Test';'https://termgit.elga.gv.at/CodeSystem/dgc-ratnamemanufacturer';'möLab, COVID-19 Rapid Antigen Test';'';'';'7';'0';'L';'1.2.40.0.34.5.205:1190';'';''
'1199';'1.2.40.0.34.5.205';'Oncosem Onkolojik Sistemler San. ve Tic. A.S., CAT';'https://termgit.elga.gv.at/CodeSystem/dgc-ratnamemanufacturer';'Oncosem Onkolojik Sistemler San. ve Tic. A.S., CAT';'';'';'8';'0';'L';'1.2.40.0.34.5.205:1199';'';''
'1201';'1.2.40.0.34.5.205';'ScheBo Biotech AG, ScheBo SARS CoV-2 Quick Antigen';'https://termgit.elga.gv.at/CodeSystem/dgc-ratnamemanufacturer';'ScheBo Biotech AG, ScheBo SARS CoV-2 Quick Antigen';'';'';'9';'0';'L';'1.2.40.0.34.5.205:1201';'';''
'1218';'1.2.40.0.34.5.205';'Siemens Healthineers, CLINITEST Rapid COVID-19 Antigen Test';'https://termgit.elga.gv.at/CodeSystem/dgc-ratnamemanufacturer';'Siemens Healthineers, CLINITEST Rapid COVID-19 Antigen Test';'';'';'10';'0';'L';'1.2.40.0.34.5.205:1218';'';''
'1223';'1.2.40.0.34.5.205';'BIOSYNEX SA , BIOSYNEX COVID-19 Ag BSS';'https://termgit.elga.gv.at/CodeSystem/dgc-ratnamemanufacturer';'BIOSYNEX SA , BIOSYNEX COVID-19 Ag BSS';'';'';'11';'0';'L';'1.2.40.0.34.5.205:1223';'';''
'1225';'1.2.40.0.34.5.205';'DDS DIAGNOSTIC, Test Rapid Covid-19 Antigen (tampon nazofaringian)';'https://termgit.elga.gv.at/CodeSystem/dgc-ratnamemanufacturer';'DDS DIAGNOSTIC, Test Rapid Covid-19 Antigen (tampon nazofaringian)';'';'';'12';'0';'L';'1.2.40.0.34.5.205:1225';'';''
'1232';'1.2.40.0.34.5.205';'Abbott Rapid Diagnostics, Panbio COVID-19 Ag Rapid Test ';'https://termgit.elga.gv.at/CodeSystem/dgc-ratnamemanufacturer';'Abbott Rapid Diagnostics, Panbio COVID-19 Ag Rapid Test ';'';'';'13';'0';'L';'1.2.40.0.34.5.205:1232';'';''
'1236';'1.2.40.0.34.5.205';'BTNX Inc., Rapid Response COVID-19 Antigen Rapid Test Device';'https://termgit.elga.gv.at/CodeSystem/dgc-ratnamemanufacturer';'BTNX Inc., Rapid Response COVID-19 Antigen Rapid Test Device';'';'';'14';'0';'L';'1.2.40.0.34.5.205:1236';'';''
'1253';'1.2.40.0.34.5.205';'GenSure Biotech Inc, Gensure COVID-19 Antigen Rapid Test Kit (REF: P2004) (DIA-COVID -19 Ag Rapid Test)';'https://termgit.elga.gv.at/CodeSystem/dgc-ratnamemanufacturer';'GenSure Biotech Inc, Gensure COVID-19 Antigen Rapid Test Kit (REF: P2004) (DIA-COVID -19 Ag Rapid Test)';'';'';'15';'0';'L';'1.2.40.0.34.5.205:1253';'';''
'1257';'1.2.40.0.34.5.205';'Hangzhou AllTest Biotech Co., Ltd, COVID-19 Antigen Rapid Test  ';'https://termgit.elga.gv.at/CodeSystem/dgc-ratnamemanufacturer';'Hangzhou AllTest Biotech Co., Ltd, COVID-19 Antigen Rapid Test  ';'';'';'16';'0';'L';'1.2.40.0.34.5.205:1257';'';''
'1266';'1.2.40.0.34.5.205';'Labnovation Technologies Inc., SARS-CoV-2 Antigen Rapid Test Kit';'https://termgit.elga.gv.at/CodeSystem/dgc-ratnamemanufacturer';'Labnovation Technologies Inc., SARS-CoV-2 Antigen Rapid Test Kit';'';'';'17';'0';'L';'1.2.40.0.34.5.205:1266';'';''
'1267';'1.2.40.0.34.5.205';'LumiQuick Diagnostics Inc., QuickProfil COVID-19 ANTIGEN Test';'https://termgit.elga.gv.at/CodeSystem/dgc-ratnamemanufacturer';'LumiQuick Diagnostics Inc., QuickProfil COVID-19 ANTIGEN Test';'';'';'18';'0';'L';'1.2.40.0.34.5.205:1267';'';''
'1268';'1.2.40.0.34.5.205';'LumiraDX , LumiraDx SARS-CoV-2 Ag Test ';'https://termgit.elga.gv.at/CodeSystem/dgc-ratnamemanufacturer';'LumiraDX , LumiraDx SARS-CoV-2 Ag Test ';'';'';'19';'0';'L';'1.2.40.0.34.5.205:1268';'';''
'1271';'1.2.40.0.34.5.205';'Precision Biosensor Inc., Exdia COVI-19 Ag Test';'https://termgit.elga.gv.at/CodeSystem/dgc-ratnamemanufacturer';'Precision Biosensor Inc., Exdia COVI-19 Ag Test';'';'';'20';'0';'L';'1.2.40.0.34.5.205:1271';'';''
'1278';'1.2.40.0.34.5.205';'Xiamen Boson Biotech Co, Rapid SARS-CoV-2 Antigen Test card ';'https://termgit.elga.gv.at/CodeSystem/dgc-ratnamemanufacturer';'Xiamen Boson Biotech Co, Rapid SARS-CoV-2 Antigen Test card ';'';'';'21';'0';'L';'1.2.40.0.34.5.205:1278';'';''
'1295';'1.2.40.0.34.5.205';'Zhejiang Anji Saianfu Biotech Co.., Ltd., reOpenTest COVID-19  Antigen Rapid Test';'https://termgit.elga.gv.at/CodeSystem/dgc-ratnamemanufacturer';'Zhejiang Anji Saianfu Biotech Co.., Ltd., reOpenTest COVID-19  Antigen Rapid Test';'';'';'22';'0';'L';'1.2.40.0.34.5.205:1295';'';''
'1296';'1.2.40.0.34.5.205';'Zhejiang Anji Saianfu Biotech Co.., Ltd., AndLucky COVID-19 Antigen Rapid Test';'https://termgit.elga.gv.at/CodeSystem/dgc-ratnamemanufacturer';'Zhejiang Anji Saianfu Biotech Co.., Ltd., AndLucky COVID-19 Antigen Rapid Test';'';'';'23';'0';'L';'1.2.40.0.34.5.205:1296';'';''
'1304';'1.2.40.0.34.5.205';'AMEDA Labordiagnostik GmbH, AMP Rapid Test SARS-CoV-2 Ag';'https://termgit.elga.gv.at/CodeSystem/dgc-ratnamemanufacturer';'AMEDA Labordiagnostik GmbH, AMP Rapid Test SARS-CoV-2 Ag';'';'';'24';'0';'L';'1.2.40.0.34.5.205:1304';'';''
'1319';'1.2.40.0.34.5.205';'SGA Medikal, V-Chek SARS-CoV2- Rapid Ag Tets (Coloidal Gold)';'https://termgit.elga.gv.at/CodeSystem/dgc-ratnamemanufacturer';'SGA Medikal, V-Chek SARS-CoV2- Rapid Ag Tets (Coloidal Gold)';'';'';'25';'0';'L';'1.2.40.0.34.5.205:1319';'';''
'1331';'1.2.40.0.34.5.205';'Beijing Lepu Medical Technology, SARS-CoV-2 Antigen Rapid Test Kit (Colloidal Gold immunochromatography)';'https://termgit.elga.gv.at/CodeSystem/dgc-ratnamemanufacturer';'Beijing Lepu Medical Technology, SARS-CoV-2 Antigen Rapid Test Kit (Colloidal Gold immunochromatography)';'';'';'26';'0';'L';'1.2.40.0.34.5.205:1331';'';''
'1333';'1.2.40.0.34.5.205';'Joinstar Biomedical Technology Co. Ltd, COVID-19 Antigen Rapid Test (Colloidal Gold)';'https://termgit.elga.gv.at/CodeSystem/dgc-ratnamemanufacturer';'Joinstar Biomedical Technology Co. Ltd, COVID-19 Antigen Rapid Test (Colloidal Gold)';'';'';'27';'0';'L';'1.2.40.0.34.5.205:1333';'';''
'1341';'1.2.40.0.34.5.205';'Qingdao Hightop Biotech Co. Ltd, SARS-CoV-2 Antigen Rapid Test';'https://termgit.elga.gv.at/CodeSystem/dgc-ratnamemanufacturer';'Qingdao Hightop Biotech Co. Ltd, SARS-CoV-2 Antigen Rapid Test';'';'';'28';'0';'L';'1.2.40.0.34.5.205:1341';'';''
'1343';'1.2.40.0.34.5.205';'Zhejiang Orient Gene Biotech Co., Ltd, Coronavirus Ag Rapid Test Cassette (Swab)';'https://termgit.elga.gv.at/CodeSystem/dgc-ratnamemanufacturer';'Zhejiang Orient Gene Biotech Co., Ltd, Coronavirus Ag Rapid Test Cassette (Swab)';'';'';'29';'0';'L';'1.2.40.0.34.5.205:1343';'';''
'1360';'1.2.40.0.34.5.205';'Guangdong Wesail Biotech Co. Ltd, COVID-19 AG Test Kit ';'https://termgit.elga.gv.at/CodeSystem/dgc-ratnamemanufacturer';'Guangdong Wesail Biotech Co. Ltd, COVID-19 AG Test Kit ';'';'';'30';'0';'L';'1.2.40.0.34.5.205:1360';'';''
'1363';'1.2.40.0.34.5.205';'Hangzhou Clongene Biotech Co., Ltd., COVID-19 Antigen Rapid Test Kit';'https://termgit.elga.gv.at/CodeSystem/dgc-ratnamemanufacturer';'Hangzhou Clongene Biotech Co., Ltd., COVID-19 Antigen Rapid Test Kit';'';'';'31';'0';'L';'1.2.40.0.34.5.205:1363';'';''
'1365';'1.2.40.0.34.5.205';'Hangzhou Clongene Biotech Co., Ltd., COVID-19/Influenza A+B Antigen Combo Rapid Test';'https://termgit.elga.gv.at/CodeSystem/dgc-ratnamemanufacturer';'Hangzhou Clongene Biotech Co., Ltd., COVID-19/Influenza A+B Antigen Combo Rapid Test';'';'';'32';'0';'L';'1.2.40.0.34.5.205:1365';'';''
'1392';'1.2.40.0.34.5.205';'Hangzhou Testsea Biotechnology Co., Ltd., Testsealabs Covid-19 Antigen Rapid Test Cassette';'https://termgit.elga.gv.at/CodeSystem/dgc-ratnamemanufacturer';'Hangzhou Testsea Biotechnology Co., Ltd., Testsealabs Covid-19 Antigen Rapid Test Cassette';'';'';'33';'0';'L';'1.2.40.0.34.5.205:1392';'';''
'1443';'1.2.40.0.34.5.205';'Vitrosens Biotechnology Co. Ltd, RapidFor SARS-CoV-2 Ag Test Kit';'https://termgit.elga.gv.at/CodeSystem/dgc-ratnamemanufacturer';'Vitrosens Biotechnology Co. Ltd, RapidFor SARS-CoV-2 Ag Test Kit';'';'';'34';'0';'L';'1.2.40.0.34.5.205:1443';'';''
'1457';'1.2.40.0.34.5.205';'Acon Biotech (Hangzhou) Co., Ltd, SARS-CoV-2 Antigen Rapid Test';'https://termgit.elga.gv.at/CodeSystem/dgc-ratnamemanufacturer';'Acon Biotech (Hangzhou) Co., Ltd, SARS-CoV-2 Antigen Rapid Test';'';'';'35';'0';'L';'1.2.40.0.34.5.205:1457';'';''
'1466';'1.2.40.0.34.5.205';'TODA PHARMA, TODA CORONADIAG Ag';'https://termgit.elga.gv.at/CodeSystem/dgc-ratnamemanufacturer';'TODA PHARMA, TODA CORONADIAG Ag';'';'';'36';'0';'L';'1.2.40.0.34.5.205:1466';'';''
'1468';'1.2.40.0.34.5.205';'ACON Laboratories, Inc, Flowflex SARS-CoV-2 Antigen Rapid Test ';'https://termgit.elga.gv.at/CodeSystem/dgc-ratnamemanufacturer';'ACON Laboratories, Inc, Flowflex SARS-CoV-2 Antigen Rapid Test ';'';'';'37';'0';'L';'1.2.40.0.34.5.205:1468';'';''
'1481';'1.2.40.0.34.5.205';'MP Biomedicals , Rapid SARS-CoV-2 Antigen Test Card';'https://termgit.elga.gv.at/CodeSystem/dgc-ratnamemanufacturer';'MP Biomedicals , Rapid SARS-CoV-2 Antigen Test Card';'';'';'38';'0';'L';'1.2.40.0.34.5.205:1481';'';''
'1489';'1.2.40.0.34.5.205';'Safecare Biotech Hangzhou Co, COVID-19 Antigen Rapid Test Kit (Swab)';'https://termgit.elga.gv.at/CodeSystem/dgc-ratnamemanufacturer';'Safecare Biotech Hangzhou Co, COVID-19 Antigen Rapid Test Kit (Swab)';'';'';'39';'0';'L';'1.2.40.0.34.5.205:1489';'';''
'1490';'1.2.40.0.34.5.205';'Safecare Biotech Hangzhou Co, Multi-Respiratory Virus Antigen Test Kit (Swab) (Influenza A+B/COVID-19)';'https://termgit.elga.gv.at/CodeSystem/dgc-ratnamemanufacturer';'Safecare Biotech Hangzhou Co, Multi-Respiratory Virus Antigen Test Kit (Swab) (Influenza A+B/COVID-19)';'';'';'40';'0';'L';'1.2.40.0.34.5.205:1490';'';''
'1501';'1.2.40.0.34.5.205';'New Gene (Hangzhou) Bioengineering Co., Ltd., COVID-19 Antigen Detection Kit';'https://termgit.elga.gv.at/CodeSystem/dgc-ratnamemanufacturer';'New Gene (Hangzhou) Bioengineering Co., Ltd., COVID-19 Antigen Detection Kit';'';'';'41';'0';'L';'1.2.40.0.34.5.205:1501';'';''
'1604';'1.2.40.0.34.5.205';'Roche (SD BIOSENSOR), SARS-CoV-2 Antigen Rapid Test';'https://termgit.elga.gv.at/CodeSystem/dgc-ratnamemanufacturer';'Roche (SD BIOSENSOR), SARS-CoV-2 Antigen Rapid Test';'';'';'42';'0';'L';'1.2.40.0.34.5.205:1604';'';''
'1654';'1.2.40.0.34.5.205';'Asan Pharmaceutical CO., LTD, Asan Easy Test COVID-19 Ag';'https://termgit.elga.gv.at/CodeSystem/dgc-ratnamemanufacturer';'Asan Pharmaceutical CO., LTD, Asan Easy Test COVID-19 Ag';'';'';'43';'0';'L';'1.2.40.0.34.5.205:1654';'';''
'1736';'1.2.40.0.34.5.205';'Anhui Deep Blue Medical Technology Co. Ltd, COVID-19 (SARS-CoV-2) Antigen Test Kit (Colloidal Gold)';'https://termgit.elga.gv.at/CodeSystem/dgc-ratnamemanufacturer';'Anhui Deep Blue Medical Technology Co. Ltd, COVID-19 (SARS-CoV-2) Antigen Test Kit (Colloidal Gold)';'';'';'44';'0';'L';'1.2.40.0.34.5.205:1736';'';''
'1763';'1.2.40.0.34.5.205';'Xiamen AmonMed Biotechnology Co., Ltd., COVID-19 Antigen Rapid Test Kit (Colloidal Gold)  ';'https://termgit.elga.gv.at/CodeSystem/dgc-ratnamemanufacturer';'Xiamen AmonMed Biotechnology Co., Ltd., COVID-19 Antigen Rapid Test Kit (Colloidal Gold)  ';'';'';'45';'0';'L';'1.2.40.0.34.5.205:1763';'';''
'1764';'1.2.40.0.34.5.205';'JOYSBIO (Tianjin) Biotechnology Co., Ltd., SARS-CoV-2 Antigen Rapid Test Kit (Colloidal Gold immunochromatography)';'https://termgit.elga.gv.at/CodeSystem/dgc-ratnamemanufacturer';'JOYSBIO (Tianjin) Biotechnology Co., Ltd., SARS-CoV-2 Antigen Rapid Test Kit (Colloidal Gold immunochromatography)';'';'';'46';'0';'L';'1.2.40.0.34.5.205:1764';'';''
'1767';'1.2.40.0.34.5.205';'Healgen Scientific Limited, Coronavirus Ag Rapid Test Cassette (Swab)';'https://termgit.elga.gv.at/CodeSystem/dgc-ratnamemanufacturer';'Healgen Scientific Limited, Coronavirus Ag Rapid Test Cassette (Swab)';'';'';'47';'0';'L';'1.2.40.0.34.5.205:1767';'';''
'1769';'1.2.40.0.34.5.205';'Shenzhen Watmind Medical Co., Ltd, SARS-CoV-2 Ag Diagnostic Test Kit (Colloidal Gold)';'https://termgit.elga.gv.at/CodeSystem/dgc-ratnamemanufacturer';'Shenzhen Watmind Medical Co., Ltd, SARS-CoV-2 Ag Diagnostic Test Kit (Colloidal Gold)';'';'';'48';'0';'L';'1.2.40.0.34.5.205:1769';'';''
'1815';'1.2.40.0.34.5.205';'Anhui DeepBlue Medical Technology Co. Ltd, COVID-19 (SARS-CoV-2) Antigen Test Kit (Colloidal Gold) ? Nasal swab';'https://termgit.elga.gv.at/CodeSystem/dgc-ratnamemanufacturer';'Anhui DeepBlue Medical Technology Co. Ltd, COVID-19 (SARS-CoV-2) Antigen Test Kit (Colloidal Gold) ? Nasal swab';'';'';'49';'0';'L';'1.2.40.0.34.5.205:1815';'';''
'1822';'1.2.40.0.34.5.205';'Anbio (Xiamen) Biotechnology Co., Ltd., Rapid COVID-19 Antigen-Test (colloidal Gold)';'https://termgit.elga.gv.at/CodeSystem/dgc-ratnamemanufacturer';'Anbio (Xiamen) Biotechnology Co., Ltd., Rapid COVID-19 Antigen-Test (colloidal Gold)';'';'';'50';'0';'L';'1.2.40.0.34.5.205:1822';'';''
'1833';'1.2.40.0.34.5.205';'AAZ-LMB, COVID-VIRO Rapid antigen test COVID-19';'https://termgit.elga.gv.at/CodeSystem/dgc-ratnamemanufacturer';'AAZ-LMB, COVID-VIRO Rapid antigen test COVID-19';'';'';'51';'0';'L';'1.2.40.0.34.5.205:1833';'';''
'1870';'1.2.40.0.34.5.205';'Beijing Hotgen Biotech Co., Ltd., Novel Coronavirus 2019-nCoV Antigen Test (Colloidal Gold)';'https://termgit.elga.gv.at/CodeSystem/dgc-ratnamemanufacturer';'Beijing Hotgen Biotech Co., Ltd., Novel Coronavirus 2019-nCoV Antigen Test (Colloidal Gold)';'';'';'52';'0';'L';'1.2.40.0.34.5.205:1870';'';''
'2029';'1.2.40.0.34.5.205';'Merlin Biomedical (Xiamen) Co., Ltd., SARS-CoV-2 Antigen Rapid Test Cassette';'https://termgit.elga.gv.at/CodeSystem/dgc-ratnamemanufacturer';'Merlin Biomedical (Xiamen) Co., Ltd., SARS-CoV-2 Antigen Rapid Test Cassette';'';'';'53';'0';'L';'1.2.40.0.34.5.205:2029';'';''
'2074';'1.2.40.0.34.5.205';'Triplex International Biosciences Co., Ltd, SARS-CoV-2 Antigen Rapid Test Kit';'https://termgit.elga.gv.at/CodeSystem/dgc-ratnamemanufacturer';'Triplex International Biosciences Co., Ltd, SARS-CoV-2 Antigen Rapid Test Kit';'';'';'54';'0';'L';'1.2.40.0.34.5.205:2074';'';''
'2098';'1.2.40.0.34.5.205';'Wuhan EasyDiagnosis Biomedicine Co., Ltd., COVID-19  (SARS-CoV-2) Antigen-Test kit ';'https://termgit.elga.gv.at/CodeSystem/dgc-ratnamemanufacturer';'Wuhan EasyDiagnosis Biomedicine Co., Ltd., COVID-19  (SARS-CoV-2) Antigen-Test kit ';'';'';'55';'0';'L';'1.2.40.0.34.5.205:2098';'';''
'2101';'1.2.40.0.34.5.205';'AXIOM Gesellschaft für Diagnostica und Biochemica mbH, COVID-19 Antigen Rapid Test';'https://termgit.elga.gv.at/CodeSystem/dgc-ratnamemanufacturer';'AXIOM Gesellschaft für Diagnostica und Biochemica mbH, COVID-19 Antigen Rapid Test';'';'';'56';'0';'L';'1.2.40.0.34.5.205:2101';'';''
'2109';'1.2.40.0.34.5.205';'Shenzhen Lvshiyuan Biotechnology Co., Ltd., Green Spring SARS-CoV-2 Antigen-Rapid test-Set';'https://termgit.elga.gv.at/CodeSystem/dgc-ratnamemanufacturer';'Shenzhen Lvshiyuan Biotechnology Co., Ltd., Green Spring SARS-CoV-2 Antigen-Rapid test-Set';'';'';'57';'0';'L';'1.2.40.0.34.5.205:2109';'';''
'2116';'1.2.40.0.34.5.205';'PerGrande Biotech Development Co., Ltd., SARS-CoV-2 Antigen Detection Kit (Colloidal Gold Immunochromato-graphic assay)';'https://termgit.elga.gv.at/CodeSystem/dgc-ratnamemanufacturer';'PerGrande Biotech Development Co., Ltd., SARS-CoV-2 Antigen Detection Kit (Colloidal Gold Immunochromato-graphic assay)';'';'';'58';'0';'L';'1.2.40.0.34.5.205:2116';'';''
'2128';'1.2.40.0.34.5.205';'Lumigenex (Suzhou) Co., Ltd, PocRoc SARS-CoV-2 Antigen Rapid Test Kit (Colloidal Gold)';'https://termgit.elga.gv.at/CodeSystem/dgc-ratnamemanufacturer';'Lumigenex (Suzhou) Co., Ltd, PocRoc SARS-CoV-2 Antigen Rapid Test Kit (Colloidal Gold)';'';'';'59';'0';'L';'1.2.40.0.34.5.205:2128';'';''
'2130';'1.2.40.0.34.5.205';'Affimedix Inc., TestNOW - COVID-19 Antigen Test';'https://termgit.elga.gv.at/CodeSystem/dgc-ratnamemanufacturer';'Affimedix Inc., TestNOW - COVID-19 Antigen Test';'';'';'60';'0';'L';'1.2.40.0.34.5.205:2130';'';''
'2139';'1.2.40.0.34.5.205';'Hangzhou Lysun Biotechnology Co., Ltd., COVID-19 antigen Rapid Test Device (Colloidal Gold)';'https://termgit.elga.gv.at/CodeSystem/dgc-ratnamemanufacturer';'Hangzhou Lysun Biotechnology Co., Ltd., COVID-19 antigen Rapid Test Device (Colloidal Gold)';'';'';'61';'0';'L';'1.2.40.0.34.5.205:2139';'';''
'2183';'1.2.40.0.34.5.205';'Getein Biotech, Inc., One Step Test for SARS-CoV-2 Antigen (Colloidal Gold)';'https://termgit.elga.gv.at/CodeSystem/dgc-ratnamemanufacturer';'Getein Biotech, Inc., One Step Test for SARS-CoV-2 Antigen (Colloidal Gold)';'';'';'62';'0';'L';'1.2.40.0.34.5.205:2183';'';''
'2017';'1.2.40.0.34.5.205';'Shenzen Ultra-Diagnostics Biotec Co., SARS-CoV-2 Antigen test Kit (colloidal gold)';'https://termgit.elga.gv.at/CodeSystem/dgc-ratnamemanufacturer';'Shenzen Ultra-Diagnostics Biotec Co., SARS-CoV-2 Antigen test Kit (colloidal gold)';'';'';'63';'0';'L';'1.2.40.0.34.5.205:2017';'';''
'1065';'1.2.40.0.34.5.205';'Becton Dickinson, BD Veritor System for Rapid Detection of SARS CoV 2';'https://termgit.elga.gv.at/CodeSystem/dgc-ratnamemanufacturer';'Becton Dickinson, BD Veritor System for Rapid Detection of SARS CoV 2';'';'';'64';'0';'L';'1.2.40.0.34.5.205:1065';'';''
'1242';'1.2.40.0.34.5.205';'BIONOTE, NowCheck COVID-19 Ag Test';'https://termgit.elga.gv.at/CodeSystem/dgc-ratnamemanufacturer';'BIONOTE, NowCheck COVID-19 Ag Test';'';'';'65';'0';'L';'1.2.40.0.34.5.205:1242';'';''
'1357';'1.2.40.0.34.5.205';'SGA Medikal, V-Chek SARS-CoV-2 Rapid Ag Test (colloidal gold)';'https://termgit.elga.gv.at/CodeSystem/dgc-ratnamemanufacturer';'SGA Medikal, V-Chek SARS-CoV-2 Rapid Ag Test (colloidal gold)';'';'';'66';'0';'L';'1.2.40.0.34.5.205:1357';'';''
'1494';'1.2.40.0.34.5.205';'BIOSYNEX SA, BIOSYNEX COVID-19 Ag+ BSS';'https://termgit.elga.gv.at/CodeSystem/dgc-ratnamemanufacturer';'BIOSYNEX SA, BIOSYNEX COVID-19 Ag+ BSS';'';'';'67';'0';'L';'1.2.40.0.34.5.205:1494';'';''
'1495';'1.2.40.0.34.5.205';'Prognosis Biotech, Rapid Test Ag 2019-nCov';'https://termgit.elga.gv.at/CodeSystem/dgc-ratnamemanufacturer';'Prognosis Biotech, Rapid Test Ag 2019-nCov';'';'';'68';'0';'L';'1.2.40.0.34.5.205:1495';'';''
'1581';'1.2.40.0.34.5.205';'CTK Biotech, Inc, OnSite COVID-19 Ag Rapid Test';'https://termgit.elga.gv.at/CodeSystem/dgc-ratnamemanufacturer';'CTK Biotech, Inc, OnSite COVID-19 Ag Rapid Test';'';'';'69';'0';'L';'1.2.40.0.34.5.205:1581';'';''
'1599';'1.2.40.0.34.5.205';'Biomerica Inc., Biomerica COVID-19 Antigen Rapid Test (nasopharyngeal swab)';'https://termgit.elga.gv.at/CodeSystem/dgc-ratnamemanufacturer';'Biomerica Inc., Biomerica COVID-19 Antigen Rapid Test (nasopharyngeal swab)';'';'';'70';'0';'L';'1.2.40.0.34.5.205:1599';'';''
'1610';'1.2.40.0.34.5.205';'Hangzhou Clongene Biotech Co., Ltd, COVID-19 Antigen Rapid Test Casette';'https://termgit.elga.gv.at/CodeSystem/dgc-ratnamemanufacturer';'Hangzhou Clongene Biotech Co., Ltd, COVID-19 Antigen Rapid Test Casette';'';'';'71';'0';'L';'1.2.40.0.34.5.205:1610';'';''
'1739';'1.2.40.0.34.5.205';'Eurobio Scientific, EBS SARS-CoV-2 Ag Rapid Test';'https://termgit.elga.gv.at/CodeSystem/dgc-ratnamemanufacturer';'Eurobio Scientific, EBS SARS-CoV-2 Ag Rapid Test';'';'';'72';'0';'L';'1.2.40.0.34.5.205:1739';'';''
'1768';'1.2.40.0.34.5.205';'Shenzhen Watmind Medical Co., Ltd, SARS-CoV-2 Ag Diagnostic Test Kit (Immuno-fluorescence)';'https://termgit.elga.gv.at/CodeSystem/dgc-ratnamemanufacturer';'Shenzhen Watmind Medical Co., Ltd, SARS-CoV-2 Ag Diagnostic Test Kit (Immuno-fluorescence)';'';'';'73';'0';'L';'1.2.40.0.34.5.205:1768';'';''
'1775';'1.2.40.0.34.5.205';'MEXACARE GmbH, MEXACARE COVID-19 Antigen Rapid Test';'https://termgit.elga.gv.at/CodeSystem/dgc-ratnamemanufacturer';'MEXACARE GmbH, MEXACARE COVID-19 Antigen Rapid Test';'';'';'74';'0';'L';'1.2.40.0.34.5.205:1775';'';''
'1800';'1.2.40.0.34.5.205';'Avalun, Ksmart SARS-COV2 Antigen Rapid Test';'https://termgit.elga.gv.at/CodeSystem/dgc-ratnamemanufacturer';'Avalun, Ksmart SARS-COV2 Antigen Rapid Test';'';'';'75';'0';'L';'1.2.40.0.34.5.205:1800';'';''
'1967';'1.2.40.0.34.5.205';'Shenzhen Microprofit Biotech Co., Ltd, SARS-CoV-2 Antigen Test Kit (Colloidal Gold Chromatographic Immunoassay)';'https://termgit.elga.gv.at/CodeSystem/dgc-ratnamemanufacturer';'Shenzhen Microprofit Biotech Co., Ltd, SARS-CoV-2 Antigen Test Kit (Colloidal Gold Chromatographic Immunoassay)';'';'';'76';'0';'L';'1.2.40.0.34.5.205:1967';'';''
'2006';'1.2.40.0.34.5.205';'Jiangsu Medomics medical technology Co.,Ltd., SARS-CoV-2 antigen Test Kit (LFIA)';'https://termgit.elga.gv.at/CodeSystem/dgc-ratnamemanufacturer';'Jiangsu Medomics medical technology Co.,Ltd., SARS-CoV-2 antigen Test Kit (LFIA)';'';'';'77';'0';'L';'1.2.40.0.34.5.205:2006';'';''
'2012';'1.2.40.0.34.5.205';'Genrui Biotech Inc, SARS-CoV-2 Antigen Test Kit (Colloidal Gold)';'https://termgit.elga.gv.at/CodeSystem/dgc-ratnamemanufacturer';'Genrui Biotech Inc, SARS-CoV-2 Antigen Test Kit (Colloidal Gold)';'';'';'78';'0';'L';'1.2.40.0.34.5.205:2012';'';''
'2031';'1.2.40.0.34.5.205';'BIO-RAD, CORONAVIRUS AG RAPID TEST CASSETTE';'https://termgit.elga.gv.at/CodeSystem/dgc-ratnamemanufacturer';'BIO-RAD, CORONAVIRUS AG RAPID TEST CASSETTE';'';'';'79';'0';'L';'1.2.40.0.34.5.205:2031';'';''
'2090';'1.2.40.0.34.5.205';'Wuhan UNscience Biotechnology Co., Ltd., SARS-CoV-2 Antigen Rapid Test Kit';'https://termgit.elga.gv.at/CodeSystem/dgc-ratnamemanufacturer';'Wuhan UNscience Biotechnology Co., Ltd., SARS-CoV-2 Antigen Rapid Test Kit';'';'';'80';'0';'L';'1.2.40.0.34.5.205:2090';'';''
'2147';'1.2.40.0.34.5.205';'Fujirebio , ESPLINE SARS-CoV-2';'https://termgit.elga.gv.at/CodeSystem/dgc-ratnamemanufacturer';'Fujirebio , ESPLINE SARS-CoV-2';'';'';'81';'0';'L';'1.2.40.0.34.5.205:2147';'';''
'2228';'1.2.40.0.34.5.205';'Roche (SD BIOSENSOR), SARS-CoV-2 Rapid Antigen Test Nasal';'https://termgit.elga.gv.at/CodeSystem/dgc-ratnamemanufacturer';'Roche (SD BIOSENSOR), SARS-CoV-2 Rapid Antigen Test Nasal';'';'';'82';'0';'L';'1.2.40.0.34.5.205:2228';'';''
'2078';'1.2.40.0.34.5.205';'ArcDia International Oy Ltd, mariPOC Respi+';'https://termgit.elga.gv.at/CodeSystem/dgc-ratnamemanufacturer';'ArcDia International Oy Ltd, mariPOC Respi+';'';'';'83';'0';'L';'1.2.40.0.34.5.205:2078';'';''
'2079';'1.2.40.0.34.5.205';'ArcDia International Oy Ltd, mariPOC Quick Flu+';'https://termgit.elga.gv.at/CodeSystem/dgc-ratnamemanufacturer';'ArcDia International Oy Ltd, mariPOC Quick Flu+';'';'';'84';'0';'L';'1.2.40.0.34.5.205:2079';'';''
'1618';'1.2.40.0.34.5.205';'Artron Laboratories Inc., Artron COVID-19 Antigen Test';'https://termgit.elga.gv.at/CodeSystem/dgc-ratnamemanufacturer';'Artron Laboratories Inc., Artron COVID-19 Antigen Test';'';'';'85';'0';'L';'1.2.40.0.34.5.205:1618';'';''
'770';'1.2.40.0.34.5.205';'Assure Tech. (Hangzhou) Co., Ltd., ECOTEST COVID-19 Antigen Rapid Test Device';'https://termgit.elga.gv.at/CodeSystem/dgc-ratnamemanufacturer';'Assure Tech. (Hangzhou) Co., Ltd., ECOTEST COVID-19 Antigen Rapid Test Device';'';'';'86';'0';'L';'1.2.40.0.34.5.205:770';'';''
'2072';'1.2.40.0.34.5.205';'Beijing Jinwofu Bioengineering Technology Co.,Ltd., Novel Coronavirus (SARS-CoV-2) Antigen Rapid Test Kit';'https://termgit.elga.gv.at/CodeSystem/dgc-ratnamemanufacturer';'Beijing Jinwofu Bioengineering Technology Co.,Ltd., Novel Coronavirus (SARS-CoV-2) Antigen Rapid Test Kit';'';'';'87';'0';'L';'1.2.40.0.34.5.205:2072';'';''
'1485';'1.2.40.0.34.5.205';'Beijing Wantai Biological Pharmacy Enterprise Co., Ltd, Wantai SARS-CoV-2 Ag Rapid Test (colloidal gold)';'https://termgit.elga.gv.at/CodeSystem/dgc-ratnamemanufacturer';'Beijing Wantai Biological Pharmacy Enterprise Co., Ltd, Wantai SARS-CoV-2 Ag Rapid Test (colloidal gold)';'';'';'88';'0';'L';'1.2.40.0.34.5.205:1485';'';''
'2067';'1.2.40.0.34.5.205';'BIOTEKE CORPORATION (WUXI) CO., LTD, SARS-CoV-2 Antigen Test Kit (colloidal gold method)';'https://termgit.elga.gv.at/CodeSystem/dgc-ratnamemanufacturer';'BIOTEKE CORPORATION (WUXI) CO., LTD, SARS-CoV-2 Antigen Test Kit (colloidal gold method)';'';'';'89';'0';'L';'1.2.40.0.34.5.205:2067';'';''
'1243';'1.2.40.0.34.5.205';'Edinburgh Genetics Limited, Edinburgh Genetics ActivXpress+ COVID-19 Antigen Complete Testing Kit';'https://termgit.elga.gv.at/CodeSystem/dgc-ratnamemanufacturer';'Edinburgh Genetics Limited, Edinburgh Genetics ActivXpress+ COVID-19 Antigen Complete Testing Kit';'';'';'90';'0';'L';'1.2.40.0.34.5.205:1243';'';''
'1820';'1.2.40.0.34.5.205';'Getein Biotech, Inc, SARS-CoV-2 Antigen (Colloidal Gold)';'https://termgit.elga.gv.at/CodeSystem/dgc-ratnamemanufacturer';'Getein Biotech, Inc, SARS-CoV-2 Antigen (Colloidal Gold)';'';'';'91';'0';'L';'1.2.40.0.34.5.205:1820';'';''
'1197';'1.2.40.0.34.5.205';'Goldsite Diagnostic Inc., SARS-CoV-2 Antigen Kit (Colloidal Gold)';'https://termgit.elga.gv.at/CodeSystem/dgc-ratnamemanufacturer';'Goldsite Diagnostic Inc., SARS-CoV-2 Antigen Kit (Colloidal Gold)';'';'';'92';'0';'L';'1.2.40.0.34.5.205:1197';'';''
'1216';'1.2.40.0.34.5.205';'Guangdong Longsee Biomedical Co., Ltd., COVID-2019-nCoV Ag Rapid TestDetection Kit(Immuno-Chromatography)';'https://termgit.elga.gv.at/CodeSystem/dgc-ratnamemanufacturer';'Guangdong Longsee Biomedical Co., Ltd., COVID-2019-nCoV Ag Rapid TestDetection Kit(Immuno-Chromatography)';'';'';'93';'0';'L';'1.2.40.0.34.5.205:1216';'';''
'2107';'1.2.40.0.34.5.205';'Jiangsu Bioperfectus Technologies Co., Ltd., Novel Corona Virus (SARS-CoV-2) Ag Rapid Test Kit';'https://termgit.elga.gv.at/CodeSystem/dgc-ratnamemanufacturer';'Jiangsu Bioperfectus Technologies Co., Ltd., Novel Corona Virus (SARS-CoV-2) Ag Rapid Test Kit';'';'';'94';'0';'L';'1.2.40.0.34.5.205:2107';'';''
'1920';'1.2.40.0.34.5.205';'Jiangsu Diagnostics Biotechnology Co., Ltd, COVID-19 Antigen Rapid Test Cassette (Colloidal Gold)';'https://termgit.elga.gv.at/CodeSystem/dgc-ratnamemanufacturer';'Jiangsu Diagnostics Biotechnology Co., Ltd, COVID-19 Antigen Rapid Test Cassette (Colloidal Gold)';'';'';'95';'0';'L';'1.2.40.0.34.5.205:1920';'';''
'2200';'1.2.40.0.34.5.205';'NanoRepro AG, NanoRepro SARS-CoV-2 Antigen Rapid Test';'https://termgit.elga.gv.at/CodeSystem/dgc-ratnamemanufacturer';'NanoRepro AG, NanoRepro SARS-CoV-2 Antigen Rapid Test';'';'';'96';'0';'L';'1.2.40.0.34.5.205:2200';'';''
'1762';'1.2.40.0.34.5.205';'Novatech, SARS-CoV-2 Antigen Rapid Test';'https://termgit.elga.gv.at/CodeSystem/dgc-ratnamemanufacturer';'Novatech, SARS-CoV-2 Antigen Rapid Test';'';'';'97';'0';'L';'1.2.40.0.34.5.205:1762';'';''
'1465';'1.2.40.0.34.5.205';'Triplex International Biosciences Co., Ltd, China, SARS-CoV-2 Antigen Rapid Test Kit';'https://termgit.elga.gv.at/CodeSystem/dgc-ratnamemanufacturer';'Triplex International Biosciences Co., Ltd, China, SARS-CoV-2 Antigen Rapid Test Kit';'';'';'98';'0';'L';'1.2.40.0.34.5.205:1465';'';''
'1773';'1.2.40.0.34.5.205';'Wuhan Life Origin Biotech Joint Stock Co., Ltd., SARS-CoV-2 Antigen Assay Kit (Immunochromatography)';'https://termgit.elga.gv.at/CodeSystem/dgc-ratnamemanufacturer';'Wuhan Life Origin Biotech Joint Stock Co., Ltd., SARS-CoV-2 Antigen Assay Kit (Immunochromatography)';'';'';'99';'0';'L';'1.2.40.0.34.5.205:1773';'';''
'1957';'1.2.40.0.34.5.205';'Zhuhai Lituo Biotechnology Co., Ltd., COVID-19 Antigen Detection Kit (Colloidal Gold)';'https://termgit.elga.gv.at/CodeSystem/dgc-ratnamemanufacturer';'Zhuhai Lituo Biotechnology Co., Ltd., COVID-19 Antigen Detection Kit (Colloidal Gold)';'';'';'100';'0';'L';'1.2.40.0.34.5.205:1957';'';''
'2350';'1.2.40.0.34.5.205';'Assure Tech. (Hangzhou) Co., Ltd., ECOTEST COVID-19 Antigen Rapid Test Device';'https://termgit.elga.gv.at/CodeSystem/dgc-ratnamemanufacturer';'Assure Tech. (Hangzhou) Co., Ltd., ECOTEST COVID-19 Antigen Rapid Test Device';'';'';'101';'0';'L';'1.2.40.0.34.5.205:2350';'';''
'2247';'1.2.40.0.34.5.205';'BioGnost Ltd, CoviGnost AG Test Device 1x20';'https://termgit.elga.gv.at/CodeSystem/dgc-ratnamemanufacturer';'BioGnost Ltd, CoviGnost AG Test Device 1x20';'';'';'102';'0';'L';'1.2.40.0.34.5.205:2247';'';''
'1286';'1.2.40.0.34.5.205';'BIOHIT HealthCcare (Hefei) Co., Ltd., SARS-CoV-2 Antigen Rapid Test Kit (Fluorescence Immunochromatography)';'https://termgit.elga.gv.at/CodeSystem/dgc-ratnamemanufacturer';'BIOHIT HealthCcare (Hefei) Co., Ltd., SARS-CoV-2 Antigen Rapid Test Kit (Fluorescence Immunochromatography)';'';'';'103';'0';'L';'1.2.40.0.34.5.205:1286';'';''
'2035';'1.2.40.0.34.5.205';'BioMaxima SA, SARS-CoV-2 Ag Rapid Test';'https://termgit.elga.gv.at/CodeSystem/dgc-ratnamemanufacturer';'BioMaxima SA, SARS-CoV-2 Ag Rapid Test';'';'';'104';'0';'L';'1.2.40.0.34.5.205:2035';'';''
'2013';'1.2.40.0.34.5.205';'Biotical Health S.L.U.BIOTICAL HEALTH S.L.U, biotical SARS-CoV-2 Ag Card';'https://termgit.elga.gv.at/CodeSystem/dgc-ratnamemanufacturer';'Biotical Health S.L.U.BIOTICAL HEALTH S.L.U, biotical SARS-CoV-2 Ag Card';'';'';'105';'0';'L';'1.2.40.0.34.5.205:2013';'';''
'1989';'1.2.40.0.34.5.205';'Boditech Med Inc, AFIAS COVID-19 Ag';'https://termgit.elga.gv.at/CodeSystem/dgc-ratnamemanufacturer';'Boditech Med Inc, AFIAS COVID-19 Ag';'';'';'106';'0';'L';'1.2.40.0.34.5.205:1989';'';''
'2242';'1.2.40.0.34.5.205';'DNA Diagnostic, COVID-19 Antigen Detection Kit';'https://termgit.elga.gv.at/CodeSystem/dgc-ratnamemanufacturer';'DNA Diagnostic, COVID-19 Antigen Detection Kit';'';'';'107';'0';'L';'1.2.40.0.34.5.205:2242';'';''
'1855';'1.2.40.0.34.5.205';'GA Generic Assays GmbH, GA CoV-2 Antigen Rapid Test';'https://termgit.elga.gv.at/CodeSystem/dgc-ratnamemanufacturer';'GA Generic Assays GmbH, GA CoV-2 Antigen Rapid Test';'';'';'108';'0';'L';'1.2.40.0.34.5.205:1855';'';''
'1759';'1.2.40.0.34.5.205';'Hubei Jinjian Biology Co., Ltd, SARS-CoV-2 Antigen Test Kit';'https://termgit.elga.gv.at/CodeSystem/dgc-ratnamemanufacturer';'Hubei Jinjian Biology Co., Ltd, SARS-CoV-2 Antigen Test Kit';'';'';'109';'0';'L';'1.2.40.0.34.5.205:1759';'';''
'2241';'1.2.40.0.34.5.205';'NESAPOR EUROPA SL, MARESKIT COVID-19 ANTIGEN RAPID TEST KIT';'https://termgit.elga.gv.at/CodeSystem/dgc-ratnamemanufacturer';'NESAPOR EUROPA SL, MARESKIT COVID-19 ANTIGEN RAPID TEST KIT';'';'';'110';'0';'L';'1.2.40.0.34.5.205:2241';'';''
'2290';'1.2.40.0.34.5.205';'Rapid Pathogen Screening, Inc, LIAISON Quick Detect Covid Ag Assay';'https://termgit.elga.gv.at/CodeSystem/dgc-ratnamemanufacturer';'Rapid Pathogen Screening, Inc, LIAISON Quick Detect Covid Ag Assay';'';'';'111';'0';'L';'1.2.40.0.34.5.205:2290';'';''
'1178';'1.2.40.0.34.5.205';'Shenzhen Microprofit Biotech Co., Ltd., SARS-CoV-2 Spike Protein Test Kit (Colloidal Gold Chromatographic Immunoassay)';'https://termgit.elga.gv.at/CodeSystem/dgc-ratnamemanufacturer';'Shenzhen Microprofit Biotech Co., Ltd., SARS-CoV-2 Spike Protein Test Kit (Colloidal Gold Chromatographic Immunoassay)';'';'';'112';'0';'L';'1.2.40.0.34.5.205:1178';'';''
'2374';'1.2.40.0.34.5.205';'ABIOTEQ, Cora Gentest-19';'https://termgit.elga.gv.at/CodeSystem/dgc-ratnamemanufacturer';'ABIOTEQ, Cora Gentest-19';'';'';'113';'0';'L';'1.2.40.0.34.5.205:2374';'';''
'2579';'1.2.40.0.34.5.205';'AccuBioTech Co.,Ltd, Accu-Tell SARS-CoV-2 Ag Cassette';'https://termgit.elga.gv.at/CodeSystem/dgc-ratnamemanufacturer';'AccuBioTech Co.,Ltd, Accu-Tell SARS-CoV-2 Ag Cassette';'';'';'114';'0';'L';'1.2.40.0.34.5.205:2579';'';''
'2089';'1.2.40.0.34.5.205';'Anhui Formaster Biosci Co., Ltd., New Coronavirus (COVID-19) Antigen Rapid Test';'https://termgit.elga.gv.at/CodeSystem/dgc-ratnamemanufacturer';'Anhui Formaster Biosci Co., Ltd., New Coronavirus (COVID-19) Antigen Rapid Test';'';'';'115';'0';'L';'1.2.40.0.34.5.205:2089';'';''
'2494';'1.2.40.0.34.5.205';'Beijing O&D Biotech Co., Ltd., COVID-19 Antigen Rapid Test';'https://termgit.elga.gv.at/CodeSystem/dgc-ratnamemanufacturer';'Beijing O&D Biotech Co., Ltd., COVID-19 Antigen Rapid Test';'';'';'116';'0';'L';'1.2.40.0.34.5.205:2494';'';''
'1691';'1.2.40.0.34.5.205';'Chil Tibbi Malzeme Sanayi ve Ticaret Limited Sirketi, CHIL COVID-19 Antigen Rapid Test (Nasopharyngeal / Oropharyngeal Swab-Casette)';'https://termgit.elga.gv.at/CodeSystem/dgc-ratnamemanufacturer';'Chil Tibbi Malzeme Sanayi ve Ticaret Limited Sirketi, CHIL COVID-19 Antigen Rapid Test (Nasopharyngeal / Oropharyngeal Swab-Casette)';'';'';'117';'0';'L';'1.2.40.0.34.5.205:1691';'';''
'2150';'1.2.40.0.34.5.205';'Chongqing M&D Biotechnology Co. Ltd, 2019-nCoV Antigen Test Kit';'https://termgit.elga.gv.at/CodeSystem/dgc-ratnamemanufacturer';'Chongqing M&D Biotechnology Co. Ltd, 2019-nCoV Antigen Test Kit';'';'';'118';'0';'L';'1.2.40.0.34.5.205:2150';'';''
'2273';'1.2.40.0.34.5.205';'Dräger Safety AG & Co. KGaA, Dräger Antigen Test SARS-CoV-2';'https://termgit.elga.gv.at/CodeSystem/dgc-ratnamemanufacturer';'Dräger Safety AG & Co. KGaA, Dräger Antigen Test SARS-CoV-2';'';'';'119';'0';'L';'1.2.40.0.34.5.205:2273';'';''
'2533';'1.2.40.0.34.5.205';'Dynamiker Biotechnolgy(Tianjin) Co., Ltd., Dynamiker SARS-CoV-2 Ag Rapid Test';'https://termgit.elga.gv.at/CodeSystem/dgc-ratnamemanufacturer';'Dynamiker Biotechnolgy(Tianjin) Co., Ltd., Dynamiker SARS-CoV-2 Ag Rapid Test';'';'';'120';'0';'L';'1.2.40.0.34.5.205:2533';'';''
'1929';'1.2.40.0.34.5.205';'Hoyotek Biomedical Co.,Ltd., Corona Virus (COVID-19) Antigen Rapid Test (Colloidal Gold)';'https://termgit.elga.gv.at/CodeSystem/dgc-ratnamemanufacturer';'Hoyotek Biomedical Co.,Ltd., Corona Virus (COVID-19) Antigen Rapid Test (Colloidal Gold)';'';'';'121';'0';'L';'1.2.40.0.34.5.205:1929';'';''
'1801';'1.2.40.0.34.5.205';'Innova Medical Group.Inc, Innova SARS-CoV-2 Antigen Rapid Qualitative Test';'https://termgit.elga.gv.at/CodeSystem/dgc-ratnamemanufacturer';'Innova Medical Group.Inc, Innova SARS-CoV-2 Antigen Rapid Qualitative Test';'';'';'122';'0';'L';'1.2.40.0.34.5.205:1801';'';''
'2278';'1.2.40.0.34.5.205';'Innovation Biotech(Beijing) Co.Ltd, Coronavirus (SARS-Cov-2) Antigen Rapid Test Cassette (Nasal swab)';'https://termgit.elga.gv.at/CodeSystem/dgc-ratnamemanufacturer';'Innovation Biotech(Beijing) Co.Ltd, Coronavirus (SARS-Cov-2) Antigen Rapid Test Cassette (Nasal swab)';'';'';'123';'0';'L';'1.2.40.0.34.5.205:2278';'';''
'2419';'1.2.40.0.34.5.205';'InTec PRODUCTS, INC., Rapid SARS-CoV-2 Antigen Test (nasopharyngeal specimen)';'https://termgit.elga.gv.at/CodeSystem/dgc-ratnamemanufacturer';'InTec PRODUCTS, INC., Rapid SARS-CoV-2 Antigen Test (nasopharyngeal specimen)';'';'';'124';'0';'L';'1.2.40.0.34.5.205:2419';'';''
'2144';'1.2.40.0.34.5.205';'Jiangsu Well Biotech Co., Ltd., COVID-19 Ag Rapid Test Device';'https://termgit.elga.gv.at/CodeSystem/dgc-ratnamemanufacturer';'Jiangsu Well Biotech Co., Ltd., COVID-19 Ag Rapid Test Device';'';'';'125';'0';'L';'1.2.40.0.34.5.205:2144';'';''
'2415';'1.2.40.0.34.5.205';'Shenzhen Dymind Biotechnology Co., Ltd, SARS-CoV-2 Antigen Test Kit (Colloidal Gold)';'https://termgit.elga.gv.at/CodeSystem/dgc-ratnamemanufacturer';'Shenzhen Dymind Biotechnology Co., Ltd, SARS-CoV-2 Antigen Test Kit (Colloidal Gold)';'';'';'126';'0';'L';'1.2.40.0.34.5.205:2415';'';''
'2414';'1.2.40.0.34.5.205';'Shenzhen Huian Biosci Technology Co., Ltd., SARS-CoV-2 Antigen Test Kit (Colloidal Gold)';'https://termgit.elga.gv.at/CodeSystem/dgc-ratnamemanufacturer';'Shenzhen Huian Biosci Technology Co., Ltd., SARS-CoV-2 Antigen Test Kit (Colloidal Gold)';'';'';'127';'0';'L';'1.2.40.0.34.5.205:2414';'';''
'1813';'1.2.40.0.34.5.205';'Shenzhen Kisshealth Biotechnology Co., Ltd, SARS-CoV-2 Antigen Test Kit (GICA)';'https://termgit.elga.gv.at/CodeSystem/dgc-ratnamemanufacturer';'Shenzhen Kisshealth Biotechnology Co., Ltd, SARS-CoV-2 Antigen Test Kit (GICA)';'';'';'128';'0';'L';'1.2.40.0.34.5.205:1813';'';''
'2026';'1.2.40.0.34.5.205';'Shenzhen Reagent Technology Co.,Ltd, SARS-CoV-2 antigen IVD kit SWAB';'https://termgit.elga.gv.at/CodeSystem/dgc-ratnamemanufacturer';'Shenzhen Reagent Technology Co.,Ltd, SARS-CoV-2 antigen IVD kit SWAB';'';'';'129';'0';'L';'1.2.40.0.34.5.205:2026';'';''
'2297';'1.2.40.0.34.5.205';'SureScreen Diagnostics, SARS-CoV-2 Rapid Antigen Test Cassette';'https://termgit.elga.gv.at/CodeSystem/dgc-ratnamemanufacturer';'SureScreen Diagnostics, SARS-CoV-2 Rapid Antigen Test Cassette';'';'';'130';'0';'L';'1.2.40.0.34.5.205:2297';'';''
'2143';'1.2.40.0.34.5.205';'Wuxi Biohermes Bio & Medical Technology Co., Ltd, SARS-CoV-2 Antigen Test Kit (Lateral Flow Assay)';'https://termgit.elga.gv.at/CodeSystem/dgc-ratnamemanufacturer';'Wuxi Biohermes Bio & Medical Technology Co., Ltd, SARS-CoV-2 Antigen Test Kit (Lateral Flow Assay)';'';'';'131';'0';'L';'1.2.40.0.34.5.205:2143';'';''
'1902';'1.2.40.0.34.5.205';'Zhuhai Encode Medical Engineering Co.,Ltd, ENCODE SARS-COV-2 Antigen Rapid Test Device';'https://termgit.elga.gv.at/CodeSystem/dgc-ratnamemanufacturer';'Zhuhai Encode Medical Engineering Co.,Ltd, ENCODE SARS-COV-2 Antigen Rapid Test Device';'';'';'132';'0';'L';'1.2.40.0.34.5.205:1902';'';''
'2282';'1.2.40.0.34.5.205';'Becton Dickinson, BD Kit for Rapid Detection of SARS-CoV-2';'https://termgit.elga.gv.at/CodeSystem/dgc-ratnamemanufacturer';'Becton Dickinson, BD Kit for Rapid Detection of SARS-CoV-2';'';'';'133';'0';'L';'1.2.40.0.34.5.205:2282';'';''
'2506';'1.2.40.0.34.5.205';'Nanjing Norman Biological Technology Co., Ltd., Novel Coronavirus (2019-nCoV) Antigen Testing Kit (Colloidal Gold)';'https://termgit.elga.gv.at/CodeSystem/dgc-ratnamemanufacturer';'Nanjing Norman Biological Technology Co., Ltd., Novel Coronavirus (2019-nCoV) Antigen Testing Kit (Colloidal Gold)';'';'';'134';'0';'L';'1.2.40.0.34.5.205:2506';'';''
'1880';'1.2.40.0.34.5.205';'NG Biotech, Ninonasal';'https://termgit.elga.gv.at/CodeSystem/dgc-ratnamemanufacturer';'NG Biotech, Ninonasal';'';'';'135';'0';'L';'1.2.40.0.34.5.205:1880';'';''
'2230';'1.2.40.0.34.5.205';'BIOHIT HealthCcare (Hefei) Co., Ltd., SARS-CoV-2 Antigen Rapid Test (Colloidal Gold Method)';'https://termgit.elga.gv.at/CodeSystem/dgc-ratnamemanufacturer';'BIOHIT HealthCcare (Hefei) Co., Ltd., SARS-CoV-2 Antigen Rapid Test (Colloidal Gold Method)';'';'';'136';'0';'L';'1.2.40.0.34.5.205:2230';'';''
'2642';'1.2.40.0.34.5.205';'Genobio Pharmaceutical Co., Ltd., Virusee SARS-CoV-2 Antigen Rapid Test (Colloidal Gold)';'https://termgit.elga.gv.at/CodeSystem/dgc-ratnamemanufacturer';'Genobio Pharmaceutical Co., Ltd., Virusee SARS-CoV-2 Antigen Rapid Test (Colloidal Gold)';'';'';'137';'0';'L';'1.2.40.0.34.5.205:2642';'';''
'1876';'1.2.40.0.34.5.205';'Hangzhou Biotest Biotech Co., Ltd, COVID-19 Antigen Rapid Test Cassette(Nasal Swab)';'https://termgit.elga.gv.at/CodeSystem/dgc-ratnamemanufacturer';'Hangzhou Biotest Biotech Co., Ltd, COVID-19 Antigen Rapid Test Cassette(Nasal Swab)';'';'';'138';'0';'L';'1.2.40.0.34.5.205:1876';'';''
'1945';'1.2.40.0.34.5.205';'Hangzhou Sejoy Electronics & Instruments Co.Ltd, SARS-CoV-2 Antigen Rapid Test Cassette';'https://termgit.elga.gv.at/CodeSystem/dgc-ratnamemanufacturer';'Hangzhou Sejoy Electronics & Instruments Co.Ltd, SARS-CoV-2 Antigen Rapid Test Cassette';'';'';'139';'0';'L';'1.2.40.0.34.5.205:1945';'';''
'2586';'1.2.40.0.34.5.205';'Jiangsu Mole Bioscience CO., LTD., SARS-CoV-2 Antigen Test Cassette';'https://termgit.elga.gv.at/CodeSystem/dgc-ratnamemanufacturer';'Jiangsu Mole Bioscience CO., LTD., SARS-CoV-2 Antigen Test Cassette';'';'';'140';'0';'L';'1.2.40.0.34.5.205:2586';'';''
'2555';'1.2.40.0.34.5.205';'IEDAU INTERNATIONAL GMBH, Covid-19 Antigen Schnelltest (Colloidales Gold)';'https://termgit.elga.gv.at/CodeSystem/dgc-ratnamemanufacturer';'IEDAU INTERNATIONAL GMBH, Covid-19 Antigen Schnelltest (Colloidales Gold)';'';'';'141';'0';'L';'1.2.40.0.34.5.205:2555';'';''
'2640';'1.2.40.0.34.5.205';'Mologic Ltd, COVIOS Ag COVID-19 Antigen Rapid Diagnostic Test';'https://termgit.elga.gv.at/CodeSystem/dgc-ratnamemanufacturer';'Mologic Ltd, COVIOS Ag COVID-19 Antigen Rapid Diagnostic Test';'';'';'142';'0';'L';'1.2.40.0.34.5.205:2640';'';''
'2301';'1.2.40.0.34.5.205';'Nanjing Liming Bio-Products Co., Ltd., StrongStep SARS-CoV-2 Antigen Rapid Test';'https://termgit.elga.gv.at/CodeSystem/dgc-ratnamemanufacturer';'Nanjing Liming Bio-Products Co., Ltd., StrongStep SARS-CoV-2 Antigen Rapid Test';'';'';'143';'0';'L';'1.2.40.0.34.5.205:2301';'';''
'2152';'1.2.40.0.34.5.205';'Shenzhen CAS-Envision Medical Technology Co., Ltd., SARS-CoV-2-Antigen Rapid Detection Kit';'https://termgit.elga.gv.at/CodeSystem/dgc-ratnamemanufacturer';'Shenzhen CAS-Envision Medical Technology Co., Ltd., SARS-CoV-2-Antigen Rapid Detection Kit';'';'';'144';'0';'L';'1.2.40.0.34.5.205:2152';'';''
'1228';'1.2.40.0.34.5.205';'Shenzhen Microprofit Biotech Co., Ltd, SARS-CoV-2 Spike Protein Test Kit (Fluorescence Immunoassay)';'https://termgit.elga.gv.at/CodeSystem/dgc-ratnamemanufacturer';'Shenzhen Microprofit Biotech Co., Ltd, SARS-CoV-2 Spike Protein Test Kit (Fluorescence Immunoassay)';'';'';'145';'0';'L';'1.2.40.0.34.5.205:1228';'';''
'1347';'1.2.40.0.34.5.205';'Shenzhen YHLO Biotech Co., Ltd., GLINE-2019-nCoV Ag';'https://termgit.elga.gv.at/CodeSystem/dgc-ratnamemanufacturer';'Shenzhen YHLO Biotech Co., Ltd., GLINE-2019-nCoV Ag';'';'';'146';'0';'L';'1.2.40.0.34.5.205:1347';'';''
'2271';'1.2.40.0.34.5.205';'Pantest SA, Pantest Coronavirus Ag (Nasopharyngeal Swab)';'https://termgit.elga.gv.at/CodeSystem/dgc-ratnamemanufacturer';'Pantest SA, Pantest Coronavirus Ag (Nasopharyngeal Swab)';'';'';'147';'0';'L';'1.2.40.0.34.5.205:2271';'';''
'2684';'1.2.40.0.34.5.205';'Zhejiang GENE SCIENCE Co., Ltd, Novel Coronavirus (COVID-19) Antigen Detection Kit (Swab)';'https://termgit.elga.gv.at/CodeSystem/dgc-ratnamemanufacturer';'Zhejiang GENE SCIENCE Co., Ltd, Novel Coronavirus (COVID-19) Antigen Detection Kit (Swab)';'';'';'148';'0';'L';'1.2.40.0.34.5.205:2684';'';''
'1778';'1.2.40.0.34.5.205';'Beijing Kewei Clinical Diagnostic Reagent Inc, COVID19 Antigen Rapid Test Kit';'https://termgit.elga.gv.at/CodeSystem/dgc-ratnamemanufacturer';'Beijing Kewei Clinical Diagnostic Reagent Inc, COVID19 Antigen Rapid Test Kit';'';'';'149';'0';'L';'1.2.40.0.34.5.205:1778';'';''
'2696';'1.2.40.0.34.5.205';'Cesna Biyoteknoloji Arast?rma Gelistirme Laboratuvar Sist.Ins.Müh.Dan.San.Tic.Ltd.Sti., CHECK UP SARS-COV-2 NASAL ANTIGEN RAPID TEST';'https://termgit.elga.gv.at/CodeSystem/dgc-ratnamemanufacturer';'Cesna Biyoteknoloji Arast?rma Gelistirme Laboratuvar Sist.Ins.Müh.Dan.San.Tic.Ltd.Sti., CHECK UP SARS-COV-2 NASAL ANTIGEN RAPID TEST';'';'';'150';'0';'L';'1.2.40.0.34.5.205:2696';'';''
'2746';'1.2.40.0.34.5.205';'Cesna Biyoteknoloji Arast?rma Gelistirme Laboratuvar Sist.Ins.Müh.Dan.San.Tic.Ltd.Sti., CHECK UP SARS-COV-2 NASOPHARYNGEAL RAPID ANTIGEN TEST';'https://termgit.elga.gv.at/CodeSystem/dgc-ratnamemanufacturer';'Cesna Biyoteknoloji Arast?rma Gelistirme Laboratuvar Sist.Ins.Müh.Dan.San.Tic.Ltd.Sti., CHECK UP SARS-COV-2 NASOPHARYNGEAL RAPID ANTIGEN TEST';'';'';'151';'0';'L';'1.2.40.0.34.5.205:2746';'';''
'2695';'1.2.40.0.34.5.205';'Glallergen CO., LTD., Novel Coronavirus (2019-nCoV) Antigen Test Kit (Colloidal gold immunochromatography)';'https://termgit.elga.gv.at/CodeSystem/dgc-ratnamemanufacturer';'Glallergen CO., LTD., Novel Coronavirus (2019-nCoV) Antigen Test Kit (Colloidal gold immunochromatography)';'';'';'152';'0';'L';'1.2.40.0.34.5.205:2695';'';''
'2629';'1.2.40.0.34.5.205';'Hangzhou DIAN Biotechnology Co., Ltd., COVID-19 Antigen Test Cassette';'https://termgit.elga.gv.at/CodeSystem/dgc-ratnamemanufacturer';'Hangzhou DIAN Biotechnology Co., Ltd., COVID-19 Antigen Test Cassette';'';'';'153';'0';'L';'1.2.40.0.34.5.205:2629';'';''
'1353';'1.2.40.0.34.5.205';'LINKCARE (NANTONG DIAGNOS BIO), COVID-19 Antigen Test Kit (Colloidal Gold)';'https://termgit.elga.gv.at/CodeSystem/dgc-ratnamemanufacturer';'LINKCARE (NANTONG DIAGNOS BIO), COVID-19 Antigen Test Kit (Colloidal Gold)';'';'';'154';'0';'L';'1.2.40.0.34.5.205:1353';'';''
'2741';'1.2.40.0.34.5.205';'OSANG Healthcare Co., Ltd., GeneFinder COVID-19 Ag Plus Rapid Test';'https://termgit.elga.gv.at/CodeSystem/dgc-ratnamemanufacturer';'OSANG Healthcare Co., Ltd., GeneFinder COVID-19 Ag Plus Rapid Test';'';'';'155';'0';'L';'1.2.40.0.34.5.205:2741';'';''
'2754';'1.2.40.0.34.5.205';'Qingdao Hightop Biotech Co., Ltd., SARS-CoV-2/Flu A+B/RSV Antigen Rapid Test';'https://termgit.elga.gv.at/CodeSystem/dgc-ratnamemanufacturer';'Qingdao Hightop Biotech Co., Ltd., SARS-CoV-2/Flu A+B/RSV Antigen Rapid Test';'';'';'156';'0';'L';'1.2.40.0.34.5.205:2754';'';''
'2097';'1.2.40.0.34.5.205';'Sansure Biotech Inc, SARS-CoV-2 Rapid Antigen Test (Colloidal Gold Method)';'https://termgit.elga.gv.at/CodeSystem/dgc-ratnamemanufacturer';'Sansure Biotech Inc, SARS-CoV-2 Rapid Antigen Test (Colloidal Gold Method)';'';'';'157';'0';'L';'1.2.40.0.34.5.205:2097';'';''
'2584';'1.2.40.0.34.5.205';'TÜRKLAB TIBBI MALZEMELER SAN. ve TIC. A.S., INFO Covid-19 Ag Test';'https://termgit.elga.gv.at/CodeSystem/dgc-ratnamemanufacturer';'TÜRKLAB TIBBI MALZEMELER SAN. ve TIC. A.S., INFO Covid-19 Ag Test';'';'';'158';'0';'L';'1.2.40.0.34.5.205:2584';'';''
'2100';'1.2.40.0.34.5.205';'VivaChek Biotech (Hangzhou) Co., Ltd, China, Verino Pro SARS CoV 2 Ag Rapid Test';'https://termgit.elga.gv.at/CodeSystem/dgc-ratnamemanufacturer';'VivaChek Biotech (Hangzhou) Co., Ltd, China, Verino Pro SARS CoV 2 Ag Rapid Test';'';'';'159';'0';'L';'1.2.40.0.34.5.205:2100';'';''
'2380';'1.2.40.0.34.5.205';'BioSpeedia International, COVID19Speed-Antigen Test BSD_0503 ';'https://termgit.elga.gv.at/CodeSystem/dgc-ratnamemanufacturer';'BioSpeedia International, COVID19Speed-Antigen Test BSD_0503 ';'';'';'160';'0';'L';'1.2.40.0.34.5.205:2380';'';''
'2756';'1.2.40.0.34.5.205';'DNA Diagnostic, SARS-CoV-2 Antigen Rapid Test';'https://termgit.elga.gv.at/CodeSystem/dgc-ratnamemanufacturer';'DNA Diagnostic, SARS-CoV-2 Antigen Rapid Test';'';'';'161';'0';'L';'1.2.40.0.34.5.205:2756';'';''
'2164';'1.2.40.0.34.5.205';'Nanjing Synthgene Medical Technology Co., Ltd., SARS-COV-2 Nucleocapsid (N) Antigen Rapid Detection Kit (Colloidal gold method)';'https://termgit.elga.gv.at/CodeSystem/dgc-ratnamemanufacturer';'Nanjing Synthgene Medical Technology Co., Ltd., SARS-COV-2 Nucleocapsid (N) Antigen Rapid Detection Kit (Colloidal gold method)';'';'';'162';'0';'L';'1.2.40.0.34.5.205:2164';'';''
'2763';'1.2.40.0.34.5.205';'ScheBo Biotech, ScheBo SARS CoV-2 Quick ANTIGEN (Colloidal Gold Method)';'https://termgit.elga.gv.at/CodeSystem/dgc-ratnamemanufacturer';'ScheBo Biotech, ScheBo SARS CoV-2 Quick ANTIGEN (Colloidal Gold Method)';'';'';'163';'0';'L';'1.2.40.0.34.5.205:2763';'';''
'1942';'1.2.40.0.34.5.205';'Surge Medical Inc., COVID-19 Antigen Test Kit';'https://termgit.elga.gv.at/CodeSystem/dgc-ratnamemanufacturer';'Surge Medical Inc., COVID-19 Antigen Test Kit';'';'';'164';'0';'L';'1.2.40.0.34.5.205:1942';'';''
'1689';'1.2.40.0.34.5.205';'TÜRKLAB TIBBI MALZEMELER SAN. ve TIC. A.S., Covid-19 Ag Test';'https://termgit.elga.gv.at/CodeSystem/dgc-ratnamemanufacturer';'TÜRKLAB TIBBI MALZEMELER SAN. ve TIC. A.S., Covid-19 Ag Test';'';'';'165';'0';'L';'1.2.40.0.34.5.205:1689';'';''
'1751';'1.2.40.0.34.5.205';'TÜRKLAB TIBBI MALZEMELER SAN. ve TIC. A.S., RAPIDAN TESTER Covid-19 Ag Test';'https://termgit.elga.gv.at/CodeSystem/dgc-ratnamemanufacturer';'TÜRKLAB TIBBI MALZEMELER SAN. ve TIC. A.S., RAPIDAN TESTER Covid-19 Ag Test';'';'';'166';'0';'L';'1.2.40.0.34.5.205:1751';'';''
'1722';'1.2.40.0.34.5.205';'TÜRKLAB TIBBI MALZEMELER SAN. ve TIC. A.S., TOYO Covid-19 Ag Tes';'https://termgit.elga.gv.at/CodeSystem/dgc-ratnamemanufacturer';'TÜRKLAB TIBBI MALZEMELER SAN. ve TIC. A.S., TOYO Covid-19 Ag Tes';'';'';'167';'0';'L';'1.2.40.0.34.5.205:1722';'';''
'1865';'1.2.40.0.34.5.205';'ACON Biotech(Hangzhou) Co., Ltd., Flowflex SARS-CoV-2 Antigen Rapid Test (Nasal/Saliva)';'https://termgit.elga.gv.at/CodeSystem/dgc-ratnamemanufacturer';'ACON Biotech(Hangzhou) Co., Ltd., Flowflex SARS-CoV-2 Antigen Rapid Test (Nasal/Saliva)';'';'';'168';'0';'L';'1.2.40.0.34.5.205:1865';'';''
'2853';'1.2.40.0.34.5.205';'GenSure Biotech Inc., GenSure COVID-19 Antigen Rapid Test Kit';'https://termgit.elga.gv.at/CodeSystem/dgc-ratnamemanufacturer';'GenSure Biotech Inc., GenSure COVID-19 Antigen Rapid Test Kit';'';'';'169';'0';'L';'1.2.40.0.34.5.205:2853';'';''
'1899';'1.2.40.0.34.5.205';'Jiangsu Konsung Bio-Medical Science and Technology Co., H+W_COVID-19 Antigen Rapid Test Kit (Colloidal Gold)';'https://termgit.elga.gv.at/CodeSystem/dgc-ratnamemanufacturer';'Jiangsu Konsung Bio-Medical Science and Technology Co., H+W_COVID-19 Antigen Rapid Test Kit (Colloidal Gold)';'';'';'170';'0';'L';'1.2.40.0.34.5.205:1899';'';''
'2260';'1.2.40.0.34.5.205';'Multi-G bvba, Covid19Check-NAS';'https://termgit.elga.gv.at/CodeSystem/dgc-ratnamemanufacturer';'Multi-G bvba, Covid19Check-NAS';'';'';'171';'0';'L';'1.2.40.0.34.5.205:2260';'';''
'1573';'1.2.40.0.34.5.205';'Nantong Egens Biotechnology Co.,Ltd, COVID-19 Antigen Rapid Test Kit';'https://termgit.elga.gv.at/CodeSystem/dgc-ratnamemanufacturer';'Nantong Egens Biotechnology Co.,Ltd, COVID-19 Antigen Rapid Test Kit';'';'';'172';'0';'L';'1.2.40.0.34.5.205:1573';'';''
'2608';'1.2.40.0.34.5.205';'Neo-nostics (Suzhou) Bioengineering Co., Ltd., COVID 19 Antigen Test Kit (Colloidal Gold Method)';'https://termgit.elga.gv.at/CodeSystem/dgc-ratnamemanufacturer';'Neo-nostics (Suzhou) Bioengineering Co., Ltd., COVID 19 Antigen Test Kit (Colloidal Gold Method)';'';'';'173';'0';'L';'1.2.40.0.34.5.205:2608';'';''
'2519';'1.2.40.0.34.5.205';'BIOLAN HEALTH, S.L, COVID-19 Antigen Rapid Test (Colloidal Gold Method)';'https://termgit.elga.gv.at/CodeSystem/dgc-ratnamemanufacturer';'BIOLAN HEALTH, S.L, COVID-19 Antigen Rapid Test (Colloidal Gold Method)';'';'';'174';'0';'L';'1.2.40.0.34.5.205:2519';'';''
'2724';'1.2.40.0.34.5.205';'Fosun Diagnostics (Shanghai) Co.,Ltd., China, Fosun Covid-19 Ag Card';'https://termgit.elga.gv.at/CodeSystem/dgc-ratnamemanufacturer';'Fosun Diagnostics (Shanghai) Co.,Ltd., China, Fosun Covid-19 Ag Card';'';'';'175';'0';'L';'1.2.40.0.34.5.205:2724';'';''
'2257';'1.2.40.0.34.5.205';'Hangzhou AllTest Biotech Co., Ltd, SARS-CoV-2 Antigen Rapid Test (Nasal Swab)';'https://termgit.elga.gv.at/CodeSystem/dgc-ratnamemanufacturer';'Hangzhou AllTest Biotech Co., Ltd, SARS-CoV-2 Antigen Rapid Test (Nasal Swab)';'';'';'176';'0';'L';'1.2.40.0.34.5.205:2257';'';''
'1988';'1.2.40.0.34.5.205';'Inzek International Trading B.V., Biozek covid-19 Antigen Rapidtest BCOV-502';'https://termgit.elga.gv.at/CodeSystem/dgc-ratnamemanufacturer';'Inzek International Trading B.V., Biozek covid-19 Antigen Rapidtest BCOV-502';'';'';'177';'0';'L';'1.2.40.0.34.5.205:1988';'';''
'2672';'1.2.40.0.34.5.205';'Pierenkemper GmbH, (SARS-CoV-2) Antigen Rapid Test COVIDENT (SWAB) COVID-19';'https://termgit.elga.gv.at/CodeSystem/dgc-ratnamemanufacturer';'Pierenkemper GmbH, (SARS-CoV-2) Antigen Rapid Test COVIDENT (SWAB) COVID-19';'';'';'178';'0';'L';'1.2.40.0.34.5.205:2672';'';''
'2742';'1.2.40.0.34.5.205';'Wuhan HealthCare Biotechnology Co. Ltd., SARS-CoV-2 Antigen Test Kit (Colloidal Gold)';'https://termgit.elga.gv.at/CodeSystem/dgc-ratnamemanufacturer';'Wuhan HealthCare Biotechnology Co. Ltd., SARS-CoV-2 Antigen Test Kit (Colloidal Gold)';'';'';'179';'0';'L';'1.2.40.0.34.5.205:2742';'';''
'2201';'1.2.40.0.34.5.205';'Zybio Inc., SARS-CoV-2 Antigen Assay Kit (Colloidal Gold Method)';'https://termgit.elga.gv.at/CodeSystem/dgc-ratnamemanufacturer';'Zybio Inc., SARS-CoV-2 Antigen Assay Kit (Colloidal Gold Method)';'';'';'180';'0';'L';'1.2.40.0.34.5.205:2201';'';''
'1926';'1.2.40.0.34.5.205';'ARISTA Biotech Pte.LTD., ARISTA COVID-19 Antigen Rapid Test';'https://termgit.elga.gv.at/CodeSystem/dgc-ratnamemanufacturer';'ARISTA Biotech Pte.LTD., ARISTA COVID-19 Antigen Rapid Test';'';'';'181';'0';'L';'1.2.40.0.34.5.205:1926';'';''
'1244';'1.2.40.0.34.5.205';'GenBody Inc, GenBody COVID-19 Ag Test';'https://termgit.elga.gv.at/CodeSystem/dgc-ratnamemanufacturer';'GenBody Inc, GenBody COVID-19 Ag Test';'';'';'182';'0';'L';'1.2.40.0.34.5.205:1244';'';''
'2302';'1.2.40.0.34.5.205';'Hangzhou AllTest Biotech Co., Ltd, COVID-19 Antigen Test Cassette (Nasopharyngeal Swab)(FIA)';'https://termgit.elga.gv.at/CodeSystem/dgc-ratnamemanufacturer';'Hangzhou AllTest Biotech Co., Ltd, COVID-19 Antigen Test Cassette (Nasopharyngeal Swab)(FIA)';'';'';'183';'0';'L';'1.2.40.0.34.5.205:2302';'';''
'2862';'1.2.40.0.34.5.205';'Hangzhou Funworld Biotech Co., Ltd, SARS-CoV-2 Antigen Rapid Test Device';'https://termgit.elga.gv.at/CodeSystem/dgc-ratnamemanufacturer';'Hangzhou Funworld Biotech Co., Ltd, SARS-CoV-2 Antigen Rapid Test Device';'';'';'184';'0';'L';'1.2.40.0.34.5.205:2862';'';''
'2979';'1.2.40.0.34.5.205';'Hangzhou Jucheng Medical Products Co., Ltd, SARS-CoV-2 Ag Rapid Test Kit';'https://termgit.elga.gv.at/CodeSystem/dgc-ratnamemanufacturer';'Hangzhou Jucheng Medical Products Co., Ltd, SARS-CoV-2 Ag Rapid Test Kit';'';'';'185';'0';'L';'1.2.40.0.34.5.205:2979';'';''
'1783';'1.2.40.0.34.5.205';'InTec PRODUCTS, INC, Rapid SARS-CoV-2 Antigen Test (nasopharyngeal/nasal specimen)';'https://termgit.elga.gv.at/CodeSystem/dgc-ratnamemanufacturer';'InTec PRODUCTS, INC, Rapid SARS-CoV-2 Antigen Test (nasopharyngeal/nasal specimen)';'';'';'186';'0';'L';'1.2.40.0.34.5.205:1783';'';''
'2963';'1.2.40.0.34.5.205';'Jiangxi Province JinHuan Medical Instrument Co., LTD., DREHA Novel Coronavirus (SARS-CoV-2) Antigen Rapid Detection Kit';'https://termgit.elga.gv.at/CodeSystem/dgc-ratnamemanufacturer';'Jiangxi Province JinHuan Medical Instrument Co., LTD., DREHA Novel Coronavirus (SARS-CoV-2) Antigen Rapid Detection Kit';'';'';'187';'0';'L';'1.2.40.0.34.5.205:2963';'';''
'2685';'1.2.40.0.34.5.205';'PRIMA Lab SA, COVID-19 Antigen Rapid Test';'https://termgit.elga.gv.at/CodeSystem/dgc-ratnamemanufacturer';'PRIMA Lab SA, COVID-19 Antigen Rapid Test';'';'';'188';'0';'L';'1.2.40.0.34.5.205:2685';'';''
'2941';'1.2.40.0.34.5.205';'Shenzhen Kingfocus Biomedical Engineering Co., Ltd., COVID-19 Antigen Detection Kit (Quantum Dots-Based Immunofluorescence Chromatography)';'https://termgit.elga.gv.at/CodeSystem/dgc-ratnamemanufacturer';'Shenzhen Kingfocus Biomedical Engineering Co., Ltd., COVID-19 Antigen Detection Kit (Quantum Dots-Based Immunofluorescence Chromatography)';'';'';'189';'0';'L';'1.2.40.0.34.5.205:2941';'';''
'2124';'1.2.40.0.34.5.205';'Fujirebio, Lumipulse G SARS-CoV-2 Ag';'https://termgit.elga.gv.at/CodeSystem/dgc-ratnamemanufacturer';'Fujirebio, Lumipulse G SARS-CoV-2 Ag';'';'';'190';'0';'L';'1.2.40.0.34.5.205:2124';'';''
'1791';'1.2.40.0.34.5.205';'Immunospark s.r.l., Rapid SARS-Cov2 Antigen Test';'https://termgit.elga.gv.at/CodeSystem/dgc-ratnamemanufacturer';'Immunospark s.r.l., Rapid SARS-Cov2 Antigen Test';'';'';'191';'0';'L';'1.2.40.0.34.5.205:1791';'';''
'2866';'1.2.40.0.34.5.205';'Lifecosm Biotech Limited, COVID-19 Antigen Test Cassette';'https://termgit.elga.gv.at/CodeSystem/dgc-ratnamemanufacturer';'Lifecosm Biotech Limited, COVID-19 Antigen Test Cassette';'';'';'192';'0';'L';'1.2.40.0.34.5.205:2866';'';''
'2812';'1.2.40.0.34.5.205';'Shenzhen Huaree Technology Co.,Ltd, SARS-CoV-2 Antigen Rapid Test Kit (Immunochromatography)';'https://termgit.elga.gv.at/CodeSystem/dgc-ratnamemanufacturer';'Shenzhen Huaree Technology Co.,Ltd, SARS-CoV-2 Antigen Rapid Test Kit (Immunochromatography)';'';'';'193';'0';'L';'1.2.40.0.34.5.205:2812';'';''
'3015';'1.2.40.0.34.5.205';'Suzhou Soochow University Saier Immuno Biotech Co., Ltd., InstantSure Covid-19 Ag CARD';'https://termgit.elga.gv.at/CodeSystem/dgc-ratnamemanufacturer';'Suzhou Soochow University Saier Immuno Biotech Co., Ltd., InstantSure Covid-19 Ag CARD';'';'';'194';'0';'L';'1.2.40.0.34.5.205:3015';'';''
'2942';'1.2.40.0.34.5.205';'Hangzhou Zheda Dixun Biological Gene Engineering Co., Ltd., SARS-CoV-2 Nucleocapsid (N) Antigen Rapid Test Cassette (Swab)';'https://termgit.elga.gv.at/CodeSystem/dgc-ratnamemanufacturer';'Hangzhou Zheda Dixun Biological Gene Engineering Co., Ltd., SARS-CoV-2 Nucleocapsid (N) Antigen Rapid Test Cassette (Swab)';'';'';'195';'0';'L';'1.2.40.0.34.5.205:2942';'';''
'2319';'1.2.40.0.34.5.205';'Hangzhou AllTest Biotech Co., Ltd, CVAG4080A ? GSD NovaGen SARS-CoV-2 Ag Rapid Test (NP Swab)';'https://termgit.elga.gv.at/CodeSystem/dgc-ratnamemanufacturer';'Hangzhou AllTest Biotech Co., Ltd, CVAG4080A ? GSD NovaGen SARS-CoV-2 Ag Rapid Test (NP Swab)';'';'';'196';'0';'L';'1.2.40.0.34.5.205:2319';'';''
'1375';'1.2.40.0.34.5.205';'DIALAB GmbH, DIAQUICK COVID -19 Ag Cassette';'https://termgit.elga.gv.at/CodeSystem/dgc-ratnamemanufacturer';'DIALAB GmbH, DIAQUICK COVID -19 Ag Cassette';'';'';'197';'0';'L';'1.2.40.0.34.5.205:1375';'';''
'2111';'1.2.40.0.34.5.205';'VivaChek Biotech (Hangzhou) Co., Ltd, SARS-CoV-2 Ag Rapid Test';'https://termgit.elga.gv.at/CodeSystem/dgc-ratnamemanufacturer';'VivaChek Biotech (Hangzhou) Co., Ltd, SARS-CoV-2 Ag Rapid Test';'';'';'198';'0';'L';'1.2.40.0.34.5.205:2111';'';''
'2858';'1.2.40.0.34.5.205';'Bioscience (Tianjin) Diagnostic Technology Co.,Ltd, Novel Coronavirus (2019-nCoV) Antigen Rapid Detection';'https://termgit.elga.gv.at/CodeSystem/dgc-ratnamemanufacturer';'Bioscience (Tianjin) Diagnostic Technology Co.,Ltd, Novel Coronavirus (2019-nCoV) Antigen Rapid Detection';'';'';'199';'0';'L';'1.2.40.0.34.5.205:2858';'';''
'2588';'1.2.40.0.34.5.205';'Changzhou Biowin Pharmaceutical Co.,Ltd., Novel Coronavirus(COVID-19) Antigen Test Kit (Colloidal Gold)';'https://termgit.elga.gv.at/CodeSystem/dgc-ratnamemanufacturer';'Changzhou Biowin Pharmaceutical Co.,Ltd., Novel Coronavirus(COVID-19) Antigen Test Kit (Colloidal Gold)';'';'';'200';'0';'L';'1.2.40.0.34.5.205:2588';'';''
'2449';'1.2.40.0.34.5.205';'Citest Diagnostics Inc., COVID-19 Antigen Rapid Test (Swab)';'https://termgit.elga.gv.at/CodeSystem/dgc-ratnamemanufacturer';'Citest Diagnostics Inc., COVID-19 Antigen Rapid Test (Swab)';'';'';'201';'0';'L';'1.2.40.0.34.5.205:2449';'';''
'2885';'1.2.40.0.34.5.205';'Hangzhou GENESIS Biodetection and Biocontrol CO.,LTD, KaiBiLi COVID-19 Antigen Pro';'https://termgit.elga.gv.at/CodeSystem/dgc-ratnamemanufacturer';'Hangzhou GENESIS Biodetection and Biocontrol CO.,LTD, KaiBiLi COVID-19 Antigen Pro';'';'';'202';'0';'L';'1.2.40.0.34.5.205:2885';'';''
'1952';'1.2.40.0.34.5.205';'Hangzhou Sejoy Electronics & Instruments Co.Ltd, SARS-CoV-2 Antigen Rapid Test Cassette (nasal, nasopharyngeal, oropharyngeal, saliva)';'https://termgit.elga.gv.at/CodeSystem/dgc-ratnamemanufacturer';'Hangzhou Sejoy Electronics & Instruments Co.Ltd, SARS-CoV-2 Antigen Rapid Test Cassette (nasal, nasopharyngeal, oropharyngeal, saliva)';'';'';'203';'0';'L';'1.2.40.0.34.5.205:1952';'';''
'1780';'1.2.40.0.34.5.205';'Spring Healthcare Services AG, SARS-Cov-2 Antigen Rapid Test Cassette (swab)';'https://termgit.elga.gv.at/CodeSystem/dgc-ratnamemanufacturer';'Spring Healthcare Services AG, SARS-Cov-2 Antigen Rapid Test Cassette (swab)';'';'';'204';'0';'L';'1.2.40.0.34.5.205:1780';'';''
'3093';'1.2.40.0.34.5.205';'TBG BIOTECHNOLOGY XIAMEN INC., SARS-CoV-2 Antigen Rapid Test (Nasal Swab)';'https://termgit.elga.gv.at/CodeSystem/dgc-ratnamemanufacturer';'TBG BIOTECHNOLOGY XIAMEN INC., SARS-CoV-2 Antigen Rapid Test (Nasal Swab)';'';'';'205';'0';'L';'1.2.40.0.34.5.205:3093';'';''
'1276';'1.2.40.0.34.5.205';'Willi Fox GmbH, Willi Fox COVID-19 Antigen rapid test';'https://termgit.elga.gv.at/CodeSystem/dgc-ratnamemanufacturer';'Willi Fox GmbH, Willi Fox COVID-19 Antigen rapid test';'';'';'206';'0';'L';'1.2.40.0.34.5.205:1276';'';''
'3099';'1.2.40.0.34.5.205';'BioDetect (Xiamen) Biotechnology Co., Ltd., RAPID SARS-COV-2 ANTIGEN TEST CARD';'https://termgit.elga.gv.at/CodeSystem/dgc-ratnamemanufacturer';'BioDetect (Xiamen) Biotechnology Co., Ltd., RAPID SARS-COV-2 ANTIGEN TEST CARD';'';'';'207';'0';'L';'1.2.40.0.34.5.205:3099';'';''
'1647';'1.2.40.0.34.5.205';'CALTH Inc., AllCheck COVID19 Ag';'https://termgit.elga.gv.at/CodeSystem/dgc-ratnamemanufacturer';'CALTH Inc., AllCheck COVID19 Ag';'';'';'208';'0';'L';'1.2.40.0.34.5.205:1647';'';''
'2691';'1.2.40.0.34.5.205';'CALTH Inc., AllCheck COVID19 Ag Nasal';'https://termgit.elga.gv.at/CodeSystem/dgc-ratnamemanufacturer';'CALTH Inc., AllCheck COVID19 Ag Nasal';'';'';'209';'0';'L';'1.2.40.0.34.5.205:2691';'';''
'1593';'1.2.40.0.34.5.205';'OSANG Healthcare Co., Ltd., GeneFinder COVID-19 Ag Rapid Test';'https://termgit.elga.gv.at/CodeSystem/dgc-ratnamemanufacturer';'OSANG Healthcare Co., Ltd., GeneFinder COVID-19 Ag Rapid Test';'';'';'210';'0';'L';'1.2.40.0.34.5.205:1593';'';''
'2052';'1.2.40.0.34.5.205';'SD BIOSENSOR Inc. (manufacturer), STANDARD Q COVID-19 Ag Test Nasal';'https://termgit.elga.gv.at/CodeSystem/dgc-ratnamemanufacturer';'SD BIOSENSOR Inc.(manufacturer), STANDARD Q COVID-19 Ag Test Nasal';'';'';'211';'0';'L';'1.2.40.0.34.5.205:2052';'';''
'1592';'1.2.40.0.34.5.205';'Shenzhen Lifotronic Technology Co., Ltd., Antigen Rapid Test Ag SARS-CoV-2';'https://termgit.elga.gv.at/CodeSystem/dgc-ratnamemanufacturer';'Shenzhen Lifotronic Technology Co., Ltd., Antigen Rapid Test Ag SARS-CoV-2';'';'';'212';'0';'L';'1.2.40.0.34.5.205:1592';'';''
'2325';'1.2.40.0.34.5.205';'Hangzhou AllTest Biotech Co., Ltd, GSD NovaGen SARS-CoV-2 Ag Rapid Test (Nasal Swab)';'https://termgit.elga.gv.at/CodeSystem/dgc-ratnamemanufacturer';'Hangzhou AllTest Biotech Co., Ltd, GSD NovaGen SARS-CoV-2 Ag Rapid Test (Nasal Swab)';'';'';'213';'0';'L';'1.2.40.0.34.5.205:2325';'';''
'2038';'1.2.40.0.34.5.205';'Koch Biotechnology (Beijing) Co., Ltd, COVID-19 Antigen Rapid Test Kit ';'https://termgit.elga.gv.at/CodeSystem/dgc-ratnamemanufacturer';'Koch Biotechnology (Beijing) Co., Ltd, COVID-19 Antigen Rapid Test Kit ';'';'';'214';'0';'L';'1.2.40.0.34.5.205:2038';'';''
'2678';'1.2.40.0.34.5.205';'NDFOS Co., Ltd., ND COVID-19 Ag Test';'https://termgit.elga.gv.at/CodeSystem/dgc-ratnamemanufacturer';'NDFOS Co., Ltd., ND COVID-19 Ag Test';'';'';'215';'0';'L';'1.2.40.0.34.5.205:2678';'';''
'2687';'1.2.40.0.34.5.205';'Zephyr Biomedicals - Tulip Diagnostics, PerkinElmer COVID 19 Antigen Test (NS, NP)';'https://termgit.elga.gv.at/CodeSystem/dgc-ratnamemanufacturer';'Zephyr Biomedicals - Tulip Diagnostics, PerkinElmer COVID 19 Antigen Test (NS, NP)';'';'';'216';'0';'L';'1.2.40.0.34.5.205:2687';'';''
'1173';'1.2.40.0.34.5.205';'CerTest Biotec, CerTest SARS-CoV-2 Card test';'https://termgit.elga.gv.at/CodeSystem/dgc-ratnamemanufacturer';'CerTest Biotec, CerTest SARS-CoV-2 Card test';'';'';'217';'0';'L';'1.2.40.0.34.5.205:1173';'';''
'1144';'1.2.40.0.34.5.205';'Green Cross Medical Science Corp., GENEDIA W COVID-19 Ag';'https://termgit.elga.gv.at/CodeSystem/dgc-ratnamemanufacturer';'Green Cross Medical Science Corp., GENEDIA W COVID-19 Ag';'';'';'218';'0';'L';'1.2.40.0.34.5.205:1144';'';''
'1747';'1.2.40.0.34.5.205';'Guangdong Hecin Scientific, Inc., 2019-nCoV Antigen Test Kit (colloidal gold method)';'https://termgit.elga.gv.at/CodeSystem/dgc-ratnamemanufacturer';'Guangdong Hecin Scientific, Inc., 2019-nCoV Antigen Test Kit (colloidal gold method)';'';'';'219';'0';'L';'1.2.40.0.34.5.205:1747';'';''
'3037';'1.2.40.0.34.5.205';'AAZ-LMB, COVID-VIRO ALL IN';'https://termgit.elga.gv.at/CodeSystem/dgc-ratnamemanufacturer';'AAZ-LMB, COVID-VIRO ALL IN';'';'';'220';'0';'L';'1.2.40.0.34.5.205:3037';'';''
'2538';'1.2.40.0.34.5.205';'AUTOBIO DIAGNOSTICS., LTD., SARS-CoV-2 Ag Rapid Test';'https://termgit.elga.gv.at/CodeSystem/dgc-ratnamemanufacturer';'AUTOBIO DIAGNOSTICS., LTD., SARS-CoV-2 Ag Rapid Test';'';'';'221';'0';'L';'1.2.40.0.34.5.205:2538';'';''
'3190';'1.2.40.0.34.5.205';'Green Cross Medical Science Corp., GENEDIA W COVID-19 Ag 643K';'https://termgit.elga.gv.at/CodeSystem/dgc-ratnamemanufacturer';'Green Cross Medical Science Corp., GENEDIA W COVID-19 Ag 643K';'';'';'222';'0';'L';'1.2.40.0.34.5.205:3190';'';''
'1646';'1.2.40.0.34.5.205';'NG Biotech, NG-Test SARS-CoV-2 Ag';'https://termgit.elga.gv.at/CodeSystem/dgc-ratnamemanufacturer';'NG Biotech, NG-Test SARS-CoV-2 Ag';'';'';'223';'0';'L';'1.2.40.0.34.5.205:1646';'';''
'1962';'1.2.40.0.34.5.205';'Rapigen Inc., BIOCREDIT COVID-19 Ag';'https://termgit.elga.gv.at/CodeSystem/dgc-ratnamemanufacturer';'Rapigen Inc., BIOCREDIT COVID-19 Ag';'';'';'224';'0';'L';'1.2.40.0.34.5.205:1962';'';''
'2063';'1.2.40.0.34.5.205';'Hangzhou Sejoy Electronics & Instruments Co.,Ltd., SARS-CoV-2 & Influenza A+B Antigen Combo Rapid Test Cassette';'https://termgit.elga.gv.at/CodeSystem/dgc-ratnamemanufacturer';'Hangzhou Sejoy Electronics & Instruments Co.,Ltd., SARS-CoV-2 & Influenza A+B Antigen Combo Rapid Test Cassette';'';'';'225';'0';'L';'1.2.40.0.34.5.205:2063';'';''
'1446';'1.2.40.0.34.5.205';'Hangzhou Singclean Medical Products Co., Ltd, COVID-19 Antigen Test Kit (Colloidal Gold)';'https://termgit.elga.gv.at/CodeSystem/dgc-ratnamemanufacturer';'Hangzhou Singclean Medical Products Co., Ltd, COVID-19 Antigen Test Kit (Colloidal Gold)';'';'';'226';'0';'L';'1.2.40.0.34.5.205:1446';'';''
'2936';'1.2.40.0.34.5.205';'Shenzhen AMPER Biotechnology Co Ltd, AMPER COVID-19 Antigen Rapid Testing Kit (Colloidal Gold)';'https://termgit.elga.gv.at/CodeSystem/dgc-ratnamemanufacturer';'Shenzhen AMPER Biotechnology Co Ltd, AMPER COVID-19 Antigen Rapid Testing Kit (Colloidal Gold)';'';'';'227';'0';'L';'1.2.40.0.34.5.205:2936';'';''
'3153';'1.2.40.0.34.5.205';'Huachenyang (Shenzhen) Technology Co., Ltd., COVID-19 Ag Rapid Test Kit';'https://termgit.elga.gv.at/CodeSystem/dgc-ratnamemanufacturer';'Huachenyang (Shenzhen) Technology Co., Ltd., COVID-19 Ag Rapid Test Kit';'';'';'228';'0';'L';'1.2.40.0.34.5.205:3153';'';''
'1963';'1.2.40.0.34.5.205';'Rapigen Inc., BIOCREDIT COVID-19 Ag Test Nasal';'https://termgit.elga.gv.at/CodeSystem/dgc-ratnamemanufacturer';'Rapigen Inc., BIOCREDIT COVID-19 Ag Test Nasal';'';'';'229';'0';'L';'1.2.40.0.34.5.205:1963';'';''
'3143';'1.2.40.0.34.5.205';'VivaChek Biotech (Hangzhou) Co., Ltd, Rapid Gold Pro SARS-CoV-2 AG Test';'https://termgit.elga.gv.at/CodeSystem/dgc-ratnamemanufacturer';'VivaChek Biotech (Hangzhou) Co., Ltd, Rapid Gold Pro SARS-CoV-2 AG Test';'';'';'230';'0';'L';'1.2.40.0.34.5.205:3143';'';''
'2108';'1.2.40.0.34.5.205';'AESKU.Diagnostics GmbH & Co KG, AESKU.RAPID SARS-CoV-2';'https://termgit.elga.gv.at/CodeSystem/dgc-ratnamemanufacturer';'AESKU.Diagnostics GmbH & Co KG, AESKU.RAPID SARS-CoV-2';'';'';'231';'0';'L';'1.2.40.0.34.5.205:2108';'';''
'1437';'1.2.40.0.34.5.205';'Guangzhou Wondfo Biotech Co., Ltd, Wondfo 2019-nCoV Antigen Test (Lateral Flow Method)';'https://termgit.elga.gv.at/CodeSystem/dgc-ratnamemanufacturer';'Guangzhou Wondfo Biotech Co., Ltd, Wondfo 2019-nCoV Antigen Test (Lateral Flow Method)';'';'';'232';'0';'L';'1.2.40.0.34.5.205:1437';'';''
'1162';'1.2.40.0.34.5.205';'nal von minden GmbH, NADAL COVID-19 Ag Test';'https://termgit.elga.gv.at/CodeSystem/dgc-ratnamemanufacturer';'nal von minden GmbH, NADAL COVID-19 Ag Test';'';'';'233';'0';'L';'1.2.40.0.34.5.205:1162';'';''
'1456';'1.2.40.0.34.5.205';'Xiamen Wiz Biotech Co., Ltd., SARS-CoV-2 Antigen Rapid Test';'https://termgit.elga.gv.at/CodeSystem/dgc-ratnamemanufacturer';'Xiamen Wiz Biotech Co., Ltd., SARS-CoV-2 Antigen Rapid Test';'';'';'234';'0';'L';'1.2.40.0.34.5.205:1456';'';''
'2388';'1.2.40.0.34.5.205';'Citest Diagnostics Inc., COVID-19 Antigen Test Cassette (Nasopharyngeal Swab) (FIA)';'https://termgit.elga.gv.at/CodeSystem/dgc-ratnamemanufacturer';'Citest Diagnostics Inc., COVID-19 Antigen Test Cassette (Nasopharyngeal Swab) (FIA)';'';'';'235';'0';'L';'1.2.40.0.34.5.205:2388';'';''
'2973';'1.2.40.0.34.5.205';'Medifood Hungary Innovation Kft., MediDia COVID-19 Ag';'https://termgit.elga.gv.at/CodeSystem/dgc-ratnamemanufacturer';'Medifood Hungary Innovation Kft., MediDia COVID-19 Ag';'';'';'236';'0';'L';'1.2.40.0.34.5.205:2973';'';''
'3026';'1.2.40.0.34.5.205';'SD BIOSENSOR Healthcare Private Limited, Ultra COVID-19 Ag';'https://termgit.elga.gv.at/CodeSystem/dgc-ratnamemanufacturer';'SD BIOSENSOR Healthcare Private Limited, Ultra COVID-19 Ag';'';'';'237';'0';'L';'1.2.40.0.34.5.205:3026';'';''
'3937';'1.2.40.0.34.5.205';'Cofoe Medical Technology Co., Ltd., SARS-CoV-2 Antigen Test Kit(Colloidal Gold Method)';'https://termgit.elga.gv.at/CodeSystem/dgc-ratnamemanufacturer';'Cofoe Medical Technology Co., Ltd., SARS-CoV-2 Antigen Test Kit(Colloidal Gold Method)';'';'';'238';'0';'L';'1.2.40.0.34.5.205:3937';'';''
'2317';'1.2.40.0.34.5.205';'Hangzhou Immuno BiotechCo., Ltd, SARS-CoV2 Antigen Rapid Test';'https://termgit.elga.gv.at/CodeSystem/dgc-ratnamemanufacturer';'Hangzhou Immuno BiotechCo., Ltd, SARS-CoV2 Antigen Rapid Test';'';'';'239';'0';'L';'1.2.40.0.34.5.205:2317';'';''
'1215';'1.2.40.0.34.5.205';'Hangzhou Laihe Biotech Co., LYHER Novel Coronavirus (COVID-19) Antigen Test Kit (Colloidal Gold) for self-testing';'https://termgit.elga.gv.at/CodeSystem/dgc-ratnamemanufacturer';'Hangzhou Laihe Biotech Co., LYHER Novel Coronavirus (COVID-19) Antigen Test Kit (Colloidal Gold) for self-testing';'';'';'240';'0';'L';'1.2.40.0.34.5.205:1215';'';''
'2256';'1.2.40.0.34.5.205';'Sigmed Sp. z o.o, Redtest Professional Sars-CoV-2 Antigen Rapid Test (Covid-19 Ag)';'https://termgit.elga.gv.at/CodeSystem/dgc-ratnamemanufacturer';'Sigmed Sp. z o.o, Redtest Professional Sars-CoV-2 Antigen Rapid Test (Covid-19 Ag)';'';'';'241';'0';'L';'1.2.40.0.34.5.205:2256';'';''
'4083';'1.2.40.0.34.5.205';'Vitrosens Biotechnology Co., Ltd, ENMED SARS-CoV-2 Rapid Antigen Test Kit';'https://termgit.elga.gv.at/CodeSystem/dgc-ratnamemanufacturer';'Vitrosens Biotechnology Co., Ltd, ENMED SARS-CoV-2 Rapid Antigen Test Kit';'';'';'242';'0';'L';'1.2.40.0.34.5.205:4083';'';''
'4058';'1.2.40.0.34.5.205';'Vitrosens Biotechnology Co., Ltd, RAPIDNEXT SARS-CoV-2 Rapid Antigen Test Kit';'https://termgit.elga.gv.at/CodeSystem/dgc-ratnamemanufacturer';'Vitrosens Biotechnology Co., Ltd, RAPIDNEXT SARS-CoV-2 Rapid Antigen Test Kit';'';'';'243';'0';'L';'1.2.40.0.34.5.205:4058';'';''
'4059';'1.2.40.0.34.5.205';'Vitrosens Biotechnology Co., Ltd, RapidSens SARS-CoV-2 Rapid Antigen Test Kit';'https://termgit.elga.gv.at/CodeSystem/dgc-ratnamemanufacturer';'Vitrosens Biotechnology Co., Ltd, RapidSens SARS-CoV-2 Rapid Antigen Test Kit';'';'';'244';'0';'L';'1.2.40.0.34.5.205:4059';'';''
'4053';'1.2.40.0.34.5.205';'Acon Biotech (Hangzhou) Co., Ltd, Flowflex SARS-CoV-2 Antigen Rapid Test Slim';'https://termgit.elga.gv.at/CodeSystem/dgc-ratnamemanufacturer';'Acon Biotech (Hangzhou) Co., Ltd, Flowflex SARS-CoV-2 Antigen Rapid Test Slim';'';'';'245';'0';'L';'1.2.40.0.34.5.205:4053';'';''
'4057';'1.2.40.0.34.5.205';'Acon Biotech (Hangzhou) Co., Ltd, Flowflex SARS-CoV-2 Antigen Rapid Test (Nasal/ Nasopharyngeal/ Saliva)';'https://termgit.elga.gv.at/CodeSystem/dgc-ratnamemanufacturer';'Acon Biotech (Hangzhou) Co., Ltd, Flowflex SARS-CoV-2 Antigen Rapid Test (Nasal/ Nasopharyngeal/ Saliva)';'';'';'246';'0';'L';'1.2.40.0.34.5.205:4057';'';''
'2277';'1.2.40.0.34.5.205';'Assure Tech. (Hangzhou) Co., Ltd., COVID-19 Antigen Nasal Test Kit';'https://termgit.elga.gv.at/CodeSystem/dgc-ratnamemanufacturer';'Assure Tech. (Hangzhou) Co., Ltd., COVID-19 Antigen Nasal Test Kit';'';'';'247';'0';'L';'1.2.40.0.34.5.205:2277';'';''
'4075';'1.2.40.0.34.5.205';'Assure Tech. (Hangzhou) Co., Ltd., ECOTEST COVID-19 Antigen Rapid Test Device';'https://termgit.elga.gv.at/CodeSystem/dgc-ratnamemanufacturer';'Assure Tech. (Hangzhou) Co., Ltd., ECOTEST COVID-19 Antigen Rapid Test Device';'';'';'248';'0';'L';'1.2.40.0.34.5.205:4075';'';''
'2769';'1.2.40.0.34.5.205';'Beijing Beier Bioengineering Co., Ltd, Covid-19 Antigen Rapid Test Kit';'https://termgit.elga.gv.at/CodeSystem/dgc-ratnamemanufacturer';'Beijing Beier Bioengineering Co., Ltd, Covid-19 Antigen Rapid Test Kit';'';'';'249';'0';'L';'1.2.40.0.34.5.205:2769';'';''
'3107';'1.2.40.0.34.5.205';'Nanjing Vazyme Medical Technology Co., Ltd., Severe Acute Respiratory Syndrome Coronavirus 2 (SARS-CoV-2) Antigen Detection Kit (Colloidal Gold-Based) – Nasal swab';'https://termgit.elga.gv.at/CodeSystem/dgc-ratnamemanufacturer';'Nanjing Vazyme Medical Technology Co., Ltd., Severe Acute Respiratory Syndrome Coronavirus 2 (SARS-CoV-2) Antigen Detection Kit (Colloidal Gold-Based) – Nasal swab';'';'';'250';'0';'L';'1.2.40.0.34.5.205:3107';'';''
'3096';'1.2.40.0.34.5.205';'Rapid Labs Ltd., SARS-CoV-2 Antigen Rapid Test (Nasopharyngeal Swab)';'https://termgit.elga.gv.at/CodeSystem/dgc-ratnamemanufacturer';'Rapid Labs Ltd., SARS-CoV-2 Antigen Rapid Test (Nasopharyngeal Swab)';'';'';'251';'0';'L';'1.2.40.0.34.5.205:3096';'';''
'3004';'1.2.40.0.34.5.205';'Jiangxi Province JinHuan Medical Instrument Co., LTD., MEDSYS Novel Coronavirus (SARS-CoV-2) Antigen Rapid Detection Kit';'https://termgit.elga.gv.at/CodeSystem/dgc-ratnamemanufacturer';'Jiangxi Province JinHuan Medical Instrument Co., LTD., MEDSYS Novel Coronavirus (SARS-CoV-2) Antigen Rapid Detection Kit';'';'';'252';'0';'L';'1.2.40.0.34.5.205:3004';'';''
'1849';'1.2.40.0.34.5.205';'Nanjing Vazyme Medical Technology Co., Ltd., Severe Acute Respiratory Syndrome Coronavirus 2 (SARS-CoV-2) Antigen Detection Kit (Colloidal Gold-Based)';'https://termgit.elga.gv.at/CodeSystem/dgc-ratnamemanufacturer';'Nanjing Vazyme Medical Technology Co., Ltd., Severe Acute Respiratory Syndrome Coronavirus 2 (SARS-CoV-2) Antigen Detection Kit (Colloidal Gold-Based)';'';'';'253';'0';'L';'1.2.40.0.34.5.205:1849';'';''
'1420';'1.2.40.0.34.5.205';'NanoEntek, FREND Covid-19 Ag';'https://termgit.elga.gv.at/CodeSystem/dgc-ratnamemanufacturer';'NanoEntek, FREND Covid-19 Ag';'';'';'254';'0';'L';'1.2.40.0.34.5.205:1420';'';''
'1324';'1.2.40.0.34.5.205';'Guangzhou Decheng Biotechnology CO., Ltd, V-CHEK, 2019-nCoV Ag Rapid Test Kit (Immuno-chromatography)';'https://termgit.elga.gv.at/CodeSystem/dgc-ratnamemanufacturer';'Guangzhou Decheng Biotechnology CO., Ltd, V-CHEK, 2019-nCoV Ag Rapid Test Kit (Immuno-chromatography)';'';'';'255';'0';'L';'1.2.40.0.34.5.205:1324';'';''
'3005';'1.2.40.0.34.5.205';'Hangzhou Aichek Medical Technology Co., Ltd., COVID-19 Antigen Rapid Test Device';'https://termgit.elga.gv.at/CodeSystem/dgc-ratnamemanufacturer';'Hangzhou Aichek Medical Technology Co., Ltd., COVID-19 Antigen Rapid Test Device';'';'';'256';'0';'L';'1.2.40.0.34.5.205:3005';'';''
'5743';'1.2.40.0.34.5.205';'Hangzhou Biotest Biotech Co., Ltd., COVID-19 Antigen Rapid Test Cassette (Nasal Swab)';'https://termgit.elga.gv.at/CodeSystem/dgc-ratnamemanufacturer';'Hangzhou Biotest Biotech Co., Ltd., COVID-19 Antigen Rapid Test Cassette (Nasal Swab)';'';'';'257';'0';'L';'1.2.40.0.34.5.205:5743';'';''
'3084';'1.2.40.0.34.5.205';'InTec Products Inc., AQ+ COVID-19 Ag Rapid Test';'https://termgit.elga.gv.at/CodeSystem/dgc-ratnamemanufacturer';'InTec Products Inc., AQ+ COVID-19 Ag Rapid Test';'';'';'258';'0';'L';'1.2.40.0.34.5.205:3084';'';''
'4049';'1.2.40.0.34.5.205';'NINGBO LVTANG BIOTECHNOLOGY Co. Ltd., SARS-CoV-2 Antigen Detection Kit (Colloidal Gold Method)';'https://termgit.elga.gv.at/CodeSystem/dgc-ratnamemanufacturer';'NINGBO LVTANG BIOTECHNOLOGY Co. Ltd., SARS-CoV-2 Antigen Detection Kit (Colloidal Gold Method)';'';'';'259';'0';'L';'1.2.40.0.34.5.205:4049';'';''
'1968';'1.2.40.0.34.5.205';'Shenzhen Microprofit Biotech Co., Ltd., SARS-CoV-2 Antigen Test Kit (Fluorescence Immunoassay)';'https://termgit.elga.gv.at/CodeSystem/dgc-ratnamemanufacturer';'Shenzhen Microprofit Biotech Co., Ltd., SARS-CoV-2 Antigen Test Kit (Fluorescence Immunoassay)';'';'';'260';'0';'L';'1.2.40.0.34.5.205:1968';'';''
'5751';'1.2.40.0.34.5.205';'Shenzhen Microprofit Biotech Co., Ltd., SARS-CoV-2 & Influenza A/B Antigen Combo Test Kit (Colloidal Gold Chromatographic Immunoassay)';'https://termgit.elga.gv.at/CodeSystem/dgc-ratnamemanufacturer';'Shenzhen Microprofit Biotech Co., Ltd., SARS-CoV-2 & Influenza A/B Antigen Combo Test Kit (Colloidal Gold Chromatographic Immunoassay)';'';'';'261';'0';'L';'1.2.40.0.34.5.205:5751';'';''
'2233';'1.2.40.0.34.5.205';'Shenzhen Microprofit Biotech Co., Ltd., SARS-CoV-2 & Influenza A/B & RSV Antigen Combo Test Kit (Colloidal Gold Chromatographic Immunoassay)';'https://termgit.elga.gv.at/CodeSystem/dgc-ratnamemanufacturer';'Shenzhen Microprofit Biotech Co., Ltd., SARS-CoV-2 & Influenza A/B & RSV Antigen Combo Test Kit (Colloidal Gold Chromatographic Immunoassay)';'';'';'262';'0';'L';'1.2.40.0.34.5.205:2233';'';''
'1884';'1.2.40.0.34.5.205';'Xiamen Wiz Biotech Co., Ltd., SARS-CoV-2 Antigen Rapid Test (Colloidal Gold)';'https://termgit.elga.gv.at/CodeSystem/dgc-ratnamemanufacturer';'Xiamen Wiz Biotech Co., Ltd., SARS-CoV-2 Antigen Rapid Test (Colloidal Gold)';'';'';'263';'0';'L';'1.2.40.0.34.5.205:1884';'';''
'2226';'1.2.40.0.34.5.205';'ZET medikal tekstil dis tic Ltd. Sti, SOFTEC SARS COV-2 COVID-19 ANTIGEN TEST KIT';'https://termgit.elga.gv.at/CodeSystem/dgc-ratnamemanufacturer';'ZET medikal tekstil dis tic Ltd. Sti, SOFTEC SARS COV-2 COVID-19 ANTIGEN TEST KIT';'';'';'264';'0';'L';'1.2.40.0.34.5.205:2226';'';''
'2075';'1.2.40.0.34.5.205';'Amazing Biotech (Shanghai) Co.,LTD., COVID-19 Antigen Sealing tube test strip (Colloidal Gold)';'https://termgit.elga.gv.at/CodeSystem/dgc-ratnamemanufacturer';'Amazing Biotech (Shanghai) Co.,LTD., COVID-19 Antigen Sealing tube test strip (Colloidal Gold)';'';'';'265';'0';'L';'1.2.40.0.34.5.205:2075';'';''
'3966';'1.2.40.0.34.5.205';'Chastru Biotech Limited, COVID-19 Antigen Rapid Test Cassette';'https://termgit.elga.gv.at/CodeSystem/dgc-ratnamemanufacturer';'Chastru Biotech Limited, COVID-19 Antigen Rapid Test Cassette';'';'';'266';'0';'L';'1.2.40.0.34.5.205:3966';'';''
'4081';'1.2.40.0.34.5.205';'General Biologicals Corporation, GB COVID-19 Ag POCT';'https://termgit.elga.gv.at/CodeSystem/dgc-ratnamemanufacturer';'General Biologicals Corporation, GB COVID-19 Ag POCT';'';'';'267';'0';'L';'1.2.40.0.34.5.205:4081';'';''
'4064';'1.2.40.0.34.5.205';'Glallergen Co. Ltd, Novel Coronavirus (2019-nCoV) Antigen Test Kit (Latex Method)';'https://termgit.elga.gv.at/CodeSystem/dgc-ratnamemanufacturer';'Glallergen Co. Ltd, Novel Coronavirus (2019-nCoV) Antigen Test Kit (Latex Method)';'';'';'268';'0';'L';'1.2.40.0.34.5.205:4064';'';''
'2560';'1.2.40.0.34.5.205';'Lomina Superbio, a.s., Lomina SARS-CoV-2 Antigen LTX test';'https://termgit.elga.gv.at/CodeSystem/dgc-ratnamemanufacturer';'Lomina Superbio, a.s., Lomina SARS-CoV-2 Antigen LTX test';'';'';'269';'0';'L';'1.2.40.0.34.5.205:2560';'';''
'5812';'1.2.40.0.34.5.205';'Rapid Labs Ltd., SARS-CoV-2 Antigen Rapid Test (Nasal Swab)';'https://termgit.elga.gv.at/CodeSystem/dgc-ratnamemanufacturer';'Rapid Labs Ltd., SARS-CoV-2 Antigen Rapid Test (Nasal Swab)';'';'';'270';'0';'L';'1.2.40.0.34.5.205:5812';'';''
'4111';'1.2.40.0.34.5.205';'Wuhan Uni-science Biotechnology Co., Ltd., SARS-CoV-2 Antigen Rapid Test Kit';'https://termgit.elga.gv.at/CodeSystem/dgc-ratnamemanufacturer';'Wuhan Uni-science Biotechnology Co., Ltd., SARS-CoV-2 Antigen Rapid Test Kit';'';'';'271';'0';'L';'1.2.40.0.34.5.205:4111';'';''
'2975';'1.2.40.0.34.5.205';'Abionic SA, IVD CAPSULE COVID-19-NP';'https://termgit.elga.gv.at/CodeSystem/dgc-ratnamemanufacturer';'Abionic SA, IVD CAPSULE COVID-19-NP';'';'';'272';'0';'L';'1.2.40.0.34.5.205:2975';'';''
'2267';'1.2.40.0.34.5.205';'ACRO Biotech Inc, SARS-CoV-2 Antigen Rapid Test (Nasal Swab)';'https://termgit.elga.gv.at/CodeSystem/dgc-ratnamemanufacturer';'ACRO Biotech Inc, SARS-CoV-2 Antigen Rapid Test (Nasal Swab)';'';'';'273';'0';'L';'1.2.40.0.34.5.205:2267';'';''
'2280';'1.2.40.0.34.5.205';'Assure Tech. (Hangzhou) Co., Ltd., COVID-19 & Influenza A/B Antigen Nasal Test Kit';'https://termgit.elga.gv.at/CodeSystem/dgc-ratnamemanufacturer';'Assure Tech. (Hangzhou) Co., Ltd., COVID-19 & Influenza A/B Antigen Nasal Test Kit';'';'';'274';'0';'L';'1.2.40.0.34.5.205:2280';'';''
'1258';'1.2.40.0.34.5.205';'Hangzhou AllTest Biotech Co., Ltd, SARS-CoV-2 and Influenza A+B Antigen Combo Rapid Test (Nasopharyngeal Swab)';'https://termgit.elga.gv.at/CodeSystem/dgc-ratnamemanufacturer';'Hangzhou AllTest Biotech Co., Ltd, SARS-CoV-2 and Influenza A+B Antigen Combo Rapid Test (Nasopharyngeal Swab)';'';'';'275';'0';'L';'1.2.40.0.34.5.205:1258';'';''
'2671';'1.2.40.0.34.5.205';'Hangzhou Sejoy Electronics & Instruments Co. Ltd., SARS-CoV-2 Antigen Rapid Test Cassette';'https://termgit.elga.gv.at/CodeSystem/dgc-ratnamemanufacturer';'Hangzhou Sejoy Electronics & Instruments Co. Ltd., SARS-CoV-2 Antigen Rapid Test Cassette';'';'';'276';'0';'L';'1.2.40.0.34.5.205:2671';'';''
'2782';'1.2.40.0.34.5.205';'Primer Design Limited, PathFlow COVID-19 Rapid Antigen PRO';'https://termgit.elga.gv.at/CodeSystem/dgc-ratnamemanufacturer';'Primer Design Limited, PathFlow COVID-19 Rapid Antigen PRO';'';'';'277';'0';'L';'1.2.40.0.34.5.205:2782';'';''
'25546';'1.2.40.0.34.5.205';'Roche (SD BIOSENSOR), SARS-CoV-2 Rapid Antigen Test 2.0';'https://termgit.elga.gv.at/CodeSystem/dgc-ratnamemanufacturer';'Roche (SD BIOSENSOR), SARS-CoV-2 Rapid Antigen Test 2.0';'';'';'278';'0';'L';'1.2.40.0.34.5.205:25546';'';''
'24757';'1.2.40.0.34.5.205';'SD BIOSENSOR Inc., STANDARD F COVID/Flu Ag Combo FIA';'https://termgit.elga.gv.at/CodeSystem/dgc-ratnamemanufacturer';'SD BIOSENSOR Inc., STANDARD F COVID/Flu Ag Combo FIA';'';'';'279';'0';'L';'1.2.40.0.34.5.205:24757';'';''
'24756';'1.2.40.0.34.5.205';'SD BIOSENSOR Inc., STANDARD i-Q COVID/Flu Ag Combo Test';'https://termgit.elga.gv.at/CodeSystem/dgc-ratnamemanufacturer';'SD BIOSENSOR Inc., STANDARD i-Q COVID/Flu Ag Combo Test';'';'';'280';'0';'L';'1.2.40.0.34.5.205:24756';'';''
'24758';'1.2.40.0.34.5.205';'SD BIOSENSOR Inc., STANDARD Q COVID-19 Ag Test 2.0';'https://termgit.elga.gv.at/CodeSystem/dgc-ratnamemanufacturer';'SD BIOSENSOR Inc., STANDARD Q COVID-19 Ag Test 2.0';'';'';'281';'0';'L';'1.2.40.0.34.5.205:24758';'';''
'2491';'1.2.40.0.34.5.205';'Shen Zhen Zi Jian Biotechnology Co. Ltd., SARS-CoV-2 (COVID-19) Antigen Rapid Detection Kit (Lateral Flow Method)';'https://termgit.elga.gv.at/CodeSystem/dgc-ratnamemanufacturer';'Shen Zhen Zi Jian Biotechnology Co. Ltd., SARS-CoV-2 (COVID-19) Antigen Rapid Detection Kit (Lateral Flow Method)';'';'';'282';'0';'L';'1.2.40.0.34.5.205:2491';'';''
'2935';'1.2.40.0.34.5.205';'SG Medical, Inc, InstaView COVID-19 Antigen';'https://termgit.elga.gv.at/CodeSystem/dgc-ratnamemanufacturer';'SG Medical, Inc, InstaView COVID-19 Antigen';'';'';'283';'0';'L';'1.2.40.0.34.5.205:2935';'';''
