{
  "resourceType": "ValueSet",
  "id": "elga-serviceeventstelemonepi",
  "meta": {
    "profile": [
      "http://hl7.at/fhir/HL7ATCoreProfiles/4.0.1/StructureDefinition/at-core-valueset"
    ]
  },
  "url": "https://termgit.elga.gv.at/ValueSet/elga-serviceeventstelemonepi",
  "identifier": [
    {
      "use": "official",
      "system": "urn:ietf:rfc:3986",
      "value": "urn:oid:1.2.40.0.34.6.0.10.26"
    }
  ],
  "version": "1.1.0+20240325",
  "name": "elga-serviceeventstelemonepi",
  "title": "ELGA_ServiceEventsTelemonEpi",
  "status": "active",
  "date": "2024-03-25",
  "description": "**Description:** Contains information protected by copyright of SNOMED International. Any use of SNOMED CT in Austria requires a valid affiliate license or sublicense. The corresponding license is free of charge, provided that the use only takes place in Austria and fulfills the conditions of the Affiliate License Agreement. Affiliate licenses can be requested directly from the respective NRC via the [Member Licensing and Distribution Service](https://mlds.ihtsdotools.org/#/landing/AT?lang=de) (MLDS).\n\n**Beschreibung:** Enth\u00e4lt durch SNOMED International urheberrechtlich gesch\u00fctzte Information. Jede Verwendung von SNOMED CT in \u00d6sterreich erfordert eine aufrechte Affiliate Lizenz oder eine Sublizenz. Die entsprechende Lizenz ist kostenlos, vorausgesetzt die Verwendung findet nur in \u00d6sterreich statt und erf\u00fcllt die Bedingungen des Affiliate License Agreements. Affiliate Lizenzen k\u00f6nnen \u00fcber das [Mitglieder-Lizenzierungs- und Distributions-Service](https://mlds.ihtsdotools.org/#/landing/AT?lang=de) (MLDS) direkt beim jeweiligen NRC beantragt werden.",
  "compose": {
    "include": [
      {
        "extension": [
          {
            "url": "http://hl7.at/fhir/HL7ATCoreProfiles/4.0.1/StructureDefinition/at-core-ext-valueset-systemoid",
            "valueOid": "urn:oid:2.16.840.1.113883.6.96"
          }
        ],
        "system": "https://termgit.elga.gv.at/CodeSystem/snomed-ct-auszug",
        "version": "1.0.0+20230131",
        "concept": [
          {
            "code": "719858009",
            "display": "Telehealth monitoring (regime/therapy)"
          },
          {
            "code": "715191006",
            "display": "Telehealth asthma monitoring (regime/therapy)"
          },
          {
            "code": "715280009",
            "display": "Telehealth hypertension monitoring (regime/therapy)"
          },
          {
            "code": "473199000",
            "display": "Telehealth monitoring for chronic disease (regime/therapy)"
          },
          {
            "code": "716358000",
            "display": "Telehealth chronic obstructive pulmonary disease monitoring (regime/therapy)"
          },
          {
            "code": "879780004",
            "display": "Telehealth monitoring for chronic heart failure (regime/therapy)"
          },
          {
            "code": "879782007",
            "display": "Telehealth monitoring for diabetes mellitus (regime/therapy)"
          },
          {
            "code": "879781000",
            "display": "Telehealth monitoring for ischemic heart disease (regime/therapy)"
          },
          {
            "code": "879783002",
            "display": "Telehealth monitoring for psychological stress (regime/therapy)"
          },
          {
            "code": "715279006",
            "display": "Telehealth obesity monitoring (regime/therapy)"
          },
          {
            "code": "879784008",
            "display": "Telehealth rehabilitation monitoring (regime/therapy)"
          }
        ]
      }
    ]
  },
  "expansion": {
    "timestamp": "2024-03-25T06:36:54+00:00",
    "contains": [
      {
        "extension": [
          {
            "url": "http://hl7.at/fhir/HL7ATCoreProfiles/4.0.1/StructureDefinition/at-core-ext-valueset-systemoid",
            "valueOid": "urn:oid:2.16.840.1.113883.6.96"
          }
        ],
        "system": "https://termgit.elga.gv.at/CodeSystem/snomed-ct-auszug",
        "version": "1.0.0+20230131",
        "code": "719858009",
        "display": "Telehealth monitoring (regime/therapy)",
        "contains": [
          {
            "extension": [
              {
                "url": "http://hl7.at/fhir/HL7ATCoreProfiles/4.0.1/StructureDefinition/at-core-ext-valueset-systemoid",
                "valueOid": "urn:oid:2.16.840.1.113883.6.96"
              }
            ],
            "system": "https://termgit.elga.gv.at/CodeSystem/snomed-ct-auszug",
            "version": "1.0.0+20230131",
            "code": "715191006",
            "display": "Telehealth asthma monitoring (regime/therapy)"
          },
          {
            "extension": [
              {
                "url": "http://hl7.at/fhir/HL7ATCoreProfiles/4.0.1/StructureDefinition/at-core-ext-valueset-systemoid",
                "valueOid": "urn:oid:2.16.840.1.113883.6.96"
              }
            ],
            "system": "https://termgit.elga.gv.at/CodeSystem/snomed-ct-auszug",
            "version": "1.0.0+20230131",
            "code": "715280009",
            "display": "Telehealth hypertension monitoring (regime/therapy)"
          },
          {
            "extension": [
              {
                "url": "http://hl7.at/fhir/HL7ATCoreProfiles/4.0.1/StructureDefinition/at-core-ext-valueset-systemoid",
                "valueOid": "urn:oid:2.16.840.1.113883.6.96"
              }
            ],
            "system": "https://termgit.elga.gv.at/CodeSystem/snomed-ct-auszug",
            "version": "1.0.0+20230131",
            "code": "473199000",
            "display": "Telehealth monitoring for chronic disease (regime/therapy)",
            "contains": [
              {
                "extension": [
                  {
                    "url": "http://hl7.at/fhir/HL7ATCoreProfiles/4.0.1/StructureDefinition/at-core-ext-valueset-systemoid",
                    "valueOid": "urn:oid:2.16.840.1.113883.6.96"
                  }
                ],
                "system": "https://termgit.elga.gv.at/CodeSystem/snomed-ct-auszug",
                "version": "1.0.0+20230131",
                "code": "716358000",
                "display": "Telehealth chronic obstructive pulmonary disease monitoring (regime/therapy)"
              }
            ]
          },
          {
            "extension": [
              {
                "url": "http://hl7.at/fhir/HL7ATCoreProfiles/4.0.1/StructureDefinition/at-core-ext-valueset-systemoid",
                "valueOid": "urn:oid:2.16.840.1.113883.6.96"
              }
            ],
            "system": "https://termgit.elga.gv.at/CodeSystem/snomed-ct-auszug",
            "version": "1.0.0+20230131",
            "code": "879780004",
            "display": "Telehealth monitoring for chronic heart failure (regime/therapy)"
          },
          {
            "extension": [
              {
                "url": "http://hl7.at/fhir/HL7ATCoreProfiles/4.0.1/StructureDefinition/at-core-ext-valueset-systemoid",
                "valueOid": "urn:oid:2.16.840.1.113883.6.96"
              }
            ],
            "system": "https://termgit.elga.gv.at/CodeSystem/snomed-ct-auszug",
            "version": "1.0.0+20230131",
            "code": "879782007",
            "display": "Telehealth monitoring for diabetes mellitus (regime/therapy)"
          },
          {
            "extension": [
              {
                "url": "http://hl7.at/fhir/HL7ATCoreProfiles/4.0.1/StructureDefinition/at-core-ext-valueset-systemoid",
                "valueOid": "urn:oid:2.16.840.1.113883.6.96"
              }
            ],
            "system": "https://termgit.elga.gv.at/CodeSystem/snomed-ct-auszug",
            "version": "1.0.0+20230131",
            "code": "879781000",
            "display": "Telehealth monitoring for ischemic heart disease (regime/therapy)"
          },
          {
            "extension": [
              {
                "url": "http://hl7.at/fhir/HL7ATCoreProfiles/4.0.1/StructureDefinition/at-core-ext-valueset-systemoid",
                "valueOid": "urn:oid:2.16.840.1.113883.6.96"
              }
            ],
            "system": "https://termgit.elga.gv.at/CodeSystem/snomed-ct-auszug",
            "version": "1.0.0+20230131",
            "code": "879783002",
            "display": "Telehealth monitoring for psychological stress (regime/therapy)"
          },
          {
            "extension": [
              {
                "url": "http://hl7.at/fhir/HL7ATCoreProfiles/4.0.1/StructureDefinition/at-core-ext-valueset-systemoid",
                "valueOid": "urn:oid:2.16.840.1.113883.6.96"
              }
            ],
            "system": "https://termgit.elga.gv.at/CodeSystem/snomed-ct-auszug",
            "version": "1.0.0+20230131",
            "code": "715279006",
            "display": "Telehealth obesity monitoring (regime/therapy)"
          },
          {
            "extension": [
              {
                "url": "http://hl7.at/fhir/HL7ATCoreProfiles/4.0.1/StructureDefinition/at-core-ext-valueset-systemoid",
                "valueOid": "urn:oid:2.16.840.1.113883.6.96"
              }
            ],
            "system": "https://termgit.elga.gv.at/CodeSystem/snomed-ct-auszug",
            "version": "1.0.0+20230131",
            "code": "879784008",
            "display": "Telehealth rehabilitation monitoring (regime/therapy)"
          }
        ]
      }
    ]
  }
}