'code';'codeSystem';'displayName';'parentCodeSystemName';'concept_Beschreibung';'meaning';'hints';'orderNumber';'level';'type';'relationships';'einheit print';'einheit codiert';'codeSystemVersion'
'100';'1.2.40.0.34.5.2';'Ärztin/Arzt für Allgemeinmedizin';'https://termgit.elga.gv.at/CodeSystem/elga-gtelvogdarollen';'Ärztin/Arzt für Allgemeinmedizin, gegebenenfalls unter Beifügung der gemäß Ärztinnen-/Ärzte-Ausbildungsordnung 2006 (ÄAO 2006), BGBl. II Nr. 286/2006, in der jeweils geltenden Fassung, zutreffenden Zusatzbezeichnung des Additivfaches in runden Klammern';;;'1';'0';'L';;;;'1.0.0+20230131'
'101';'1.2.40.0.34.5.2';'Approbierte Ärztin/Approbierter Arzt';'https://termgit.elga.gv.at/CodeSystem/elga-gtelvogdarollen';;;;'2';'0';'L';;;;'1.0.0+20230131'
'155';'1.2.40.0.34.5.2';'Zahnärztin/Zahnarzt';'https://termgit.elga.gv.at/CodeSystem/elga-gtelvogdarollen';;;;'3';'0';'L';;;;'1.0.0+20230131'
'158';'1.2.40.0.34.5.2';'Fachärztin/Facharzt';'https://termgit.elga.gv.at/CodeSystem/elga-gtelvogdarollen';'Fachärztin/Facharzt, unter Beifügung der gemäß ÄAO 2006 zutreffenden Berufsbezeichnung';;;'4';'0';'L';;;;'1.0.0+20230131'
'212';'1.2.40.0.34.5.2';'Diplomierte Gesundheits- und Krankenschwester/Diplomierter Gesundheits- und Krankenpfleger';'https://termgit.elga.gv.at/CodeSystem/elga-gtelvogdarollen';;;;'5';'0';'L';;;;'1.0.0+20230131'
'213';'1.2.40.0.34.5.2';'Diplomierte Kinderkrankenschwester/Diplomierter Kinderkrankenpfleger';'https://termgit.elga.gv.at/CodeSystem/elga-gtelvogdarollen';;;;'6';'0';'L';;;;'1.0.0+20230131'
'300';'1.2.40.0.34.5.2';'Allgemeine Krankenanstalt';'https://termgit.elga.gv.at/CodeSystem/elga-gtelvogdarollen';;;;'7';'0';'L';;;;'1.0.0+20230131'
'301';'1.2.40.0.34.5.2';'Sonderkrankenanstalt';'https://termgit.elga.gv.at/CodeSystem/elga-gtelvogdarollen';;;;'8';'0';'L';;;;'1.0.0+20230131'
'302';'1.2.40.0.34.5.2';'Pflegeanstalt';'https://termgit.elga.gv.at/CodeSystem/elga-gtelvogdarollen';;;;'9';'0';'L';;;;'1.0.0+20230131'
'303';'1.2.40.0.34.5.2';'Sanatorium';'https://termgit.elga.gv.at/CodeSystem/elga-gtelvogdarollen';;;;'10';'0';'L';;;;'1.0.0+20230131'
'304';'1.2.40.0.34.5.2';'Selbstständiges Ambulatorium';'https://termgit.elga.gv.at/CodeSystem/elga-gtelvogdarollen';;;;'11';'0';'L';;;;'1.0.0+20230131'
'305';'1.2.40.0.34.5.2';'Pflegeeinrichtung';'https://termgit.elga.gv.at/CodeSystem/elga-gtelvogdarollen';;;;'12';'0';'L';;;;'1.0.0+20230131'
'306';'1.2.40.0.34.5.2';'Mobile Pflege';'https://termgit.elga.gv.at/CodeSystem/elga-gtelvogdarollen';;;;'13';'0';'L';;;;'1.0.0+20230131'
'307';'1.2.40.0.34.5.2';'Kuranstalt';'https://termgit.elga.gv.at/CodeSystem/elga-gtelvogdarollen';;;;'14';'0';'L';;;;'1.0.0+20230131'
'310';'1.2.40.0.34.5.2';'Untersuchungsanstalt';'https://termgit.elga.gv.at/CodeSystem/elga-gtelvogdarollen';;;;'15';'0';'L';;;;'1.0.0+20230131'
'311';'1.2.40.0.34.5.2';'Öffentliche Apotheke';'https://termgit.elga.gv.at/CodeSystem/elga-gtelvogdarollen';;;;'16';'0';'L';;;;'1.0.0+20230131'
'319';'1.2.40.0.34.5.2';'Zahnärztliche Gruppenpraxis';'https://termgit.elga.gv.at/CodeSystem/elga-gtelvogdarollen';;;;'17';'0';'L';;;;'1.0.0+20230131'
'320';'1.2.40.0.34.5.2';'Ärztliche Gruppenpraxis';'https://termgit.elga.gv.at/CodeSystem/elga-gtelvogdarollen';;;;'18';'0';'L';;;;'1.0.0+20230131'
'406';'1.2.40.0.34.5.2';'Sozialversicherung';'https://termgit.elga.gv.at/CodeSystem/elga-gtelvogdarollen';;;;'19';'0';'L';;;;'1.0.0+20230131'
