'code';'codeSystem';'displayName';'parentCodeSystemName';'concept_Beschreibung';'meaning';'hints';'orderNumber';'level';'type';'relationships';'einheit print';'einheit codiert';'codeSystemVersion'
'20001000';'0.4.0.127.0.16.1.1.2.1';'Auricular use';'https://termgit.elga.gv.at/CodeSystem/ehdsi-edqm-auszug';;;;'1';'0';'L';;;;'1.3.0+20241023'
'20002500';'0.4.0.127.0.16.1.1.2.1';'Buccal use';'https://termgit.elga.gv.at/CodeSystem/ehdsi-edqm-auszug';;;;'2';'0';'L';;;;'1.3.0+20241023'
'20003000';'0.4.0.127.0.16.1.1.2.1';'Cutaneous use';'https://termgit.elga.gv.at/CodeSystem/ehdsi-edqm-auszug';;;;'3';'0';'L';;;;'1.3.0+20241023'
'20004000';'0.4.0.127.0.16.1.1.2.1';'Dental use';'https://termgit.elga.gv.at/CodeSystem/ehdsi-edqm-auszug';;;;'4';'0';'L';;;;'1.3.0+20241023'
'20006000';'0.4.0.127.0.16.1.1.2.1';'Endocervical use';'https://termgit.elga.gv.at/CodeSystem/ehdsi-edqm-auszug';;;;'5';'0';'L';;;;'1.3.0+20241023'
'20007000';'0.4.0.127.0.16.1.1.2.1';'Endosinusial use';'https://termgit.elga.gv.at/CodeSystem/ehdsi-edqm-auszug';;;;'6';'0';'L';;;;'1.3.0+20241023'
'20008000';'0.4.0.127.0.16.1.1.2.1';'Endotracheopulmonary use';'https://termgit.elga.gv.at/CodeSystem/ehdsi-edqm-auszug';;;;'7';'0';'L';;;;'1.3.0+20241023'
'20009000';'0.4.0.127.0.16.1.1.2.1';'Epidural use';'https://termgit.elga.gv.at/CodeSystem/ehdsi-edqm-auszug';;;;'8';'0';'L';;;;'1.3.0+20241023'
'20010000';'0.4.0.127.0.16.1.1.2.1';'Epilesional use';'https://termgit.elga.gv.at/CodeSystem/ehdsi-edqm-auszug';;;;'9';'0';'L';;;;'1.3.0+20241023'
'20011000';'0.4.0.127.0.16.1.1.2.1';'Extraamniotic use';'https://termgit.elga.gv.at/CodeSystem/ehdsi-edqm-auszug';;;;'10';'0';'L';;;;'1.3.0+20241023'
'20011500';'0.4.0.127.0.16.1.1.2.1';'Extracorporeal use';'https://termgit.elga.gv.at/CodeSystem/ehdsi-edqm-auszug';;;;'11';'0';'L';;;;'1.3.0+20241023'
'20013000';'0.4.0.127.0.16.1.1.2.1';'Gastroenteral use';'https://termgit.elga.gv.at/CodeSystem/ehdsi-edqm-auszug';;;;'12';'0';'L';;;;'1.3.0+20241023'
'20013500';'0.4.0.127.0.16.1.1.2.1';'Gastric use';'https://termgit.elga.gv.at/CodeSystem/ehdsi-edqm-auszug';;;;'13';'0';'L';;;;'1.3.0+20241023'
'20014000';'0.4.0.127.0.16.1.1.2.1';'Gingival use';'https://termgit.elga.gv.at/CodeSystem/ehdsi-edqm-auszug';;;;'14';'0';'L';;;;'1.3.0+20241023'
'20015000';'0.4.0.127.0.16.1.1.2.1';'Haemodialysis';'https://termgit.elga.gv.at/CodeSystem/ehdsi-edqm-auszug';;;;'15';'0';'L';;;;'1.3.0+20241023'
'20015500';'0.4.0.127.0.16.1.1.2.1';'Implantation';'https://termgit.elga.gv.at/CodeSystem/ehdsi-edqm-auszug';;;;'16';'0';'L';;;;'1.3.0+20241023'
'20019500';'0.4.0.127.0.16.1.1.2.1';'Infiltration';'https://termgit.elga.gv.at/CodeSystem/ehdsi-edqm-auszug';;;;'17';'0';'L';;;;'1.3.0+20241023'
'20020000';'0.4.0.127.0.16.1.1.2.1';'Inhalation use';'https://termgit.elga.gv.at/CodeSystem/ehdsi-edqm-auszug';;;;'18';'0';'L';;;;'1.3.0+20241023'
'20021000';'0.4.0.127.0.16.1.1.2.1';'Intestinal use';'https://termgit.elga.gv.at/CodeSystem/ehdsi-edqm-auszug';;;;'19';'0';'L';;;;'1.3.0+20241023'
'20022000';'0.4.0.127.0.16.1.1.2.1';'Intraamniotic use';'https://termgit.elga.gv.at/CodeSystem/ehdsi-edqm-auszug';;;;'20';'0';'L';;;;'1.3.0+20241023'
'20023000';'0.4.0.127.0.16.1.1.2.1';'Intraarterial use';'https://termgit.elga.gv.at/CodeSystem/ehdsi-edqm-auszug';;;;'21';'0';'L';;;;'1.3.0+20241023'
'20024000';'0.4.0.127.0.16.1.1.2.1';'Intraarticular use';'https://termgit.elga.gv.at/CodeSystem/ehdsi-edqm-auszug';;;;'22';'0';'L';;;;'1.3.0+20241023'
'20025000';'0.4.0.127.0.16.1.1.2.1';'Intrabursal use';'https://termgit.elga.gv.at/CodeSystem/ehdsi-edqm-auszug';;;;'23';'0';'L';;;;'1.3.0+20241023'
'20025500';'0.4.0.127.0.16.1.1.2.1';'Intracameral use';'https://termgit.elga.gv.at/CodeSystem/ehdsi-edqm-auszug';;;;'24';'0';'L';;;;'1.3.0+20241023'
'20026000';'0.4.0.127.0.16.1.1.2.1';'Intracardiac use';'https://termgit.elga.gv.at/CodeSystem/ehdsi-edqm-auszug';;;;'25';'0';'L';;;;'1.3.0+20241023'
'20026500';'0.4.0.127.0.16.1.1.2.1';'Intracartilaginous use';'https://termgit.elga.gv.at/CodeSystem/ehdsi-edqm-auszug';;;;'26';'0';'L';;;;'1.3.0+20241023'
'20027000';'0.4.0.127.0.16.1.1.2.1';'Intracavernous use';'https://termgit.elga.gv.at/CodeSystem/ehdsi-edqm-auszug';;;;'27';'0';'L';;;;'1.3.0+20241023'
'20027010';'0.4.0.127.0.16.1.1.2.1';'Intracerebral use';'https://termgit.elga.gv.at/CodeSystem/ehdsi-edqm-auszug';;;;'28';'0';'L';;;;'1.3.0+20241023'
'20028000';'0.4.0.127.0.16.1.1.2.1';'Intracervical use';'https://termgit.elga.gv.at/CodeSystem/ehdsi-edqm-auszug';;;;'29';'0';'L';;;;'1.3.0+20241023'
'20028300';'0.4.0.127.0.16.1.1.2.1';'Intracholangiopancreatic use';'https://termgit.elga.gv.at/CodeSystem/ehdsi-edqm-auszug';;;;'30';'0';'L';;;;'1.3.0+20241023'
'20028500';'0.4.0.127.0.16.1.1.2.1';'Intracisternal use';'https://termgit.elga.gv.at/CodeSystem/ehdsi-edqm-auszug';;;;'31';'0';'L';;;;'1.3.0+20241023'
'20029000';'0.4.0.127.0.16.1.1.2.1';'Intracoronary use';'https://termgit.elga.gv.at/CodeSystem/ehdsi-edqm-auszug';;;;'32';'0';'L';;;;'1.3.0+20241023'
'20030000';'0.4.0.127.0.16.1.1.2.1';'Intradermal use';'https://termgit.elga.gv.at/CodeSystem/ehdsi-edqm-auszug';;;;'33';'0';'L';;;;'1.3.0+20241023'
'20031000';'0.4.0.127.0.16.1.1.2.1';'Intradiscal use';'https://termgit.elga.gv.at/CodeSystem/ehdsi-edqm-auszug';;;;'34';'0';'L';;;;'1.3.0+20241023'
'20031500';'0.4.0.127.0.16.1.1.2.1';'Intraepidermal use';'https://termgit.elga.gv.at/CodeSystem/ehdsi-edqm-auszug';;;;'35';'0';'L';;;;'1.3.0+20241023'
'20031700';'0.4.0.127.0.16.1.1.2.1';'Intraglandular use';'https://termgit.elga.gv.at/CodeSystem/ehdsi-edqm-auszug';;;;'36';'0';'L';;;;'1.3.0+20241023'
'20032000';'0.4.0.127.0.16.1.1.2.1';'Intralesional use';'https://termgit.elga.gv.at/CodeSystem/ehdsi-edqm-auszug';;;;'37';'0';'L';;;;'1.3.0+20241023'
'20033000';'0.4.0.127.0.16.1.1.2.1';'Intralymphatic use';'https://termgit.elga.gv.at/CodeSystem/ehdsi-edqm-auszug';;;;'38';'0';'L';;;;'1.3.0+20241023'
'20035000';'0.4.0.127.0.16.1.1.2.1';'Intramuscular use';'https://termgit.elga.gv.at/CodeSystem/ehdsi-edqm-auszug';;;;'39';'0';'L';;;;'1.3.0+20241023'
'20036000';'0.4.0.127.0.16.1.1.2.1';'Intraocular use';'https://termgit.elga.gv.at/CodeSystem/ehdsi-edqm-auszug';;;;'40';'0';'L';;;;'1.3.0+20241023'
'20036500';'0.4.0.127.0.16.1.1.2.1';'Intraosseous use';'https://termgit.elga.gv.at/CodeSystem/ehdsi-edqm-auszug';;;;'41';'0';'L';;;;'1.3.0+20241023'
'20037000';'0.4.0.127.0.16.1.1.2.1';'Intrapericardial use';'https://termgit.elga.gv.at/CodeSystem/ehdsi-edqm-auszug';;;;'42';'0';'L';;;;'1.3.0+20241023'
'20038000';'0.4.0.127.0.16.1.1.2.1';'Intraperitoneal use';'https://termgit.elga.gv.at/CodeSystem/ehdsi-edqm-auszug';;;;'43';'0';'L';;;;'1.3.0+20241023'
'20039000';'0.4.0.127.0.16.1.1.2.1';'Intrapleural use';'https://termgit.elga.gv.at/CodeSystem/ehdsi-edqm-auszug';;;;'44';'0';'L';;;;'1.3.0+20241023'
'20039200';'0.4.0.127.0.16.1.1.2.1';'Intraportal use';'https://termgit.elga.gv.at/CodeSystem/ehdsi-edqm-auszug';;;;'45';'0';'L';;;;'1.3.0+20241023'
'20039500';'0.4.0.127.0.16.1.1.2.1';'Intraprostatic use';'https://termgit.elga.gv.at/CodeSystem/ehdsi-edqm-auszug';;;;'46';'0';'L';;;;'1.3.0+20241023'
'20041000';'0.4.0.127.0.16.1.1.2.1';'Intrasternal use';'https://termgit.elga.gv.at/CodeSystem/ehdsi-edqm-auszug';;;;'47';'0';'L';;;;'1.3.0+20241023'
'20042000';'0.4.0.127.0.16.1.1.2.1';'Intrathecal use';'https://termgit.elga.gv.at/CodeSystem/ehdsi-edqm-auszug';;;;'48';'0';'L';;;;'1.3.0+20241023'
'20043000';'0.4.0.127.0.16.1.1.2.1';'Intratumoral use';'https://termgit.elga.gv.at/CodeSystem/ehdsi-edqm-auszug';;;;'49';'0';'L';;;;'1.3.0+20241023'
'20044000';'0.4.0.127.0.16.1.1.2.1';'Intrauterine use';'https://termgit.elga.gv.at/CodeSystem/ehdsi-edqm-auszug';;;;'50';'0';'L';;;;'1.3.0+20241023'
'20045000';'0.4.0.127.0.16.1.1.2.1';'Intravenous use';'https://termgit.elga.gv.at/CodeSystem/ehdsi-edqm-auszug';;;;'51';'0';'L';;;;'1.3.0+20241023'
'20046000';'0.4.0.127.0.16.1.1.2.1';'Intravesical use';'https://termgit.elga.gv.at/CodeSystem/ehdsi-edqm-auszug';;;;'52';'0';'L';;;;'1.3.0+20241023'
'20047000';'0.4.0.127.0.16.1.1.2.1';'Intravitreal use';'https://termgit.elga.gv.at/CodeSystem/ehdsi-edqm-auszug';;;;'53';'0';'L';;;;'1.3.0+20241023'
'20047500';'0.4.0.127.0.16.1.1.2.1';'Iontophoresis';'https://termgit.elga.gv.at/CodeSystem/ehdsi-edqm-auszug';;;;'54';'0';'L';;;;'1.3.0+20241023'
'20048000';'0.4.0.127.0.16.1.1.2.1';'Laryngopharyngeal use';'https://termgit.elga.gv.at/CodeSystem/ehdsi-edqm-auszug';;;;'55';'0';'L';;;;'1.3.0+20241023'
'20049000';'0.4.0.127.0.16.1.1.2.1';'Nasal use';'https://termgit.elga.gv.at/CodeSystem/ehdsi-edqm-auszug';;;;'56';'0';'L';;;;'1.3.0+20241023'
'20051000';'0.4.0.127.0.16.1.1.2.1';'Ocular use';'https://termgit.elga.gv.at/CodeSystem/ehdsi-edqm-auszug';;;;'57';'0';'L';;;;'1.3.0+20241023'
'20053000';'0.4.0.127.0.16.1.1.2.1';'Oral use';'https://termgit.elga.gv.at/CodeSystem/ehdsi-edqm-auszug';;;;'58';'0';'L';;;;'1.3.0+20241023'
'20054000';'0.4.0.127.0.16.1.1.2.1';'Oromucosal use';'https://termgit.elga.gv.at/CodeSystem/ehdsi-edqm-auszug';;;;'59';'0';'L';;;;'1.3.0+20241023'
'20055000';'0.4.0.127.0.16.1.1.2.1';'Oropharyngeal use';'https://termgit.elga.gv.at/CodeSystem/ehdsi-edqm-auszug';;;;'60';'0';'L';;;;'1.3.0+20241023'
'20057000';'0.4.0.127.0.16.1.1.2.1';'Periarticular use';'https://termgit.elga.gv.at/CodeSystem/ehdsi-edqm-auszug';;;;'61';'0';'L';;;;'1.3.0+20241023'
'20058000';'0.4.0.127.0.16.1.1.2.1';'Perineural use';'https://termgit.elga.gv.at/CodeSystem/ehdsi-edqm-auszug';;;;'62';'0';'L';;;;'1.3.0+20241023'
'20059000';'0.4.0.127.0.16.1.1.2.1';'Periodontal use';'https://termgit.elga.gv.at/CodeSystem/ehdsi-edqm-auszug';;;;'63';'0';'L';;;;'1.3.0+20241023'
'20059300';'0.4.0.127.0.16.1.1.2.1';'Periosseous use';'https://termgit.elga.gv.at/CodeSystem/ehdsi-edqm-auszug';;;;'64';'0';'L';;;;'1.3.0+20241023'
'20059400';'0.4.0.127.0.16.1.1.2.1';'Peritumoral use';'https://termgit.elga.gv.at/CodeSystem/ehdsi-edqm-auszug';;;;'65';'0';'L';;;;'1.3.0+20241023'
'20059500';'0.4.0.127.0.16.1.1.2.1';'Posterior juxtascleral use';'https://termgit.elga.gv.at/CodeSystem/ehdsi-edqm-auszug';;;;'66';'0';'L';;;;'1.3.0+20241023'
'20061000';'0.4.0.127.0.16.1.1.2.1';'Rectal use';'https://termgit.elga.gv.at/CodeSystem/ehdsi-edqm-auszug';;;;'67';'0';'L';;;;'1.3.0+20241023'
'20061500';'0.4.0.127.0.16.1.1.2.1';'Retrobulbar use';'https://termgit.elga.gv.at/CodeSystem/ehdsi-edqm-auszug';;;;'68';'0';'L';;;;'1.3.0+20241023'
'20062000';'0.4.0.127.0.16.1.1.2.1';'Route of administration not applicable';'https://termgit.elga.gv.at/CodeSystem/ehdsi-edqm-auszug';;;;'69';'0';'L';;;;'1.3.0+20241023'
'20063000';'0.4.0.127.0.16.1.1.2.1';'Skin scarification';'https://termgit.elga.gv.at/CodeSystem/ehdsi-edqm-auszug';;;;'70';'0';'L';;;;'1.3.0+20241023'
'20065000';'0.4.0.127.0.16.1.1.2.1';'Subconjunctival use';'https://termgit.elga.gv.at/CodeSystem/ehdsi-edqm-auszug';;;;'71';'0';'L';;;;'1.3.0+20241023'
'20066000';'0.4.0.127.0.16.1.1.2.1';'Subcutaneous use';'https://termgit.elga.gv.at/CodeSystem/ehdsi-edqm-auszug';;;;'72';'0';'L';;;;'1.3.0+20241023'
'20067000';'0.4.0.127.0.16.1.1.2.1';'Sublingual use';'https://termgit.elga.gv.at/CodeSystem/ehdsi-edqm-auszug';;;;'73';'0';'L';;;;'1.3.0+20241023'
'20067500';'0.4.0.127.0.16.1.1.2.1';'Submucosal use';'https://termgit.elga.gv.at/CodeSystem/ehdsi-edqm-auszug';;;;'74';'0';'L';;;;'1.3.0+20241023'
'20070000';'0.4.0.127.0.16.1.1.2.1';'Transdermal use';'https://termgit.elga.gv.at/CodeSystem/ehdsi-edqm-auszug';;;;'75';'0';'L';;;;'1.3.0+20241023'
'20071000';'0.4.0.127.0.16.1.1.2.1';'Urethral use';'https://termgit.elga.gv.at/CodeSystem/ehdsi-edqm-auszug';;;;'76';'0';'L';;;;'1.3.0+20241023'
'20072000';'0.4.0.127.0.16.1.1.2.1';'Vaginal use';'https://termgit.elga.gv.at/CodeSystem/ehdsi-edqm-auszug';;;;'77';'0';'L';;;;'1.3.0+20241023'
'20080000';'0.4.0.127.0.16.1.1.2.1';'Intracerebroventricular use';'https://termgit.elga.gv.at/CodeSystem/ehdsi-edqm-auszug';;;;'78';'0';'L';;;;'1.3.0+20241023'
'20081000';'0.4.0.127.0.16.1.1.2.1';'Subretinal use';'https://termgit.elga.gv.at/CodeSystem/ehdsi-edqm-auszug';;;;'79';'0';'L';;;;'1.3.0+20241023'
'20084000';'0.4.0.127.0.16.1.1.2.1';'Intracorneal use';'https://termgit.elga.gv.at/CodeSystem/ehdsi-edqm-auszug';;;;'80';'0';'L';;;;'1.3.0+20241023'
'20086000';'0.4.0.127.0.16.1.1.2.1';'Intraputaminal use';'https://termgit.elga.gv.at/CodeSystem/ehdsi-edqm-auszug';;;;'81';'0';'L';;;;'1.3.0+20241023'
'20087000';'0.4.0.127.0.16.1.1.2.1';'Extrapleural use';'https://termgit.elga.gv.at/CodeSystem/ehdsi-edqm-auszug';;;;'82';'0';'L';;;;'1.3.0+20241023'
'20088000';'0.4.0.127.0.16.1.1.2.1';'Perilesional use';'https://termgit.elga.gv.at/CodeSystem/ehdsi-edqm-auszug';;;;'83';'0';'L';;;;'1.3.0+20241023'
