"resource";"id";"url";"version";"name";"title";"status";"description";"identifier";"date";"count"
"ValueSet";"ehdsi-language";"https://termgit.elga.gv.at/ValueSet/ehdsi-language";"1.0.0+20230505";"ehdsi-language";"EHDSI_Language";"active";"**Description:** The Value Set is used to identify the language the document will be written with, as well as the patient's preferred language.";"1.3.6.1.4.1.12559.11.10.1.3.1.42.6";"2023-05-05";"379"

"system";"version";"code";"display"
"https://termgit.elga.gv.at/CodeSystem/ehdsi-language";"1.0.0+20230505";"af-NA";"Afrikaans-NAMIBIA"
"https://termgit.elga.gv.at/CodeSystem/ehdsi-language";"1.0.0+20230505";"af-ZA";"Afrikaans-SOUTH AFRICA"
"https://termgit.elga.gv.at/CodeSystem/ehdsi-language";"1.0.0+20230505";"ak-GH";"Akan-GHANA"
"https://termgit.elga.gv.at/CodeSystem/ehdsi-language";"1.0.0+20230505";"am-ET";"Amharic-ETHIOPIA"
"https://termgit.elga.gv.at/CodeSystem/ehdsi-language";"1.0.0+20230505";"ar-AE";"Arabic-UNITED ARAB EMIRATES"
"https://termgit.elga.gv.at/CodeSystem/ehdsi-language";"1.0.0+20230505";"ar-BH";"Arabic-BAHRAIN"
"https://termgit.elga.gv.at/CodeSystem/ehdsi-language";"1.0.0+20230505";"ar-DJ";"Arabic-DJIBOUTI"
"https://termgit.elga.gv.at/CodeSystem/ehdsi-language";"1.0.0+20230505";"ar-DZ";"Arabic-ALGERIA"
"https://termgit.elga.gv.at/CodeSystem/ehdsi-language";"1.0.0+20230505";"ar-EG";"Arabic-EGYPT"
"https://termgit.elga.gv.at/CodeSystem/ehdsi-language";"1.0.0+20230505";"ar-EH";"Arabic-WESTERN SAHARA"
"https://termgit.elga.gv.at/CodeSystem/ehdsi-language";"1.0.0+20230505";"ar-ER";"Arabic-ERITREA"
"https://termgit.elga.gv.at/CodeSystem/ehdsi-language";"1.0.0+20230505";"ar-IL";"Arabic-ISRAEL"
"https://termgit.elga.gv.at/CodeSystem/ehdsi-language";"1.0.0+20230505";"ar-IQ";"Arabic-IRAQ"
"https://termgit.elga.gv.at/CodeSystem/ehdsi-language";"1.0.0+20230505";"ar-JO";"Arabic-JORDAN"
"https://termgit.elga.gv.at/CodeSystem/ehdsi-language";"1.0.0+20230505";"ar-KM";"Arabic-COMOROS"
"https://termgit.elga.gv.at/CodeSystem/ehdsi-language";"1.0.0+20230505";"ar-KW";"Arabic-KUWAIT"
"https://termgit.elga.gv.at/CodeSystem/ehdsi-language";"1.0.0+20230505";"ar-LB";"Arabic-LEBANON"
"https://termgit.elga.gv.at/CodeSystem/ehdsi-language";"1.0.0+20230505";"ar-LY";"Arabic-LIBYA"
"https://termgit.elga.gv.at/CodeSystem/ehdsi-language";"1.0.0+20230505";"ar-MA";"Arabic-MOROCCO"
"https://termgit.elga.gv.at/CodeSystem/ehdsi-language";"1.0.0+20230505";"ar-MR";"Arabic-MAURITANIA"
"https://termgit.elga.gv.at/CodeSystem/ehdsi-language";"1.0.0+20230505";"ar-OM";"Arabic-OMAN"
"https://termgit.elga.gv.at/CodeSystem/ehdsi-language";"1.0.0+20230505";"ar-PS";"Arabic-PALESTINE, STATE OF"
"https://termgit.elga.gv.at/CodeSystem/ehdsi-language";"1.0.0+20230505";"ar-QA";"Arabic-QATAR"
"https://termgit.elga.gv.at/CodeSystem/ehdsi-language";"1.0.0+20230505";"ar-SA";"Arabic-SAUDI ARABIA"
"https://termgit.elga.gv.at/CodeSystem/ehdsi-language";"1.0.0+20230505";"ar-SD";"Arabic-SUDAN"
"https://termgit.elga.gv.at/CodeSystem/ehdsi-language";"1.0.0+20230505";"ar-SO";"Arabic-SOMALIA"
"https://termgit.elga.gv.at/CodeSystem/ehdsi-language";"1.0.0+20230505";"ar-SS";"Arabic-SOUTH SUDAN"
"https://termgit.elga.gv.at/CodeSystem/ehdsi-language";"1.0.0+20230505";"ar-SY";"Arabic-SYRIAN ARAB REPUBLIC"
"https://termgit.elga.gv.at/CodeSystem/ehdsi-language";"1.0.0+20230505";"ar-TD";"Arabic-CHAD"
"https://termgit.elga.gv.at/CodeSystem/ehdsi-language";"1.0.0+20230505";"ar-TN";"Arabic-TUNISIA"
"https://termgit.elga.gv.at/CodeSystem/ehdsi-language";"1.0.0+20230505";"ar-YE";"Arabic-YEMEN"
"https://termgit.elga.gv.at/CodeSystem/ehdsi-language";"1.0.0+20230505";"as-IN";"Assamese-INDIA"
"https://termgit.elga.gv.at/CodeSystem/ehdsi-language";"1.0.0+20230505";"az-AZ";"Azerbaijani-AZERBAIJAN"
"https://termgit.elga.gv.at/CodeSystem/ehdsi-language";"1.0.0+20230505";"be-BY";"Belarusian-BELARUS"
"https://termgit.elga.gv.at/CodeSystem/ehdsi-language";"1.0.0+20230505";"bg-BG";"Bulgarian-BULGARIA"
"https://termgit.elga.gv.at/CodeSystem/ehdsi-language";"1.0.0+20230505";"bm-ML";"Bambara-MALI"
"https://termgit.elga.gv.at/CodeSystem/ehdsi-language";"1.0.0+20230505";"bn-BD";"Bengali-BANGLADESH"
"https://termgit.elga.gv.at/CodeSystem/ehdsi-language";"1.0.0+20230505";"bn-IN";"Bengali-INDIA"
"https://termgit.elga.gv.at/CodeSystem/ehdsi-language";"1.0.0+20230505";"bo-CN";"Tibetan-CHINA"
"https://termgit.elga.gv.at/CodeSystem/ehdsi-language";"1.0.0+20230505";"bo-IN";"Tibetan-INDIA"
"https://termgit.elga.gv.at/CodeSystem/ehdsi-language";"1.0.0+20230505";"br-FR";"Breton-FRANCE"
"https://termgit.elga.gv.at/CodeSystem/ehdsi-language";"1.0.0+20230505";"bs-BA";"Bosnian-BOSNIA AND HERZEGOVINA"
"https://termgit.elga.gv.at/CodeSystem/ehdsi-language";"1.0.0+20230505";"ca-AD";"Catalan; Valencian-ANDORRA"
"https://termgit.elga.gv.at/CodeSystem/ehdsi-language";"1.0.0+20230505";"ca-ES";"Catalan; Valencian-SPAIN"
"https://termgit.elga.gv.at/CodeSystem/ehdsi-language";"1.0.0+20230505";"ca-FR";"Catalan; Valencian-FRANCE"
"https://termgit.elga.gv.at/CodeSystem/ehdsi-language";"1.0.0+20230505";"ca-IT";"Catalan; Valencian-ITALY"
"https://termgit.elga.gv.at/CodeSystem/ehdsi-language";"1.0.0+20230505";"cs-CZ";"Czech-CZECH REPUBLIC"
"https://termgit.elga.gv.at/CodeSystem/ehdsi-language";"1.0.0+20230505";"cy-GB";"Welsh-UNITED KINGDOM OF GREAT BRITAIN AND NORTHERN IRELAND"
"https://termgit.elga.gv.at/CodeSystem/ehdsi-language";"1.0.0+20230505";"da-DK";"Danish-DENMARK"
"https://termgit.elga.gv.at/CodeSystem/ehdsi-language";"1.0.0+20230505";"da-GL";"Danish-GREENLAND"
"https://termgit.elga.gv.at/CodeSystem/ehdsi-language";"1.0.0+20230505";"de-AT";"German-AUSTRIA"
"https://termgit.elga.gv.at/CodeSystem/ehdsi-language";"1.0.0+20230505";"de-BE";"German-BELGIUM"
"https://termgit.elga.gv.at/CodeSystem/ehdsi-language";"1.0.0+20230505";"de-CH";"German-SWITZERLAND"
"https://termgit.elga.gv.at/CodeSystem/ehdsi-language";"1.0.0+20230505";"de-DE";"German-GERMANY"
"https://termgit.elga.gv.at/CodeSystem/ehdsi-language";"1.0.0+20230505";"de-LI";"German-LIECHTENSTEIN"
"https://termgit.elga.gv.at/CodeSystem/ehdsi-language";"1.0.0+20230505";"de-LU";"German-LUXEMBOURG"
"https://termgit.elga.gv.at/CodeSystem/ehdsi-language";"1.0.0+20230505";"dz-BT";"Dzongkha-BHUTAN"
"https://termgit.elga.gv.at/CodeSystem/ehdsi-language";"1.0.0+20230505";"ee-GH";"Ewe-GHANA"
"https://termgit.elga.gv.at/CodeSystem/ehdsi-language";"1.0.0+20230505";"ee-TG";"Ewe-TOGO"
"https://termgit.elga.gv.at/CodeSystem/ehdsi-language";"1.0.0+20230505";"el-CY";"Greek, Modern (1453-)-CYPRUS"
"https://termgit.elga.gv.at/CodeSystem/ehdsi-language";"1.0.0+20230505";"el-GR";"Greek, Modern (1453-)-GREECE"
"https://termgit.elga.gv.at/CodeSystem/ehdsi-language";"1.0.0+20230505";"en-AG";"English-ANTIGUA AND BARBUDA"
"https://termgit.elga.gv.at/CodeSystem/ehdsi-language";"1.0.0+20230505";"en-AI";"English-ANGUILLA"
"https://termgit.elga.gv.at/CodeSystem/ehdsi-language";"1.0.0+20230505";"en-AS";"English-AMERICAN SAMOA"
"https://termgit.elga.gv.at/CodeSystem/ehdsi-language";"1.0.0+20230505";"en-AU";"English-AUSTRALIA"
"https://termgit.elga.gv.at/CodeSystem/ehdsi-language";"1.0.0+20230505";"en-BB";"English-BARBADOS"
"https://termgit.elga.gv.at/CodeSystem/ehdsi-language";"1.0.0+20230505";"en-BE";"English-BELGIUM"
"https://termgit.elga.gv.at/CodeSystem/ehdsi-language";"1.0.0+20230505";"en-BM";"English-BERMUDA"
"https://termgit.elga.gv.at/CodeSystem/ehdsi-language";"1.0.0+20230505";"en-BS";"English-BAHAMAS"
"https://termgit.elga.gv.at/CodeSystem/ehdsi-language";"1.0.0+20230505";"en-BW";"English-BOTSWANA"
"https://termgit.elga.gv.at/CodeSystem/ehdsi-language";"1.0.0+20230505";"en-BZ";"English-BELIZE"
"https://termgit.elga.gv.at/CodeSystem/ehdsi-language";"1.0.0+20230505";"en-CA";"English-CANADA"
"https://termgit.elga.gv.at/CodeSystem/ehdsi-language";"1.0.0+20230505";"en-CC";"English-COCOS (KEELING) ISLANDS"
"https://termgit.elga.gv.at/CodeSystem/ehdsi-language";"1.0.0+20230505";"en-CK";"English-COOK ISLANDS"
"https://termgit.elga.gv.at/CodeSystem/ehdsi-language";"1.0.0+20230505";"en-CM";"English-CAMEROON"
"https://termgit.elga.gv.at/CodeSystem/ehdsi-language";"1.0.0+20230505";"en-CX";"English-CHRISTMAS ISLAND"
"https://termgit.elga.gv.at/CodeSystem/ehdsi-language";"1.0.0+20230505";"en-DM";"English-DOMINICA"
"https://termgit.elga.gv.at/CodeSystem/ehdsi-language";"1.0.0+20230505";"en-ER";"English-ERITREA"
"https://termgit.elga.gv.at/CodeSystem/ehdsi-language";"1.0.0+20230505";"en-FJ";"English-FIJI"
"https://termgit.elga.gv.at/CodeSystem/ehdsi-language";"1.0.0+20230505";"en-FK";"English-FALKLAND ISLANDS (MALVINAS)"
"https://termgit.elga.gv.at/CodeSystem/ehdsi-language";"1.0.0+20230505";"en-FM";"English-MICRONESIA (FEDERATED STATES OF)"
"https://termgit.elga.gv.at/CodeSystem/ehdsi-language";"1.0.0+20230505";"en-GB";"English-UNITED KINGDOM OF GREAT BRITAIN AND NORTHERN IRELAND"
"https://termgit.elga.gv.at/CodeSystem/ehdsi-language";"1.0.0+20230505";"en-GD";"English-GRENADA"
"https://termgit.elga.gv.at/CodeSystem/ehdsi-language";"1.0.0+20230505";"en-GG";"English-GUERNSEY"
"https://termgit.elga.gv.at/CodeSystem/ehdsi-language";"1.0.0+20230505";"en-GH";"English-GHANA"
"https://termgit.elga.gv.at/CodeSystem/ehdsi-language";"1.0.0+20230505";"en-GI";"English-GIBRALTAR"
"https://termgit.elga.gv.at/CodeSystem/ehdsi-language";"1.0.0+20230505";"en-GM";"English-GAMBIA"
"https://termgit.elga.gv.at/CodeSystem/ehdsi-language";"1.0.0+20230505";"en-GU";"English-GUAM"
"https://termgit.elga.gv.at/CodeSystem/ehdsi-language";"1.0.0+20230505";"en-GY";"English-GUYANA"
"https://termgit.elga.gv.at/CodeSystem/ehdsi-language";"1.0.0+20230505";"en-HK";"English-HONG KONG"
"https://termgit.elga.gv.at/CodeSystem/ehdsi-language";"1.0.0+20230505";"en-IE";"English-IRELAND"
"https://termgit.elga.gv.at/CodeSystem/ehdsi-language";"1.0.0+20230505";"en-IM";"English-ISLE OF MAN"
"https://termgit.elga.gv.at/CodeSystem/ehdsi-language";"1.0.0+20230505";"en-IN";"English-INDIA"
"https://termgit.elga.gv.at/CodeSystem/ehdsi-language";"1.0.0+20230505";"en-IO";"English-BRITISH INDIAN OCEAN TERRITORY"
"https://termgit.elga.gv.at/CodeSystem/ehdsi-language";"1.0.0+20230505";"en-JE";"English-JERSEY"
"https://termgit.elga.gv.at/CodeSystem/ehdsi-language";"1.0.0+20230505";"en-JM";"English-JAMAICA"
"https://termgit.elga.gv.at/CodeSystem/ehdsi-language";"1.0.0+20230505";"en-KE";"English-KENYA"
"https://termgit.elga.gv.at/CodeSystem/ehdsi-language";"1.0.0+20230505";"en-KI";"English-KIRIBATI"
"https://termgit.elga.gv.at/CodeSystem/ehdsi-language";"1.0.0+20230505";"en-KN";"English-SAINT KITTS AND NEVIS"
"https://termgit.elga.gv.at/CodeSystem/ehdsi-language";"1.0.0+20230505";"en-KY";"English-CAYMAN ISLANDS"
"https://termgit.elga.gv.at/CodeSystem/ehdsi-language";"1.0.0+20230505";"en-LC";"English-SAINT LUCIA"
"https://termgit.elga.gv.at/CodeSystem/ehdsi-language";"1.0.0+20230505";"en-LR";"English-LIBERIA"
"https://termgit.elga.gv.at/CodeSystem/ehdsi-language";"1.0.0+20230505";"en-LS";"English-LESOTHO"
"https://termgit.elga.gv.at/CodeSystem/ehdsi-language";"1.0.0+20230505";"en-MG";"English-MADAGASCAR"
"https://termgit.elga.gv.at/CodeSystem/ehdsi-language";"1.0.0+20230505";"en-MH";"English-MARSHALL ISLANDS"
"https://termgit.elga.gv.at/CodeSystem/ehdsi-language";"1.0.0+20230505";"en-MO";"English-MACAO"
"https://termgit.elga.gv.at/CodeSystem/ehdsi-language";"1.0.0+20230505";"en-MP";"English-NORTHERN MARIANA ISLANDS"
"https://termgit.elga.gv.at/CodeSystem/ehdsi-language";"1.0.0+20230505";"en-MS";"English-MONTSERRAT"
"https://termgit.elga.gv.at/CodeSystem/ehdsi-language";"1.0.0+20230505";"en-MT";"English-MALTA"
"https://termgit.elga.gv.at/CodeSystem/ehdsi-language";"1.0.0+20230505";"en-MU";"English-MAURITIUS"
"https://termgit.elga.gv.at/CodeSystem/ehdsi-language";"1.0.0+20230505";"en-MW";"English-MALAWI"
"https://termgit.elga.gv.at/CodeSystem/ehdsi-language";"1.0.0+20230505";"en-MY";"English-MALAYSIA"
"https://termgit.elga.gv.at/CodeSystem/ehdsi-language";"1.0.0+20230505";"en-NA";"English-NAMIBIA"
"https://termgit.elga.gv.at/CodeSystem/ehdsi-language";"1.0.0+20230505";"en-NF";"English-NORFOLK ISLAND"
"https://termgit.elga.gv.at/CodeSystem/ehdsi-language";"1.0.0+20230505";"en-NG";"English-NIGERIA"
"https://termgit.elga.gv.at/CodeSystem/ehdsi-language";"1.0.0+20230505";"en-NR";"English-NAURU"
"https://termgit.elga.gv.at/CodeSystem/ehdsi-language";"1.0.0+20230505";"en-NU";"English-NIUE"
"https://termgit.elga.gv.at/CodeSystem/ehdsi-language";"1.0.0+20230505";"en-NZ";"English-NEW ZEALAND"
"https://termgit.elga.gv.at/CodeSystem/ehdsi-language";"1.0.0+20230505";"en-PG";"English-PAPUA NEW GUINEA"
"https://termgit.elga.gv.at/CodeSystem/ehdsi-language";"1.0.0+20230505";"en-PH";"English-PHILIPPINES"
"https://termgit.elga.gv.at/CodeSystem/ehdsi-language";"1.0.0+20230505";"en-PK";"English-PAKISTAN"
"https://termgit.elga.gv.at/CodeSystem/ehdsi-language";"1.0.0+20230505";"en-PN";"English-PITCAIRN"
"https://termgit.elga.gv.at/CodeSystem/ehdsi-language";"1.0.0+20230505";"en-PR";"English-PUERTO RICO"
"https://termgit.elga.gv.at/CodeSystem/ehdsi-language";"1.0.0+20230505";"en-PW";"English-PALAU"
"https://termgit.elga.gv.at/CodeSystem/ehdsi-language";"1.0.0+20230505";"en-RW";"English-RWANDA"
"https://termgit.elga.gv.at/CodeSystem/ehdsi-language";"1.0.0+20230505";"en-SB";"English-SOLOMON ISLANDS"
"https://termgit.elga.gv.at/CodeSystem/ehdsi-language";"1.0.0+20230505";"en-SC";"English-SEYCHELLES"
"https://termgit.elga.gv.at/CodeSystem/ehdsi-language";"1.0.0+20230505";"en-SD";"English-SUDAN"
"https://termgit.elga.gv.at/CodeSystem/ehdsi-language";"1.0.0+20230505";"en-SG";"English-SINGAPORE"
"https://termgit.elga.gv.at/CodeSystem/ehdsi-language";"1.0.0+20230505";"en-SH";"English-SAINT HELENA, ASCENSION AND TRISTAN DA CUNHA"
"https://termgit.elga.gv.at/CodeSystem/ehdsi-language";"1.0.0+20230505";"en-SL";"English-SIERRA LEONE"
"https://termgit.elga.gv.at/CodeSystem/ehdsi-language";"1.0.0+20230505";"en-SS";"English-SOUTH SUDAN"
"https://termgit.elga.gv.at/CodeSystem/ehdsi-language";"1.0.0+20230505";"en-SX";"English-SINT MAARTEN (DUTCH PART)"
"https://termgit.elga.gv.at/CodeSystem/ehdsi-language";"1.0.0+20230505";"en-SZ";"English-SWAZILAND"
"https://termgit.elga.gv.at/CodeSystem/ehdsi-language";"1.0.0+20230505";"en-TC";"English-TURKS AND CAICOS ISLANDS"
"https://termgit.elga.gv.at/CodeSystem/ehdsi-language";"1.0.0+20230505";"en-TK";"English-TOKELAU"
"https://termgit.elga.gv.at/CodeSystem/ehdsi-language";"1.0.0+20230505";"en-TO";"English-TONGA"
"https://termgit.elga.gv.at/CodeSystem/ehdsi-language";"1.0.0+20230505";"en-TT";"English-TRINIDAD AND TOBAGO"
"https://termgit.elga.gv.at/CodeSystem/ehdsi-language";"1.0.0+20230505";"en-TV";"English-TUVALU"
"https://termgit.elga.gv.at/CodeSystem/ehdsi-language";"1.0.0+20230505";"en-TZ";"English-TANZANIA, UNITED REPUBLIC OF"
"https://termgit.elga.gv.at/CodeSystem/ehdsi-language";"1.0.0+20230505";"en-UG";"English-UGANDA"
"https://termgit.elga.gv.at/CodeSystem/ehdsi-language";"1.0.0+20230505";"en-UM";"English-UNITED STATES MINOR OUTLYING ISLANDS"
"https://termgit.elga.gv.at/CodeSystem/ehdsi-language";"1.0.0+20230505";"en-US";"English-UNITED STATES OF AMERICA"
"https://termgit.elga.gv.at/CodeSystem/ehdsi-language";"1.0.0+20230505";"en-VC";"English-SAINT VINCENT AND THE GRENADINES"
"https://termgit.elga.gv.at/CodeSystem/ehdsi-language";"1.0.0+20230505";"en-VG";"English-VIRGIN ISLANDS, BRITISH"
"https://termgit.elga.gv.at/CodeSystem/ehdsi-language";"1.0.0+20230505";"en-VI";"English-VIRGIN ISLANDS, U.S."
"https://termgit.elga.gv.at/CodeSystem/ehdsi-language";"1.0.0+20230505";"en-VU";"English-VANUATU"
"https://termgit.elga.gv.at/CodeSystem/ehdsi-language";"1.0.0+20230505";"en-WS";"English-SAMOA"
"https://termgit.elga.gv.at/CodeSystem/ehdsi-language";"1.0.0+20230505";"en-ZA";"English-SOUTH AFRICA"
"https://termgit.elga.gv.at/CodeSystem/ehdsi-language";"1.0.0+20230505";"en-ZM";"English-ZAMBIA"
"https://termgit.elga.gv.at/CodeSystem/ehdsi-language";"1.0.0+20230505";"en-ZW";"English-ZIMBABWE"
"https://termgit.elga.gv.at/CodeSystem/ehdsi-language";"1.0.0+20230505";"es-AR";"Spanish; Castilian-ARGENTINA"
"https://termgit.elga.gv.at/CodeSystem/ehdsi-language";"1.0.0+20230505";"es-BO";"Spanish; Castilian-BOLIVIA (PLURINATIONAL STATE OF)"
"https://termgit.elga.gv.at/CodeSystem/ehdsi-language";"1.0.0+20230505";"es-CL";"Spanish; Castilian-CHILE"
"https://termgit.elga.gv.at/CodeSystem/ehdsi-language";"1.0.0+20230505";"es-CO";"Spanish; Castilian-COLOMBIA"
"https://termgit.elga.gv.at/CodeSystem/ehdsi-language";"1.0.0+20230505";"es-CR";"Spanish; Castilian-COSTA RICA"
"https://termgit.elga.gv.at/CodeSystem/ehdsi-language";"1.0.0+20230505";"es-CU";"Spanish; Castilian-CUBA"
"https://termgit.elga.gv.at/CodeSystem/ehdsi-language";"1.0.0+20230505";"es-DO";"Spanish; Castilian-DOMINICAN REPUBLIC"
"https://termgit.elga.gv.at/CodeSystem/ehdsi-language";"1.0.0+20230505";"es-EC";"Spanish; Castilian-ECUADOR"
"https://termgit.elga.gv.at/CodeSystem/ehdsi-language";"1.0.0+20230505";"es-ES";"Spanish; Castilian-SPAIN"
"https://termgit.elga.gv.at/CodeSystem/ehdsi-language";"1.0.0+20230505";"es-GQ";"Spanish; Castilian-EQUATORIAL GUINEA"
"https://termgit.elga.gv.at/CodeSystem/ehdsi-language";"1.0.0+20230505";"es-GT";"Spanish; Castilian-GUATEMALA"
"https://termgit.elga.gv.at/CodeSystem/ehdsi-language";"1.0.0+20230505";"es-HN";"Spanish; Castilian-HONDURAS"
"https://termgit.elga.gv.at/CodeSystem/ehdsi-language";"1.0.0+20230505";"es-MX";"Spanish; Castilian-MEXICO"
"https://termgit.elga.gv.at/CodeSystem/ehdsi-language";"1.0.0+20230505";"es-NI";"Spanish; Castilian-NICARAGUA"
"https://termgit.elga.gv.at/CodeSystem/ehdsi-language";"1.0.0+20230505";"es-PA";"Spanish; Castilian-PANAMA"
"https://termgit.elga.gv.at/CodeSystem/ehdsi-language";"1.0.0+20230505";"es-PE";"Spanish; Castilian-PERU"
"https://termgit.elga.gv.at/CodeSystem/ehdsi-language";"1.0.0+20230505";"es-PH";"Spanish; Castilian-PHILIPPINES"
"https://termgit.elga.gv.at/CodeSystem/ehdsi-language";"1.0.0+20230505";"es-PR";"Spanish; Castilian-PUERTO RICO"
"https://termgit.elga.gv.at/CodeSystem/ehdsi-language";"1.0.0+20230505";"es-PY";"Spanish; Castilian-PARAGUAY"
"https://termgit.elga.gv.at/CodeSystem/ehdsi-language";"1.0.0+20230505";"es-SV";"Spanish; Castilian-EL SALVADOR"
"https://termgit.elga.gv.at/CodeSystem/ehdsi-language";"1.0.0+20230505";"es-US";"Spanish; Castilian-UNITED STATES OF AMERICA"
"https://termgit.elga.gv.at/CodeSystem/ehdsi-language";"1.0.0+20230505";"es-UY";"Spanish; Castilian-URUGUAY"
"https://termgit.elga.gv.at/CodeSystem/ehdsi-language";"1.0.0+20230505";"es-VE";"Spanish; Castilian-VENEZUELA (BOLIVARIAN REPUBLIC OF)"
"https://termgit.elga.gv.at/CodeSystem/ehdsi-language";"1.0.0+20230505";"et-EE";"Estonian-ESTONIA"
"https://termgit.elga.gv.at/CodeSystem/ehdsi-language";"1.0.0+20230505";"eu-ES";"Basque-SPAIN"
"https://termgit.elga.gv.at/CodeSystem/ehdsi-language";"1.0.0+20230505";"fa-AF";"Persian-AFGHANISTAN"
"https://termgit.elga.gv.at/CodeSystem/ehdsi-language";"1.0.0+20230505";"fa-IR";"Persian-IRAN (ISLAMIC REPUBLIC OF)"
"https://termgit.elga.gv.at/CodeSystem/ehdsi-language";"1.0.0+20230505";"ff-CM";"Fulah-CAMEROON"
"https://termgit.elga.gv.at/CodeSystem/ehdsi-language";"1.0.0+20230505";"ff-GN";"Fulah-GUINEA"
"https://termgit.elga.gv.at/CodeSystem/ehdsi-language";"1.0.0+20230505";"ff-MR";"Fulah-MAURITANIA"
"https://termgit.elga.gv.at/CodeSystem/ehdsi-language";"1.0.0+20230505";"ff-SN";"Fulah-SENEGAL"
"https://termgit.elga.gv.at/CodeSystem/ehdsi-language";"1.0.0+20230505";"fi-FI";"Finnish-FINLAND"
"https://termgit.elga.gv.at/CodeSystem/ehdsi-language";"1.0.0+20230505";"fo-FO";"Faroese-FAROE ISLANDS"
"https://termgit.elga.gv.at/CodeSystem/ehdsi-language";"1.0.0+20230505";"fr-BE";"French-BELGIUM"
"https://termgit.elga.gv.at/CodeSystem/ehdsi-language";"1.0.0+20230505";"fr-BF";"French-BURKINA FASO"
"https://termgit.elga.gv.at/CodeSystem/ehdsi-language";"1.0.0+20230505";"fr-BI";"French-BURUNDI"
"https://termgit.elga.gv.at/CodeSystem/ehdsi-language";"1.0.0+20230505";"fr-BJ";"French-BENIN"
"https://termgit.elga.gv.at/CodeSystem/ehdsi-language";"1.0.0+20230505";"fr-BL";"French-SAINT BARTHELEMY"
"https://termgit.elga.gv.at/CodeSystem/ehdsi-language";"1.0.0+20230505";"fr-CA";"French-CANADA"
"https://termgit.elga.gv.at/CodeSystem/ehdsi-language";"1.0.0+20230505";"fr-CD";"French-CONGO, DEMOCRATIC REPUBLIC OF"
"https://termgit.elga.gv.at/CodeSystem/ehdsi-language";"1.0.0+20230505";"fr-CF";"French-CENTRAL AFRICAN REPUBLIC"
"https://termgit.elga.gv.at/CodeSystem/ehdsi-language";"1.0.0+20230505";"fr-CG";"French-CONGO"
"https://termgit.elga.gv.at/CodeSystem/ehdsi-language";"1.0.0+20230505";"fr-CH";"French-SWITZERLAND"
"https://termgit.elga.gv.at/CodeSystem/ehdsi-language";"1.0.0+20230505";"fr-CI";"French-COTE D'IVOIRE"
"https://termgit.elga.gv.at/CodeSystem/ehdsi-language";"1.0.0+20230505";"fr-CM";"French-CAMEROON"
"https://termgit.elga.gv.at/CodeSystem/ehdsi-language";"1.0.0+20230505";"fr-DJ";"French-DJIBOUTI"
"https://termgit.elga.gv.at/CodeSystem/ehdsi-language";"1.0.0+20230505";"fr-DZ";"French-ALGERIA"
"https://termgit.elga.gv.at/CodeSystem/ehdsi-language";"1.0.0+20230505";"fr-FR";"French-FRANCE"
"https://termgit.elga.gv.at/CodeSystem/ehdsi-language";"1.0.0+20230505";"fr-GA";"French-GABON"
"https://termgit.elga.gv.at/CodeSystem/ehdsi-language";"1.0.0+20230505";"fr-GF";"French-FRENCH GUIANA"
"https://termgit.elga.gv.at/CodeSystem/ehdsi-language";"1.0.0+20230505";"fr-GN";"French-GUINEA"
"https://termgit.elga.gv.at/CodeSystem/ehdsi-language";"1.0.0+20230505";"fr-GP";"French-GUADELOUPE"
"https://termgit.elga.gv.at/CodeSystem/ehdsi-language";"1.0.0+20230505";"fr-GQ";"French-EQUATORIAL GUINEA"
"https://termgit.elga.gv.at/CodeSystem/ehdsi-language";"1.0.0+20230505";"fr-HT";"French-HAITI"
"https://termgit.elga.gv.at/CodeSystem/ehdsi-language";"1.0.0+20230505";"fr-KM";"French-COMOROS"
"https://termgit.elga.gv.at/CodeSystem/ehdsi-language";"1.0.0+20230505";"fr-LU";"French-LUXEMBOURG"
"https://termgit.elga.gv.at/CodeSystem/ehdsi-language";"1.0.0+20230505";"fr-MA";"French-MOROCCO"
"https://termgit.elga.gv.at/CodeSystem/ehdsi-language";"1.0.0+20230505";"fr-MC";"French-MONACO"
"https://termgit.elga.gv.at/CodeSystem/ehdsi-language";"1.0.0+20230505";"fr-MF";"French-SAINT MARTIN (FRENCH PART)"
"https://termgit.elga.gv.at/CodeSystem/ehdsi-language";"1.0.0+20230505";"fr-MG";"French-MADAGASCAR"
"https://termgit.elga.gv.at/CodeSystem/ehdsi-language";"1.0.0+20230505";"fr-ML";"French-MALI"
"https://termgit.elga.gv.at/CodeSystem/ehdsi-language";"1.0.0+20230505";"fr-MQ";"French-MARTINIQUE"
"https://termgit.elga.gv.at/CodeSystem/ehdsi-language";"1.0.0+20230505";"fr-MR";"French-MAURITANIA"
"https://termgit.elga.gv.at/CodeSystem/ehdsi-language";"1.0.0+20230505";"fr-MU";"French-MAURITIUS"
"https://termgit.elga.gv.at/CodeSystem/ehdsi-language";"1.0.0+20230505";"fr-NC";"French-NEW CALEDONIA"
"https://termgit.elga.gv.at/CodeSystem/ehdsi-language";"1.0.0+20230505";"fr-NE";"French-NIGER"
"https://termgit.elga.gv.at/CodeSystem/ehdsi-language";"1.0.0+20230505";"fr-PF";"French-FRENCH POLYNESIA"
"https://termgit.elga.gv.at/CodeSystem/ehdsi-language";"1.0.0+20230505";"fr-PM";"French-SAINT PIERRE AND MIQUELON"
"https://termgit.elga.gv.at/CodeSystem/ehdsi-language";"1.0.0+20230505";"fr-RE";"French-REUNION"
"https://termgit.elga.gv.at/CodeSystem/ehdsi-language";"1.0.0+20230505";"fr-RW";"French-RWANDA"
"https://termgit.elga.gv.at/CodeSystem/ehdsi-language";"1.0.0+20230505";"fr-SC";"French-SEYCHELLES"
"https://termgit.elga.gv.at/CodeSystem/ehdsi-language";"1.0.0+20230505";"fr-SN";"French-SENEGAL"
"https://termgit.elga.gv.at/CodeSystem/ehdsi-language";"1.0.0+20230505";"fr-SY";"French-SYRIAN ARAB REPUBLIC"
"https://termgit.elga.gv.at/CodeSystem/ehdsi-language";"1.0.0+20230505";"fr-TD";"French-CHAD"
"https://termgit.elga.gv.at/CodeSystem/ehdsi-language";"1.0.0+20230505";"fr-TG";"French-TOGO"
"https://termgit.elga.gv.at/CodeSystem/ehdsi-language";"1.0.0+20230505";"fr-TN";"French-TUNISIA"
"https://termgit.elga.gv.at/CodeSystem/ehdsi-language";"1.0.0+20230505";"fr-VU";"French-VANUATU"
"https://termgit.elga.gv.at/CodeSystem/ehdsi-language";"1.0.0+20230505";"fr-WF";"French-WALLIS AND FUTUNA"
"https://termgit.elga.gv.at/CodeSystem/ehdsi-language";"1.0.0+20230505";"fr-YT";"French-MAYOTTE"
"https://termgit.elga.gv.at/CodeSystem/ehdsi-language";"1.0.0+20230505";"fy-NL";"Western Frisian-NETHERLANDS"
"https://termgit.elga.gv.at/CodeSystem/ehdsi-language";"1.0.0+20230505";"ga-IE";"Irish-IRELAND"
"https://termgit.elga.gv.at/CodeSystem/ehdsi-language";"1.0.0+20230505";"gd-GB";"Gaelic; Scottish Gaelic-UNITED KINGDOM OF GREAT BRITAIN AND NORTHERN IRELAND"
"https://termgit.elga.gv.at/CodeSystem/ehdsi-language";"1.0.0+20230505";"gl-ES";"Galician-SPAIN"
"https://termgit.elga.gv.at/CodeSystem/ehdsi-language";"1.0.0+20230505";"gu-IN";"Gujarati-INDIA"
"https://termgit.elga.gv.at/CodeSystem/ehdsi-language";"1.0.0+20230505";"gv-IM";"Manx-ISLE OF MAN"
"https://termgit.elga.gv.at/CodeSystem/ehdsi-language";"1.0.0+20230505";"ha-GH";"Hausa-GHANA"
"https://termgit.elga.gv.at/CodeSystem/ehdsi-language";"1.0.0+20230505";"ha-NE";"Hausa-NIGER"
"https://termgit.elga.gv.at/CodeSystem/ehdsi-language";"1.0.0+20230505";"ha-NG";"Hausa-NIGERIA"
"https://termgit.elga.gv.at/CodeSystem/ehdsi-language";"1.0.0+20230505";"he-IL";"Hebrew-ISRAEL"
"https://termgit.elga.gv.at/CodeSystem/ehdsi-language";"1.0.0+20230505";"hi-IN";"Hindi-INDIA"
"https://termgit.elga.gv.at/CodeSystem/ehdsi-language";"1.0.0+20230505";"hr-BA";"Croatian-BOSNIA AND HERZEGOVINA"
"https://termgit.elga.gv.at/CodeSystem/ehdsi-language";"1.0.0+20230505";"hr-HR";"Croatian-CROATIA"
"https://termgit.elga.gv.at/CodeSystem/ehdsi-language";"1.0.0+20230505";"hu-HU";"Hungarian-HUNGARY"
"https://termgit.elga.gv.at/CodeSystem/ehdsi-language";"1.0.0+20230505";"hy-AM";"Armenian-ARMENIA"
"https://termgit.elga.gv.at/CodeSystem/ehdsi-language";"1.0.0+20230505";"id-ID";"Indonesian-INDONESIA"
"https://termgit.elga.gv.at/CodeSystem/ehdsi-language";"1.0.0+20230505";"ig-NG";"Igbo-NIGERIA"
"https://termgit.elga.gv.at/CodeSystem/ehdsi-language";"1.0.0+20230505";"ii-CN";"Sichuan Yi; Nuosu-CHINA"
"https://termgit.elga.gv.at/CodeSystem/ehdsi-language";"1.0.0+20230505";"is-IS";"Icelandic-ICELAND"
"https://termgit.elga.gv.at/CodeSystem/ehdsi-language";"1.0.0+20230505";"it-CH";"Italian-SWITZERLAND"
"https://termgit.elga.gv.at/CodeSystem/ehdsi-language";"1.0.0+20230505";"it-IT";"Italian-ITALY"
"https://termgit.elga.gv.at/CodeSystem/ehdsi-language";"1.0.0+20230505";"it-SM";"Italian-SAN MARINO"
"https://termgit.elga.gv.at/CodeSystem/ehdsi-language";"1.0.0+20230505";"ja-JP";"Japanese-JAPAN"
"https://termgit.elga.gv.at/CodeSystem/ehdsi-language";"1.0.0+20230505";"ka-GE";"Georgian-GEORGIA"
"https://termgit.elga.gv.at/CodeSystem/ehdsi-language";"1.0.0+20230505";"ki-KE";"Kikuyu; Gikuyu-KENYA"
"https://termgit.elga.gv.at/CodeSystem/ehdsi-language";"1.0.0+20230505";"kk-KZ";"Kazakh-KAZAKHSTAN"
"https://termgit.elga.gv.at/CodeSystem/ehdsi-language";"1.0.0+20230505";"kl-GL";"Kalaallisut; Greenlandic-GREENLAND"
"https://termgit.elga.gv.at/CodeSystem/ehdsi-language";"1.0.0+20230505";"km-KH";"Central Khmer-CAMBODIA"
"https://termgit.elga.gv.at/CodeSystem/ehdsi-language";"1.0.0+20230505";"kn-IN";"Kannada-INDIA"
"https://termgit.elga.gv.at/CodeSystem/ehdsi-language";"1.0.0+20230505";"ko-KP";"Korean-KOREA (DEMOCRATIC PEOPLE'S REPUBLIC OF)"
"https://termgit.elga.gv.at/CodeSystem/ehdsi-language";"1.0.0+20230505";"ko-KR";"Korean-KOREA, REPUBLIC OF"
"https://termgit.elga.gv.at/CodeSystem/ehdsi-language";"1.0.0+20230505";"ks-IN";"Kashmiri-INDIA"
"https://termgit.elga.gv.at/CodeSystem/ehdsi-language";"1.0.0+20230505";"kw-GB";"Cornish-UNITED KINGDOM OF GREAT BRITAIN AND NORTHERN IRELAND"
"https://termgit.elga.gv.at/CodeSystem/ehdsi-language";"1.0.0+20230505";"ky-KG";"Kirghiz; Kyrgyz-KYRGYZSTAN"
"https://termgit.elga.gv.at/CodeSystem/ehdsi-language";"1.0.0+20230505";"lb-LU";"Luxembourgish; Letzeburgesch-LUXEMBOURG"
"https://termgit.elga.gv.at/CodeSystem/ehdsi-language";"1.0.0+20230505";"lg-UG";"Ganda-UGANDA"
"https://termgit.elga.gv.at/CodeSystem/ehdsi-language";"1.0.0+20230505";"ln-AO";"Lingala-ANGOLA"
"https://termgit.elga.gv.at/CodeSystem/ehdsi-language";"1.0.0+20230505";"ln-CD";"Lingala-CONGO, DEMOCRATIC REPUBLIC OF"
"https://termgit.elga.gv.at/CodeSystem/ehdsi-language";"1.0.0+20230505";"ln-CF";"Lingala-CENTRAL AFRICAN REPUBLIC"
"https://termgit.elga.gv.at/CodeSystem/ehdsi-language";"1.0.0+20230505";"ln-CG";"Lingala-CONGO"
"https://termgit.elga.gv.at/CodeSystem/ehdsi-language";"1.0.0+20230505";"lo-LA";"Lao-LAO PEOPLE'S DEMOCRATIC REPUBLIC"
"https://termgit.elga.gv.at/CodeSystem/ehdsi-language";"1.0.0+20230505";"lt-LT";"Lithuanian-LITHUANIA"
"https://termgit.elga.gv.at/CodeSystem/ehdsi-language";"1.0.0+20230505";"lu-CD";"Luba-Katanga-CONGO, DEMOCRATIC REPUBLIC OF"
"https://termgit.elga.gv.at/CodeSystem/ehdsi-language";"1.0.0+20230505";"lv-LV";"Latvian-LATVIA"
"https://termgit.elga.gv.at/CodeSystem/ehdsi-language";"1.0.0+20230505";"mg-MG";"Malagasy-MADAGASCAR"
"https://termgit.elga.gv.at/CodeSystem/ehdsi-language";"1.0.0+20230505";"mk-MK";"Macedonian-MACEDONIA, THE FORMER YUGOSLAV REPUBLIC OF"
"https://termgit.elga.gv.at/CodeSystem/ehdsi-language";"1.0.0+20230505";"ml-IN";"Malayalam-INDIA"
"https://termgit.elga.gv.at/CodeSystem/ehdsi-language";"1.0.0+20230505";"mn-MN";"Mongolian-MONGOLIA"
"https://termgit.elga.gv.at/CodeSystem/ehdsi-language";"1.0.0+20230505";"mr-IN";"Marathi-INDIA"
"https://termgit.elga.gv.at/CodeSystem/ehdsi-language";"1.0.0+20230505";"ms-BN";"Malay-BRUNEI DARUSSALAM"
"https://termgit.elga.gv.at/CodeSystem/ehdsi-language";"1.0.0+20230505";"ms-MY";"Malay-MALAYSIA"
"https://termgit.elga.gv.at/CodeSystem/ehdsi-language";"1.0.0+20230505";"ms-SG";"Malay-SINGAPORE"
"https://termgit.elga.gv.at/CodeSystem/ehdsi-language";"1.0.0+20230505";"mt-MT";"Maltese-MALTA"
"https://termgit.elga.gv.at/CodeSystem/ehdsi-language";"1.0.0+20230505";"my-MM";"Burmese-MYANMAR"
"https://termgit.elga.gv.at/CodeSystem/ehdsi-language";"1.0.0+20230505";"nb-NO";"Bokmal, Norwegian; Norwegian Bokmal-NORWAY"
"https://termgit.elga.gv.at/CodeSystem/ehdsi-language";"1.0.0+20230505";"nb-SJ";"Bokmal, Norwegian; Norwegian Bokmal-SVALBARD AND JAN MAYEN"
"https://termgit.elga.gv.at/CodeSystem/ehdsi-language";"1.0.0+20230505";"nd-ZW";"Ndebele, North; North Ndebele-ZIMBABWE"
"https://termgit.elga.gv.at/CodeSystem/ehdsi-language";"1.0.0+20230505";"ne-IN";"Nepali-INDIA"
"https://termgit.elga.gv.at/CodeSystem/ehdsi-language";"1.0.0+20230505";"ne-NP";"Nepali-NEPAL"
"https://termgit.elga.gv.at/CodeSystem/ehdsi-language";"1.0.0+20230505";"nl-AW";"Dutch; Flemish-ARUBA"
"https://termgit.elga.gv.at/CodeSystem/ehdsi-language";"1.0.0+20230505";"nl-BE";"Dutch; Flemish-BELGIUM"
"https://termgit.elga.gv.at/CodeSystem/ehdsi-language";"1.0.0+20230505";"nl-BQ";"Dutch; Flemish-BONAIRE, SINT EUSTATIUS AND SABA"
"https://termgit.elga.gv.at/CodeSystem/ehdsi-language";"1.0.0+20230505";"nl-CW";"Dutch; Flemish-CURACAO"
"https://termgit.elga.gv.at/CodeSystem/ehdsi-language";"1.0.0+20230505";"nl-NL";"Dutch; Flemish-NETHERLANDS"
"https://termgit.elga.gv.at/CodeSystem/ehdsi-language";"1.0.0+20230505";"nl-SR";"Dutch; Flemish-SURINAME"
"https://termgit.elga.gv.at/CodeSystem/ehdsi-language";"1.0.0+20230505";"nl-SX";"Dutch; Flemish-SINT MAARTEN (DUTCH PART)"
"https://termgit.elga.gv.at/CodeSystem/ehdsi-language";"1.0.0+20230505";"nn-NO";"Norwegian Nynorsk; Nynorsk, Norwegian-NORWAY"
"https://termgit.elga.gv.at/CodeSystem/ehdsi-language";"1.0.0+20230505";"om-ET";"Oromo-ETHIOPIA"
"https://termgit.elga.gv.at/CodeSystem/ehdsi-language";"1.0.0+20230505";"om-KE";"Oromo-KENYA"
"https://termgit.elga.gv.at/CodeSystem/ehdsi-language";"1.0.0+20230505";"or-IN";"Oriya-INDIA"
"https://termgit.elga.gv.at/CodeSystem/ehdsi-language";"1.0.0+20230505";"os-GE";"Ossetian; Ossetic-GEORGIA"
"https://termgit.elga.gv.at/CodeSystem/ehdsi-language";"1.0.0+20230505";"os-RU";"Ossetian; Ossetic-RUSSIAN FEDERATION"
"https://termgit.elga.gv.at/CodeSystem/ehdsi-language";"1.0.0+20230505";"pa-PK";"Panjabi; Punjabi-PAKISTAN"
"https://termgit.elga.gv.at/CodeSystem/ehdsi-language";"1.0.0+20230505";"pa-IN";"Panjabi; Punjabi-INDIA"
"https://termgit.elga.gv.at/CodeSystem/ehdsi-language";"1.0.0+20230505";"pl-PL";"Polish-POLAND"
"https://termgit.elga.gv.at/CodeSystem/ehdsi-language";"1.0.0+20230505";"ps-AF";"Pushto; Pashto-AFGHANISTAN"
"https://termgit.elga.gv.at/CodeSystem/ehdsi-language";"1.0.0+20230505";"pt-AO";"Portuguese-ANGOLA"
"https://termgit.elga.gv.at/CodeSystem/ehdsi-language";"1.0.0+20230505";"pt-BR";"Portuguese-BRAZIL"
"https://termgit.elga.gv.at/CodeSystem/ehdsi-language";"1.0.0+20230505";"pt-CV";"Portuguese-CAPE VERDE"
"https://termgit.elga.gv.at/CodeSystem/ehdsi-language";"1.0.0+20230505";"pt-GW";"Portuguese-GUINEA-BISSAU"
"https://termgit.elga.gv.at/CodeSystem/ehdsi-language";"1.0.0+20230505";"pt-MO";"Portuguese-MACAO"
"https://termgit.elga.gv.at/CodeSystem/ehdsi-language";"1.0.0+20230505";"pt-MZ";"Portuguese-MOZAMBIQUE"
"https://termgit.elga.gv.at/CodeSystem/ehdsi-language";"1.0.0+20230505";"pt-PT";"Portuguese-PORTUGAL"
"https://termgit.elga.gv.at/CodeSystem/ehdsi-language";"1.0.0+20230505";"pt-ST";"Portuguese-SAO TOME AND PRINCIPE"
"https://termgit.elga.gv.at/CodeSystem/ehdsi-language";"1.0.0+20230505";"pt-TL";"Portuguese-TIMOR-LESTE"
"https://termgit.elga.gv.at/CodeSystem/ehdsi-language";"1.0.0+20230505";"qu-BO";"Quechua-BOLIVIA (PLURINATIONAL STATE OF)"
"https://termgit.elga.gv.at/CodeSystem/ehdsi-language";"1.0.0+20230505";"qu-EC";"Quechua-ECUADOR"
"https://termgit.elga.gv.at/CodeSystem/ehdsi-language";"1.0.0+20230505";"qu-PE";"Quechua-PERU"
"https://termgit.elga.gv.at/CodeSystem/ehdsi-language";"1.0.0+20230505";"rm-CH";"Romansh-SWITZERLAND"
"https://termgit.elga.gv.at/CodeSystem/ehdsi-language";"1.0.0+20230505";"rn-BI";"Rundi-BURUNDI"
"https://termgit.elga.gv.at/CodeSystem/ehdsi-language";"1.0.0+20230505";"ro-MD";"Romanian; Moldavian; Moldovan-MOLDOVA, REPUBLIC OF"
"https://termgit.elga.gv.at/CodeSystem/ehdsi-language";"1.0.0+20230505";"ro-RO";"Romanian; Moldavian; Moldovan-ROMANIA"
"https://termgit.elga.gv.at/CodeSystem/ehdsi-language";"1.0.0+20230505";"ru-BY";"Russian-BELARUS"
"https://termgit.elga.gv.at/CodeSystem/ehdsi-language";"1.0.0+20230505";"ru-KG";"Russian-KYRGYZSTAN"
"https://termgit.elga.gv.at/CodeSystem/ehdsi-language";"1.0.0+20230505";"ru-KZ";"Russian-KAZAKHSTAN"
"https://termgit.elga.gv.at/CodeSystem/ehdsi-language";"1.0.0+20230505";"ru-MD";"Russian-MOLDOVA, REPUBLIC OF"
"https://termgit.elga.gv.at/CodeSystem/ehdsi-language";"1.0.0+20230505";"ru-RU";"Russian-RUSSIAN FEDERATION"
"https://termgit.elga.gv.at/CodeSystem/ehdsi-language";"1.0.0+20230505";"ru-UA";"Russian-UKRAINE"
"https://termgit.elga.gv.at/CodeSystem/ehdsi-language";"1.0.0+20230505";"rw-RW";"Kinyarwanda-RWANDA"
"https://termgit.elga.gv.at/CodeSystem/ehdsi-language";"1.0.0+20230505";"se-FI";"Northern Sami-FINLAND"
"https://termgit.elga.gv.at/CodeSystem/ehdsi-language";"1.0.0+20230505";"se-NO";"Northern Sami-NORWAY"
"https://termgit.elga.gv.at/CodeSystem/ehdsi-language";"1.0.0+20230505";"se-SE";"Northern Sami-SWEDEN"
"https://termgit.elga.gv.at/CodeSystem/ehdsi-language";"1.0.0+20230505";"sg-CF";"Sango-CENTRAL AFRICAN REPUBLIC"
"https://termgit.elga.gv.at/CodeSystem/ehdsi-language";"1.0.0+20230505";"si-LK";"Sinhala; Sinhalese-SRI LANKA"
"https://termgit.elga.gv.at/CodeSystem/ehdsi-language";"1.0.0+20230505";"sk-SK";"Slovak-SLOVAKIA"
"https://termgit.elga.gv.at/CodeSystem/ehdsi-language";"1.0.0+20230505";"sl-SI";"Slovenian-SLOVENIA"
"https://termgit.elga.gv.at/CodeSystem/ehdsi-language";"1.0.0+20230505";"sn-ZW";"Shona-ZIMBABWE"
"https://termgit.elga.gv.at/CodeSystem/ehdsi-language";"1.0.0+20230505";"so-DJ";"Somali-DJIBOUTI"
"https://termgit.elga.gv.at/CodeSystem/ehdsi-language";"1.0.0+20230505";"so-ET";"Somali-ETHIOPIA"
"https://termgit.elga.gv.at/CodeSystem/ehdsi-language";"1.0.0+20230505";"so-KE";"Somali-KENYA"
"https://termgit.elga.gv.at/CodeSystem/ehdsi-language";"1.0.0+20230505";"so-SO";"Somali-SOMALIA"
"https://termgit.elga.gv.at/CodeSystem/ehdsi-language";"1.0.0+20230505";"sq-AL";"Albanian-ALBANIA"
"https://termgit.elga.gv.at/CodeSystem/ehdsi-language";"1.0.0+20230505";"sq-MK";"Albanian-MACEDONIA, THE FORMER YUGOSLAV REPUBLIC OF"
"https://termgit.elga.gv.at/CodeSystem/ehdsi-language";"1.0.0+20230505";"sr-BA";"Serbian-BOSNIA AND HERZEGOVINA"
"https://termgit.elga.gv.at/CodeSystem/ehdsi-language";"1.0.0+20230505";"sr-ME";"Serbian-MONTENEGRO"
"https://termgit.elga.gv.at/CodeSystem/ehdsi-language";"1.0.0+20230505";"sr-RS";"Serbian-SERBIA"
"https://termgit.elga.gv.at/CodeSystem/ehdsi-language";"1.0.0+20230505";"sv-AX";"Swedish-ALAND ISLANDS"
"https://termgit.elga.gv.at/CodeSystem/ehdsi-language";"1.0.0+20230505";"sv-FI";"Swedish-FINLAND"
"https://termgit.elga.gv.at/CodeSystem/ehdsi-language";"1.0.0+20230505";"sv-SE";"Swedish-SWEDEN"
"https://termgit.elga.gv.at/CodeSystem/ehdsi-language";"1.0.0+20230505";"sw-CD";"Swahili-CONGO, DEMOCRATIC REPUBLIC OF"
"https://termgit.elga.gv.at/CodeSystem/ehdsi-language";"1.0.0+20230505";"sw-KE";"Swahili-KENYA"
"https://termgit.elga.gv.at/CodeSystem/ehdsi-language";"1.0.0+20230505";"sw-TZ";"Swahili-TANZANIA, UNITED REPUBLIC OF"
"https://termgit.elga.gv.at/CodeSystem/ehdsi-language";"1.0.0+20230505";"sw-UG";"Swahili-UGANDA"
"https://termgit.elga.gv.at/CodeSystem/ehdsi-language";"1.0.0+20230505";"ta-IN";"Tamil-INDIA"
"https://termgit.elga.gv.at/CodeSystem/ehdsi-language";"1.0.0+20230505";"ta-LK";"Tamil-SRI LANKA"
"https://termgit.elga.gv.at/CodeSystem/ehdsi-language";"1.0.0+20230505";"ta-MY";"Tamil-MALAYSIA"
"https://termgit.elga.gv.at/CodeSystem/ehdsi-language";"1.0.0+20230505";"ta-SG";"Tamil-SINGAPORE"
"https://termgit.elga.gv.at/CodeSystem/ehdsi-language";"1.0.0+20230505";"te-IN";"Telugu-INDIA"
"https://termgit.elga.gv.at/CodeSystem/ehdsi-language";"1.0.0+20230505";"th-TH";"Thai-THAILAND"
"https://termgit.elga.gv.at/CodeSystem/ehdsi-language";"1.0.0+20230505";"ti-ER";"Tigrinya-ERITREA"
"https://termgit.elga.gv.at/CodeSystem/ehdsi-language";"1.0.0+20230505";"ti-ET";"Tigrinya-ETHIOPIA"
"https://termgit.elga.gv.at/CodeSystem/ehdsi-language";"1.0.0+20230505";"to-TO";"Tonga (Tonga Islands)-TONGA"
"https://termgit.elga.gv.at/CodeSystem/ehdsi-language";"1.0.0+20230505";"tr-CY";"Turkish-CYPRUS"
"https://termgit.elga.gv.at/CodeSystem/ehdsi-language";"1.0.0+20230505";"tr-TR";"Turkish-TURKEY"
"https://termgit.elga.gv.at/CodeSystem/ehdsi-language";"1.0.0+20230505";"ug-CN";"Uighur; Uyghur-CHINA"
"https://termgit.elga.gv.at/CodeSystem/ehdsi-language";"1.0.0+20230505";"uk-UA";"Ukrainian-UKRAINE"
"https://termgit.elga.gv.at/CodeSystem/ehdsi-language";"1.0.0+20230505";"ur-IN";"Urdu-INDIA"
"https://termgit.elga.gv.at/CodeSystem/ehdsi-language";"1.0.0+20230505";"ur-PK";"Urdu-PAKISTAN"
"https://termgit.elga.gv.at/CodeSystem/ehdsi-language";"1.0.0+20230505";"uz-AF";"Uzbek-AFGHANISTAN"
"https://termgit.elga.gv.at/CodeSystem/ehdsi-language";"1.0.0+20230505";"uz-UZ";"Uzbek-UZBEKISTAN"
"https://termgit.elga.gv.at/CodeSystem/ehdsi-language";"1.0.0+20230505";"vi-VN";"Vietnamese-VIET NAM"
"https://termgit.elga.gv.at/CodeSystem/ehdsi-language";"1.0.0+20230505";"yo-BJ";"Yoruba-BENIN"
"https://termgit.elga.gv.at/CodeSystem/ehdsi-language";"1.0.0+20230505";"yo-NG";"Yoruba-NIGERIA"
"https://termgit.elga.gv.at/CodeSystem/ehdsi-language";"1.0.0+20230505";"zh-CN";"Chinese-CHINA"
"https://termgit.elga.gv.at/CodeSystem/ehdsi-language";"1.0.0+20230505";"zh-HK";"Chinese-HONG KONG"
"https://termgit.elga.gv.at/CodeSystem/ehdsi-language";"1.0.0+20230505";"zh-MO";"Chinese-MACAO"
"https://termgit.elga.gv.at/CodeSystem/ehdsi-language";"1.0.0+20230505";"zh-SG";"Chinese-SINGAPORE"
"https://termgit.elga.gv.at/CodeSystem/ehdsi-language";"1.0.0+20230505";"zh-TW";"Chinese-TAIWAN, PROVINCE OF CHINA"
"https://termgit.elga.gv.at/CodeSystem/ehdsi-language";"1.0.0+20230505";"zu-ZA";"Zulu-SOUTH AFRICA"