'code';'codeSystem';'displayName';'parentCodeSystemName';'concept_Beschreibung';'meaning';'hints';'orderNumber';'level';'type';'relationships';'einheit print';'einheit codiert'
'46224007';'2.16.840.1.113883.6.96';'Impfstelle (Impfsetting)';'https://termgit.elga.gv.at/CodeSystem/snomed-ct-auszug';'';'';'';'1';'0';'S';'';'';''
'IS001';'1.2.40.0.34.5.183';'Bildungseinrichtung';'https://termgit.elga.gv.at/CodeSystem/eimpf-ergaenzung';'';'';'';'2';'1';'L';'';'';''
'IS002';'1.2.40.0.34.5.183';'Arbeitsplatz/Betrieb';'https://termgit.elga.gv.at/CodeSystem/eimpf-ergaenzung';'';'';'';'3';'1';'L';'';'';''
'IS003';'1.2.40.0.34.5.183';'Krankenhaus inkl. Kur- und Rehaeinrichtungen';'https://termgit.elga.gv.at/CodeSystem/eimpf-ergaenzung';'';'';'';'4';'1';'L';'';'';''
'IS004';'1.2.40.0.34.5.183';'Ordination';'https://termgit.elga.gv.at/CodeSystem/eimpf-ergaenzung';'';'';'';'5';'1';'L';'';'';''
'IS005';'1.2.40.0.34.5.183';'Öffentliche Impfstelle';'https://termgit.elga.gv.at/CodeSystem/eimpf-ergaenzung';'';'';'';'6';'1';'L';'';'';''
'IS006';'1.2.40.0.34.5.183';'Wohnbereich';'https://termgit.elga.gv.at/CodeSystem/eimpf-ergaenzung';'';'';'';'7';'1';'L';'';'';''
'IS007';'1.2.40.0.34.5.183';'Öffentliche Impfstraße / Impfbus';'https://termgit.elga.gv.at/CodeSystem/eimpf-ergaenzung';'';'';'';'8';'1';'L';'';'';''
'IS008';'1.2.40.0.34.5.183';'Betreute Wohneinrichtung';'https://termgit.elga.gv.at/CodeSystem/eimpf-ergaenzung';'';'';'';'9';'1';'L';'';'';''
'IS009';'1.2.40.0.34.5.183';'Impfprogramm';'https://termgit.elga.gv.at/CodeSystem/eimpf-ergaenzung';'';'';'';'10';'0';'S';'';'';''
'IS010';'1.2.40.0.34.5.183';'Kostenfreies Impfprogramm';'https://termgit.elga.gv.at/CodeSystem/eimpf-ergaenzung';'';'';'';'11';'1';'L';'';'';''
'IS011';'1.2.40.0.34.5.183';'Öffentliches Impfprogramm (ÖIP) Influenza';'https://termgit.elga.gv.at/CodeSystem/eimpf-ergaenzung';'';'';'inactivation revoked';'12';'1';'L';'';'';''
