'code';'codeSystem';'displayName';'parentCodeSystemName';'concept_Beschreibung';'meaning';'hints';'orderNumber';'level';'type';'relationships';'einheit print';'einheit codiert';'codeSystemVersion'
'F';'2.16.840.1.113883.5.1';'Female';'http://terminology.hl7.org/CodeSystem/v3-AdministrativeGender';;'Weiblich';;'1';'0';'L';;;;'2.1.0'
'M';'2.16.840.1.113883.5.1';'Male';'http://terminology.hl7.org/CodeSystem/v3-AdministrativeGender';;'Männlich';;'2';'0';'L';;;;'2.1.0'
'UN';'2.16.840.1.113883.5.1';'Undifferentiated';'http://terminology.hl7.org/CodeSystem/v3-AdministrativeGender';;'Divers';;'3';'0';'L';;;;'2.1.0'
