'code';'codeSystem';'displayName';'parentCodeSystemName';'concept_Beschreibung';'meaning';'hints';'orderNumber';'level';'type';'relationships';'einheit print';'einheit codiert'
'0';'1.2.40.0.34.5.38.1';'Modalitaet unbestimmt';'https://termgit.elga.gv.at/CodeSystem/appc-modalitaet';'';'';'APPC: 1.2.40.0.34.5.38';'1';'0';'L';'';'';''
'1';'1.2.40.0.34.5.38.1';'Röntgen';'https://termgit.elga.gv.at/CodeSystem/appc-modalitaet';'';'Röntgenaufnahme';'APPC: 1.2.40.0.34.5.38';'2';'0';'L';'';'';''
'2';'1.2.40.0.34.5.38.1';'CT';'https://termgit.elga.gv.at/CodeSystem/appc-modalitaet';'';'Computer-Tomographie';'APPC: 1.2.40.0.34.5.38';'3';'0';'L';'';'';''
'3';'1.2.40.0.34.5.38.1';'MRT';'https://termgit.elga.gv.at/CodeSystem/appc-modalitaet';'';'Magnetresonanz-Tomographie';'APPC: 1.2.40.0.34.5.38';'4';'0';'L';'';'';''
'4';'1.2.40.0.34.5.38.1';'US';'https://termgit.elga.gv.at/CodeSystem/appc-modalitaet';'';'Ultraschalluntersuchung (Sonographie)';'APPC: 1.2.40.0.34.5.38';'5';'0';'L';'';'';''
'5';'1.2.40.0.34.5.38.1';'NUK';'https://termgit.elga.gv.at/CodeSystem/appc-modalitaet';'';'Nuklearmedizinische Untersuchung';'APPC: 1.2.40.0.34.5.38';'6';'0';'L';'';'';''
'6';'1.2.40.0.34.5.38.1';'PET';'https://termgit.elga.gv.at/CodeSystem/appc-modalitaet';'';'Positronen-Emissions-Tomographie';'APPC: 1.2.40.0.34.5.38';'7';'0';'L';'';'';''
'7';'1.2.40.0.34.5.38.1';'Endoskopie';'https://termgit.elga.gv.at/CodeSystem/appc-modalitaet';'';'';'';'8';'0';'S';'';'';''
'7-1';'1.2.40.0.34.5.38.1';'Kapselendoskopie';'https://termgit.elga.gv.at/CodeSystem/appc-modalitaet';'';'';'';'9';'1';'L';'';'';''
'7-2';'1.2.40.0.34.5.38.1';'Konfokale Laserendomikroskopie';'https://termgit.elga.gv.at/CodeSystem/appc-modalitaet';'';'';'';'10';'1';'L';'';'';''
'8';'1.2.40.0.34.5.38.1';'Mikroskopische Untersuchung';'https://termgit.elga.gv.at/CodeSystem/appc-modalitaet';'';'';'';'11';'0';'L';'';'';''
'9';'1.2.40.0.34.5.38.1';'Optische Kohärenztomografie';'https://termgit.elga.gv.at/CodeSystem/appc-modalitaet';'';'';'';'12';'0';'L';'';'';''
'10';'1.2.40.0.34.5.38.1';'Fotografische Dokumentation';'https://termgit.elga.gv.at/CodeSystem/appc-modalitaet';'';'';'';'13';'0';'L';'';'';''
'11';'1.2.40.0.34.5.38.1';'Video Dokumentation';'https://termgit.elga.gv.at/CodeSystem/appc-modalitaet';'';'';'';'14';'0';'L';'';'';''
'999';'1.2.40.0.34.5.38.1';'Keine Modalität';'https://termgit.elga.gv.at/CodeSystem/appc-modalitaet';'';'';'';'15';'0';'S';'';'';''
'999-1';'1.2.40.0.34.5.38.1';'Keine Modalität - Studie entfernt';'https://termgit.elga.gv.at/CodeSystem/appc-modalitaet';'';'';'';'16';'1';'L';'';'';''
