{
  "resourceType": "ValueSet",
  "id": "elga-medikationrezeptart",
  "meta": {
    "profile": [
      "http://hl7.at/fhir/HL7ATCoreProfiles/4.0.1/StructureDefinition/at-core-valueset"
    ]
  },
  "url": "https://termgit.elga.gv.at/ValueSet/elga-medikationrezeptart",
  "identifier": [
    {
      "use": "official",
      "system": "urn:ietf:rfc:3986",
      "value": "urn:oid:1.2.40.0.34.10.68"
    }
  ],
  "version": "1.1.0+20240325",
  "name": "elga-medikationrezeptart",
  "title": "ELGA_MedikationRezeptart",
  "status": "active",
  "date": "2024-03-25",
  "description": "**Description:** ELGA ValueSet for Prescription type\n\n**Beschreibung:** ELGA ValueSet f\u00fcr RezeptArt",
  "compose": {
    "include": [
      {
        "extension": [
          {
            "url": "http://hl7.at/fhir/HL7ATCoreProfiles/4.0.1/StructureDefinition/at-core-ext-valueset-systemoid",
            "valueOid": "urn:oid:1.2.40.0.10.1.4.3.4.3.3"
          }
        ],
        "system": "https://termgit.elga.gv.at/CodeSystem/medikationrezeptart",
        "version": "1.0.0+20230131",
        "concept": [
          {
            "code": "KASSEN",
            "display": "Kassenrezept"
          },
          {
            "code": "PRIVAT",
            "display": "Privatrezept"
          },
          {
            "code": "SUBST",
            "display": "Substitutionsrezept"
          }
        ]
      }
    ]
  },
  "expansion": {
    "timestamp": "2024-03-25T06:36:54+00:00",
    "contains": [
      {
        "extension": [
          {
            "url": "http://hl7.at/fhir/HL7ATCoreProfiles/4.0.1/StructureDefinition/at-core-ext-valueset-systemoid",
            "valueOid": "urn:oid:1.2.40.0.10.1.4.3.4.3.3"
          }
        ],
        "system": "https://termgit.elga.gv.at/CodeSystem/medikationrezeptart",
        "version": "1.0.0+20230131",
        "code": "KASSEN",
        "display": "Kassenrezept"
      },
      {
        "extension": [
          {
            "url": "http://hl7.at/fhir/HL7ATCoreProfiles/4.0.1/StructureDefinition/at-core-ext-valueset-systemoid",
            "valueOid": "urn:oid:1.2.40.0.10.1.4.3.4.3.3"
          }
        ],
        "system": "https://termgit.elga.gv.at/CodeSystem/medikationrezeptart",
        "version": "1.0.0+20230131",
        "code": "PRIVAT",
        "display": "Privatrezept"
      },
      {
        "extension": [
          {
            "url": "http://hl7.at/fhir/HL7ATCoreProfiles/4.0.1/StructureDefinition/at-core-ext-valueset-systemoid",
            "valueOid": "urn:oid:1.2.40.0.10.1.4.3.4.3.3"
          }
        ],
        "system": "https://termgit.elga.gv.at/CodeSystem/medikationrezeptart",
        "version": "1.0.0+20230131",
        "code": "SUBST",
        "display": "Substitutionsrezept"
      }
    ]
  }
}