'code';'codeSystem';'displayName';'parentCode';'concept_Beschreibung';'meaning';'hints';'level';'type';'relationships'
'H';'1.2.40.0.34.5.206';'Hauptdiagnose';'';'';'';'';'0';'L';''
'Z';'1.2.40.0.34.5.206';'Zusatzdiagnose';'';'';'';'';'0';'L';''
