{
  "resourceType": "ValueSet",
  "id": "ems-hcv-core-ag-assay",
  "meta": {
    "profile": [
      "http://hl7.at/fhir/HL7ATCoreProfiles/4.0.1/StructureDefinition/at-core-valueset"
    ]
  },
  "url": "https://termgit.elga.gv.at/ValueSet/ems-hcv-core-ag-assay",
  "identifier": [
    {
      "use": "official",
      "system": "urn:ietf:rfc:3986",
      "value": "urn:oid:1.2.40.0.34.10.92"
    }
  ],
  "version": "1.1.0+20240325",
  "name": "ems-hcv-core-ag-assay",
  "title": "EMS_HCV_core_Ag_Assay",
  "status": "active",
  "date": "2024-03-25",
  "description": "Dieses Valueset wird verwendet um das Ergebnis HCV core Ag Assays zu codieren. Verwendung im Zuge vom EMS",
  "compose": {
    "include": [
      {
        "extension": [
          {
            "url": "http://hl7.at/fhir/HL7ATCoreProfiles/4.0.1/StructureDefinition/at-core-ext-valueset-systemoid",
            "valueOid": "urn:oid:1.2.40.0.34.5.88"
          }
        ],
        "system": "https://termgit.elga.gv.at/CodeSystem/ems-posneg",
        "version": "1.0.0+20230131",
        "concept": [
          {
            "code": "NEG",
            "display": "negativ"
          },
          {
            "code": "NOTEST",
            "display": "nicht durchgef\u00fchrt"
          },
          {
            "code": "POS",
            "display": "positiv"
          }
        ]
      }
    ]
  },
  "expansion": {
    "timestamp": "2024-03-25T06:36:54+00:00",
    "contains": [
      {
        "extension": [
          {
            "url": "http://hl7.at/fhir/HL7ATCoreProfiles/4.0.1/StructureDefinition/at-core-ext-valueset-systemoid",
            "valueOid": "urn:oid:1.2.40.0.34.5.88"
          }
        ],
        "system": "https://termgit.elga.gv.at/CodeSystem/ems-posneg",
        "version": "1.0.0+20230131",
        "code": "NEG",
        "display": "negativ"
      },
      {
        "extension": [
          {
            "url": "http://hl7.at/fhir/HL7ATCoreProfiles/4.0.1/StructureDefinition/at-core-ext-valueset-systemoid",
            "valueOid": "urn:oid:1.2.40.0.34.5.88"
          }
        ],
        "system": "https://termgit.elga.gv.at/CodeSystem/ems-posneg",
        "version": "1.0.0+20230131",
        "code": "NOTEST",
        "display": "nicht durchgef\u00fchrt"
      },
      {
        "extension": [
          {
            "url": "http://hl7.at/fhir/HL7ATCoreProfiles/4.0.1/StructureDefinition/at-core-ext-valueset-systemoid",
            "valueOid": "urn:oid:1.2.40.0.34.5.88"
          }
        ],
        "system": "https://termgit.elga.gv.at/CodeSystem/ems-posneg",
        "version": "1.0.0+20230131",
        "code": "POS",
        "display": "positiv"
      }
    ]
  }
}