'code';'codeSystem';'displayName';'parentCodeSystemName';'concept_Beschreibung';'meaning';'hints';'orderNumber';'level';'type';'relationships';'einheit print';'einheit codiert'
'_Rot';'1.2.40.0.34.5.183';'Rot';'https://termgit.elga.gv.at/CodeSystem/eimpf-ergaenzung';'';'';'';'1';'0';'A';'';'';''
'424272000';'2.16.840.1.113883.6.96';'Unzureichende Immunität';'https://termgit.elga.gv.at/CodeSystem/snomed-ct-auszug';'Das laut Impfplan Österreich empfohlene Impfdatum ist bereits überschritten. Bitte vereinbaren Sie einen Termin zur ärztlichen Abklärung.';'Impfung fällig - bitte Termin vereinbaren';'Empfohlener Impfzeitraum über max. Schwellwert überschritten';'2';'1';'L';'';'';''
'789540001';'2.16.840.1.113883.6.96';'Impfung überfällig';'https://termgit.elga.gv.at/CodeSystem/snomed-ct-auszug';'Das laut Impfplan Österreich empfohlene Impfdatum ist bereits überschritten. Bitte vereinbaren Sie einen Impftermin.';'Impfung fällig - bitte Termin vereinbaren';'Empfohlener Impfzeitraum überschritten';'3';'1';'L';'';'';''
'_Gelb';'1.2.40.0.34.5.183';'Gelb';'https://termgit.elga.gv.at/CodeSystem/eimpf-ergaenzung';'';'';'';'4';'0';'A';'';'';''
'171279008';'2.16.840.1.113883.6.96';'Impfung fällig';'https://termgit.elga.gv.at/CodeSystem/snomed-ct-auszug';'Laut Impfplan Österreich ist eine Impfung fällig. Bitte vereinbaren Sie einen Impftermin.';'Impfung fällig - bitte Termin vereinbaren';'Impfzeitraum aktuell fällig';'5';'1';'L';'';'';''
'789539003';'2.16.840.1.113883.6.96';'Impftermin anstehend';'https://termgit.elga.gv.at/CodeSystem/snomed-ct-auszug';'Laut Impfplan Österreich ist demnächst eine Impfung fällig. Bitte vereinbaren Sie einen Impftermin.';'Impfung fällig - bitte Termin vereinbaren';'Nächster frühester Impfzeitraum liegt weniger als 3 Monate in der Zukunft';'6';'1';'L';'';'';''
'_Grau';'1.2.40.0.34.5.183';'Grau';'https://termgit.elga.gv.at/CodeSystem/eimpf-ergaenzung';'';'';'';'7';'0';'A';'';'';''
'122541000119104';'2.16.840.1.113883.6.96';'Impfung notwendig';'https://termgit.elga.gv.at/CodeSystem/snomed-ct-auszug';'Laut Impfplan Österreich ist zukünftig eine Impfung fällig. Aktuell ist keine Handlung erfoderlich.';'Noch keine Handlung nötig';'Keine Daten zur empfohlenen Impfung vorhanden UND Impfzeitraum liegt mehr als 3 Monate in der Zukunft';'8';'1';'L';'';'';''
'_Grün';'1.2.40.0.34.5.183';'Grün';'https://termgit.elga.gv.at/CodeSystem/eimpf-ergaenzung';'';'';'';'9';'0';'A';'';'';''
'191441008';'2.16.840.1.113883.6.96';'Immunität erworben';'https://termgit.elga.gv.at/CodeSystem/snomed-ct-auszug';'Laut Impfplan Österreich ist aufgrund durchgemachter Erkrankung keine Impfung empfohlen.';'Keine Handlung nötig';'Keine Impfung mehr notwendig (nach durchgemachter Erkrankung)';'10';'1';'L';'';'';''
'713404003';'2.16.840.1.113883.6.96';'Impfung verabreicht';'https://termgit.elga.gv.at/CodeSystem/snomed-ct-auszug';'Laut Impfplan Österreich ist keine weitere Impfung erforderlich.';'Keine Handlung nötig';'Keine Impfung mehr notwendig (z.B. Immunisierung abgeschlossen)';'11';'1';'L';'';'';''
'171258008';'2.16.840.1.113883.6.96';'Impfschutz auf dem neuesten Stand';'https://termgit.elga.gv.at/CodeSystem/snomed-ct-auszug';'Laut Impfplan Österreich ist aktuell keine Impfung erforderlich.';'Keine Handlung nötig';'Nächster frühester Impfzeitraum liegt mehr als 3 Monate in der Zukunft';'12';'1';'L';'';'';''
'161413004';'2.16.840.1.113883.6.96';'Durchgemachte Infektionskrankheit';'https://termgit.elga.gv.at/CodeSystem/snomed-ct-auszug';'Laut Impfplan Österreich ist aufgrund durchgemachter Erkrankung aktuell keine Impfung erforderlich.';'Keine Handlung nötig';'Derzeit keine Impfung notwendig (nach durchgemachter Erkrankung)';'13';'1';'L';'';'';''
'_Blau';'1.2.40.0.34.5.183';'Blau';'https://termgit.elga.gv.at/CodeSystem/eimpf-ergaenzung';'';'';'';'14';'0';'A';'';'';''
'723620004';'2.16.840.1.113883.6.96';'Erfordert Impfung';'https://termgit.elga.gv.at/CodeSystem/snomed-ct-auszug';'Laut Impfplan Österreich ist eine Impfung für Sie prinzipiell empfohlen. Mit den vorhandenen Daten konnte kein empfohlenes Impfdatum ermittelt werden. Bitte vereinbaren Sie einen Termin zur ärztlichen Abklärung.';'Ärztliche Abklärung empfohlen - Keine Terminberechnung möglich';'Keine Daten berechenbar (Fehlersituation)';'15';'1';'L';'';'';''
'171288004';'2.16.840.1.113883.6.96';'Keine Aufzeichnungen über Impfungen';'https://termgit.elga.gv.at/CodeSystem/snomed-ct-auszug';'Es wurden noch keine Daten erfasst. Laut Impfplan Österreich ist eine Impfung für Sie prinzipiell empfohlen. Bitte vereinbaren Sie einen Termin zur ärztlichen Abklärung/Nachtragung.';'Keine Daten erfasst - bitte Termin vereinbaren';'Keine Daten zur empfohlenen Impfung erfasst';'16';'1';'L';'';'';''
'_Ausnahme';'1.2.40.0.34.5.183';'Ausnahme';'https://termgit.elga.gv.at/CodeSystem/eimpf-ergaenzung';'';'';'';'17';'0';'A';'';'';''
'266758009';'2.16.840.1.113883.6.96';'Impfung kontraindiziert';'https://termgit.elga.gv.at/CodeSystem/snomed-ct-auszug';'Derzeit besteht eine Ausnahme von der Impfpflicht gegen COVID-19.';'Derzeit keine Handlung erforderlich.';'Derzeit ist keine SARS-CoV-2 Impfung erforderlich.';'18';'1';'L';'';'';''
