'code';'codeSystem';'displayName';'parentCodeSystemName';'concept_Beschreibung';'meaning';'hints';'orderNumber';'level';'type';'relationships';'einheit print';'einheit codiert'
'AC';'1.2.40.0.34.5.202';'Ascension Island';'https://termgit.elga.gv.at/CodeSystem/dgc-qr';'Ascension Island';'Ascension (verwaltet von St. Helena, reserviert für UPU und ITU)';'';'1';'0';'L';'1.2.40.0.34.5.202:AC';'';''
'AD';'1.2.40.0.34.5.202';'Andorra';'https://termgit.elga.gv.at/CodeSystem/dgc-qr';'Andorra';'';'';'2';'0';'L';'1.2.40.0.34.5.202:AD';'';''
'AE';'1.2.40.0.34.5.202';'United Arab Emirates (the)';'https://termgit.elga.gv.at/CodeSystem/dgc-qr';'United Arab Emirates (the)';'Vereinigte Arab.Emirate';'';'3';'0';'L';'1.2.40.0.34.5.202:AE';'';''
'AF';'1.2.40.0.34.5.202';'Afghanistan';'https://termgit.elga.gv.at/CodeSystem/dgc-qr';'Afghanistan';'';'';'4';'0';'L';'1.2.40.0.34.5.202:AF';'';''
'AG';'1.2.40.0.34.5.202';'Antigua and Barbuda';'https://termgit.elga.gv.at/CodeSystem/dgc-qr';'Antigua and Barbuda';'Antigua und Barbuda';'';'5';'0';'L';'1.2.40.0.34.5.202:AG';'';''
'AI';'1.2.40.0.34.5.202';'Anguilla';'https://termgit.elga.gv.at/CodeSystem/dgc-qr';'Anguilla';'';'';'6';'0';'L';'1.2.40.0.34.5.202:AI';'';''
'AL';'1.2.40.0.34.5.202';'Albania';'https://termgit.elga.gv.at/CodeSystem/dgc-qr';'Albania';'Albanien';'';'7';'0';'L';'1.2.40.0.34.5.202:AL';'';''
'AM';'1.2.40.0.34.5.202';'Armenia';'https://termgit.elga.gv.at/CodeSystem/dgc-qr';'Armenia';'Armenien';'';'8';'0';'L';'1.2.40.0.34.5.202:AM';'';''
'AN';'1.2.40.0.34.5.202';'Netherlands Antilles';'https://termgit.elga.gv.at/CodeSystem/dgc-qr';'Netherlands Antilles';'Niedl.Antillen';'';'9';'0';'L';'1.2.40.0.34.5.202:AN';'';''
'AO';'1.2.40.0.34.5.202';'Angola';'https://termgit.elga.gv.at/CodeSystem/dgc-qr';'Angola';'';'';'10';'0';'L';'1.2.40.0.34.5.202:AO';'';''
'AQ';'1.2.40.0.34.5.202';'Antarctica';'https://termgit.elga.gv.at/CodeSystem/dgc-qr';'Antarctica';'Antarktis';'';'11';'0';'L';'1.2.40.0.34.5.202:AQ';'';''
'AR';'1.2.40.0.34.5.202';'Argentina';'https://termgit.elga.gv.at/CodeSystem/dgc-qr';'Argentina';'Argentinien';'';'12';'0';'L';'1.2.40.0.34.5.202:AR';'';''
'AS';'1.2.40.0.34.5.202';'American Samoa';'https://termgit.elga.gv.at/CodeSystem/dgc-qr';'American Samoa';'Amerikan.Samoa';'';'13';'0';'L';'1.2.40.0.34.5.202:AS';'';''
'AT';'1.2.40.0.34.5.202';'Austria';'https://termgit.elga.gv.at/CodeSystem/dgc-qr';'Austria';'Österreich';'';'14';'0';'L';'1.2.40.0.34.5.202:AT';'';''
'AU';'1.2.40.0.34.5.202';'Australia';'https://termgit.elga.gv.at/CodeSystem/dgc-qr';'Australia';'Australien';'';'15';'0';'L';'1.2.40.0.34.5.202:AU';'';''
'AW';'1.2.40.0.34.5.202';'Aruba';'https://termgit.elga.gv.at/CodeSystem/dgc-qr';'Aruba';'';'';'16';'0';'L';'1.2.40.0.34.5.202:AW';'';''
'AX';'1.2.40.0.34.5.202';'Åland Islands';'https://termgit.elga.gv.at/CodeSystem/dgc-qr';'Åland Islands';'Alandinseln';'';'17';'0';'L';'1.2.40.0.34.5.202:AX';'';''
'AZ';'1.2.40.0.34.5.202';'Azerbaijan';'https://termgit.elga.gv.at/CodeSystem/dgc-qr';'Azerbaijan';'Aserbaidschan';'';'18';'0';'L';'1.2.40.0.34.5.202:AZ';'';''
'BA';'1.2.40.0.34.5.202';'Bosnia and Herzegovina';'https://termgit.elga.gv.at/CodeSystem/dgc-qr';'Bosnia and Herzegovina';'Bosnien und Herzegowina';'';'19';'0';'L';'1.2.40.0.34.5.202:BA';'';''
'BB';'1.2.40.0.34.5.202';'Barbados';'https://termgit.elga.gv.at/CodeSystem/dgc-qr';'Barbados';'';'';'20';'0';'L';'1.2.40.0.34.5.202:BB';'';''
'BD';'1.2.40.0.34.5.202';'Bangladesh';'https://termgit.elga.gv.at/CodeSystem/dgc-qr';'Bangladesh';'Bangladesch';'';'21';'0';'L';'1.2.40.0.34.5.202:BD';'';''
'BE';'1.2.40.0.34.5.202';'Belgium';'https://termgit.elga.gv.at/CodeSystem/dgc-qr';'Belgium';'Belgien';'';'22';'0';'L';'1.2.40.0.34.5.202:BE';'';''
'BF';'1.2.40.0.34.5.202';'Burkina Faso';'https://termgit.elga.gv.at/CodeSystem/dgc-qr';'Burkina Faso';'';'';'23';'0';'L';'1.2.40.0.34.5.202:BF';'';''
'BG';'1.2.40.0.34.5.202';'Bulgaria';'https://termgit.elga.gv.at/CodeSystem/dgc-qr';'Bulgaria';'Bulgarien';'';'24';'0';'L';'1.2.40.0.34.5.202:BG';'';''
'BH';'1.2.40.0.34.5.202';'Bahrain';'https://termgit.elga.gv.at/CodeSystem/dgc-qr';'Bahrain';'';'';'25';'0';'L';'1.2.40.0.34.5.202:BH';'';''
'BI';'1.2.40.0.34.5.202';'Burundi';'https://termgit.elga.gv.at/CodeSystem/dgc-qr';'Burundi';'';'';'26';'0';'L';'1.2.40.0.34.5.202:BI';'';''
'BJ';'1.2.40.0.34.5.202';'Benin';'https://termgit.elga.gv.at/CodeSystem/dgc-qr';'Benin';'';'';'27';'0';'L';'1.2.40.0.34.5.202:BJ';'';''
'BL';'1.2.40.0.34.5.202';'Saint Barthélemy';'https://termgit.elga.gv.at/CodeSystem/dgc-qr';'Saint Barthélemy';'Saint-Barthélemy';'';'28';'0';'L';'1.2.40.0.34.5.202:BL';'';''
'BM';'1.2.40.0.34.5.202';'Bermuda';'https://termgit.elga.gv.at/CodeSystem/dgc-qr';'Bermuda';'';'';'29';'0';'L';'1.2.40.0.34.5.202:BM';'';''
'BN';'1.2.40.0.34.5.202';'Brunei Darussalam';'https://termgit.elga.gv.at/CodeSystem/dgc-qr';'Brunei Darussalam';'';'';'30';'0';'L';'1.2.40.0.34.5.202:BN';'';''
'BO';'1.2.40.0.34.5.202';'Bolivia (Plurinational State of)';'https://termgit.elga.gv.at/CodeSystem/dgc-qr';'Bolivia (Plurinational State of)';'Bolivien';'';'31';'0';'L';'1.2.40.0.34.5.202:BO';'';''
'BQ';'1.2.40.0.34.5.202';'Bonaire, Sint Eustatius and Saba';'https://termgit.elga.gv.at/CodeSystem/dgc-qr';'Bonaire, Sint Eustatius and Saba';'Bonaire,  Saba,  Sint Eustatius';'';'32';'0';'L';'1.2.40.0.34.5.202:BQ';'';''
'BR';'1.2.40.0.34.5.202';'Brazil';'https://termgit.elga.gv.at/CodeSystem/dgc-qr';'Brazil';'Brasilien';'';'33';'0';'L';'1.2.40.0.34.5.202:BR';'';''
'BS';'1.2.40.0.34.5.202';'Bahamas (the)';'https://termgit.elga.gv.at/CodeSystem/dgc-qr';'Bahamas (the)';'Bahamas';'';'34';'0';'L';'1.2.40.0.34.5.202:BS';'';''
'BT';'1.2.40.0.34.5.202';'Bhutan';'https://termgit.elga.gv.at/CodeSystem/dgc-qr';'Bhutan';'';'';'35';'0';'L';'1.2.40.0.34.5.202:BT';'';''
'BV';'1.2.40.0.34.5.202';'Bouvet Island';'https://termgit.elga.gv.at/CodeSystem/dgc-qr';'Bouvet Island';'Bouvetinsel';'';'36';'0';'L';'1.2.40.0.34.5.202:BV';'';''
'BW';'1.2.40.0.34.5.202';'Botswana';'https://termgit.elga.gv.at/CodeSystem/dgc-qr';'Botswana';'Botsuana';'';'37';'0';'L';'1.2.40.0.34.5.202:BW';'';''
'BY';'1.2.40.0.34.5.202';'Belarus';'https://termgit.elga.gv.at/CodeSystem/dgc-qr';'Belarus';'';'';'38';'0';'L';'1.2.40.0.34.5.202:BY';'';''
'BZ';'1.2.40.0.34.5.202';'Belize';'https://termgit.elga.gv.at/CodeSystem/dgc-qr';'Belize';'';'';'39';'0';'L';'1.2.40.0.34.5.202:BZ';'';''
'CA';'1.2.40.0.34.5.202';'Canada';'https://termgit.elga.gv.at/CodeSystem/dgc-qr';'Canada';'Kanada';'';'40';'0';'L';'1.2.40.0.34.5.202:CA';'';''
'CC';'1.2.40.0.34.5.202';'Cocos (Keeling) Islands (the)';'https://termgit.elga.gv.at/CodeSystem/dgc-qr';'Cocos (Keeling) Islands (the)';'Kokosinseln(Au)';'';'41';'0';'L';'1.2.40.0.34.5.202:CC';'';''
'CD';'1.2.40.0.34.5.202';'Congo (the Democratic Republic of the)';'https://termgit.elga.gv.at/CodeSystem/dgc-qr';'Congo (the Democratic Republic of the)';'Kongo,Dem.Rep.(Kinshasa)';'';'42';'0';'L';'1.2.40.0.34.5.202:CD';'';''
'CF';'1.2.40.0.34.5.202';'Central African Republic (the)';'https://termgit.elga.gv.at/CodeSystem/dgc-qr';'Central African Republic (the)';'Zentralafrikan.Republik';'';'43';'0';'L';'1.2.40.0.34.5.202:CF';'';''
'CG';'1.2.40.0.34.5.202';'Congo (the)';'https://termgit.elga.gv.at/CodeSystem/dgc-qr';'Congo (the)';'Kongo,Rep. (Brazzaville)';'';'44';'0';'L';'1.2.40.0.34.5.202:CG';'';''
'CH';'1.2.40.0.34.5.202';'Switzerland';'https://termgit.elga.gv.at/CodeSystem/dgc-qr';'Switzerland';'Schweiz';'';'45';'0';'L';'1.2.40.0.34.5.202:CH';'';''
'CI';'1.2.40.0.34.5.202';'Côte d''Ivoire';'https://termgit.elga.gv.at/CodeSystem/dgc-qr';'Côte d''Ivoire';'Cote dIvoire';'';'46';'0';'L';'1.2.40.0.34.5.202:CI';'';''
'CK';'1.2.40.0.34.5.202';'Cook Islands (the)';'https://termgit.elga.gv.at/CodeSystem/dgc-qr';'Cook Islands (the)';'Cookinseln';'';'47';'0';'L';'1.2.40.0.34.5.202:CK';'';''
'CL';'1.2.40.0.34.5.202';'Chile';'https://termgit.elga.gv.at/CodeSystem/dgc-qr';'Chile';'';'';'48';'0';'L';'1.2.40.0.34.5.202:CL';'';''
'CM';'1.2.40.0.34.5.202';'Cameroon';'https://termgit.elga.gv.at/CodeSystem/dgc-qr';'Cameroon';'Kamerun';'';'49';'0';'L';'1.2.40.0.34.5.202:CM';'';''
'CN';'1.2.40.0.34.5.202';'China';'https://termgit.elga.gv.at/CodeSystem/dgc-qr';'China';'';'';'50';'0';'L';'1.2.40.0.34.5.202:CN';'';''
'CO';'1.2.40.0.34.5.202';'Colombia';'https://termgit.elga.gv.at/CodeSystem/dgc-qr';'Colombia';'Kolumbien';'';'51';'0';'L';'1.2.40.0.34.5.202:CO';'';''
'CR';'1.2.40.0.34.5.202';'Costa Rica';'https://termgit.elga.gv.at/CodeSystem/dgc-qr';'Costa Rica';'';'';'52';'0';'L';'1.2.40.0.34.5.202:CR';'';''
'CU';'1.2.40.0.34.5.202';'Cuba';'https://termgit.elga.gv.at/CodeSystem/dgc-qr';'Cuba';'Kuba';'';'53';'0';'L';'1.2.40.0.34.5.202:CU';'';''
'CV';'1.2.40.0.34.5.202';'Cabo Verde';'https://termgit.elga.gv.at/CodeSystem/dgc-qr';'Cabo Verde';'Kap Verde';'';'54';'0';'L';'1.2.40.0.34.5.202:CV';'';''
'CX';'1.2.40.0.34.5.202';'Christmas Island';'https://termgit.elga.gv.at/CodeSystem/dgc-qr';'Christmas Island';'Weihnachtsinsel';'';'55';'0';'L';'1.2.40.0.34.5.202:CX';'';''
'CY';'1.2.40.0.34.5.202';'Cyprus';'https://termgit.elga.gv.at/CodeSystem/dgc-qr';'Cyprus';'Zypern';'';'56';'0';'L';'1.2.40.0.34.5.202:CY';'';''
'CZ';'1.2.40.0.34.5.202';'Czechia';'https://termgit.elga.gv.at/CodeSystem/dgc-qr';'Czechia';'Tschechische Republik';'';'57';'0';'L';'1.2.40.0.34.5.202:CZ';'';''
'DE';'1.2.40.0.34.5.202';'Germany';'https://termgit.elga.gv.at/CodeSystem/dgc-qr';'Germany';'Deutschland';'';'58';'0';'L';'1.2.40.0.34.5.202:DE';'';''
'DJ';'1.2.40.0.34.5.202';'Djibouti';'https://termgit.elga.gv.at/CodeSystem/dgc-qr';'Djibouti';'Dschibuti';'';'59';'0';'L';'1.2.40.0.34.5.202:DJ';'';''
'DK';'1.2.40.0.34.5.202';'Denmark';'https://termgit.elga.gv.at/CodeSystem/dgc-qr';'Denmark';'Dänemark';'';'60';'0';'L';'1.2.40.0.34.5.202:DK';'';''
'DM';'1.2.40.0.34.5.202';'Dominica';'https://termgit.elga.gv.at/CodeSystem/dgc-qr';'Dominica';'';'';'61';'0';'L';'1.2.40.0.34.5.202:DM';'';''
'DO';'1.2.40.0.34.5.202';'Dominican Republic (the)';'https://termgit.elga.gv.at/CodeSystem/dgc-qr';'Dominican Republic (the)';'Dominikanische Republik';'';'62';'0';'L';'1.2.40.0.34.5.202:DO';'';''
'DZ';'1.2.40.0.34.5.202';'Algeria';'https://termgit.elga.gv.at/CodeSystem/dgc-qr';'Algeria';'Algerien';'';'63';'0';'L';'1.2.40.0.34.5.202:DZ';'';''
'EC';'1.2.40.0.34.5.202';'Ecuador';'https://termgit.elga.gv.at/CodeSystem/dgc-qr';'Ecuador';'';'';'64';'0';'L';'1.2.40.0.34.5.202:EC';'';''
'EE';'1.2.40.0.34.5.202';'Estonia';'https://termgit.elga.gv.at/CodeSystem/dgc-qr';'Estonia';'Estland';'';'65';'0';'L';'1.2.40.0.34.5.202:EE';'';''
'EG';'1.2.40.0.34.5.202';'Egypt';'https://termgit.elga.gv.at/CodeSystem/dgc-qr';'Egypt';'Ägypten';'';'66';'0';'L';'1.2.40.0.34.5.202:EG';'';''
'EH';'1.2.40.0.34.5.202';'Western Sahara';'https://termgit.elga.gv.at/CodeSystem/dgc-qr';'Western Sahara';'Westsahara';'';'67';'0';'L';'1.2.40.0.34.5.202:EH';'';''
'ER';'1.2.40.0.34.5.202';'Eritrea';'https://termgit.elga.gv.at/CodeSystem/dgc-qr';'Eritrea';'';'';'68';'0';'L';'1.2.40.0.34.5.202:ER';'';''
'ES';'1.2.40.0.34.5.202';'Spain';'https://termgit.elga.gv.at/CodeSystem/dgc-qr';'Spain';'Spanien';'';'69';'0';'L';'1.2.40.0.34.5.202:ES';'';''
'ET';'1.2.40.0.34.5.202';'Ethiopia';'https://termgit.elga.gv.at/CodeSystem/dgc-qr';'Ethiopia';'Äthiopien';'';'70';'0';'L';'1.2.40.0.34.5.202:ET';'';''
'FI';'1.2.40.0.34.5.202';'Finland';'https://termgit.elga.gv.at/CodeSystem/dgc-qr';'Finland';'Finnland';'';'71';'0';'L';'1.2.40.0.34.5.202:FI';'';''
'FJ';'1.2.40.0.34.5.202';'Fiji';'https://termgit.elga.gv.at/CodeSystem/dgc-qr';'Fiji';'Fidschi';'';'72';'0';'L';'1.2.40.0.34.5.202:FJ';'';''
'FK';'1.2.40.0.34.5.202';'Falkland Islands (the) [Malvinas]';'https://termgit.elga.gv.at/CodeSystem/dgc-qr';'Falkland Islands (the) [Malvinas]';'Falklandinseln';'';'73';'0';'L';'1.2.40.0.34.5.202:FK';'';''
'FM';'1.2.40.0.34.5.202';'Micronesia (Federated States of)';'https://termgit.elga.gv.at/CodeSystem/dgc-qr';'Micronesia (Federated States of)';'Mikronesien,Föd.Staat.von';'';'74';'0';'L';'1.2.40.0.34.5.202:FM';'';''
'FO';'1.2.40.0.34.5.202';'Faroe Islands (the)';'https://termgit.elga.gv.at/CodeSystem/dgc-qr';'Faroe Islands (the)';'Färöer';'';'75';'0';'L';'1.2.40.0.34.5.202:FO';'';''
'FR';'1.2.40.0.34.5.202';'France';'https://termgit.elga.gv.at/CodeSystem/dgc-qr';'France';'Frankreich';'';'76';'0';'L';'1.2.40.0.34.5.202:FR';'';''
'GA';'1.2.40.0.34.5.202';'Gabon';'https://termgit.elga.gv.at/CodeSystem/dgc-qr';'Gabon';'Gabun';'';'77';'0';'L';'1.2.40.0.34.5.202:GA';'';''
'GB';'1.2.40.0.34.5.202';'United Kingdom of Great Britain and Northern Ireland (the)';'https://termgit.elga.gv.at/CodeSystem/dgc-qr';'United Kingdom of Great Britain and Northern Ireland (the)';'Vereinigtes Königreich';'';'78';'0';'L';'1.2.40.0.34.5.202:GB';'';''
'GD';'1.2.40.0.34.5.202';'Grenada';'https://termgit.elga.gv.at/CodeSystem/dgc-qr';'Grenada';'';'';'79';'0';'L';'1.2.40.0.34.5.202:GD';'';''
'GE';'1.2.40.0.34.5.202';'Georgia';'https://termgit.elga.gv.at/CodeSystem/dgc-qr';'Georgia';'Georgien';'';'80';'0';'L';'1.2.40.0.34.5.202:GE';'';''
'GF';'1.2.40.0.34.5.202';'French Guiana';'https://termgit.elga.gv.at/CodeSystem/dgc-qr';'French Guiana';'Franz.Guayana';'';'81';'0';'L';'1.2.40.0.34.5.202:GF';'';''
'GG';'1.2.40.0.34.5.202';'Guernsey';'https://termgit.elga.gv.at/CodeSystem/dgc-qr';'Guernsey';'Guernsey (nur SV)';'';'82';'0';'L';'1.2.40.0.34.5.202:GG';'';''
'GH';'1.2.40.0.34.5.202';'Ghana';'https://termgit.elga.gv.at/CodeSystem/dgc-qr';'Ghana';'';'';'83';'0';'L';'1.2.40.0.34.5.202:GH';'';''
'GI';'1.2.40.0.34.5.202';'Gibraltar';'https://termgit.elga.gv.at/CodeSystem/dgc-qr';'Gibraltar';'';'';'84';'0';'L';'1.2.40.0.34.5.202:GI';'';''
'GL';'1.2.40.0.34.5.202';'Greenland';'https://termgit.elga.gv.at/CodeSystem/dgc-qr';'Greenland';'Grönland';'';'85';'0';'L';'1.2.40.0.34.5.202:GL';'';''
'GM';'1.2.40.0.34.5.202';'Gambia (the)';'https://termgit.elga.gv.at/CodeSystem/dgc-qr';'Gambia (the)';'Gambia';'';'86';'0';'L';'1.2.40.0.34.5.202:GM';'';''
'GN';'1.2.40.0.34.5.202';'Guinea';'https://termgit.elga.gv.at/CodeSystem/dgc-qr';'Guinea';'';'';'87';'0';'L';'1.2.40.0.34.5.202:GN';'';''
'GP';'1.2.40.0.34.5.202';'Guadeloupe';'https://termgit.elga.gv.at/CodeSystem/dgc-qr';'Guadeloupe';'';'';'88';'0';'L';'1.2.40.0.34.5.202:GP';'';''
'GQ';'1.2.40.0.34.5.202';'Equatorial Guinea';'https://termgit.elga.gv.at/CodeSystem/dgc-qr';'Equatorial Guinea';'Äquatorialguinea';'';'89';'0';'L';'1.2.40.0.34.5.202:GQ';'';''
'GR';'1.2.40.0.34.5.202';'Greece';'https://termgit.elga.gv.at/CodeSystem/dgc-qr';'Greece';'Griechenland';'';'90';'0';'L';'1.2.40.0.34.5.202:GR';'';''
'GT';'1.2.40.0.34.5.202';'Guatemala';'https://termgit.elga.gv.at/CodeSystem/dgc-qr';'Guatemala';'';'';'91';'0';'L';'1.2.40.0.34.5.202:GT';'';''
'GU';'1.2.40.0.34.5.202';'Guam';'https://termgit.elga.gv.at/CodeSystem/dgc-qr';'Guam';'';'';'92';'0';'L';'1.2.40.0.34.5.202:GU';'';''
'GW';'1.2.40.0.34.5.202';'Guinea-Bissau';'https://termgit.elga.gv.at/CodeSystem/dgc-qr';'Guinea-Bissau';'';'';'93';'0';'L';'1.2.40.0.34.5.202:GW';'';''
'GY';'1.2.40.0.34.5.202';'Guyana';'https://termgit.elga.gv.at/CodeSystem/dgc-qr';'Guyana';'';'';'94';'0';'L';'1.2.40.0.34.5.202:GY';'';''
'HK';'1.2.40.0.34.5.202';'Hong Kong';'https://termgit.elga.gv.at/CodeSystem/dgc-qr';'Hong Kong';'Hongkong';'';'95';'0';'L';'1.2.40.0.34.5.202:HK';'';''
'HL';'1.2.40.0.34.5.202';'Saint Helena';'https://termgit.elga.gv.at/CodeSystem/dgc-qr';'Saint Helena';'St. Helena';'';'96';'0';'L';'1.2.40.0.34.5.202:HL';'';''
'HM';'1.2.40.0.34.5.202';'Heard Island and McDonald Islands';'https://termgit.elga.gv.at/CodeSystem/dgc-qr';'Heard Island and McDonald Islands';'Heard/McDonaldi';'';'97';'0';'L';'1.2.40.0.34.5.202:HM';'';''
'HN';'1.2.40.0.34.5.202';'Honduras';'https://termgit.elga.gv.at/CodeSystem/dgc-qr';'Honduras';'';'';'98';'0';'L';'1.2.40.0.34.5.202:HN';'';''
'HR';'1.2.40.0.34.5.202';'Croatia';'https://termgit.elga.gv.at/CodeSystem/dgc-qr';'Croatia';'Kroatien';'';'99';'0';'L';'1.2.40.0.34.5.202:HR';'';''
'HT';'1.2.40.0.34.5.202';'Haiti';'https://termgit.elga.gv.at/CodeSystem/dgc-qr';'Haiti';'';'';'100';'0';'L';'1.2.40.0.34.5.202:HT';'';''
'HU';'1.2.40.0.34.5.202';'Hungary';'https://termgit.elga.gv.at/CodeSystem/dgc-qr';'Hungary';'Ungarn';'';'101';'0';'L';'1.2.40.0.34.5.202:HU';'';''
'ID';'1.2.40.0.34.5.202';'Indonesia';'https://termgit.elga.gv.at/CodeSystem/dgc-qr';'Indonesia';'Indonesien';'';'102';'0';'L';'1.2.40.0.34.5.202:ID';'';''
'IE';'1.2.40.0.34.5.202';'Ireland';'https://termgit.elga.gv.at/CodeSystem/dgc-qr';'Ireland';'Irland';'';'103';'0';'L';'1.2.40.0.34.5.202:IE';'';''
'IL';'1.2.40.0.34.5.202';'Israel';'https://termgit.elga.gv.at/CodeSystem/dgc-qr';'Israel';'';'';'104';'0';'L';'1.2.40.0.34.5.202:IL';'';''
'IM';'1.2.40.0.34.5.202';'Isle of Man';'https://termgit.elga.gv.at/CodeSystem/dgc-qr';'Isle of Man';'Isle of Man (nur SV)';'';'105';'0';'L';'1.2.40.0.34.5.202:IM';'';''
'IN';'1.2.40.0.34.5.202';'India';'https://termgit.elga.gv.at/CodeSystem/dgc-qr';'India';'Indien';'';'106';'0';'L';'1.2.40.0.34.5.202:IN';'';''
'IO';'1.2.40.0.34.5.202';'British Indian Ocean Territory (the)';'https://termgit.elga.gv.at/CodeSystem/dgc-qr';'British Indian Ocean Territory (the)';'Br.Terr/Ind.Ozn';'';'107';'0';'L';'1.2.40.0.34.5.202:IO';'';''
'IQ';'1.2.40.0.34.5.202';'Iraq';'https://termgit.elga.gv.at/CodeSystem/dgc-qr';'Iraq';'Irak';'';'108';'0';'L';'1.2.40.0.34.5.202:IQ';'';''
'IR';'1.2.40.0.34.5.202';'Iran (Islamic Republic of)';'https://termgit.elga.gv.at/CodeSystem/dgc-qr';'Iran (Islamic Republic of)';'Iran,Islamische Republik';'';'109';'0';'L';'1.2.40.0.34.5.202:IR';'';''
'IS';'1.2.40.0.34.5.202';'Iceland';'https://termgit.elga.gv.at/CodeSystem/dgc-qr';'Iceland';'Island';'';'110';'0';'L';'1.2.40.0.34.5.202:IS';'';''
'IT';'1.2.40.0.34.5.202';'Italy';'https://termgit.elga.gv.at/CodeSystem/dgc-qr';'Italy';'Italien';'';'111';'0';'L';'1.2.40.0.34.5.202:IT';'';''
'JE';'1.2.40.0.34.5.202';'Jersey';'https://termgit.elga.gv.at/CodeSystem/dgc-qr';'Jersey';'Jersey (nur SV)';'';'112';'0';'L';'1.2.40.0.34.5.202:JE';'';''
'JM';'1.2.40.0.34.5.202';'Jamaica';'https://termgit.elga.gv.at/CodeSystem/dgc-qr';'Jamaica';'Jamaika';'';'113';'0';'L';'1.2.40.0.34.5.202:JM';'';''
'JO';'1.2.40.0.34.5.202';'Jordan';'https://termgit.elga.gv.at/CodeSystem/dgc-qr';'Jordan';'Jordanien';'';'114';'0';'L';'1.2.40.0.34.5.202:JO';'';''
'JP';'1.2.40.0.34.5.202';'Japan';'https://termgit.elga.gv.at/CodeSystem/dgc-qr';'Japan';'';'';'115';'0';'L';'1.2.40.0.34.5.202:JP';'';''
'KE';'1.2.40.0.34.5.202';'Kenya';'https://termgit.elga.gv.at/CodeSystem/dgc-qr';'Kenya';'Kenia';'';'116';'0';'L';'1.2.40.0.34.5.202:KE';'';''
'KG';'1.2.40.0.34.5.202';'Kyrgyzstan';'https://termgit.elga.gv.at/CodeSystem/dgc-qr';'Kyrgyzstan';'Kirgisistan';'';'117';'0';'L';'1.2.40.0.34.5.202:KG';'';''
'KH';'1.2.40.0.34.5.202';'Cambodia';'https://termgit.elga.gv.at/CodeSystem/dgc-qr';'Cambodia';'Kambodscha';'';'118';'0';'L';'1.2.40.0.34.5.202:KH';'';''
'KI';'1.2.40.0.34.5.202';'Kiribati';'https://termgit.elga.gv.at/CodeSystem/dgc-qr';'Kiribati';'';'';'119';'0';'L';'1.2.40.0.34.5.202:KI';'';''
'KM';'1.2.40.0.34.5.202';'Comoros (the)';'https://termgit.elga.gv.at/CodeSystem/dgc-qr';'Comoros (the)';'Komoren';'';'120';'0';'L';'1.2.40.0.34.5.202:KM';'';''
'KN';'1.2.40.0.34.5.202';'Saint Kitts and Nevis';'https://termgit.elga.gv.at/CodeSystem/dgc-qr';'Saint Kitts and Nevis';'St.Kitts und Nevis';'';'121';'0';'L';'1.2.40.0.34.5.202:KN';'';''
'KP';'1.2.40.0.34.5.202';'Korea (the Democratic People''s Republic of)';'https://termgit.elga.gv.at/CodeSystem/dgc-qr';'Korea (the Democratic People''s Republic of)';'Korea,Dem.Volksrepublik';'';'122';'0';'L';'1.2.40.0.34.5.202:KP';'';''
'KR';'1.2.40.0.34.5.202';'Korea (the Republic of)';'https://termgit.elga.gv.at/CodeSystem/dgc-qr';'Korea (the Republic of)';'Korea,Republik';'';'123';'0';'L';'1.2.40.0.34.5.202:KR';'';''
'KS';'1.2.40.0.34.5.202';'Kosovo (Republic of)';'https://termgit.elga.gv.at/CodeSystem/dgc-qr';'Kosovo (Republic of)';'Kosovo, Republik';'';'124';'0';'L';'1.2.40.0.34.5.202:KS';'';''
'KW';'1.2.40.0.34.5.202';'Kuwait';'https://termgit.elga.gv.at/CodeSystem/dgc-qr';'Kuwait';'';'';'125';'0';'L';'1.2.40.0.34.5.202:KW';'';''
'KY';'1.2.40.0.34.5.202';'Cayman Islands (the)';'https://termgit.elga.gv.at/CodeSystem/dgc-qr';'Cayman Islands (the)';'Kaimaninseln';'';'126';'0';'L';'1.2.40.0.34.5.202:KY';'';''
'KZ';'1.2.40.0.34.5.202';'Kazakhstan';'https://termgit.elga.gv.at/CodeSystem/dgc-qr';'Kazakhstan';'Kasachstan';'';'127';'0';'L';'1.2.40.0.34.5.202:KZ';'';''
'LA';'1.2.40.0.34.5.202';'Lao People''s Democratic Republic (the)';'https://termgit.elga.gv.at/CodeSystem/dgc-qr';'Lao People''s Democratic Republic (the)';'Laos,Demokr.Volksrepublik';'';'128';'0';'L';'1.2.40.0.34.5.202:LA';'';''
'LB';'1.2.40.0.34.5.202';'Lebanon';'https://termgit.elga.gv.at/CodeSystem/dgc-qr';'Lebanon';'Libanon';'';'129';'0';'L';'1.2.40.0.34.5.202:LB';'';''
'LC';'1.2.40.0.34.5.202';'Saint Lucia';'https://termgit.elga.gv.at/CodeSystem/dgc-qr';'Saint Lucia';'St.Lucia';'';'130';'0';'L';'1.2.40.0.34.5.202:LC';'';''
'LI';'1.2.40.0.34.5.202';'Liechtenstein';'https://termgit.elga.gv.at/CodeSystem/dgc-qr';'Liechtenstein';'';'';'131';'0';'L';'1.2.40.0.34.5.202:LI';'';''
'LK';'1.2.40.0.34.5.202';'Sri Lanka';'https://termgit.elga.gv.at/CodeSystem/dgc-qr';'Sri Lanka';'';'';'132';'0';'L';'1.2.40.0.34.5.202:LK';'';''
'LR';'1.2.40.0.34.5.202';'Liberia';'https://termgit.elga.gv.at/CodeSystem/dgc-qr';'Liberia';'';'';'133';'0';'L';'1.2.40.0.34.5.202:LR';'';''
'LS';'1.2.40.0.34.5.202';'Lesotho';'https://termgit.elga.gv.at/CodeSystem/dgc-qr';'Lesotho';'';'';'134';'0';'L';'1.2.40.0.34.5.202:LS';'';''
'LT';'1.2.40.0.34.5.202';'Lithuania';'https://termgit.elga.gv.at/CodeSystem/dgc-qr';'Lithuania';'Litauen';'';'135';'0';'L';'1.2.40.0.34.5.202:LT';'';''
'LU';'1.2.40.0.34.5.202';'Luxembourg';'https://termgit.elga.gv.at/CodeSystem/dgc-qr';'Luxembourg';'Luxemburg';'';'136';'0';'L';'1.2.40.0.34.5.202:LU';'';''
'LV';'1.2.40.0.34.5.202';'Latvia';'https://termgit.elga.gv.at/CodeSystem/dgc-qr';'Latvia';'Lettland';'';'137';'0';'L';'1.2.40.0.34.5.202:LV';'';''
'LY';'1.2.40.0.34.5.202';'Libya';'https://termgit.elga.gv.at/CodeSystem/dgc-qr';'Libya';'Libysch-Arab.Dschamahir.';'';'138';'0';'L';'1.2.40.0.34.5.202:LY';'';''
'MA';'1.2.40.0.34.5.202';'Morocco';'https://termgit.elga.gv.at/CodeSystem/dgc-qr';'Morocco';'Marokko';'';'139';'0';'L';'1.2.40.0.34.5.202:MA';'';''
'MC';'1.2.40.0.34.5.202';'Monaco';'https://termgit.elga.gv.at/CodeSystem/dgc-qr';'Monaco';'';'';'140';'0';'L';'1.2.40.0.34.5.202:MC';'';''
'MD';'1.2.40.0.34.5.202';'Moldova (the Republic of)';'https://termgit.elga.gv.at/CodeSystem/dgc-qr';'Moldova (the Republic of)';'Moldau';'';'141';'0';'L';'1.2.40.0.34.5.202:MD';'';''
'ME';'1.2.40.0.34.5.202';'Montenegro';'https://termgit.elga.gv.at/CodeSystem/dgc-qr';'Montenegro';'';'';'142';'0';'L';'1.2.40.0.34.5.202:ME';'';''
'MG';'1.2.40.0.34.5.202';'Madagascar';'https://termgit.elga.gv.at/CodeSystem/dgc-qr';'Madagascar';'Madagaskar';'';'143';'0';'L';'1.2.40.0.34.5.202:MG';'';''
'MH';'1.2.40.0.34.5.202';'Marshall Islands (the)';'https://termgit.elga.gv.at/CodeSystem/dgc-qr';'Marshall Islands (the)';'Marshallinseln';'';'144';'0';'L';'1.2.40.0.34.5.202:MH';'';''
'MK';'1.2.40.0.34.5.202';'Republic of North Macedonia';'https://termgit.elga.gv.at/CodeSystem/dgc-qr';'Republic of North Macedonia';'Mazedonien,ehem.jug.Rep.';'';'145';'0';'L';'1.2.40.0.34.5.202:MK';'';''
'ML';'1.2.40.0.34.5.202';'Mali';'https://termgit.elga.gv.at/CodeSystem/dgc-qr';'Mali';'';'';'146';'0';'L';'1.2.40.0.34.5.202:ML';'';''
'MM';'1.2.40.0.34.5.202';'Myanmar';'https://termgit.elga.gv.at/CodeSystem/dgc-qr';'Myanmar';'Myanmar (früher:Birma)';'';'147';'0';'L';'1.2.40.0.34.5.202:MM';'';''
'MN';'1.2.40.0.34.5.202';'Mongolia';'https://termgit.elga.gv.at/CodeSystem/dgc-qr';'Mongolia';'Mongolei';'';'148';'0';'L';'1.2.40.0.34.5.202:MN';'';''
'MO';'1.2.40.0.34.5.202';'Macao';'https://termgit.elga.gv.at/CodeSystem/dgc-qr';'Macao';'Macau';'';'149';'0';'L';'1.2.40.0.34.5.202:MO';'';''
'MP';'1.2.40.0.34.5.202';'Northern Mariana Islands (the)';'https://termgit.elga.gv.at/CodeSystem/dgc-qr';'Northern Mariana Islands (the)';'Marianen,Nördl.';'';'150';'0';'L';'1.2.40.0.34.5.202:MP';'';''
'MQ';'1.2.40.0.34.5.202';'Martinique';'https://termgit.elga.gv.at/CodeSystem/dgc-qr';'Martinique';'';'';'151';'0';'L';'1.2.40.0.34.5.202:MQ';'';''
'MR';'1.2.40.0.34.5.202';'Mauritania';'https://termgit.elga.gv.at/CodeSystem/dgc-qr';'Mauritania';'Mauretanien';'';'152';'0';'L';'1.2.40.0.34.5.202:MR';'';''
'MS';'1.2.40.0.34.5.202';'Montserrat';'https://termgit.elga.gv.at/CodeSystem/dgc-qr';'Montserrat';'';'';'153';'0';'L';'1.2.40.0.34.5.202:MS';'';''
'MT';'1.2.40.0.34.5.202';'Malta';'https://termgit.elga.gv.at/CodeSystem/dgc-qr';'Malta';'';'';'154';'0';'L';'1.2.40.0.34.5.202:MT';'';''
'MU';'1.2.40.0.34.5.202';'Mauritius';'https://termgit.elga.gv.at/CodeSystem/dgc-qr';'Mauritius';'';'';'155';'0';'L';'1.2.40.0.34.5.202:MU';'';''
'MV';'1.2.40.0.34.5.202';'Maldives';'https://termgit.elga.gv.at/CodeSystem/dgc-qr';'Maldives';'Malediven';'';'156';'0';'L';'1.2.40.0.34.5.202:MV';'';''
'MW';'1.2.40.0.34.5.202';'Malawi';'https://termgit.elga.gv.at/CodeSystem/dgc-qr';'Malawi';'';'';'157';'0';'L';'1.2.40.0.34.5.202:MW';'';''
'MX';'1.2.40.0.34.5.202';'Mexico';'https://termgit.elga.gv.at/CodeSystem/dgc-qr';'Mexico';'Mexiko';'';'158';'0';'L';'1.2.40.0.34.5.202:MX';'';''
'MY';'1.2.40.0.34.5.202';'Malaysia';'https://termgit.elga.gv.at/CodeSystem/dgc-qr';'Malaysia';'';'';'159';'0';'L';'1.2.40.0.34.5.202:MY';'';''
'MZ';'1.2.40.0.34.5.202';'Mozambique';'https://termgit.elga.gv.at/CodeSystem/dgc-qr';'Mozambique';'Mosambik';'';'160';'0';'L';'1.2.40.0.34.5.202:MZ';'';''
'NA';'1.2.40.0.34.5.202';'Namibia';'https://termgit.elga.gv.at/CodeSystem/dgc-qr';'Namibia';'';'';'161';'0';'L';'1.2.40.0.34.5.202:NA';'';''
'NC';'1.2.40.0.34.5.202';'New Caledonia';'https://termgit.elga.gv.at/CodeSystem/dgc-qr';'New Caledonia';'Neukaledonien';'';'162';'0';'L';'1.2.40.0.34.5.202:NC';'';''
'NE';'1.2.40.0.34.5.202';'Niger (the)';'https://termgit.elga.gv.at/CodeSystem/dgc-qr';'Niger (the)';'Niger';'';'163';'0';'L';'1.2.40.0.34.5.202:NE';'';''
'NF';'1.2.40.0.34.5.202';'Norfolk Island';'https://termgit.elga.gv.at/CodeSystem/dgc-qr';'Norfolk Island';'Norfolkinsel';'';'164';'0';'L';'1.2.40.0.34.5.202:NF';'';''
'NG';'1.2.40.0.34.5.202';'Nigeria';'https://termgit.elga.gv.at/CodeSystem/dgc-qr';'Nigeria';'';'';'165';'0';'L';'1.2.40.0.34.5.202:NG';'';''
'NI';'1.2.40.0.34.5.202';'Nicaragua';'https://termgit.elga.gv.at/CodeSystem/dgc-qr';'Nicaragua';'';'';'166';'0';'L';'1.2.40.0.34.5.202:NI';'';''
'NL';'1.2.40.0.34.5.202';'Netherlands (the)';'https://termgit.elga.gv.at/CodeSystem/dgc-qr';'Netherlands (the)';'Niederlande';'';'167';'0';'L';'1.2.40.0.34.5.202:NL';'';''
'NO';'1.2.40.0.34.5.202';'Norway';'https://termgit.elga.gv.at/CodeSystem/dgc-qr';'Norway';'Norwegen';'';'168';'0';'L';'1.2.40.0.34.5.202:NO';'';''
'NP';'1.2.40.0.34.5.202';'Nepal';'https://termgit.elga.gv.at/CodeSystem/dgc-qr';'Nepal';'';'';'169';'0';'L';'1.2.40.0.34.5.202:NP';'';''
'NR';'1.2.40.0.34.5.202';'Nauru';'https://termgit.elga.gv.at/CodeSystem/dgc-qr';'Nauru';'';'';'170';'0';'L';'1.2.40.0.34.5.202:NR';'';''
'NU';'1.2.40.0.34.5.202';'Niue';'https://termgit.elga.gv.at/CodeSystem/dgc-qr';'Niue';'';'';'171';'0';'L';'1.2.40.0.34.5.202:NU';'';''
'NZ';'1.2.40.0.34.5.202';'New Zealand';'https://termgit.elga.gv.at/CodeSystem/dgc-qr';'New Zealand';'Neuseeland';'';'172';'0';'L';'1.2.40.0.34.5.202:NZ';'';''
'OM';'1.2.40.0.34.5.202';'Oman';'https://termgit.elga.gv.at/CodeSystem/dgc-qr';'Oman';'';'';'173';'0';'L';'1.2.40.0.34.5.202:OM';'';''
'PA';'1.2.40.0.34.5.202';'Panama';'https://termgit.elga.gv.at/CodeSystem/dgc-qr';'Panama';'';'';'174';'0';'L';'1.2.40.0.34.5.202:PA';'';''
'PE';'1.2.40.0.34.5.202';'Peru';'https://termgit.elga.gv.at/CodeSystem/dgc-qr';'Peru';'';'';'175';'0';'L';'1.2.40.0.34.5.202:PE';'';''
'PF';'1.2.40.0.34.5.202';'French Polynesia';'https://termgit.elga.gv.at/CodeSystem/dgc-qr';'French Polynesia';'Franz.Polynesien';'';'176';'0';'L';'1.2.40.0.34.5.202:PF';'';''
'PG';'1.2.40.0.34.5.202';'Papua New Guinea';'https://termgit.elga.gv.at/CodeSystem/dgc-qr';'Papua New Guinea';'Papua-Neuguinea';'';'177';'0';'L';'1.2.40.0.34.5.202:PG';'';''
'PH';'1.2.40.0.34.5.202';'Philippines (the)';'https://termgit.elga.gv.at/CodeSystem/dgc-qr';'Philippines (the)';'Philippinen';'';'178';'0';'L';'1.2.40.0.34.5.202:PH';'';''
'PK';'1.2.40.0.34.5.202';'Pakistan';'https://termgit.elga.gv.at/CodeSystem/dgc-qr';'Pakistan';'';'';'179';'0';'L';'1.2.40.0.34.5.202:PK';'';''
'PL';'1.2.40.0.34.5.202';'Poland';'https://termgit.elga.gv.at/CodeSystem/dgc-qr';'Poland';'Polen';'';'180';'0';'L';'1.2.40.0.34.5.202:PL';'';''
'PM';'1.2.40.0.34.5.202';'Saint Pierre and Miquelon';'https://termgit.elga.gv.at/CodeSystem/dgc-qr';'Saint Pierre and Miquelon';'St.Pierre/Miquel';'';'181';'0';'L';'1.2.40.0.34.5.202:PM';'';''
'PN';'1.2.40.0.34.5.202';'Pitcairn';'https://termgit.elga.gv.at/CodeSystem/dgc-qr';'Pitcairn';'Pitcairninseln';'';'182';'0';'L';'1.2.40.0.34.5.202:PN';'';''
'PR';'1.2.40.0.34.5.202';'Puerto Rico';'https://termgit.elga.gv.at/CodeSystem/dgc-qr';'Puerto Rico';'';'';'183';'0';'L';'1.2.40.0.34.5.202:PR';'';''
'PS';'1.2.40.0.34.5.202';'Palestine, State of';'https://termgit.elga.gv.at/CodeSystem/dgc-qr';'Palestine, State of';'Paläst/Wjld-Gaza';'';'184';'0';'L';'1.2.40.0.34.5.202:PS';'';''
'PT';'1.2.40.0.34.5.202';'Portugal';'https://termgit.elga.gv.at/CodeSystem/dgc-qr';'Portugal';'';'';'185';'0';'L';'1.2.40.0.34.5.202:PT';'';''
'PW';'1.2.40.0.34.5.202';'Palau';'https://termgit.elga.gv.at/CodeSystem/dgc-qr';'Palau';'';'';'186';'0';'L';'1.2.40.0.34.5.202:PW';'';''
'PY';'1.2.40.0.34.5.202';'Paraguay';'https://termgit.elga.gv.at/CodeSystem/dgc-qr';'Paraguay';'';'';'187';'0';'L';'1.2.40.0.34.5.202:PY';'';''
'QA';'1.2.40.0.34.5.202';'Qatar';'https://termgit.elga.gv.at/CodeSystem/dgc-qr';'Qatar';'Katar';'';'188';'0';'L';'1.2.40.0.34.5.202:QA';'';''
'RE';'1.2.40.0.34.5.202';'Réunion';'https://termgit.elga.gv.at/CodeSystem/dgc-qr';'Réunion';'Reunion';'';'189';'0';'L';'1.2.40.0.34.5.202:RE';'';''
'RO';'1.2.40.0.34.5.202';'Romania';'https://termgit.elga.gv.at/CodeSystem/dgc-qr';'Romania';'Rumänien';'';'190';'0';'L';'1.2.40.0.34.5.202:RO';'';''
'RS';'1.2.40.0.34.5.202';'Serbia';'https://termgit.elga.gv.at/CodeSystem/dgc-qr';'Serbia';'Serbien';'';'191';'0';'L';'1.2.40.0.34.5.202:RS';'';''
'RU';'1.2.40.0.34.5.202';'Russian Federation (the)';'https://termgit.elga.gv.at/CodeSystem/dgc-qr';'Russian Federation (the)';'Russische Föderation';'';'192';'0';'L';'1.2.40.0.34.5.202:RU';'';''
'RW';'1.2.40.0.34.5.202';'Rwanda';'https://termgit.elga.gv.at/CodeSystem/dgc-qr';'Rwanda';'Ruanda';'';'193';'0';'L';'1.2.40.0.34.5.202:RW';'';''
'SA';'1.2.40.0.34.5.202';'Saudi Arabia';'https://termgit.elga.gv.at/CodeSystem/dgc-qr';'Saudi Arabia';'Saudi-Arabien';'';'194';'0';'L';'1.2.40.0.34.5.202:SA';'';''
'SB';'1.2.40.0.34.5.202';'Solomon Islands';'https://termgit.elga.gv.at/CodeSystem/dgc-qr';'Solomon Islands';'Salomonen';'';'195';'0';'L';'1.2.40.0.34.5.202:SB';'';''
'SC';'1.2.40.0.34.5.202';'Seychelles';'https://termgit.elga.gv.at/CodeSystem/dgc-qr';'Seychelles';'Seychellen';'';'196';'0';'L';'1.2.40.0.34.5.202:SC';'';''
'SD';'1.2.40.0.34.5.202';'Sudan (the)';'https://termgit.elga.gv.at/CodeSystem/dgc-qr';'Sudan (the)';'Sudan';'';'197';'0';'L';'1.2.40.0.34.5.202:SD';'';''
'SE';'1.2.40.0.34.5.202';'Sweden';'https://termgit.elga.gv.at/CodeSystem/dgc-qr';'Sweden';'Schweden';'';'198';'0';'L';'1.2.40.0.34.5.202:SE';'';''
'SG';'1.2.40.0.34.5.202';'Singapore';'https://termgit.elga.gv.at/CodeSystem/dgc-qr';'Singapore';'Singapur';'';'199';'0';'L';'1.2.40.0.34.5.202:SG';'';''
'SH';'1.2.40.0.34.5.202';'Saint Helena, Ascension and Tristan da Cunha';'https://termgit.elga.gv.at/CodeSystem/dgc-qr';'Saint Helena, Ascension and Tristan da Cunha';'Sankt Helena';'';'200';'0';'L';'1.2.40.0.34.5.202:SH';'';''
'SI';'1.2.40.0.34.5.202';'Slovenia';'https://termgit.elga.gv.at/CodeSystem/dgc-qr';'Slovenia';'Slowenien';'';'201';'0';'L';'1.2.40.0.34.5.202:SI';'';''
'SJ';'1.2.40.0.34.5.202';'Svalbard and Jan Mayen';'https://termgit.elga.gv.at/CodeSystem/dgc-qr';'Svalbard and Jan Mayen';'Svalbard/JanMay';'';'202';'0';'L';'1.2.40.0.34.5.202:SJ';'';''
'SK';'1.2.40.0.34.5.202';'Slovakia';'https://termgit.elga.gv.at/CodeSystem/dgc-qr';'Slovakia';'Slowakei';'';'203';'0';'L';'1.2.40.0.34.5.202:SK';'';''
'SL';'1.2.40.0.34.5.202';'Sierra Leone';'https://termgit.elga.gv.at/CodeSystem/dgc-qr';'Sierra Leone';'';'';'204';'0';'L';'1.2.40.0.34.5.202:SL';'';''
'SM';'1.2.40.0.34.5.202';'San Marino';'https://termgit.elga.gv.at/CodeSystem/dgc-qr';'San Marino';'';'';'205';'0';'L';'1.2.40.0.34.5.202:SM';'';''
'SN';'1.2.40.0.34.5.202';'Senegal';'https://termgit.elga.gv.at/CodeSystem/dgc-qr';'Senegal';'';'';'206';'0';'L';'1.2.40.0.34.5.202:SN';'';''
'SO';'1.2.40.0.34.5.202';'Somalia';'https://termgit.elga.gv.at/CodeSystem/dgc-qr';'Somalia';'';'';'207';'0';'L';'1.2.40.0.34.5.202:SO';'';''
'SR';'1.2.40.0.34.5.202';'Suriname';'https://termgit.elga.gv.at/CodeSystem/dgc-qr';'Suriname';'';'';'208';'0';'L';'1.2.40.0.34.5.202:SR';'';''
'ST';'1.2.40.0.34.5.202';'Sao Tome and Principe';'https://termgit.elga.gv.at/CodeSystem/dgc-qr';'Sao Tome and Principe';'Sao Tome und Principe';'';'209';'0';'L';'1.2.40.0.34.5.202:ST';'';''
'SU';'1.2.40.0.34.5.202';'Soviet Union';'https://termgit.elga.gv.at/CodeSystem/dgc-qr';'Soviet Union';'eheml. Sowjetunion';'';'210';'0';'L';'1.2.40.0.34.5.202:SU';'';''
'SV';'1.2.40.0.34.5.202';'El Salvador';'https://termgit.elga.gv.at/CodeSystem/dgc-qr';'El Salvador';'';'';'211';'0';'L';'1.2.40.0.34.5.202:SV';'';''
'SY';'1.2.40.0.34.5.202';'Syrian Arab Republic';'https://termgit.elga.gv.at/CodeSystem/dgc-qr';'Syrian Arab Republic';'Syrien,Arabische Republik';'';'212';'0';'L';'1.2.40.0.34.5.202:SY';'';''
'SZ';'1.2.40.0.34.5.202';'Eswatini';'https://termgit.elga.gv.at/CodeSystem/dgc-qr';'Eswatini';'Swasiland';'';'213';'0';'L';'1.2.40.0.34.5.202:SZ';'';''
'TA';'1.2.40.0.34.5.202';'Tristan da Cunha';'https://termgit.elga.gv.at/CodeSystem/dgc-qr';'Tristan da Cunha';'';'';'214';'0';'L';'1.2.40.0.34.5.202:TA';'';''
'TC';'1.2.40.0.34.5.202';'Turks and Caicos Islands (the)';'https://termgit.elga.gv.at/CodeSystem/dgc-qr';'Turks and Caicos Islands (the)';'Turks/Caicosin';'';'215';'0';'L';'1.2.40.0.34.5.202:TC';'';''
'TD';'1.2.40.0.34.5.202';'Chad';'https://termgit.elga.gv.at/CodeSystem/dgc-qr';'Chad';'Tschad';'';'216';'0';'L';'1.2.40.0.34.5.202:TD';'';''
'TF';'1.2.40.0.34.5.202';'French Southern Territories (the)';'https://termgit.elga.gv.at/CodeSystem/dgc-qr';'French Southern Territories (the)';'Fr.Südgebiete';'';'217';'0';'L';'1.2.40.0.34.5.202:TF';'';''
'TG';'1.2.40.0.34.5.202';'Togo';'https://termgit.elga.gv.at/CodeSystem/dgc-qr';'Togo';'';'';'218';'0';'L';'1.2.40.0.34.5.202:TG';'';''
'TH';'1.2.40.0.34.5.202';'Thailand';'https://termgit.elga.gv.at/CodeSystem/dgc-qr';'Thailand';'';'';'219';'0';'L';'1.2.40.0.34.5.202:TH';'';''
'TJ';'1.2.40.0.34.5.202';'Tajikistan';'https://termgit.elga.gv.at/CodeSystem/dgc-qr';'Tajikistan';'Tadschikistan';'';'220';'0';'L';'1.2.40.0.34.5.202:TJ';'';''
'TK';'1.2.40.0.34.5.202';'Tokelau';'https://termgit.elga.gv.at/CodeSystem/dgc-qr';'Tokelau';'';'';'221';'0';'L';'1.2.40.0.34.5.202:TK';'';''
'TL';'1.2.40.0.34.5.202';'Timor-Leste';'https://termgit.elga.gv.at/CodeSystem/dgc-qr';'Timor-Leste';'';'';'222';'0';'L';'1.2.40.0.34.5.202:TL';'';''
'TM';'1.2.40.0.34.5.202';'Turkmenistan';'https://termgit.elga.gv.at/CodeSystem/dgc-qr';'Turkmenistan';'';'';'223';'0';'L';'1.2.40.0.34.5.202:TM';'';''
'TN';'1.2.40.0.34.5.202';'Tunisia';'https://termgit.elga.gv.at/CodeSystem/dgc-qr';'Tunisia';'Tunesien';'';'224';'0';'L';'1.2.40.0.34.5.202:TN';'';''
'TO';'1.2.40.0.34.5.202';'Tonga';'https://termgit.elga.gv.at/CodeSystem/dgc-qr';'Tonga';'';'';'225';'0';'L';'1.2.40.0.34.5.202:TO';'';''
'TR';'1.2.40.0.34.5.202';'Turkey';'https://termgit.elga.gv.at/CodeSystem/dgc-qr';'Turkey';'Türkei';'';'226';'0';'L';'1.2.40.0.34.5.202:TR';'';''
'TT';'1.2.40.0.34.5.202';'Trinidad and Tobago';'https://termgit.elga.gv.at/CodeSystem/dgc-qr';'Trinidad and Tobago';'Trinidad und Tobago';'';'227';'0';'L';'1.2.40.0.34.5.202:TT';'';''
'TV';'1.2.40.0.34.5.202';'Tuvalu';'https://termgit.elga.gv.at/CodeSystem/dgc-qr';'Tuvalu';'';'';'228';'0';'L';'1.2.40.0.34.5.202:TV';'';''
'TW';'1.2.40.0.34.5.202';'Taiwan (Province of China)';'https://termgit.elga.gv.at/CodeSystem/dgc-qr';'Taiwan (Province of China)';'Taiwan';'';'229';'0';'L';'1.2.40.0.34.5.202:TW';'';''
'TZ';'1.2.40.0.34.5.202';'Tanzania, United Republic of';'https://termgit.elga.gv.at/CodeSystem/dgc-qr';'Tanzania, United Republic of';'Tansania,Vereinigte Rep.';'';'230';'0';'L';'1.2.40.0.34.5.202:TZ';'';''
'UA';'1.2.40.0.34.5.202';'Ukraine';'https://termgit.elga.gv.at/CodeSystem/dgc-qr';'Ukraine';'';'';'231';'0';'L';'1.2.40.0.34.5.202:UA';'';''
'UG';'1.2.40.0.34.5.202';'Uganda';'https://termgit.elga.gv.at/CodeSystem/dgc-qr';'Uganda';'';'';'232';'0';'L';'1.2.40.0.34.5.202:UG';'';''
'UM';'1.2.40.0.34.5.202';'United States Minor Outlying Islands (the)';'https://termgit.elga.gv.at/CodeSystem/dgc-qr';'United States Minor Outlying Islands (the)';'Amerik.Ozeanien';'';'233';'0';'L';'1.2.40.0.34.5.202:UM';'';''
'US';'1.2.40.0.34.5.202';'United States of America (the)';'https://termgit.elga.gv.at/CodeSystem/dgc-qr';'United States of America (the)';'Vereinigte Staaten';'';'234';'0';'L';'1.2.40.0.34.5.202:US';'';''
'UY';'1.2.40.0.34.5.202';'Uruguay';'https://termgit.elga.gv.at/CodeSystem/dgc-qr';'Uruguay';'';'';'235';'0';'L';'1.2.40.0.34.5.202:UY';'';''
'UZ';'1.2.40.0.34.5.202';'Uzbekistan';'https://termgit.elga.gv.at/CodeSystem/dgc-qr';'Uzbekistan';'Usbekistan';'';'236';'0';'L';'1.2.40.0.34.5.202:UZ';'';''
'VA';'1.2.40.0.34.5.202';'Holy See (the)';'https://termgit.elga.gv.at/CodeSystem/dgc-qr';'Holy See (the)';'Vatikanstadt';'';'237';'0';'L';'1.2.40.0.34.5.202:VA';'';''
'VC';'1.2.40.0.34.5.202';'Saint Vincent and the Grenadines';'https://termgit.elga.gv.at/CodeSystem/dgc-qr';'Saint Vincent and the Grenadines';'St.Vincent u.d.Grenadinen';'';'238';'0';'L';'1.2.40.0.34.5.202:VC';'';''
'VE';'1.2.40.0.34.5.202';'Venezuela (Bolivarian Republic of)';'https://termgit.elga.gv.at/CodeSystem/dgc-qr';'Venezuela (Bolivarian Republic of)';'Venezuela';'';'239';'0';'L';'1.2.40.0.34.5.202:VE';'';''
'VG';'1.2.40.0.34.5.202';'Virgin Islands (British)';'https://termgit.elga.gv.at/CodeSystem/dgc-qr';'Virgin Islands (British)';'Br.Jungfernin.';'';'240';'0';'L';'1.2.40.0.34.5.202:VG';'';''
'VI';'1.2.40.0.34.5.202';'Virgin Islands (U.S.)';'https://termgit.elga.gv.at/CodeSystem/dgc-qr';'Virgin Islands (U.S.)';'Am.Jungfernin.';'';'241';'0';'L';'1.2.40.0.34.5.202:VI';'';''
'VN';'1.2.40.0.34.5.202';'Viet Nam';'https://termgit.elga.gv.at/CodeSystem/dgc-qr';'Viet Nam';'Vietnam';'';'242';'0';'L';'1.2.40.0.34.5.202:VN';'';''
'VU';'1.2.40.0.34.5.202';'Vanuatu';'https://termgit.elga.gv.at/CodeSystem/dgc-qr';'Vanuatu';'';'';'243';'0';'L';'1.2.40.0.34.5.202:VU';'';''
'WF';'1.2.40.0.34.5.202';'Wallis and Futuna';'https://termgit.elga.gv.at/CodeSystem/dgc-qr';'Wallis and Futuna';'Wallis/Futuna';'';'244';'0';'L';'1.2.40.0.34.5.202:WF';'';''
'WS';'1.2.40.0.34.5.202';'Samoa';'https://termgit.elga.gv.at/CodeSystem/dgc-qr';'Samoa';'';'';'245';'0';'L';'1.2.40.0.34.5.202:WS';'';''
'XK';'1.2.40.0.34.5.202';'Republic of Kosovo';'https://termgit.elga.gv.at/CodeSystem/dgc-qr';'Republic of Kosovo';'';'';'246';'0';'L';'1.2.40.0.34.5.202:XK';'';''
'XX';'1.2.40.0.34.5.202';'Stateless';'https://termgit.elga.gv.at/CodeSystem/dgc-qr';'Stateless';'Staatenlos';'';'247';'0';'L';'1.2.40.0.34.5.202:XX';'';''
'YE';'1.2.40.0.34.5.202';'Yemen';'https://termgit.elga.gv.at/CodeSystem/dgc-qr';'Yemen';'Jemen';'';'248';'0';'L';'1.2.40.0.34.5.202:YE';'';''
'YT';'1.2.40.0.34.5.202';'Mayotte';'https://termgit.elga.gv.at/CodeSystem/dgc-qr';'Mayotte';'';'';'249';'0';'L';'1.2.40.0.34.5.202:YT';'';''
'YU';'1.2.40.0.34.5.202';'Yugoslavia';'https://termgit.elga.gv.at/CodeSystem/dgc-qr';'Yugoslavia';'eheml. Yugoslawien';'';'250';'0';'L';'1.2.40.0.34.5.202:YU';'';''
'YY';'1.2.40.0.34.5.202';'Unknown';'https://termgit.elga.gv.at/CodeSystem/dgc-qr';'Unknown';'Unbekannt';'';'251';'0';'L';'1.2.40.0.34.5.202:YY';'';''
'ZA';'1.2.40.0.34.5.202';'South Africa';'https://termgit.elga.gv.at/CodeSystem/dgc-qr';'South Africa';'Südafrika';'';'252';'0';'L';'1.2.40.0.34.5.202:ZA';'';''
'ZM';'1.2.40.0.34.5.202';'Zambia';'https://termgit.elga.gv.at/CodeSystem/dgc-qr';'Zambia';'Sambia';'';'253';'0';'L';'1.2.40.0.34.5.202:ZM';'';''
'ZW';'1.2.40.0.34.5.202';'Zimbabwe';'https://termgit.elga.gv.at/CodeSystem/dgc-qr';'Zimbabwe';'Simbabwe';'';'254';'0';'L';'1.2.40.0.34.5.202:ZW';'';''
