'code';'codeSystem';'displayName';'parentCode';'concept_Beschreibung';'meaning';'hints';'level';'type';'relationships'
'aar';'1.0.639.2';'Afar';'';'';'Danakil-Sprache';'aa';'0';'L';''
'abk';'1.0.639.2';'Abkhazian';'';'';'Abchasisch';'ab';'0';'L';''
'ace';'1.0.639.2';'Achinese';'';'';'Aceh-Sprache';'';'0';'L';''
'ach';'1.0.639.2';'Acoli';'';'';'Acholi-Sprache';'';'0';'L';''
'ada';'1.0.639.2';'Adangme';'';'';'Adangme-Sprache';'';'0';'L';''
'ady';'1.0.639.2';'Adyghe, Adygei';'';'';'Adygisch';'';'0';'L';''
'afa';'1.0.639.2';'Afro-Asiatic languages';'';'';'Hamitosemitische Sprachen (Andere)';'';'0';'L';''
'afh';'1.0.639.2';'Afrihili';'';'';'';'';'0';'L';''
'afr';'1.0.639.2';'Afrikaans';'';'';'';'af';'0';'L';''
'ain';'1.0.639.2';'Ainu';'';'';'Ainu-Sprache';'';'0';'L';''
'aka';'1.0.639.2';'Akan';'';'';'Akan-Sprache';'ak';'0';'L';''
'akk';'1.0.639.2';'Akkadian';'';'';'Akkadisch';'';'0';'L';''
'alb';'1.0.639.2';'Albanian';'';'';'Albanisch';'sq';'0';'L';''
'ale';'1.0.639.2';'Aleut';'';'';'Aleutisch';'';'0';'L';''
'alg';'1.0.639.2';'Algonquian languages';'';'';'Algonkin-Sprachen (Andere)';'';'0';'L';''
'alt';'1.0.639.2';'Southern Altai';'';'';'Altaisch';'';'0';'L';''
'amh';'1.0.639.2';'Amharic';'';'';'Amharisch';'am';'0';'L';''
'ang';'1.0.639.2';'English, Old (ca.450-1100)';'';'';'Altenglisch';'';'0';'L';''
'anp';'1.0.639.2';'Angika';'';'';'Anga-Sprache';'';'0';'L';''
'apa';'1.0.639.2';'Apache languages';'';'';'Apachen-Sprachen';'';'0';'L';''
'ara';'1.0.639.2';'Arabic';'';'';'Arabisch';'ar';'0';'L';''
'arc';'1.0.639.2';'Official Aramaic (700-300 BCE), Imperial Aramaic (700-300 BCE)';'';'';'Aramäisch';'';'0';'L';''
'arg';'1.0.639.2';'Aragonese';'';'';'Aragonesisch';'an';'0';'L';''
'arm';'1.0.639.2';'Armenian';'';'';'Armenisch';'hy';'0';'L';''
'arn';'1.0.639.2';'Mapudungun, Mapuche';'';'';'Arauka-Sprachen';'';'0';'L';''
'arp';'1.0.639.2';'Arapaho';'';'';'Arapaho-Sprache';'';'0';'L';''
'art';'1.0.639.2';'Artificial languages';'';'';'Kunstsprachen (Andere)';'';'0';'L';''
'arw';'1.0.639.2';'Arawak';'';'';'Arawak-Sprachen';'';'0';'L';''
'asm';'1.0.639.2';'Assamese';'';'';'Assamesisch';'as';'0';'L';''
'ast';'1.0.639.2';'Asturian, Bable, Leonese, Asturleonese';'';'';'Asturisch';'';'0';'L';''
'ath';'1.0.639.2';'Athapascan languages';'';'';'Athapaskische Sprachen (Andere)';'';'0';'L';''
'aus';'1.0.639.2';'Australian languages';'';'';'Australische Sprachen';'';'0';'L';''
'ava';'1.0.639.2';'Avaric';'';'';'Awarisch';'av';'0';'L';''
'ave';'1.0.639.2';'Avestan';'';'';'Avestisch';'ae';'0';'L';''
'awa';'1.0.639.2';'Awadhi';'';'';'';'';'0';'L';''
'aym';'1.0.639.2';'Aymara';'';'';'Aymará-Sprache';'ay';'0';'L';''
'aze';'1.0.639.2';'Azerbaijani';'';'';'Aserbeidschanisch';'az';'0';'L';''
'bad';'1.0.639.2';'Banda languages';'';'';'Banda-Sprachen (Ubangi-Sprachen)';'';'0';'L';''
'bai';'1.0.639.2';'Bamileke languages';'';'';'Bamileke-Sprachen';'';'0';'L';''
'bak';'1.0.639.2';'Bashkir';'';'';'Baschkirisch';'ba';'0';'L';''
'bal';'1.0.639.2';'Baluchi';'';'';'Belutschisch';'';'0';'L';''
'bam';'1.0.639.2';'Bambara';'';'';'Bambara-Sprache';'bm';'0';'L';''
'ban';'1.0.639.2';'Balinese';'';'';'Balinesisch';'';'0';'L';''
'baq';'1.0.639.2';'Basque';'';'';'Baskisch';'eu';'0';'L';''
'bas';'1.0.639.2';'Basa';'';'';'Basaa-Sprache';'';'0';'L';''
'bat';'1.0.639.2';'Baltic languages';'';'';'Baltische Sprachen (Andere)';'';'0';'L';''
'bej';'1.0.639.2';'Beja, Bedawiyet';'';'';'Bedauye';'';'0';'L';''
'bel';'1.0.639.2';'Belarusian';'';'';'Weißrussisch';'be';'0';'L';''
'bem';'1.0.639.2';'Bemba';'';'';'Bemba-Sprache';'';'0';'L';''
'ben';'1.0.639.2';'Bengali';'';'';'';'bn';'0';'L';''
'ber';'1.0.639.2';'Berber languages';'';'';'Berbersprachen (Andere)';'';'0';'L';''
'bho';'1.0.639.2';'Bhojpuri';'';'';'';'';'0';'L';''
'bih';'1.0.639.2';'Bihari languages';'';'';'Bihari (Andere)';'bh';'0';'L';''
'bik';'1.0.639.2';'Bikol';'';'';'Bikol-Sprache';'';'0';'L';''
'bin';'1.0.639.2';'Bini, Edo';'';'';'Edo-Sprache';'';'0';'L';''
'bis';'1.0.639.2';'Bislama';'';'';'Beach-la-mar';'bi';'0';'L';''
'bla';'1.0.639.2';'Siksika';'';'';'Blackfoot-Sprache';'';'0';'L';''
'bnt';'1.0.639.2';'Bantu languages';'';'';'Bantusprachen (Andere)';'';'0';'L';''
'bod';'1.0.639.2';'Tibetan';'';'';'Tibetisch';'bo';'0';'L';''
'bos';'1.0.639.2';'Bosnian';'';'';'Bosnisch';'bs';'0';'L';''
'bra';'1.0.639.2';'Braj';'';'';'Braj-Bhakha';'';'0';'L';''
'bre';'1.0.639.2';'Breton';'';'';'Bretonisch';'br';'0';'L';''
'btk';'1.0.639.2';'Batak languages';'';'';'Batak-Sprache';'';'0';'L';''
'bua';'1.0.639.2';'Buriat';'';'';'Burjatisch';'';'0';'L';''
'bug';'1.0.639.2';'Buginese';'';'';'Bugi-Sprache';'';'0';'L';''
'bul';'1.0.639.2';'Bulgarian';'';'';'Bulgarisch';'bg';'0';'L';''
'bur';'1.0.639.2';'Burmese';'';'';'Birmanisch';'my';'0';'L';''
'byn';'1.0.639.2';'Blin, Bilin';'';'';'Bilin-Sprache';'';'0';'L';''
'cad';'1.0.639.2';'Caddo';'';'';'Caddo-Sprachen';'';'0';'L';''
'cai';'1.0.639.2';'Central American Indian languages';'';'';'Indianersprachen, Zentralamerika (Andere)';'';'0';'L';''
'car';'1.0.639.2';'Galibi Carib';'';'';'Karibische Sprachen';'';'0';'L';''
'cat';'1.0.639.2';'Catalan, Valencian';'';'';'Katalanisch';'ca';'0';'L';''
'cau';'1.0.639.2';'Caucasian languages';'';'';'Kaukasische Sprachen (Andere)';'';'0';'L';''
'ceb';'1.0.639.2';'Cebuano';'';'';'';'';'0';'L';''
'cel';'1.0.639.2';'Celtic languages';'';'';'Keltische Sprachen (Andere)';'';'0';'L';''
'ces';'1.0.639.2';'Czech';'';'';'Tschechisch';'cs';'0';'L';''
'cha';'1.0.639.2';'Chamorro';'';'';'Chamorro-Sprache';'ch';'0';'L';''
'chb';'1.0.639.2';'Chibcha';'';'';'Chibcha-Sprachen';'';'0';'L';''
'che';'1.0.639.2';'Chechen';'';'';'Tschetschenisch';'ce';'0';'L';''
'chg';'1.0.639.2';'Chagatai';'';'';'Tschagataisch';'';'0';'L';''
'chi';'1.0.639.2';'Chinese';'';'';'Chinesisch';'zh';'0';'L';''
'chk';'1.0.639.2';'Chuukese';'';'';'Trukesisch';'';'0';'L';''
'chm';'1.0.639.2';'Mari';'';'';'Tscheremissisch';'';'0';'L';''
'chn';'1.0.639.2';'Chinook jargon';'';'';'Chinook-Jargon';'';'0';'L';''
'cho';'1.0.639.2';'Choctaw';'';'';'Choctaw-Sprache';'';'0';'L';''
'chp';'1.0.639.2';'Chipewyan, Dene Suline';'';'';'Chipewyan-Sprache';'';'0';'L';''
'chr';'1.0.639.2';'Cherokee';'';'';'Cherokee-Sprache';'';'0';'L';''
'chu';'1.0.639.2';'Church Slavic, Old Slavonic, Church Slavonic, Old Bulgarian, Old Church Slavonic';'';'';'Kirchenslawisch';'cu';'0';'L';''
'chv';'1.0.639.2';'Chuvash';'';'';'Tschuwaschisch';'cv';'0';'L';''
'chy';'1.0.639.2';'Cheyenne';'';'';'Cheyenne-Sprache';'';'0';'L';''
'cmc';'1.0.639.2';'Chamic languages';'';'';'Cham-Sprachen';'';'0';'L';''
'cop';'1.0.639.2';'Coptic';'';'';'Koptisch';'';'0';'L';''
'cor';'1.0.639.2';'Cornish';'';'';'Kornisch';'kw';'0';'L';''
'cos';'1.0.639.2';'Corsican';'';'';'Korsisch';'co';'0';'L';''
'cpe';'1.0.639.2';'Creoles and pidgins, English based';'';'';'Kreolisch-Englisch (Andere)';'';'0';'L';''
'cpf';'1.0.639.2';'Creoles and pidgins, French-based';'';'';'Kreolisch-Französisch (Andere)';'';'0';'L';''
'cpp';'1.0.639.2';'Creoles and pidgins, Portuguese-based';'';'';'Kreolisch-Portugiesisch (Andere)';'';'0';'L';''
'cre';'1.0.639.2';'Cree';'';'';'Cree-Sprache';'cr';'0';'L';''
'crh';'1.0.639.2';'Crimean Tatar, Crimean Turkish';'';'';'Krimtatarisch';'';'0';'L';''
'crp';'1.0.639.2';'Creoles and pidgins';'';'';'Kreolische Sprachen, Pidginsprachen (Andere)';'';'0';'L';''
'csb';'1.0.639.2';'Kashubian';'';'';'Kaschubisch';'';'0';'L';''
'cus';'1.0.639.2';'Cushitic languages';'';'';'Kuschitische Sprachen (Andere)';'';'0';'L';''
'cym';'1.0.639.2';'Welsh';'';'';'Kymrisch';'cy';'0';'L';''
'cze';'1.0.639.2';'Czech';'';'';'Tschechisch';'cs';'0';'L';''
'dak';'1.0.639.2';'Dakota';'';'';'Dakota-Sprache';'';'0';'L';''
'dan';'1.0.639.2';'Danish';'';'';'Dänisch';'da';'0';'L';''
'dar';'1.0.639.2';'Dargwa';'';'';'Darginisch';'';'0';'L';''
'day';'1.0.639.2';'Land Dayak languages';'';'';'Dajakisch';'';'0';'L';''
'del';'1.0.639.2';'Delaware';'';'';'Delaware-Sprache';'';'0';'L';''
'den';'1.0.639.2';'Slave (Athapascan)';'';'';'Slave-Sprache';'';'0';'L';''
'deu';'1.0.639.2';'German';'';'';'Deutsch';'de';'0';'L';''
'dgr';'1.0.639.2';'Dogrib';'';'';'Dogrib-Sprache';'';'0';'L';''
'din';'1.0.639.2';'Dinka';'';'';'Dinka-Sprache';'';'0';'L';''
'div';'1.0.639.2';'Divehi, Dhivehi, Maldivian';'';'';'Maledivisch';'dv';'0';'L';''
'doi';'1.0.639.2';'Dogri';'';'';'';'';'0';'L';''
'dra';'1.0.639.2';'Dravidian languages';'';'';'Drawidische Sprachen (Andere)';'';'0';'L';''
'dsb';'1.0.639.2';'Lower Sorbian';'';'';'Niedersorbisch';'';'0';'L';''
'dua';'1.0.639.2';'Duala';'';'';'Duala-Sprachen';'';'0';'L';''
'dum';'1.0.639.2';'Dutch, Middle (ca.1050-1350)';'';'';'Mittelniederländisch';'';'0';'L';''
'dut';'1.0.639.2';'Dutch, Flemish';'';'';'Niederländisch';'nl';'0';'L';''
'dyu';'1.0.639.2';'Dyula';'';'';'Dyula-Sprache';'';'0';'L';''
'dzo';'1.0.639.2';'Dzongkha';'';'';'';'dz';'0';'L';''
'efi';'1.0.639.2';'Efik';'';'';'';'';'0';'L';''
'egy';'1.0.639.2';'Egyptian (Ancient)';'';'';'Ägyptisch';'';'0';'L';''
'eka';'1.0.639.2';'Ekajuk';'';'';'';'';'0';'L';''
'ell';'1.0.639.2';'Greek, Modern (1453-)';'';'';'Neugriechisch';'el';'0';'L';''
'elx';'1.0.639.2';'Elamite';'';'';'Elamisch';'';'0';'L';''
'eng';'1.0.639.2';'English';'';'';'Englisch';'en';'0';'L';''
'enm';'1.0.639.2';'English, Middle (1100-1500)';'';'';'Mittelenglisch';'';'0';'L';''
'epo';'1.0.639.2';'Esperanto';'';'';'';'eo';'0';'L';''
'est';'1.0.639.2';'Estonian';'';'';'Estnisch';'et';'0';'L';''
'eus';'1.0.639.2';'Basque';'';'';'Baskisch';'eu';'0';'L';''
'ewe';'1.0.639.2';'Ewe';'';'';'Ewe-Sprache';'ee';'0';'L';''
'ewo';'1.0.639.2';'Ewondo';'';'';'';'';'0';'L';''
'fan';'1.0.639.2';'Fang';'';'';'Pangwe-Sprache';'';'0';'L';''
'fao';'1.0.639.2';'Faroese';'';'';'Färöisch';'fo';'0';'L';''
'fas';'1.0.639.2';'Persian';'';'';'Persisch';'fa';'0';'L';''
'fat';'1.0.639.2';'Fanti';'';'';'Fante-Sprache';'';'0';'L';''
'fij';'1.0.639.2';'Fijian';'';'';'Fidschi-Sprache';'fj';'0';'L';''
'fil';'1.0.639.2';'Filipino, Pilipino';'';'';'Pilipino';'';'0';'L';''
'fin';'1.0.639.2';'Finnish';'';'';'Finnisch';'fi';'0';'L';''
'fiu';'1.0.639.2';'Finno-Ugrian languages';'';'';'Finnougrische Sprachen (Andere)';'';'0';'L';''
'fon';'1.0.639.2';'Fon';'';'';'Fon-Sprache';'';'0';'L';''
'fra';'1.0.639.2';'French';'';'';'Französisch';'fr';'0';'L';''
'fre';'1.0.639.2';'French';'';'';'Französisch';'fr';'0';'L';''
'frm';'1.0.639.2';'French, Middle (ca.1400-1600)';'';'';'Mittelfranzösisch';'';'0';'L';''
'fro';'1.0.639.2';'French, Old (842-ca.1400)';'';'';'Altfranzösisch';'';'0';'L';''
'frr';'1.0.639.2';'Northern Frisian';'';'';'Nordfriesisch';'';'0';'L';''
'frs';'1.0.639.2';'Eastern Frisian';'';'';'Ostfriesisch';'';'0';'L';''
'fry';'1.0.639.2';'Western Frisian';'';'';'Friesisch';'fy';'0';'L';''
'ful';'1.0.639.2';'Fulah';'';'';'Ful';'ff';'0';'L';''
'fur';'1.0.639.2';'Friulian';'';'';'Friulisch';'';'0';'L';''
'gaa';'1.0.639.2';'Ga';'';'';'Ga-Sprache';'';'0';'L';''
'gay';'1.0.639.2';'Gayo';'';'';'Gayo-Sprache';'';'0';'L';''
'gba';'1.0.639.2';'Gbaya';'';'';'Gbaya-Sprache';'';'0';'L';''
'gem';'1.0.639.2';'Germanic languages';'';'';'Germanische Sprachen (Andere)';'';'0';'L';''
'geo';'1.0.639.2';'Georgian';'';'';'Georgisch';'ka';'0';'L';''
'ger';'1.0.639.2';'German';'';'';'Deutsch';'de';'0';'L';''
'gez';'1.0.639.2';'Geez';'';'';'Altäthiopisch';'';'0';'L';''
'gil';'1.0.639.2';'Gilbertese';'';'';'Gilbertesisch';'';'0';'L';''
'gla';'1.0.639.2';'Gaelic, Scottish Gaelic';'';'';'Gälisch-Schottisch';'gd';'0';'L';''
'gle';'1.0.639.2';'Irish';'';'';'Irisch';'ga';'0';'L';''
'glg';'1.0.639.2';'Galician';'';'';'Galicisch';'gl';'0';'L';''
'glv';'1.0.639.2';'Manx';'';'';'';'gv';'0';'L';''
'gmh';'1.0.639.2';'German, Middle High (ca.1050-1500)';'';'';'Mittelhochdeutsch';'';'0';'L';''
'goh';'1.0.639.2';'German, Old High (ca.750-1050)';'';'';'Althochdeutsch';'';'0';'L';''
'gon';'1.0.639.2';'Gondi';'';'';'Gondi-Sprache';'';'0';'L';''
'gor';'1.0.639.2';'Gorontalo';'';'';'Gorontalesisch';'';'0';'L';''
'got';'1.0.639.2';'Gothic';'';'';'Gotisch';'';'0';'L';''
'grb';'1.0.639.2';'Grebo';'';'';'Grebo-Sprache';'';'0';'L';''
'grc';'1.0.639.2';'Greek, Ancient (to 1453)';'';'';'Griechisch';'';'0';'L';''
'gre';'1.0.639.2';'Greek, Modern (1453-)';'';'';'Neugriechisch';'el';'0';'L';''
'grn';'1.0.639.2';'Guarani';'';'';'Guaraní-Sprache';'gn';'0';'L';''
'gsw';'1.0.639.2';'Swiss German, Alemannic, Alsatian';'';'';'Schweizerdeutsch';'';'0';'L';''
'guj';'1.0.639.2';'Gujarati';'';'';'Gujarati-Sprache';'gu';'0';'L';''
'gwi';'1.0.639.2';'Gwich''in';'';'';'Kutchin-Sprache';'';'0';'L';''
'hai';'1.0.639.2';'Haida';'';'';'Haida-Sprache';'';'0';'L';''
'hat';'1.0.639.2';'Haitian, Haitian Creole';'';'';'Haïtien (Haiti-Kreolisch)';'ht';'0';'L';''
'hau';'1.0.639.2';'Hausa';'';'';'Haussa-Sprache';'ha';'0';'L';''
'haw';'1.0.639.2';'Hawaiian';'';'';'Hawaiisch';'';'0';'L';''
'heb';'1.0.639.2';'Hebrew';'';'';'Hebräisch';'he';'0';'L';''
'her';'1.0.639.2';'Herero';'';'';'Herero-Sprache';'hz';'0';'L';''
'hil';'1.0.639.2';'Hiligaynon';'';'';'Hiligaynon-Sprache';'';'0';'L';''
'him';'1.0.639.2';'Himachali languages, Western Pahari languages';'';'';'Himachali';'';'0';'L';''
'hin';'1.0.639.2';'Hindi';'';'';'';'hi';'0';'L';''
'hit';'1.0.639.2';'Hittite';'';'';'Hethitisch';'';'0';'L';''
'hmn';'1.0.639.2';'Hmong, Mong';'';'';'Miao-Sprachen';'';'0';'L';''
'hmo';'1.0.639.2';'Hiri Motu';'';'';'Hiri-Motu';'ho';'0';'L';''
'hrv';'1.0.639.2';'Croatian';'';'';'Kroatisch';'hr';'0';'L';''
'hsb';'1.0.639.2';'Upper Sorbian';'';'';'Obersorbisch';'';'0';'L';''
'hun';'1.0.639.2';'Hungarian';'';'';'Ungarisch';'hu';'0';'L';''
'hup';'1.0.639.2';'Hupa';'';'';'Hupa-Sprache';'';'0';'L';''
'hye';'1.0.639.2';'Armenian';'';'';'Armenisch';'hy';'0';'L';''
'iba';'1.0.639.2';'Iban';'';'';'Iban-Sprache';'';'0';'L';''
'ibo';'1.0.639.2';'Igbo';'';'';'Ibo-Sprache';'ig';'0';'L';''
'ice';'1.0.639.2';'Icelandic';'';'';'Isländisch';'is';'0';'L';''
'ido';'1.0.639.2';'Ido';'';'';'';'io';'0';'L';''
'iii';'1.0.639.2';'Sichuan Yi, Nuosu';'';'';'Lalo-Sprache';'ii';'0';'L';''
'ijo';'1.0.639.2';'Ijo languages';'';'';'Ijo-Sprache';'';'0';'L';''
'iku';'1.0.639.2';'Inuktitut';'';'';'';'iu';'0';'L';''
'ile';'1.0.639.2';'Interlingue, Occidental';'';'';'Interlingue';'ie';'0';'L';''
'ilo';'1.0.639.2';'Iloko';'';'';'Ilokano-Sprache';'';'0';'L';''
'ina';'1.0.639.2';'Interlingua (International Auxiliary Language Association)';'';'';'Interlingua';'ia';'0';'L';''
'inc';'1.0.639.2';'Indic languages';'';'';'Indoarische Sprachen (Andere)';'';'0';'L';''
'ind';'1.0.639.2';'Indonesian';'';'';'Bahasa Indonesia';'id';'0';'L';''
'ine';'1.0.639.2';'Indo-European languages';'';'';'Indogermanische Sprachen (Andere)';'';'0';'L';''
'inh';'1.0.639.2';'Ingush';'';'';'Inguschisch';'';'0';'L';''
'ipk';'1.0.639.2';'Inupiaq';'';'';'Inupik';'ik';'0';'L';''
'ira';'1.0.639.2';'Iranian languages';'';'';'Iranische Sprachen (Andere)';'';'0';'L';''
'iro';'1.0.639.2';'Iroquoian languages';'';'';'Irokesische Sprachen';'';'0';'L';''
'isl';'1.0.639.2';'Icelandic';'';'';'Isländisch';'is';'0';'L';''
'ita';'1.0.639.2';'Italian';'';'';'Italienisch';'it';'0';'L';''
'jav';'1.0.639.2';'Javanese';'';'';'Javanisch';'jv';'0';'L';''
'jbo';'1.0.639.2';'Lojban';'';'';'';'';'0';'L';''
'jpn';'1.0.639.2';'Japanese';'';'';'Japanisch';'ja';'0';'L';''
'jpr';'1.0.639.2';'Judeo-Persian';'';'';'Jüdisch-Persisch';'';'0';'L';''
'jrb';'1.0.639.2';'Judeo-Arabic';'';'';'Jüdisch-Arabisch';'';'0';'L';''
'kaa';'1.0.639.2';'Kara-Kalpak';'';'';'Karakalpakisch';'';'0';'L';''
'kab';'1.0.639.2';'Kabyle';'';'';'Kabylisch';'';'0';'L';''
'kac';'1.0.639.2';'Kachin, Jingpho';'';'';'Kachin-Sprache';'';'0';'L';''
'kal';'1.0.639.2';'Kalaallisut, Greenlandic';'';'';'Grönländisch';'kl';'0';'L';''
'kam';'1.0.639.2';'Kamba';'';'';'Kamba-Sprache';'';'0';'L';''
'kan';'1.0.639.2';'Kannada';'';'';'';'kn';'0';'L';''
'kar';'1.0.639.2';'Karen languages';'';'';'Karenisch';'';'0';'L';''
'kas';'1.0.639.2';'Kashmiri';'';'';'Kaschmiri';'ks';'0';'L';''
'kat';'1.0.639.2';'Georgian';'';'';'Georgisch';'ka';'0';'L';''
'kau';'1.0.639.2';'Kanuri';'';'';'Kanuri-Sprache';'kr';'0';'L';''
'kaw';'1.0.639.2';'Kawi';'';'';'';'';'0';'L';''
'kaz';'1.0.639.2';'Kazakh';'';'';'Kasachisch';'kk';'0';'L';''
'kbd';'1.0.639.2';'Kabardian';'';'';'Kabardinisch';'';'0';'L';''
'kha';'1.0.639.2';'Khasi';'';'';'Khasi-Sprache';'';'0';'L';''
'khi';'1.0.639.2';'Khoisan languages';'';'';'Khoisan-Sprachen (Andere)';'';'0';'L';''
'khm';'1.0.639.2';'Central Khmer';'';'';'Kambodschanisch';'km';'0';'L';''
'kho';'1.0.639.2';'Khotanese, Sakan';'';'';'Sakisch';'';'0';'L';''
'kik';'1.0.639.2';'Kikuyu, Gikuyu';'';'';'Kikuyu-Sprache';'ki';'0';'L';''
'kin';'1.0.639.2';'Kinyarwanda';'';'';'Rwanda-Sprache';'rw';'0';'L';''
'kir';'1.0.639.2';'Kirghiz, Kyrgyz';'';'';'Kirgisisch';'ky';'0';'L';''
'kmb';'1.0.639.2';'Kimbundu';'';'';'Kimbundu-Sprache';'';'0';'L';''
'kok';'1.0.639.2';'Konkani';'';'';'';'';'0';'L';''
'kom';'1.0.639.2';'Komi';'';'';'Komi-Sprache';'kv';'0';'L';''
'kon';'1.0.639.2';'Kongo';'';'';'Kongo-Sprache';'kg';'0';'L';''
'kor';'1.0.639.2';'Korean';'';'';'Koreanisch';'ko';'0';'L';''
'kos';'1.0.639.2';'Kosraean';'';'';'Kosraeanisch';'';'0';'L';''
'kpe';'1.0.639.2';'Kpelle';'';'';'Kpelle-Sprache';'';'0';'L';''
'krc';'1.0.639.2';'Karachay-Balkar';'';'';'Karatschaiisch-Balkarisch';'';'0';'L';''
'krl';'1.0.639.2';'Karelian';'';'';'Karelisch';'';'0';'L';''
'kro';'1.0.639.2';'Kru languages';'';'';'Kru-Sprachen (Andere)';'';'0';'L';''
'kru';'1.0.639.2';'Kurukh';'';'';'Oraon-Sprache';'';'0';'L';''
'kua';'1.0.639.2';'Kuanyama, Kwanyama';'';'';'Kwanyama-Sprache';'kj';'0';'L';''
'kum';'1.0.639.2';'Kumyk';'';'';'Kumükisch';'';'0';'L';''
'kur';'1.0.639.2';'Kurdish';'';'';'Kurdisch';'ku';'0';'L';''
'kut';'1.0.639.2';'Kutenai';'';'';'Kutenai-Sprache';'';'0';'L';''
'lad';'1.0.639.2';'Ladino';'';'';'Judenspanisch';'';'0';'L';''
'lah';'1.0.639.2';'Lahnda';'';'';'';'';'0';'L';''
'lam';'1.0.639.2';'Lamba';'';'';'Lamba-Sprache (Bantusprache)';'';'0';'L';''
'lao';'1.0.639.2';'Lao';'';'';'Laotisch';'lo';'0';'L';''
'lat';'1.0.639.2';'Latin';'';'';'Latein';'la';'0';'L';''
'lav';'1.0.639.2';'Latvian';'';'';'Lettisch';'lv';'0';'L';''
'lez';'1.0.639.2';'Lezghian';'';'';'Lesgisch';'';'0';'L';''
'lim';'1.0.639.2';'Limburgan, Limburger, Limburgish';'';'';'Limburgisch';'li';'0';'L';''
'lin';'1.0.639.2';'Lingala';'';'';'';'ln';'0';'L';''
'lit';'1.0.639.2';'Lithuanian';'';'';'Litauisch';'lt';'0';'L';''
'lol';'1.0.639.2';'Mongo';'';'';'Mongo-Sprache';'';'0';'L';''
'loz';'1.0.639.2';'Lozi';'';'';'Rotse-Sprache';'';'0';'L';''
'ltz';'1.0.639.2';'Luxembourgish, Letzeburgesch';'';'';'Luxemburgisch';'lb';'0';'L';''
'lua';'1.0.639.2';'Luba-Lulua';'';'';'Lulua-Sprache';'';'0';'L';''
'lub';'1.0.639.2';'Luba-Katanga';'';'';'Luba-Katanga-Sprache';'lu';'0';'L';''
'lug';'1.0.639.2';'Ganda';'';'';'Ganda-Sprache';'lg';'0';'L';''
'lui';'1.0.639.2';'Luiseno';'';'';'Luiseño-Sprache';'';'0';'L';''
'lun';'1.0.639.2';'Lunda';'';'';'Lunda-Sprache';'';'0';'L';''
'luo';'1.0.639.2';'Luo (Kenya and Tanzania)';'';'';'Luo-Sprache';'';'0';'L';''
'lus';'1.0.639.2';'Lushai';'';'';'Lushai-Sprache';'';'0';'L';''
'mac';'1.0.639.2';'Macedonian';'';'';'Makedonisch';'mk';'0';'L';''
'mad';'1.0.639.2';'Madurese';'';'';'Maduresisch';'';'0';'L';''
'mag';'1.0.639.2';'Magahi';'';'';'Khotta';'';'0';'L';''
'mah';'1.0.639.2';'Marshallese';'';'';'Marschallesisch';'mh';'0';'L';''
'mai';'1.0.639.2';'Maithili';'';'';'';'';'0';'L';''
'mak';'1.0.639.2';'Makasar';'';'';'Makassarisch';'';'0';'L';''
'mal';'1.0.639.2';'Malayalam';'';'';'';'ml';'0';'L';''
'man';'1.0.639.2';'Mandingo';'';'';'Malinke-Sprache';'';'0';'L';''
'mao';'1.0.639.2';'Maori';'';'';'Maori-Sprache';'mi';'0';'L';''
'map';'1.0.639.2';'Austronesian languages';'';'';'Austronesische Sprachen (Andere)';'';'0';'L';''
'mar';'1.0.639.2';'Marathi';'';'';'';'mr';'0';'L';''
'mas';'1.0.639.2';'Masai';'';'';'Massai-Sprache';'';'0';'L';''
'may';'1.0.639.2';'Malay';'';'';'Malaiisch';'ms';'0';'L';''
'mdf';'1.0.639.2';'Moksha';'';'';'Mokscha-Sprache';'';'0';'L';''
'mdr';'1.0.639.2';'Mandar';'';'';'Mandaresisch';'';'0';'L';''
'men';'1.0.639.2';'Mende';'';'';'Mende-Sprache';'';'0';'L';''
'mga';'1.0.639.2';'Irish, Middle (900-1200)';'';'';'Mittelirisch';'';'0';'L';''
'mic';'1.0.639.2';'Mi''kmaq, Micmac';'';'';'Micmac-Sprache';'';'0';'L';''
'min';'1.0.639.2';'Minangkabau';'';'';'Minangkabau-Sprache';'';'0';'L';''
'mis';'1.0.639.2';'Uncoded languages';'';'';'Einzelne andere Sprachen';'';'0';'L';''
'mkd';'1.0.639.2';'Macedonian';'';'';'Makedonisch';'mk';'0';'L';''
'mkh';'1.0.639.2';'Mon-Khmer languages';'';'';'Mon-Khmer-Sprachen (Andere)';'';'0';'L';''
'mlg';'1.0.639.2';'Malagasy';'';'';'Malagassi-Sprache';'mg';'0';'L';''
'mlt';'1.0.639.2';'Maltese';'';'';'Maltesisch';'mt';'0';'L';''
'mnc';'1.0.639.2';'Manchu';'';'';'Mandschurisch';'';'0';'L';''
'mni';'1.0.639.2';'Manipuri';'';'';'Meithei-Sprache';'';'0';'L';''
'mno';'1.0.639.2';'Manobo languages';'';'';'Manobo-Sprachen';'';'0';'L';''
'moh';'1.0.639.2';'Mohawk';'';'';'Mohawk-Sprache';'';'0';'L';''
'mon';'1.0.639.2';'Mongolian';'';'';'Mongolisch';'mn';'0';'L';''
'mos';'1.0.639.2';'Mossi';'';'';'Mossi-Sprache';'';'0';'L';''
'mri';'1.0.639.2';'Maori';'';'';'Maori-Sprache';'mi';'0';'L';''
'msa';'1.0.639.2';'Malay';'';'';'Malaiisch';'ms';'0';'L';''
'mul';'1.0.639.2';'Multiple languages';'';'';'Mehrere Sprachen';'';'0';'L';''
'mun';'1.0.639.2';'Munda languages';'';'';'Mundasprachen (Andere)';'';'0';'L';''
'mus';'1.0.639.2';'Creek';'';'';'Muskogisch';'';'0';'L';''
'mwl';'1.0.639.2';'Mirandese';'';'';'Mirandesisch';'';'0';'L';''
'mwr';'1.0.639.2';'Marwari';'';'';'';'';'0';'L';''
'mya';'1.0.639.2';'Burmese';'';'';'Birmanisch';'my';'0';'L';''
'myn';'1.0.639.2';'Mayan languages';'';'';'Maya-Sprachen';'';'0';'L';''
'myv';'1.0.639.2';'Erzya';'';'';'Erza-Mordwinisch';'';'0';'L';''
'nah';'1.0.639.2';'Nahuatl languages';'';'';'Nahuatl';'';'0';'L';''
'nai';'1.0.639.2';'North American Indian languages';'';'';'Indianersprachen, Nordamerika (Andere)';'';'0';'L';''
'nap';'1.0.639.2';'Neapolitan';'';'';'Neapel / Mundart';'';'0';'L';''
'nau';'1.0.639.2';'Nauru';'';'';'Nauruanisch';'na';'0';'L';''
'nav';'1.0.639.2';'Navajo, Navaho';'';'';'Navajo-Sprache';'nv';'0';'L';''
'nbl';'1.0.639.2';'Ndebele, South, South Ndebele';'';'';'Ndebele-Sprache (Transvaal)';'nr';'0';'L';''
'nde';'1.0.639.2';'Ndebele, North, North Ndebele';'';'';'Ndebele-Sprache (Simbabwe)';'nd';'0';'L';''
'ndo';'1.0.639.2';'Ndonga';'';'';'';'ng';'0';'L';''
'nds';'1.0.639.2';'Low German, Low Saxon, German, Low, Saxon, Low';'';'';'Niederdeutsch';'';'0';'L';''
'nep';'1.0.639.2';'Nepali';'';'';'';'ne';'0';'L';''
'new';'1.0.639.2';'Nepal Bhasa, Newari';'';'';'Newari';'';'0';'L';''
'nia';'1.0.639.2';'Nias';'';'';'Nias-Sprache';'';'0';'L';''
'nic';'1.0.639.2';'Niger-Kordofanian languages';'';'';'Nigerkordofanische Sprachen (Andere)';'';'0';'L';''
'niu';'1.0.639.2';'Niuean';'';'';'Niue-Sprache';'';'0';'L';''
'nld';'1.0.639.2';'Dutch, Flemish';'';'';'Niederländisch';'nl';'0';'L';''
'nno';'1.0.639.2';'Norwegian Nynorsk, Nynorsk, Norwegian';'';'';'Nynorsk';'nn';'0';'L';''
'nob';'1.0.639.2';'Bokmål, Norwegian, Norwegian Bokmål';'';'';'Bokmål';'nb';'0';'L';''
'nog';'1.0.639.2';'Nogai';'';'';'Nogaisch';'';'0';'L';''
'non';'1.0.639.2';'Norse, Old';'';'';'Altnorwegisch';'';'0';'L';''
'nor';'1.0.639.2';'Norwegian';'';'';'Norwegisch';'no';'0';'L';''
'nqo';'1.0.639.2';'N''Ko';'';'';'';'';'0';'L';''
'nso';'1.0.639.2';'Pedi, Sepedi, Northern Sotho';'';'';'Pedi-Sprache';'';'0';'L';''
'nub';'1.0.639.2';'Nubian languages';'';'';'Nubische Sprachen';'';'0';'L';''
'nwc';'1.0.639.2';'Classical Newari, Old Newari, Classical Nepal Bhasa';'';'';'Alt-Newari';'';'0';'L';''
'nya';'1.0.639.2';'Chichewa, Chewa, Nyanja';'';'';'Nyanja-Sprache';'ny';'0';'L';''
'nym';'1.0.639.2';'Nyamwezi';'';'';'Nyamwezi-Sprache';'';'0';'L';''
'nyn';'1.0.639.2';'Nyankole';'';'';'Nkole-Sprache';'';'0';'L';''
'nyo';'1.0.639.2';'Nyoro';'';'';'Nyoro-Sprache';'';'0';'L';''
'nzi';'1.0.639.2';'Nzima';'';'';'Nzima-Sprache';'';'0';'L';''
'oci';'1.0.639.2';'Occitan (post 1500)';'';'';'Okzitanisch';'oc';'0';'L';''
'oji';'1.0.639.2';'Ojibwa';'';'';'Ojibwa-Sprache';'oj';'0';'L';''
'ori';'1.0.639.2';'Oriya';'';'';'Oriya-Sprache';'or';'0';'L';''
'orm';'1.0.639.2';'Oromo';'';'';'Galla-Sprache';'om';'0';'L';''
'osa';'1.0.639.2';'Osage';'';'';'Osage-Sprache';'';'0';'L';''
'oss';'1.0.639.2';'Ossetian, Ossetic';'';'';'Ossetisch';'os';'0';'L';''
'ota';'1.0.639.2';'Turkish, Ottoman (1500-1928)';'';'';'Osmanisch';'';'0';'L';''
'oto';'1.0.639.2';'Otomian languages';'';'';'Otomangue-Sprachen';'';'0';'L';''
'paa';'1.0.639.2';'Papuan languages';'';'';'Papuasprachen (Andere)';'';'0';'L';''
'pag';'1.0.639.2';'Pangasinan';'';'';'Pangasinan-Sprache';'';'0';'L';''
'pal';'1.0.639.2';'Pahlavi';'';'';'Mittelpersisch';'';'0';'L';''
'pam';'1.0.639.2';'Pampanga, Kapampangan';'';'';'Pampanggan-Sprache';'';'0';'L';''
'pan';'1.0.639.2';'Panjabi, Punjabi';'';'';'Pandschabi-Sprache';'pa';'0';'L';''
'pap';'1.0.639.2';'Papiamento';'';'';'';'';'0';'L';''
'pau';'1.0.639.2';'Palauan';'';'';'Palau-Sprache';'';'0';'L';''
'peo';'1.0.639.2';'Persian, Old (ca.600-400 B.C.)';'';'';'Altpersisch';'';'0';'L';''
'per';'1.0.639.2';'Persian';'';'';'Persisch';'fa';'0';'L';''
'phi';'1.0.639.2';'Philippine languages';'';'';'Philippinisch-Austronesisch (Andere)';'';'0';'L';''
'phn';'1.0.639.2';'Phoenician';'';'';'Phönikisch';'';'0';'L';''
'pli';'1.0.639.2';'Pali';'';'';'';'pi';'0';'L';''
'pol';'1.0.639.2';'Polish';'';'';'Polnisch';'pl';'0';'L';''
'pon';'1.0.639.2';'Pohnpeian';'';'';'Ponapeanisch';'';'0';'L';''
'por';'1.0.639.2';'Portuguese';'';'';'Portugiesisch';'pt';'0';'L';''
'pra';'1.0.639.2';'Prakrit languages';'';'';'Prakrit';'';'0';'L';''
'pro';'1.0.639.2';'Provençal, Old (to 1500),Occitan, Old (to 1500)';'';'';'Altokzitanisch';'';'0';'L';''
'pus';'1.0.639.2';'Pushto, Pashto';'';'';'Paschtu';'ps';'0';'L';''
'qaa';'1.0.639.2';'Reserved for local use';'';'';'Reserviert für lokale Verwendung';'';'0';'L';''
'que';'1.0.639.2';'Quechua';'';'';'Quechua-Sprache';'qu';'0';'L';''
'raj';'1.0.639.2';'Rajasthani';'';'';'';'';'0';'L';''
'rap';'1.0.639.2';'Rapanui';'';'';'Osterinsel-Sprache';'';'0';'L';''
'rar';'1.0.639.2';'Rarotongan, Cook Islands Maori';'';'';'Rarotonganisch';'';'0';'L';''
'roa';'1.0.639.2';'Romance languages';'';'';'Romanische Sprachen (Andere)';'';'0';'L';''
'roh';'1.0.639.2';'Romansh';'';'';'Rätoromanisch';'rm';'0';'L';''
'rom';'1.0.639.2';'Romany';'';'';'Romani (Sprache)';'';'0';'L';''
'ron';'1.0.639.2';'Romanian, Moldavian, Moldovan';'';'';'Rumänisch';'ro';'0';'L';''
'rum';'1.0.639.2';'Romanian, Moldavian, Moldovan';'';'';'Rumänisch';'ro';'0';'L';''
'run';'1.0.639.2';'Rundi';'';'';'Rundi-Sprache';'rn';'0';'L';''
'rup';'1.0.639.2';'Aromanian, Arumanian, Macedo-Romanian';'';'';'Aromunisch';'';'0';'L';''
'rus';'1.0.639.2';'Russian';'';'';'Russisch';'ru';'0';'L';''
'sad';'1.0.639.2';'Sandawe';'';'';'Sandawe-Sprache';'';'0';'L';''
'sag';'1.0.639.2';'Sango';'';'';'Sango-Sprache';'sg';'0';'L';''
'sah';'1.0.639.2';'Yakut';'';'';'Jakutisch';'';'0';'L';''
'sai';'1.0.639.2';'South American Indian languages';'';'';'Indianersprachen, Südamerika (Andere)';'';'0';'L';''
'sal';'1.0.639.2';'Salishan languages';'';'';'Salish-Sprache';'';'0';'L';''
'sam';'1.0.639.2';'Samaritan Aramaic';'';'';'Samaritanisch';'';'0';'L';''
'san';'1.0.639.2';'Sanskrit';'';'';'';'sa';'0';'L';''
'sas';'1.0.639.2';'Sasak';'';'';'';'';'0';'L';''
'sat';'1.0.639.2';'Santali';'';'';'';'';'0';'L';''
'scn';'1.0.639.2';'Sicilian';'';'';'Sizilianisch';'';'0';'L';''
'sco';'1.0.639.2';'Scots';'';'';'Schottisch';'';'0';'L';''
'sel';'1.0.639.2';'Selkup';'';'';'Selkupisch';'';'0';'L';''
'sem';'1.0.639.2';'Semitic languages';'';'';'Semitische Sprachen (Andere)';'';'0';'L';''
'sga';'1.0.639.2';'Irish, Old (to 900)';'';'';'Altirisch';'';'0';'L';''
'sgn';'1.0.639.2';'Sign Languages';'';'';'Zeichensprachen';'';'0';'L';''
'shn';'1.0.639.2';'Shan';'';'';'Schan-Sprache';'';'0';'L';''
'sid';'1.0.639.2';'Sidamo';'';'';'Sidamo-Sprache';'';'0';'L';''
'sin';'1.0.639.2';'Sinhala, Sinhalese';'';'';'Singhalesisch';'si';'0';'L';''
'sio';'1.0.639.2';'Siouan languages';'';'';'Sioux-Sprachen (Andere)';'';'0';'L';''
'sit';'1.0.639.2';'Sino-Tibetan languages';'';'';'Sinotibetische Sprachen (Andere)';'';'0';'L';''
'sla';'1.0.639.2';'Slavic languages';'';'';'Slawische Sprachen (Andere)';'';'0';'L';''
'slk';'1.0.639.2';'Slovak';'';'';'Slowakisch';'sk';'0';'L';''
'slo';'1.0.639.2';'Slovak';'';'';'Slowakisch';'sk';'0';'L';''
'slv';'1.0.639.2';'Slovenian';'';'';'Slowenisch';'sl';'0';'L';''
'sma';'1.0.639.2';'Southern Sami';'';'';'Südsaamisch';'';'0';'L';''
'sme';'1.0.639.2';'Northern Sami';'';'';'Nordsaamisch';'se';'0';'L';''
'smi';'1.0.639.2';'Sami languages';'';'';'Saamisch';'';'0';'L';''
'smj';'1.0.639.2';'Lule Sami';'';'';'Lulesaamisch';'';'0';'L';''
'smn';'1.0.639.2';'Inari Sami';'';'';'Inarisaamisch';'';'0';'L';''
'smo';'1.0.639.2';'Samoan';'';'';'Samoanisch';'sm';'0';'L';''
'sms';'1.0.639.2';'Skolt Sami';'';'';'Skoltsaamisch';'';'0';'L';''
'sna';'1.0.639.2';'Shona';'';'';'Schona-Sprache';'sn';'0';'L';''
'snd';'1.0.639.2';'Sindhi';'';'';'Sindhi-Sprache';'sd';'0';'L';''
'snk';'1.0.639.2';'Soninke';'';'';'Soninke-Sprache';'';'0';'L';''
'sog';'1.0.639.2';'Sogdian';'';'';'Sogdisch';'';'0';'L';''
'som';'1.0.639.2';'Somali';'';'';'';'so';'0';'L';''
'son';'1.0.639.2';'Songhai languages';'';'';'Songhai-Sprache';'';'0';'L';''
'sot';'1.0.639.2';'Sotho, Southern';'';'';'Süd-Sotho-Sprache';'st';'0';'L';''
'spa';'1.0.639.2';'Spanish, Castilian';'';'';'Spanisch';'es';'0';'L';''
'sqi';'1.0.639.2';'Albanian';'';'';'Albanisch';'sq';'0';'L';''
'srd';'1.0.639.2';'Sardinian';'';'';'Sardisch';'sc';'0';'L';''
'srn';'1.0.639.2';'Sranan Tongo';'';'';'Sranantongo';'';'0';'L';''
'srp';'1.0.639.2';'Serbian';'';'';'Serbisch';'sr';'0';'L';''
'srr';'1.0.639.2';'Serer';'';'';'Serer-Sprache';'';'0';'L';''
'ssa';'1.0.639.2';'Nilo-Saharan languages';'';'';'Nilosaharanische Sprachen (Andere)';'';'0';'L';''
'ssw';'1.0.639.2';'Swati';'';'';'Swasi-Sprache';'ss';'0';'L';''
'suk';'1.0.639.2';'Sukuma';'';'';'Sukuma-Sprache';'';'0';'L';''
'sun';'1.0.639.2';'Sundanese';'';'';'Sundanesisch';'su';'0';'L';''
'sus';'1.0.639.2';'Susu';'';'';'';'';'0';'L';''
'sux';'1.0.639.2';'Sumerian';'';'';'Sumerisch';'';'0';'L';''
'swa';'1.0.639.2';'Swahili';'';'';'';'sw';'0';'L';''
'swe';'1.0.639.2';'Swedish';'';'';'Schwedisch';'sv';'0';'L';''
'syc';'1.0.639.2';'Classical Syriac';'';'';'Syrisch';'';'0';'L';''
'syr';'1.0.639.2';'Syriac';'';'';'Neuostaramäisch';'';'0';'L';''
'tah';'1.0.639.2';'Tahitian';'';'';'Tahitisch';'ty';'0';'L';''
'tai';'1.0.639.2';'Tai languages';'';'';'Thaisprachen (Andere)';'';'0';'L';''
'tam';'1.0.639.2';'Tamil';'';'';'';'ta';'0';'L';''
'tat';'1.0.639.2';'Tatar';'';'';'Tatarisch';'tt';'0';'L';''
'tel';'1.0.639.2';'Telugu';'';'';'Telugu-Sprache';'te';'0';'L';''
'tem';'1.0.639.2';'Timne';'';'';'Temne-Sprache';'';'0';'L';''
'ter';'1.0.639.2';'Tereno';'';'';'Tereno-Sprache';'';'0';'L';''
'tet';'1.0.639.2';'Tetum';'';'';'Tetum-Sprache';'';'0';'L';''
'tgk';'1.0.639.2';'Tajik';'';'';'Tadschikisch';'tg';'0';'L';''
'tgl';'1.0.639.2';'Tagalog';'';'';'';'tl';'0';'L';''
'tha';'1.0.639.2';'Thai';'';'';'Thailändisch';'th';'0';'L';''
'tib';'1.0.639.2';'Tibetan';'';'';'Tibetisch';'bo';'0';'L';''
'tig';'1.0.639.2';'Tigre';'';'';'Tigre-Sprache';'';'0';'L';''
'tir';'1.0.639.2';'Tigrinya';'';'';'Tigrinja-Sprache';'ti';'0';'L';''
'tiv';'1.0.639.2';'Tiv';'';'';'Tiv-Sprache';'';'0';'L';''
'tkl';'1.0.639.2';'Tokelau';'';'';'Tokelauanisch';'';'0';'L';''
'tlh';'1.0.639.2';'Klingon, tlhIngan-Hol';'';'';'Klingonisch';'';'0';'L';''
'tli';'1.0.639.2';'Tlingit';'';'';'Tlingit-Sprache';'';'0';'L';''
'tmh';'1.0.639.2';'Tamashek';'';'';'Tamaeq';'';'0';'L';''
'tog';'1.0.639.2';'Tonga (Nyasa)';'';'';'Tonga (Bantusprache, Sambia)';'';'0';'L';''
'ton';'1.0.639.2';'Tonga (Tonga Islands)';'';'';'Tongaisch';'to';'0';'L';''
'tpi';'1.0.639.2';'Tok Pisin';'';'';'Neumelanesisch';'';'0';'L';''
'tsi';'1.0.639.2';'Tsimshian';'';'';'Tsimshian-Sprache';'';'0';'L';''
'tsn';'1.0.639.2';'Tswana';'';'';'Tswana-Sprache';'tn';'0';'L';''
'tso';'1.0.639.2';'Tsonga';'';'';'Tsonga-Sprache';'ts';'0';'L';''
'tuk';'1.0.639.2';'Turkmen';'';'';'Turkmenisch';'tk';'0';'L';''
'tum';'1.0.639.2';'Tumbuka';'';'';'Tumbuka-Sprache';'';'0';'L';''
'tup';'1.0.639.2';'Tupi languages';'';'';'Tupi-Sprache';'';'0';'L';''
'tur';'1.0.639.2';'Turkish';'';'';'Türkisch';'tr';'0';'L';''
'tut';'1.0.639.2';'Altaic languages';'';'';'Altaische Sprachen (Andere)';'';'0';'L';''
'tvl';'1.0.639.2';'Tuvalu';'';'';'Elliceanisch';'';'0';'L';''
'twi';'1.0.639.2';'Twi';'';'';'Twi-Sprache';'tw';'0';'L';''
'tyv';'1.0.639.2';'Tuvinian';'';'';'Tuwinisch';'';'0';'L';''
'udm';'1.0.639.2';'Udmurt';'';'';'Udmurtisch';'';'0';'L';''
'uga';'1.0.639.2';'Ugaritic';'';'';'Ugaritisch';'';'0';'L';''
'uig';'1.0.639.2';'Uighur, Uyghur';'';'';'Uigurisch';'ug';'0';'L';''
'ukr';'1.0.639.2';'Ukrainian';'';'';'Ukrainisch';'uk';'0';'L';''
'umb';'1.0.639.2';'Umbundu';'';'';'Mbundu-Sprache';'';'0';'L';''
'und';'1.0.639.2';'Undetermined';'';'';'Nicht zu entscheiden';'';'0';'L';''
'urd';'1.0.639.2';'Urdu';'';'';'';'ur';'0';'L';''
'uzb';'1.0.639.2';'Uzbek';'';'';'Usbekisch';'uz';'0';'L';''
'vai';'1.0.639.2';'Vai';'';'';'Vai-Sprache';'';'0';'L';''
'ven';'1.0.639.2';'Venda';'';'';'Venda-Sprache';'ve';'0';'L';''
'vie';'1.0.639.2';'Vietnamese';'';'';'Vietnamesisch';'vi';'0';'L';''
'vol';'1.0.639.2';'Volapük';'';'';'';'vo';'0';'L';''
'vot';'1.0.639.2';'Votic';'';'';'Wotisch';'';'0';'L';''
'wak';'1.0.639.2';'Wakashan languages';'';'';'Wakash-Sprachen';'';'0';'L';''
'wal';'1.0.639.2';'Wolaitta, Wolaytta';'';'';'Walamo-Sprache';'';'0';'L';''
'war';'1.0.639.2';'Waray';'';'';'';'';'0';'L';''
'was';'1.0.639.2';'Washo';'';'';'Washo-Sprache';'';'0';'L';''
'wel';'1.0.639.2';'Welsh';'';'';'Kymrisch';'cy';'0';'L';''
'wen';'1.0.639.2';'Sorbian languages';'';'';'Sorbisch (Andere)';'';'0';'L';''
'wln';'1.0.639.2';'Walloon';'';'';'Wallonisch';'wa';'0';'L';''
'wol';'1.0.639.2';'Wolof';'';'';'Wolof-Sprache';'wo';'0';'L';''
'xal';'1.0.639.2';'Kalmyk, Oirat';'';'';'Kalmückisch';'';'0';'L';''
'xho';'1.0.639.2';'Xhosa';'';'';'Xhosa-Sprache';'xh';'0';'L';''
'yao';'1.0.639.2';'Yao';'';'';'Yao-Sprache (Bantusprache)';'';'0';'L';''
'yap';'1.0.639.2';'Yapese';'';'';'Yapesisch';'';'0';'L';''
'yid';'1.0.639.2';'Yiddish';'';'';'Jiddisch';'yi';'0';'L';''
'yor';'1.0.639.2';'Yoruba';'';'';'Yoruba-Sprache';'yo';'0';'L';''
'ypk';'1.0.639.2';'Yupik languages';'';'';'Ypik-Sprachen';'';'0';'L';''
'zap';'1.0.639.2';'Zapotec';'';'';'Zapotekisch';'';'0';'L';''
'zbl';'1.0.639.2';'Blissymbols, Blissymbolics, Bliss';'';'';'Bliss-Symbol';'';'0';'L';''
'zen';'1.0.639.2';'Zenaga';'';'';'';'';'0';'L';''
'zgh';'1.0.639.2';'Standard Moroccan Tamazight';'';'';'';'';'0';'L';''
'zha';'1.0.639.2';'Zhuang, Chuang';'';'';'Zhuang';'za';'0';'L';''
'zho';'1.0.639.2';'Chinese';'';'';'Chinesisch';'zh';'0';'L';''
'znd';'1.0.639.2';'Zande languages';'';'';'Zande-Sprachen';'';'0';'L';''
'zul';'1.0.639.2';'Zulu';'';'';'Zulu-Sprache';'zu';'0';'L';''
'zun';'1.0.639.2';'Zuni';'';'';'Zuñi-Sprache';'';'0';'L';''
'zxx';'1.0.639.2';'No linguistic content, Not applicable';'';'';'Kein linguistischer Inhalt';'';'0';'L';''
'zza';'1.0.639.2';'Zaza, Dimili, Dimli, Kirdki, Kirmanjki, Zazaki';'';'';'Zazaki';'';'0';'L';''
