'code';'codeSystem';'displayName';'parentCodeSystemName';'concept_Beschreibung';'meaning';'hints';'orderNumber';'level';'type';'relationships';'einheit print';'einheit codiert'
'D1';'1.2.40.0.34.5.183';'Dosis 1';'https://termgit.elga.gv.at/CodeSystem/eimpf-ergaenzung';'1';'';'';'1';'0';'L';'1';'';''
'D2';'1.2.40.0.34.5.183';'Dosis 2';'https://termgit.elga.gv.at/CodeSystem/eimpf-ergaenzung';'2';'';'';'2';'0';'L';'2';'';''
'D3';'1.2.40.0.34.5.183';'Dosis 3';'https://termgit.elga.gv.at/CodeSystem/eimpf-ergaenzung';'3';'';'';'3';'0';'L';'3';'';''
'D4';'1.2.40.0.34.5.183';'Dosis 4';'https://termgit.elga.gv.at/CodeSystem/eimpf-ergaenzung';'4';'';'';'4';'0';'L';'4';'';''
'D5';'1.2.40.0.34.5.183';'Dosis 5';'https://termgit.elga.gv.at/CodeSystem/eimpf-ergaenzung';'5';'';'';'5';'0';'L';'5';'';''
'D6';'1.2.40.0.34.5.183';'Dosis 6';'https://termgit.elga.gv.at/CodeSystem/eimpf-ergaenzung';'6';'';'';'6';'0';'L';'6';'';''
'D7';'1.2.40.0.34.5.183';'Dosis 7';'https://termgit.elga.gv.at/CodeSystem/eimpf-ergaenzung';'7';'';'';'7';'0';'L';'7';'';''
'D8';'1.2.40.0.34.5.183';'Dosis 8';'https://termgit.elga.gv.at/CodeSystem/eimpf-ergaenzung';'8';'';'';'8';'0';'L';'8';'';''
'D9';'1.2.40.0.34.5.183';'Dosis 9';'https://termgit.elga.gv.at/CodeSystem/eimpf-ergaenzung';'9';'';'';'9';'0';'L';'9';'';''
