'code';'codeSystem';'displayName';'parentCode';'concept_Beschreibung';'meaning';'hints';'level';'type';'relationships'
'100000073564';'1.2.40.0.10.1.4.3.4.3.4';'Anwendung am Ohr';'';'';'';'';'0';'L';''
'100000073566';'1.2.40.0.10.1.4.3.4.3.4';'Anwendung auf der Haut';'';'';'';'';'0';'L';''
'100000073567';'1.2.40.0.10.1.4.3.4.3.4';'dentale Anwendung';'';'';'';'';'0';'L';''
'100000073568';'1.2.40.0.10.1.4.3.4.3.4';'Badebehandlung';'';'';'';'';'0';'L';''
'100000073570';'1.2.40.0.10.1.4.3.4.3.4';'Anwendung in den Nebenhöhlen';'';'';'';'';'0';'L';''
'100000073571';'1.2.40.0.10.1.4.3.4.3.4';'endotracheopulmonale Anwendung';'';'';'';'';'0';'L';''
'100000073572';'1.2.40.0.10.1.4.3.4.3.4';'epidurale Anwendung';'';'';'';'';'0';'L';''
'100000073573';'1.2.40.0.10.1.4.3.4.3.4';'zum Auftragen auf die Wunde';'';'';'';'';'0';'L';''
'100000073577';'1.2.40.0.10.1.4.3.4.3.4';'zur Anwendung mittels Magensonde';'';'';'';'';'0';'L';''
'100000073578';'1.2.40.0.10.1.4.3.4.3.4';'Anwendung am Zahnfleisch';'';'';'';'';'0';'L';''
'100000073579';'1.2.40.0.10.1.4.3.4.3.4';'Hämodialyse';'';'';'';'';'0';'L';''
'100000073584';'1.2.40.0.10.1.4.3.4.3.4';'zur Inhalation';'';'';'';'';'0';'L';''
'100000073585';'1.2.40.0.10.1.4.3.4.3.4';'intestinale Anwendung';'';'';'';'';'0';'L';''
'100000073587';'1.2.40.0.10.1.4.3.4.3.4';'intraarterielle Anwendung';'';'';'';'';'0';'L';''
'100000073588';'1.2.40.0.10.1.4.3.4.3.4';'intraartikuläre Anwendung';'';'';'';'';'0';'L';''
'100000073589';'1.2.40.0.10.1.4.3.4.3.4';'intrabursale Anwendung';'';'';'';'';'0';'L';''
'100000073590';'1.2.40.0.10.1.4.3.4.3.4';'intracardiale Anwendung';'';'';'';'';'0';'L';''
'100000073591';'1.2.40.0.10.1.4.3.4.3.4';'intrakavernöse Anwendung';'';'';'';'';'0';'L';''
'100000073592';'1.2.40.0.10.1.4.3.4.3.4';'Intrazerebrale Anwendung';'';'';'';'';'0';'L';''
'100000073593';'1.2.40.0.10.1.4.3.4.3.4';'intrazervikale Anwendung';'';'';'';'';'0';'L';''
'100000073595';'1.2.40.0.10.1.4.3.4.3.4';'intradermale Anwendung';'';'';'';'';'0';'L';''
'100000073597';'1.2.40.0.10.1.4.3.4.3.4';'intraläsionale Anwendung';'';'';'';'';'0';'L';''
'100000073598';'1.2.40.0.10.1.4.3.4.3.4';'intralymphatische Anwendung';'';'';'';'';'0';'L';''
'100000073600';'1.2.40.0.10.1.4.3.4.3.4';'intramuskuläre Anwendung';'';'';'';'';'0';'L';''
'100000073602';'1.2.40.0.10.1.4.3.4.3.4';'intraossäre Anwendung';'';'';'';'';'0';'L';''
'100000073604';'1.2.40.0.10.1.4.3.4.3.4';'intraperitoneale Anwendung';'';'';'';'';'0';'L';''
'100000073608';'1.2.40.0.10.1.4.3.4.3.4';'intrathekale Anwendung';'';'';'';'';'0';'L';''
'100000073609';'1.2.40.0.10.1.4.3.4.3.4';'intratumorale Anwendung';'';'';'';'';'0';'L';''
'100000073610';'1.2.40.0.10.1.4.3.4.3.4';'intrauterine Anwendung';'';'';'';'';'0';'L';''
'100000073611';'1.2.40.0.10.1.4.3.4.3.4';'intravenöse Anwendung';'';'';'';'';'0';'L';''
'100000073612';'1.2.40.0.10.1.4.3.4.3.4';'intravesikale Anwendung';'';'';'';'';'0';'L';''
'100000073613';'1.2.40.0.10.1.4.3.4.3.4';'Intravitreal';'';'';'';'';'0';'L';''
'100000073615';'1.2.40.0.10.1.4.3.4.3.4';'nasale Anwendung';'';'';'';'';'0';'L';''
'100000073616';'1.2.40.0.10.1.4.3.4.3.4';'zum Vernebeln';'';'';'';'';'0';'L';''
'100000073617';'1.2.40.0.10.1.4.3.4.3.4';'Anwendung am Auge';'';'';'';'';'0';'L';''
'100000073619';'1.2.40.0.10.1.4.3.4.3.4';'zum Einnehmen';'';'';'';'';'0';'L';''
'100000073620';'1.2.40.0.10.1.4.3.4.3.4';'Anwendung in der Mundhöhle';'';'';'';'';'0';'L';''
'100000073621';'1.2.40.0.10.1.4.3.4.3.4';'zur Anwendung im Mund- und Rachenraum';'';'';'';'';'0';'L';''
'100000073623';'1.2.40.0.10.1.4.3.4.3.4';'periartikuläre Anwendung';'';'';'';'';'0';'L';''
'100000073624';'1.2.40.0.10.1.4.3.4.3.4';'perineurale Anwendung';'';'';'';'';'0';'L';''
'100000073625';'1.2.40.0.10.1.4.3.4.3.4';'zur periodontalen Anwendung';'';'';'';'';'0';'L';''
'100000073628';'1.2.40.0.10.1.4.3.4.3.4';'rektale Anwendung';'';'';'';'';'0';'L';''
'100000073629';'1.2.40.0.10.1.4.3.4.3.4';'Art der Anwendung nicht spezifizierbar';'';'';'';'';'0';'L';''
'100000073632';'1.2.40.0.10.1.4.3.4.3.4';'subkonjunktivale Anwendung';'';'';'';'';'0';'L';''
'100000073633';'1.2.40.0.10.1.4.3.4.3.4';'subkutane Anwendung';'';'';'';'';'0';'L';''
'100000073634';'1.2.40.0.10.1.4.3.4.3.4';'Sublingual';'';'';'';'';'0';'L';''
'100000073637';'1.2.40.0.10.1.4.3.4.3.4';'transdermale Anwendung';'';'';'';'';'0';'L';''
'100000073638';'1.2.40.0.10.1.4.3.4.3.4';'Anwendung in der Harnröhre';'';'';'';'';'0';'L';''
'100000073639';'1.2.40.0.10.1.4.3.4.3.4';'vaginale Anwendung';'';'';'';'';'0';'L';''
'100000075243';'1.2.40.0.10.1.4.3.4.3.4';'zur lokalen Anwendung';'';'';'';'';'0';'L';''
'100000075248';'1.2.40.0.10.1.4.3.4.3.4';'Infiltration';'';'';'';'';'0';'L';''
'100000075249';'1.2.40.0.10.1.4.3.4.3.4';'zur Implantation';'';'';'';'';'0';'L';''
'100000075264';'1.2.40.0.10.1.4.3.4.3.4';'retrobulbäre Anwendung';'';'';'';'';'0';'L';''
'100000075275';'1.2.40.0.10.1.4.3.4.3.4';'Buccale Anwendung';'';'';'';'';'0';'L';''
'100000075554';'1.2.40.0.10.1.4.3.4.3.4';'submuköse Anwendung';'';'';'';'';'0';'L';''
'100000075556';'1.2.40.0.10.1.4.3.4.3.4';'extrakorporale Anwendung';'';'';'';'';'0';'L';''
'100000075557';'1.2.40.0.10.1.4.3.4.3.4';'periossäre Anwendung';'';'';'';'';'0';'L';''
'100000125763';'1.2.40.0.10.1.4.3.4.3.4';'intrakamerale Anwendung';'';'';'';'';'0';'L';''
'100000157797';'1.2.40.0.10.1.4.3.4.3.4';'intraglanduläre Anwendung';'';'';'';'';'0';'L';''
'900000000002';'1.2.40.0.10.1.4.3.4.3.4';'subläsionale Anwendung';'';'';'';'';'0';'L';''
'900000000003';'1.2.40.0.10.1.4.3.4.3.4';'perivasale Anwendung';'';'';'';'';'0';'L';''
'900000000007';'1.2.40.0.10.1.4.3.4.3.4';'intratendineale Anwendung';'';'';'';'';'0';'L';''
'900000000008';'1.2.40.0.10.1.4.3.4.3.4';'subepitheliale Anwendung';'';'';'';'';'0';'L';''
'900000000009';'1.2.40.0.10.1.4.3.4.3.4';'intrakavitäre Anwendung';'';'';'';'';'0';'L';''
'900000000010';'1.2.40.0.10.1.4.3.4.3.4';'peridurale Anwendung';'';'';'';'';'0';'L';''
'900000000012';'1.2.40.0.10.1.4.3.4.3.4';'Hämofiltration';'';'';'';'';'0';'L';''
'900000000013';'1.2.40.0.10.1.4.3.4.3.4';'parenterale Perfusion';'';'';'';'';'0';'L';''
'900000000014';'1.2.40.0.10.1.4.3.4.3.4';'zur Instillation';'';'';'';'';'0';'L';''
'900000000015';'1.2.40.0.10.1.4.3.4.3.4';'zur Wurzelkanalbehandlung';'';'';'';'';'0';'L';''
