'code';'codeSystem';'displayName';'parentCodeSystemName';'concept_Beschreibung';'meaning';'hints';'orderNumber';'level';'type';'relationships';'einheit print';'einheit codiert';'codeSystemVersion'
'AD';'1.2.40.0.34.5.96';'Andorra';'https://termgit.elga.gv.at/CodeSystem/ems-reiseland';;;;'1';'0';'L';;;;'1.0.0+20230131'
'AE';'1.2.40.0.34.5.96';'Vereinigte Arabische Emirate';'https://termgit.elga.gv.at/CodeSystem/ems-reiseland';;;;'2';'0';'L';;;;'1.0.0+20230131'
'AF';'1.2.40.0.34.5.96';'Afghanistan';'https://termgit.elga.gv.at/CodeSystem/ems-reiseland';;;;'3';'0';'L';;;;'1.0.0+20230131'
'AG';'1.2.40.0.34.5.96';'Antigua & Barbuda';'https://termgit.elga.gv.at/CodeSystem/ems-reiseland';;;;'4';'0';'L';;;;'1.0.0+20230131'
'AI';'1.2.40.0.34.5.96';'Anguilla';'https://termgit.elga.gv.at/CodeSystem/ems-reiseland';;;;'5';'0';'L';;;;'1.0.0+20230131'
'AL';'1.2.40.0.34.5.96';'Albanien';'https://termgit.elga.gv.at/CodeSystem/ems-reiseland';;;;'6';'0';'L';;;;'1.0.0+20230131'
'AM';'1.2.40.0.34.5.96';'Armenien';'https://termgit.elga.gv.at/CodeSystem/ems-reiseland';;;;'7';'0';'L';;;;'1.0.0+20230131'
'AN';'1.2.40.0.34.5.96';'Niederländische Antillen';'https://termgit.elga.gv.at/CodeSystem/ems-reiseland';;;;'8';'0';'L';;;;'1.0.0+20230131'
'AO';'1.2.40.0.34.5.96';'Angola';'https://termgit.elga.gv.at/CodeSystem/ems-reiseland';;;;'9';'0';'L';;;;'1.0.0+20230131'
'AQ';'1.2.40.0.34.5.96';'Antarktis';'https://termgit.elga.gv.at/CodeSystem/ems-reiseland';;;;'10';'0';'L';;;;'1.0.0+20230131'
'AR';'1.2.40.0.34.5.96';'Argentinien';'https://termgit.elga.gv.at/CodeSystem/ems-reiseland';;;;'11';'0';'L';;;;'1.0.0+20230131'
'AS';'1.2.40.0.34.5.96';'Samoa-Amerikanisch';'https://termgit.elga.gv.at/CodeSystem/ems-reiseland';;;;'12';'0';'L';;;;'1.0.0+20230131'
'AT';'1.2.40.0.34.5.96';'Österreich';'https://termgit.elga.gv.at/CodeSystem/ems-reiseland';;;;'13';'0';'L';;;;'1.0.0+20230131'
'AU';'1.2.40.0.34.5.96';'Australien';'https://termgit.elga.gv.at/CodeSystem/ems-reiseland';;;;'14';'0';'L';;;;'1.0.0+20230131'
'AW';'1.2.40.0.34.5.96';'Aruba';'https://termgit.elga.gv.at/CodeSystem/ems-reiseland';;;;'15';'0';'L';;;;'1.0.0+20230131'
'AX';'1.2.40.0.34.5.96';'Aland Islands';'https://termgit.elga.gv.at/CodeSystem/ems-reiseland';;;;'16';'0';'L';;;;'1.0.0+20230131'
'AZ';'1.2.40.0.34.5.96';'Aserbaidschan';'https://termgit.elga.gv.at/CodeSystem/ems-reiseland';;;;'17';'0';'L';;;;'1.0.0+20230131'
'BA';'1.2.40.0.34.5.96';'Bosnien & Herzegowina';'https://termgit.elga.gv.at/CodeSystem/ems-reiseland';;;;'18';'0';'L';;;;'1.0.0+20230131'
'BB';'1.2.40.0.34.5.96';'Barbados';'https://termgit.elga.gv.at/CodeSystem/ems-reiseland';;;;'19';'0';'L';;;;'1.0.0+20230131'
'BD';'1.2.40.0.34.5.96';'Bangladesch';'https://termgit.elga.gv.at/CodeSystem/ems-reiseland';;;;'20';'0';'L';;;;'1.0.0+20230131'
'BE';'1.2.40.0.34.5.96';'Belgien';'https://termgit.elga.gv.at/CodeSystem/ems-reiseland';;;;'21';'0';'L';;;;'1.0.0+20230131'
'BF';'1.2.40.0.34.5.96';'Burkina Faso';'https://termgit.elga.gv.at/CodeSystem/ems-reiseland';;;;'22';'0';'L';;;;'1.0.0+20230131'
'BG';'1.2.40.0.34.5.96';'Bulgarien';'https://termgit.elga.gv.at/CodeSystem/ems-reiseland';;;;'23';'0';'L';;;;'1.0.0+20230131'
'BH';'1.2.40.0.34.5.96';'Bahrain';'https://termgit.elga.gv.at/CodeSystem/ems-reiseland';;;;'24';'0';'L';;;;'1.0.0+20230131'
'BI';'1.2.40.0.34.5.96';'Burundi';'https://termgit.elga.gv.at/CodeSystem/ems-reiseland';;;;'25';'0';'L';;;;'1.0.0+20230131'
'BJ';'1.2.40.0.34.5.96';'Benin';'https://termgit.elga.gv.at/CodeSystem/ems-reiseland';;;;'26';'0';'L';;;;'1.0.0+20230131'
'BL';'1.2.40.0.34.5.96';'Saint Barthelemy';'https://termgit.elga.gv.at/CodeSystem/ems-reiseland';;;;'27';'0';'L';;;;'1.0.0+20230131'
'BM';'1.2.40.0.34.5.96';'Bermuda';'https://termgit.elga.gv.at/CodeSystem/ems-reiseland';;;;'28';'0';'L';;;;'1.0.0+20230131'
'BN';'1.2.40.0.34.5.96';'Brunei Darussalam';'https://termgit.elga.gv.at/CodeSystem/ems-reiseland';;;;'29';'0';'L';;;;'1.0.0+20230131'
'BO';'1.2.40.0.34.5.96';'Bolivien';'https://termgit.elga.gv.at/CodeSystem/ems-reiseland';;;;'30';'0';'L';;;;'1.0.0+20230131'
'BQ';'1.2.40.0.34.5.96';'Bonaire, Sint Eustatius und Saba';'https://termgit.elga.gv.at/CodeSystem/ems-reiseland';;;;'31';'0';'L';;;;'1.0.0+20230131'
'BR';'1.2.40.0.34.5.96';'Brasilien';'https://termgit.elga.gv.at/CodeSystem/ems-reiseland';;;;'32';'0';'L';;;;'1.0.0+20230131'
'BS';'1.2.40.0.34.5.96';'Bahamas';'https://termgit.elga.gv.at/CodeSystem/ems-reiseland';;;;'33';'0';'L';;;;'1.0.0+20230131'
'BT';'1.2.40.0.34.5.96';'Bhutan';'https://termgit.elga.gv.at/CodeSystem/ems-reiseland';;;;'34';'0';'L';;;;'1.0.0+20230131'
'BV';'1.2.40.0.34.5.96';'Bouvetinsel';'https://termgit.elga.gv.at/CodeSystem/ems-reiseland';;;;'35';'0';'L';;;;'1.0.0+20230131'
'BW';'1.2.40.0.34.5.96';'Botsuana';'https://termgit.elga.gv.at/CodeSystem/ems-reiseland';;;;'36';'0';'L';;;;'1.0.0+20230131'
'BY';'1.2.40.0.34.5.96';'Belarus';'https://termgit.elga.gv.at/CodeSystem/ems-reiseland';;;;'37';'0';'L';;;;'1.0.0+20230131'
'BZ';'1.2.40.0.34.5.96';'Belize';'https://termgit.elga.gv.at/CodeSystem/ems-reiseland';;;;'38';'0';'L';;;;'1.0.0+20230131'
'CA';'1.2.40.0.34.5.96';'Kanada';'https://termgit.elga.gv.at/CodeSystem/ems-reiseland';;;;'39';'0';'L';;;;'1.0.0+20230131'
'CC';'1.2.40.0.34.5.96';'Kokosinseln';'https://termgit.elga.gv.at/CodeSystem/ems-reiseland';;;;'40';'0';'L';;;;'1.0.0+20230131'
'CD';'1.2.40.0.34.5.96';'Kongo, Demokr. Republik';'https://termgit.elga.gv.at/CodeSystem/ems-reiseland';;;;'41';'0';'L';;;;'1.0.0+20230131'
'CF';'1.2.40.0.34.5.96';'Zentralafrikanische Republik';'https://termgit.elga.gv.at/CodeSystem/ems-reiseland';;;;'42';'0';'L';;;;'1.0.0+20230131'
'CG';'1.2.40.0.34.5.96';'Kongo';'https://termgit.elga.gv.at/CodeSystem/ems-reiseland';;;;'43';'0';'L';;;;'1.0.0+20230131'
'CH';'1.2.40.0.34.5.96';'Schweiz';'https://termgit.elga.gv.at/CodeSystem/ems-reiseland';;;;'44';'0';'L';;;;'1.0.0+20230131'
'CI';'1.2.40.0.34.5.96';'Elfenbeinküste';'https://termgit.elga.gv.at/CodeSystem/ems-reiseland';;;;'45';'0';'L';;;;'1.0.0+20230131'
'CK';'1.2.40.0.34.5.96';'Cook-Inseln';'https://termgit.elga.gv.at/CodeSystem/ems-reiseland';;;;'46';'0';'L';;;;'1.0.0+20230131'
'CL';'1.2.40.0.34.5.96';'Chile';'https://termgit.elga.gv.at/CodeSystem/ems-reiseland';;;;'47';'0';'L';;;;'1.0.0+20230131'
'CM';'1.2.40.0.34.5.96';'Kamerun';'https://termgit.elga.gv.at/CodeSystem/ems-reiseland';;;;'48';'0';'L';;;;'1.0.0+20230131'
'CN';'1.2.40.0.34.5.96';'China';'https://termgit.elga.gv.at/CodeSystem/ems-reiseland';;;;'49';'0';'L';;;;'1.0.0+20230131'
'CO';'1.2.40.0.34.5.96';'Kolumbien';'https://termgit.elga.gv.at/CodeSystem/ems-reiseland';;;;'50';'0';'L';;;;'1.0.0+20230131'
'CR';'1.2.40.0.34.5.96';'Costa Rica';'https://termgit.elga.gv.at/CodeSystem/ems-reiseland';;;;'51';'0';'L';;;;'1.0.0+20230131'
'CT';'1.2.40.0.34.5.96';'Canton & Enderburyinseln';'https://termgit.elga.gv.at/CodeSystem/ems-reiseland';;;;'52';'0';'L';;;;'1.0.0+20230131'
'CU';'1.2.40.0.34.5.96';'Kuba';'https://termgit.elga.gv.at/CodeSystem/ems-reiseland';;;;'53';'0';'L';;;;'1.0.0+20230131'
'CV';'1.2.40.0.34.5.96';'Kap Verde';'https://termgit.elga.gv.at/CodeSystem/ems-reiseland';;;;'54';'0';'L';;;;'1.0.0+20230131'
'CW';'1.2.40.0.34.5.96';'Curacao';'https://termgit.elga.gv.at/CodeSystem/ems-reiseland';;;;'55';'0';'L';;;;'1.0.0+20230131'
'CX';'1.2.40.0.34.5.96';'Weihnachtsinsel';'https://termgit.elga.gv.at/CodeSystem/ems-reiseland';;;;'56';'0';'L';;;;'1.0.0+20230131'
'CY';'1.2.40.0.34.5.96';'Zypern';'https://termgit.elga.gv.at/CodeSystem/ems-reiseland';;;;'57';'0';'L';;;;'1.0.0+20230131'
'CZ';'1.2.40.0.34.5.96';'Tschechische Republik';'https://termgit.elga.gv.at/CodeSystem/ems-reiseland';;;;'58';'0';'L';;;;'1.0.0+20230131'
'DE';'1.2.40.0.34.5.96';'Deutschland';'https://termgit.elga.gv.at/CodeSystem/ems-reiseland';;;;'59';'0';'L';;;;'1.0.0+20230131'
'DJ';'1.2.40.0.34.5.96';'Dschibuti';'https://termgit.elga.gv.at/CodeSystem/ems-reiseland';;;;'60';'0';'L';;;;'1.0.0+20230131'
'DK';'1.2.40.0.34.5.96';'Dänemark';'https://termgit.elga.gv.at/CodeSystem/ems-reiseland';;;;'61';'0';'L';;;;'1.0.0+20230131'
'DM';'1.2.40.0.34.5.96';'Dominica';'https://termgit.elga.gv.at/CodeSystem/ems-reiseland';;;;'62';'0';'L';;;;'1.0.0+20230131'
'DO';'1.2.40.0.34.5.96';'Dominikanische Republik';'https://termgit.elga.gv.at/CodeSystem/ems-reiseland';;;;'63';'0';'L';;;;'1.0.0+20230131'
'DZ';'1.2.40.0.34.5.96';'Algerien';'https://termgit.elga.gv.at/CodeSystem/ems-reiseland';;;;'64';'0';'L';;;;'1.0.0+20230131'
'EC';'1.2.40.0.34.5.96';'Ecuador';'https://termgit.elga.gv.at/CodeSystem/ems-reiseland';;;;'65';'0';'L';;;;'1.0.0+20230131'
'EE';'1.2.40.0.34.5.96';'Estland';'https://termgit.elga.gv.at/CodeSystem/ems-reiseland';;;;'66';'0';'L';;;;'1.0.0+20230131'
'EG';'1.2.40.0.34.5.96';'Ägypten';'https://termgit.elga.gv.at/CodeSystem/ems-reiseland';;;;'67';'0';'L';;;;'1.0.0+20230131'
'EH';'1.2.40.0.34.5.96';'Westsahara Eigenständiger Staat';'https://termgit.elga.gv.at/CodeSystem/ems-reiseland';;;;'68';'0';'L';;;;'1.0.0+20230131'
'ER';'1.2.40.0.34.5.96';'Eritrea';'https://termgit.elga.gv.at/CodeSystem/ems-reiseland';;;;'69';'0';'L';;;;'1.0.0+20230131'
'ES';'1.2.40.0.34.5.96';'Spanien';'https://termgit.elga.gv.at/CodeSystem/ems-reiseland';;;;'70';'0';'L';;;;'1.0.0+20230131'
'ET';'1.2.40.0.34.5.96';'Äthiopien';'https://termgit.elga.gv.at/CodeSystem/ems-reiseland';;;;'71';'0';'L';;;;'1.0.0+20230131'
'FI';'1.2.40.0.34.5.96';'Finnland';'https://termgit.elga.gv.at/CodeSystem/ems-reiseland';;;;'72';'0';'L';;;;'1.0.0+20230131'
'FJ';'1.2.40.0.34.5.96';'Fidschi';'https://termgit.elga.gv.at/CodeSystem/ems-reiseland';;;;'73';'0';'L';;;;'1.0.0+20230131'
'FK';'1.2.40.0.34.5.96';'Falklandinseln';'https://termgit.elga.gv.at/CodeSystem/ems-reiseland';;;;'74';'0';'L';;;;'1.0.0+20230131'
'FM';'1.2.40.0.34.5.96';'Mikronesien';'https://termgit.elga.gv.at/CodeSystem/ems-reiseland';;;;'75';'0';'L';;;;'1.0.0+20230131'
'FO';'1.2.40.0.34.5.96';'Färoeer Inseln';'https://termgit.elga.gv.at/CodeSystem/ems-reiseland';;;;'76';'0';'L';;;;'1.0.0+20230131'
'FQ';'1.2.40.0.34.5.96';'Französische Südpolargebiete';'https://termgit.elga.gv.at/CodeSystem/ems-reiseland';;;;'77';'0';'L';;;;'1.0.0+20230131'
'FR';'1.2.40.0.34.5.96';'Frankreich';'https://termgit.elga.gv.at/CodeSystem/ems-reiseland';;;;'78';'0';'L';;;;'1.0.0+20230131'
'GA';'1.2.40.0.34.5.96';'Gabun';'https://termgit.elga.gv.at/CodeSystem/ems-reiseland';;;;'79';'0';'L';;;;'1.0.0+20230131'
'GD';'1.2.40.0.34.5.96';'Grenada';'https://termgit.elga.gv.at/CodeSystem/ems-reiseland';;;;'80';'0';'L';;;;'1.0.0+20230131'
'GE';'1.2.40.0.34.5.96';'Georgien';'https://termgit.elga.gv.at/CodeSystem/ems-reiseland';;;;'81';'0';'L';;;;'1.0.0+20230131'
'GF';'1.2.40.0.34.5.96';'Französisch Guayana';'https://termgit.elga.gv.at/CodeSystem/ems-reiseland';;;;'82';'0';'L';;;;'1.0.0+20230131'
'GG';'1.2.40.0.34.5.96';'Guernsey Insel';'https://termgit.elga.gv.at/CodeSystem/ems-reiseland';;;;'83';'0';'L';;;;'1.0.0+20230131'
'GH';'1.2.40.0.34.5.96';'Ghana';'https://termgit.elga.gv.at/CodeSystem/ems-reiseland';;;;'84';'0';'L';;;;'1.0.0+20230131'
'GI';'1.2.40.0.34.5.96';'Gibraltar';'https://termgit.elga.gv.at/CodeSystem/ems-reiseland';;;;'85';'0';'L';;;;'1.0.0+20230131'
'GL';'1.2.40.0.34.5.96';'Grönland';'https://termgit.elga.gv.at/CodeSystem/ems-reiseland';;;;'86';'0';'L';;;;'1.0.0+20230131'
'GM';'1.2.40.0.34.5.96';'Gambia';'https://termgit.elga.gv.at/CodeSystem/ems-reiseland';;;;'87';'0';'L';;;;'1.0.0+20230131'
'GN';'1.2.40.0.34.5.96';'Guinea';'https://termgit.elga.gv.at/CodeSystem/ems-reiseland';;;;'88';'0';'L';;;;'1.0.0+20230131'
'GP';'1.2.40.0.34.5.96';'Guadeloupe';'https://termgit.elga.gv.at/CodeSystem/ems-reiseland';;;;'89';'0';'L';;;;'1.0.0+20230131'
'GQ';'1.2.40.0.34.5.96';'Äquatorial Guinea';'https://termgit.elga.gv.at/CodeSystem/ems-reiseland';;;;'90';'0';'L';;;;'1.0.0+20230131'
'GR';'1.2.40.0.34.5.96';'Griechenland';'https://termgit.elga.gv.at/CodeSystem/ems-reiseland';;;;'91';'0';'L';;;;'1.0.0+20230131'
'GS';'1.2.40.0.34.5.96';'Südgeorgien & südl. Sandwich-I.';'https://termgit.elga.gv.at/CodeSystem/ems-reiseland';;;;'92';'0';'L';;;;'1.0.0+20230131'
'GT';'1.2.40.0.34.5.96';'Guatemala';'https://termgit.elga.gv.at/CodeSystem/ems-reiseland';;;;'93';'0';'L';;;;'1.0.0+20230131'
'GU';'1.2.40.0.34.5.96';'Guam US-Verwaltung';'https://termgit.elga.gv.at/CodeSystem/ems-reiseland';;;;'94';'0';'L';;;;'1.0.0+20230131'
'GW';'1.2.40.0.34.5.96';'Guinea-Bissau';'https://termgit.elga.gv.at/CodeSystem/ems-reiseland';;;;'95';'0';'L';;;;'1.0.0+20230131'
'GY';'1.2.40.0.34.5.96';'Guyana';'https://termgit.elga.gv.at/CodeSystem/ems-reiseland';;;;'96';'0';'L';;;;'1.0.0+20230131'
'HK';'1.2.40.0.34.5.96';'Hongkong';'https://termgit.elga.gv.at/CodeSystem/ems-reiseland';;;;'97';'0';'L';;;;'1.0.0+20230131'
'HM';'1.2.40.0.34.5.96';'Heard & McDonaldinseln';'https://termgit.elga.gv.at/CodeSystem/ems-reiseland';;;;'98';'0';'L';;;;'1.0.0+20230131'
'HN';'1.2.40.0.34.5.96';'Honduras';'https://termgit.elga.gv.at/CodeSystem/ems-reiseland';;;;'99';'0';'L';;;;'1.0.0+20230131'
'HR';'1.2.40.0.34.5.96';'Kroatien';'https://termgit.elga.gv.at/CodeSystem/ems-reiseland';;;;'100';'0';'L';;;;'1.0.0+20230131'
'HT';'1.2.40.0.34.5.96';'Haiti';'https://termgit.elga.gv.at/CodeSystem/ems-reiseland';;;;'101';'0';'L';;;;'1.0.0+20230131'
'HU';'1.2.40.0.34.5.96';'Ungarn';'https://termgit.elga.gv.at/CodeSystem/ems-reiseland';;;;'102';'0';'L';;;;'1.0.0+20230131'
'IC';'1.2.40.0.34.5.96';'Kanarische Inseln';'https://termgit.elga.gv.at/CodeSystem/ems-reiseland';;;;'103';'0';'L';;;;'1.0.0+20230131'
'ID';'1.2.40.0.34.5.96';'Indonesien';'https://termgit.elga.gv.at/CodeSystem/ems-reiseland';;;;'104';'0';'L';;;;'1.0.0+20230131'
'IE';'1.2.40.0.34.5.96';'Irland';'https://termgit.elga.gv.at/CodeSystem/ems-reiseland';;;;'105';'0';'L';;;;'1.0.0+20230131'
'IL';'1.2.40.0.34.5.96';'Israel';'https://termgit.elga.gv.at/CodeSystem/ems-reiseland';;;;'106';'0';'L';;;;'1.0.0+20230131'
'IM';'1.2.40.0.34.5.96';'Isle of Man';'https://termgit.elga.gv.at/CodeSystem/ems-reiseland';;;;'107';'0';'L';;;;'1.0.0+20230131'
'IN';'1.2.40.0.34.5.96';'Indien';'https://termgit.elga.gv.at/CodeSystem/ems-reiseland';;;;'108';'0';'L';;;;'1.0.0+20230131'
'IO';'1.2.40.0.34.5.96';'Brit. Territorium im Ind. Ozean';'https://termgit.elga.gv.at/CodeSystem/ems-reiseland';;;;'109';'0';'L';;;;'1.0.0+20230131'
'IQ';'1.2.40.0.34.5.96';'Irak';'https://termgit.elga.gv.at/CodeSystem/ems-reiseland';;;;'110';'0';'L';;;;'1.0.0+20230131'
'IR';'1.2.40.0.34.5.96';'Iran';'https://termgit.elga.gv.at/CodeSystem/ems-reiseland';;;;'111';'0';'L';;;;'1.0.0+20230131'
'IS';'1.2.40.0.34.5.96';'Island';'https://termgit.elga.gv.at/CodeSystem/ems-reiseland';;;;'112';'0';'L';;;;'1.0.0+20230131'
'IT';'1.2.40.0.34.5.96';'Italien';'https://termgit.elga.gv.at/CodeSystem/ems-reiseland';;;;'113';'0';'L';;;;'1.0.0+20230131'
'JE';'1.2.40.0.34.5.96';'Jersey Insel';'https://termgit.elga.gv.at/CodeSystem/ems-reiseland';;;;'114';'0';'L';;;;'1.0.0+20230131'
'JM';'1.2.40.0.34.5.96';'Jamaika';'https://termgit.elga.gv.at/CodeSystem/ems-reiseland';;;;'115';'0';'L';;;;'1.0.0+20230131'
'JO';'1.2.40.0.34.5.96';'Jordanien';'https://termgit.elga.gv.at/CodeSystem/ems-reiseland';;;;'116';'0';'L';;;;'1.0.0+20230131'
'JP';'1.2.40.0.34.5.96';'Japan';'https://termgit.elga.gv.at/CodeSystem/ems-reiseland';;;;'117';'0';'L';;;;'1.0.0+20230131'
'JT';'1.2.40.0.34.5.96';'Johnston Insel';'https://termgit.elga.gv.at/CodeSystem/ems-reiseland';;;;'118';'0';'L';;;;'1.0.0+20230131'
'KE';'1.2.40.0.34.5.96';'Kenia';'https://termgit.elga.gv.at/CodeSystem/ems-reiseland';;;;'119';'0';'L';;;;'1.0.0+20230131'
'KG';'1.2.40.0.34.5.96';'Kirgisistan';'https://termgit.elga.gv.at/CodeSystem/ems-reiseland';;;;'120';'0';'L';;;;'1.0.0+20230131'
'KH';'1.2.40.0.34.5.96';'Kambodscha';'https://termgit.elga.gv.at/CodeSystem/ems-reiseland';;;;'121';'0';'L';;;;'1.0.0+20230131'
'KI';'1.2.40.0.34.5.96';'Kiribati';'https://termgit.elga.gv.at/CodeSystem/ems-reiseland';;;;'122';'0';'L';;;;'1.0.0+20230131'
'KM';'1.2.40.0.34.5.96';'Komoren';'https://termgit.elga.gv.at/CodeSystem/ems-reiseland';;;;'123';'0';'L';;;;'1.0.0+20230131'
'KN';'1.2.40.0.34.5.96';'St. Kitts & Nevis';'https://termgit.elga.gv.at/CodeSystem/ems-reiseland';;;;'124';'0';'L';;;;'1.0.0+20230131'
'KP';'1.2.40.0.34.5.96';'Korea, Demokr. Volksrepublik';'https://termgit.elga.gv.at/CodeSystem/ems-reiseland';;;;'125';'0';'L';;;;'1.0.0+20230131'
'KR';'1.2.40.0.34.5.96';'Korea, Republik von';'https://termgit.elga.gv.at/CodeSystem/ems-reiseland';;;;'126';'0';'L';;;;'1.0.0+20230131'
'KW';'1.2.40.0.34.5.96';'Kuwait';'https://termgit.elga.gv.at/CodeSystem/ems-reiseland';;;;'127';'0';'L';;;;'1.0.0+20230131'
'KY';'1.2.40.0.34.5.96';'Kaimaninseln';'https://termgit.elga.gv.at/CodeSystem/ems-reiseland';;;;'128';'0';'L';;;;'1.0.0+20230131'
'KZ';'1.2.40.0.34.5.96';'Kasachstan';'https://termgit.elga.gv.at/CodeSystem/ems-reiseland';;;;'129';'0';'L';;;;'1.0.0+20230131'
'LA';'1.2.40.0.34.5.96';'Laos';'https://termgit.elga.gv.at/CodeSystem/ems-reiseland';;;;'130';'0';'L';;;;'1.0.0+20230131'
'LB';'1.2.40.0.34.5.96';'Libanon';'https://termgit.elga.gv.at/CodeSystem/ems-reiseland';;;;'131';'0';'L';;;;'1.0.0+20230131'
'LC';'1.2.40.0.34.5.96';'St. Lucia';'https://termgit.elga.gv.at/CodeSystem/ems-reiseland';;;;'132';'0';'L';;;;'1.0.0+20230131'
'LI';'1.2.40.0.34.5.96';'Liechtenstein';'https://termgit.elga.gv.at/CodeSystem/ems-reiseland';;;;'133';'0';'L';;;;'1.0.0+20230131'
'LK';'1.2.40.0.34.5.96';'Sri Lanka';'https://termgit.elga.gv.at/CodeSystem/ems-reiseland';;;;'134';'0';'L';;;;'1.0.0+20230131'
'LR';'1.2.40.0.34.5.96';'Liberien';'https://termgit.elga.gv.at/CodeSystem/ems-reiseland';;;;'135';'0';'L';;;;'1.0.0+20230131'
'LS';'1.2.40.0.34.5.96';'Lesotho';'https://termgit.elga.gv.at/CodeSystem/ems-reiseland';;;;'136';'0';'L';;;;'1.0.0+20230131'
'LT';'1.2.40.0.34.5.96';'Litauen';'https://termgit.elga.gv.at/CodeSystem/ems-reiseland';;;;'137';'0';'L';;;;'1.0.0+20230131'
'LU';'1.2.40.0.34.5.96';'Luxemburg';'https://termgit.elga.gv.at/CodeSystem/ems-reiseland';;;;'138';'0';'L';;;;'1.0.0+20230131'
'LV';'1.2.40.0.34.5.96';'Lettland';'https://termgit.elga.gv.at/CodeSystem/ems-reiseland';;;;'139';'0';'L';;;;'1.0.0+20230131'
'LY';'1.2.40.0.34.5.96';'Libysch-Arab. Dschamahirija';'https://termgit.elga.gv.at/CodeSystem/ems-reiseland';;;;'140';'0';'L';;;;'1.0.0+20230131'
'MA';'1.2.40.0.34.5.96';'Marokko';'https://termgit.elga.gv.at/CodeSystem/ems-reiseland';;;;'141';'0';'L';;;;'1.0.0+20230131'
'MC';'1.2.40.0.34.5.96';'Monaco';'https://termgit.elga.gv.at/CodeSystem/ems-reiseland';;;;'142';'0';'L';;;;'1.0.0+20230131'
'MD';'1.2.40.0.34.5.96';'Moldau, Republik';'https://termgit.elga.gv.at/CodeSystem/ems-reiseland';;;;'143';'0';'L';;;;'1.0.0+20230131'
'ME';'1.2.40.0.34.5.96';'Montenegro';'https://termgit.elga.gv.at/CodeSystem/ems-reiseland';;;;'144';'0';'L';;;;'1.0.0+20230131'
'MF';'1.2.40.0.34.5.96';'Saint Martin (französischer Teil)';'https://termgit.elga.gv.at/CodeSystem/ems-reiseland';;;;'145';'0';'L';;;;'1.0.0+20230131'
'MG';'1.2.40.0.34.5.96';'Madagaskar';'https://termgit.elga.gv.at/CodeSystem/ems-reiseland';;;;'146';'0';'L';;;;'1.0.0+20230131'
'MH';'1.2.40.0.34.5.96';'Marshall Inseln';'https://termgit.elga.gv.at/CodeSystem/ems-reiseland';;;;'147';'0';'L';;;;'1.0.0+20230131'
'MI';'1.2.40.0.34.5.96';'Midway Inseln';'https://termgit.elga.gv.at/CodeSystem/ems-reiseland';;;;'148';'0';'L';;;;'1.0.0+20230131'
'MK';'1.2.40.0.34.5.96';'Mazedonien';'https://termgit.elga.gv.at/CodeSystem/ems-reiseland';;;;'149';'0';'L';;;;'1.0.0+20230131'
'ML';'1.2.40.0.34.5.96';'Mali';'https://termgit.elga.gv.at/CodeSystem/ems-reiseland';;;;'150';'0';'L';;;;'1.0.0+20230131'
'MM';'1.2.40.0.34.5.96';'Myanmar';'https://termgit.elga.gv.at/CodeSystem/ems-reiseland';;;;'151';'0';'L';;;;'1.0.0+20230131'
'MN';'1.2.40.0.34.5.96';'Mongolei';'https://termgit.elga.gv.at/CodeSystem/ems-reiseland';;;;'152';'0';'L';;;;'1.0.0+20230131'
'MO';'1.2.40.0.34.5.96';'Macao';'https://termgit.elga.gv.at/CodeSystem/ems-reiseland';;;;'153';'0';'L';;;;'1.0.0+20230131'
'MP';'1.2.40.0.34.5.96';'Nördliche Marianen';'https://termgit.elga.gv.at/CodeSystem/ems-reiseland';;;;'154';'0';'L';;;;'1.0.0+20230131'
'MQ';'1.2.40.0.34.5.96';'Martinique';'https://termgit.elga.gv.at/CodeSystem/ems-reiseland';;;;'155';'0';'L';;;;'1.0.0+20230131'
'MR';'1.2.40.0.34.5.96';'Mauretanien';'https://termgit.elga.gv.at/CodeSystem/ems-reiseland';;;;'156';'0';'L';;;;'1.0.0+20230131'
'MS';'1.2.40.0.34.5.96';'Montserrat';'https://termgit.elga.gv.at/CodeSystem/ems-reiseland';;;;'157';'0';'L';;;;'1.0.0+20230131'
'MT';'1.2.40.0.34.5.96';'Malta';'https://termgit.elga.gv.at/CodeSystem/ems-reiseland';;;;'158';'0';'L';;;;'1.0.0+20230131'
'MU';'1.2.40.0.34.5.96';'Mauritius';'https://termgit.elga.gv.at/CodeSystem/ems-reiseland';;;;'159';'0';'L';;;;'1.0.0+20230131'
'MV';'1.2.40.0.34.5.96';'Malediven';'https://termgit.elga.gv.at/CodeSystem/ems-reiseland';;;;'160';'0';'L';;;;'1.0.0+20230131'
'MW';'1.2.40.0.34.5.96';'Malawi';'https://termgit.elga.gv.at/CodeSystem/ems-reiseland';;;;'161';'0';'L';;;;'1.0.0+20230131'
'MX';'1.2.40.0.34.5.96';'Mexiko';'https://termgit.elga.gv.at/CodeSystem/ems-reiseland';;;;'162';'0';'L';;;;'1.0.0+20230131'
'MY';'1.2.40.0.34.5.96';'Malaysia';'https://termgit.elga.gv.at/CodeSystem/ems-reiseland';;;;'163';'0';'L';;;;'1.0.0+20230131'
'MZ';'1.2.40.0.34.5.96';'Mosambik';'https://termgit.elga.gv.at/CodeSystem/ems-reiseland';;;;'164';'0';'L';;;;'1.0.0+20230131'
'NA';'1.2.40.0.34.5.96';'Namibia';'https://termgit.elga.gv.at/CodeSystem/ems-reiseland';;;;'165';'0';'L';;;;'1.0.0+20230131'
'NC';'1.2.40.0.34.5.96';'Neukaledonien';'https://termgit.elga.gv.at/CodeSystem/ems-reiseland';;;;'166';'0';'L';;;;'1.0.0+20230131'
'NE';'1.2.40.0.34.5.96';'Niger';'https://termgit.elga.gv.at/CodeSystem/ems-reiseland';;;;'167';'0';'L';;;;'1.0.0+20230131'
'NF';'1.2.40.0.34.5.96';'Norfolkinsel';'https://termgit.elga.gv.at/CodeSystem/ems-reiseland';;;;'168';'0';'L';;;;'1.0.0+20230131'
'NG';'1.2.40.0.34.5.96';'Nigeria';'https://termgit.elga.gv.at/CodeSystem/ems-reiseland';;;;'169';'0';'L';;;;'1.0.0+20230131'
'NI';'1.2.40.0.34.5.96';'Nicaragua';'https://termgit.elga.gv.at/CodeSystem/ems-reiseland';;;;'170';'0';'L';;;;'1.0.0+20230131'
'NL';'1.2.40.0.34.5.96';'Niederlande';'https://termgit.elga.gv.at/CodeSystem/ems-reiseland';;;;'171';'0';'L';;;;'1.0.0+20230131'
'NO';'1.2.40.0.34.5.96';'Norwegen';'https://termgit.elga.gv.at/CodeSystem/ems-reiseland';;;;'172';'0';'L';;;;'1.0.0+20230131'
'NP';'1.2.40.0.34.5.96';'Nepal';'https://termgit.elga.gv.at/CodeSystem/ems-reiseland';;;;'173';'0';'L';;;;'1.0.0+20230131'
'NR';'1.2.40.0.34.5.96';'Nauru';'https://termgit.elga.gv.at/CodeSystem/ems-reiseland';;;;'174';'0';'L';;;;'1.0.0+20230131'
'NU';'1.2.40.0.34.5.96';'Niue';'https://termgit.elga.gv.at/CodeSystem/ems-reiseland';;;;'175';'0';'L';;;;'1.0.0+20230131'
'NZ';'1.2.40.0.34.5.96';'Neuseeland';'https://termgit.elga.gv.at/CodeSystem/ems-reiseland';;;;'176';'0';'L';;;;'1.0.0+20230131'
'OM';'1.2.40.0.34.5.96';'Oman';'https://termgit.elga.gv.at/CodeSystem/ems-reiseland';;;;'177';'0';'L';;;;'1.0.0+20230131'
'PA';'1.2.40.0.34.5.96';'Panama';'https://termgit.elga.gv.at/CodeSystem/ems-reiseland';;;;'178';'0';'L';;;;'1.0.0+20230131'
'PE';'1.2.40.0.34.5.96';'Peru';'https://termgit.elga.gv.at/CodeSystem/ems-reiseland';;;;'179';'0';'L';;;;'1.0.0+20230131'
'PF';'1.2.40.0.34.5.96';'Französisch Polynesien';'https://termgit.elga.gv.at/CodeSystem/ems-reiseland';;;;'180';'0';'L';;;;'1.0.0+20230131'
'PG';'1.2.40.0.34.5.96';'Papua Neuguinea';'https://termgit.elga.gv.at/CodeSystem/ems-reiseland';;;;'181';'0';'L';;;;'1.0.0+20230131'
'PH';'1.2.40.0.34.5.96';'Philippinen';'https://termgit.elga.gv.at/CodeSystem/ems-reiseland';;;;'182';'0';'L';;;;'1.0.0+20230131'
'PK';'1.2.40.0.34.5.96';'Pakistan';'https://termgit.elga.gv.at/CodeSystem/ems-reiseland';;;;'183';'0';'L';;;;'1.0.0+20230131'
'PL';'1.2.40.0.34.5.96';'Polen';'https://termgit.elga.gv.at/CodeSystem/ems-reiseland';;;;'184';'0';'L';;;;'1.0.0+20230131'
'PM';'1.2.40.0.34.5.96';'St. Pierre & Miquelon';'https://termgit.elga.gv.at/CodeSystem/ems-reiseland';;;;'185';'0';'L';;;;'1.0.0+20230131'
'PN';'1.2.40.0.34.5.96';'Pitcairn Inseln';'https://termgit.elga.gv.at/CodeSystem/ems-reiseland';;;;'186';'0';'L';;;;'1.0.0+20230131'
'PR';'1.2.40.0.34.5.96';'Puerto Rico';'https://termgit.elga.gv.at/CodeSystem/ems-reiseland';;;;'187';'0';'L';;;;'1.0.0+20230131'
'PS';'1.2.40.0.34.5.96';'Palästina, Besetzt';'https://termgit.elga.gv.at/CodeSystem/ems-reiseland';;;;'188';'0';'L';;;;'1.0.0+20230131'
'PT';'1.2.40.0.34.5.96';'Portugal';'https://termgit.elga.gv.at/CodeSystem/ems-reiseland';;;;'189';'0';'L';;;;'1.0.0+20230131'
'PU';'1.2.40.0.34.5.96';'Pazifische Inseln US';'https://termgit.elga.gv.at/CodeSystem/ems-reiseland';;;;'190';'0';'L';;;;'1.0.0+20230131'
'PW';'1.2.40.0.34.5.96';'Palau';'https://termgit.elga.gv.at/CodeSystem/ems-reiseland';;;;'191';'0';'L';;;;'1.0.0+20230131'
'PY';'1.2.40.0.34.5.96';'Paraguay';'https://termgit.elga.gv.at/CodeSystem/ems-reiseland';;;;'192';'0';'L';;;;'1.0.0+20230131'
'PZ';'1.2.40.0.34.5.96';'Panama Kanalzone';'https://termgit.elga.gv.at/CodeSystem/ems-reiseland';;;;'193';'0';'L';;;;'1.0.0+20230131'
'QA';'1.2.40.0.34.5.96';'Katar';'https://termgit.elga.gv.at/CodeSystem/ems-reiseland';;;;'194';'0';'L';;;;'1.0.0+20230131'
'RE';'1.2.40.0.34.5.96';'Réunion';'https://termgit.elga.gv.at/CodeSystem/ems-reiseland';;;;'195';'0';'L';;;;'1.0.0+20230131'
'RO';'1.2.40.0.34.5.96';'Rumänien';'https://termgit.elga.gv.at/CodeSystem/ems-reiseland';;;;'196';'0';'L';;;;'1.0.0+20230131'
'RS';'1.2.40.0.34.5.96';'Serbien';'https://termgit.elga.gv.at/CodeSystem/ems-reiseland';;;;'197';'0';'L';;;;'1.0.0+20230131'
'RU';'1.2.40.0.34.5.96';'Russische Föderation';'https://termgit.elga.gv.at/CodeSystem/ems-reiseland';;;;'198';'0';'L';;;;'1.0.0+20230131'
'RW';'1.2.40.0.34.5.96';'Ruanda';'https://termgit.elga.gv.at/CodeSystem/ems-reiseland';;;;'199';'0';'L';;;;'1.0.0+20230131'
'SA';'1.2.40.0.34.5.96';'Saudi-Arabien';'https://termgit.elga.gv.at/CodeSystem/ems-reiseland';;;;'200';'0';'L';;;;'1.0.0+20230131'
'SB';'1.2.40.0.34.5.96';'Salomonen';'https://termgit.elga.gv.at/CodeSystem/ems-reiseland';;;;'201';'0';'L';;;;'1.0.0+20230131'
'SC';'1.2.40.0.34.5.96';'Seychellen';'https://termgit.elga.gv.at/CodeSystem/ems-reiseland';;;;'202';'0';'L';;;;'1.0.0+20230131'
'SD';'1.2.40.0.34.5.96';'Sudan';'https://termgit.elga.gv.at/CodeSystem/ems-reiseland';;;;'203';'0';'L';;;;'1.0.0+20230131'
'SE';'1.2.40.0.34.5.96';'Schweden';'https://termgit.elga.gv.at/CodeSystem/ems-reiseland';;;;'204';'0';'L';;;;'1.0.0+20230131'
'SG';'1.2.40.0.34.5.96';'Singapur';'https://termgit.elga.gv.at/CodeSystem/ems-reiseland';;;;'205';'0';'L';;;;'1.0.0+20230131'
'SH';'1.2.40.0.34.5.96';'St. Helena';'https://termgit.elga.gv.at/CodeSystem/ems-reiseland';;;;'206';'0';'L';;;;'1.0.0+20230131'
'SI';'1.2.40.0.34.5.96';'Slowenien';'https://termgit.elga.gv.at/CodeSystem/ems-reiseland';;;;'207';'0';'L';;;;'1.0.0+20230131'
'SJ';'1.2.40.0.34.5.96';'Spitzbergen & Jan Mayen Inseln';'https://termgit.elga.gv.at/CodeSystem/ems-reiseland';;;;'208';'0';'L';;;;'1.0.0+20230131'
'SK';'1.2.40.0.34.5.96';'Slowakei';'https://termgit.elga.gv.at/CodeSystem/ems-reiseland';;;;'209';'0';'L';;;;'1.0.0+20230131'
'SL';'1.2.40.0.34.5.96';'Sierra Leone';'https://termgit.elga.gv.at/CodeSystem/ems-reiseland';;;;'210';'0';'L';;;;'1.0.0+20230131'
'SM';'1.2.40.0.34.5.96';'San Marino';'https://termgit.elga.gv.at/CodeSystem/ems-reiseland';;;;'211';'0';'L';;;;'1.0.0+20230131'
'SN';'1.2.40.0.34.5.96';'Senegal';'https://termgit.elga.gv.at/CodeSystem/ems-reiseland';;;;'212';'0';'L';;;;'1.0.0+20230131'
'SO';'1.2.40.0.34.5.96';'Somalia';'https://termgit.elga.gv.at/CodeSystem/ems-reiseland';;;;'213';'0';'L';;;;'1.0.0+20230131'
'SR';'1.2.40.0.34.5.96';'Suriname';'https://termgit.elga.gv.at/CodeSystem/ems-reiseland';;;;'214';'0';'L';;;;'1.0.0+20230131'
'ST';'1.2.40.0.34.5.96';'São Tomé & Príncipe';'https://termgit.elga.gv.at/CodeSystem/ems-reiseland';;;;'215';'0';'L';;;;'1.0.0+20230131'
'SV';'1.2.40.0.34.5.96';'El Salvador';'https://termgit.elga.gv.at/CodeSystem/ems-reiseland';;;;'216';'0';'L';;;;'1.0.0+20230131'
'SX';'1.2.40.0.34.5.96';'Sint Maarten (hollländischer Teil)';'https://termgit.elga.gv.at/CodeSystem/ems-reiseland';;;;'217';'0';'L';;;;'1.0.0+20230131'
'SY';'1.2.40.0.34.5.96';'Syrien';'https://termgit.elga.gv.at/CodeSystem/ems-reiseland';;;;'218';'0';'L';;;;'1.0.0+20230131'
'SZ';'1.2.40.0.34.5.96';'Swasiland';'https://termgit.elga.gv.at/CodeSystem/ems-reiseland';;;;'219';'0';'L';;;;'1.0.0+20230131'
'TC';'1.2.40.0.34.5.96';'Turks- & Caicosinseln';'https://termgit.elga.gv.at/CodeSystem/ems-reiseland';;;;'220';'0';'L';;;;'1.0.0+20230131'
'TD';'1.2.40.0.34.5.96';'Tschad';'https://termgit.elga.gv.at/CodeSystem/ems-reiseland';;;;'221';'0';'L';;;;'1.0.0+20230131'
'TF';'1.2.40.0.34.5.96';'Französische Südgebiete';'https://termgit.elga.gv.at/CodeSystem/ems-reiseland';;;;'222';'0';'L';;;;'1.0.0+20230131'
'TG';'1.2.40.0.34.5.96';'Togo';'https://termgit.elga.gv.at/CodeSystem/ems-reiseland';;;;'223';'0';'L';;;;'1.0.0+20230131'
'TH';'1.2.40.0.34.5.96';'Thailand';'https://termgit.elga.gv.at/CodeSystem/ems-reiseland';;;;'224';'0';'L';;;;'1.0.0+20230131'
'TJ';'1.2.40.0.34.5.96';'Tadschikistan';'https://termgit.elga.gv.at/CodeSystem/ems-reiseland';;;;'225';'0';'L';;;;'1.0.0+20230131'
'TK';'1.2.40.0.34.5.96';'Tokelau';'https://termgit.elga.gv.at/CodeSystem/ems-reiseland';;;;'226';'0';'L';;;;'1.0.0+20230131'
'TL';'1.2.40.0.34.5.96';'Timor-Leste';'https://termgit.elga.gv.at/CodeSystem/ems-reiseland';;;;'227';'0';'L';;;;'1.0.0+20230131'
'TM';'1.2.40.0.34.5.96';'Turkmenistan';'https://termgit.elga.gv.at/CodeSystem/ems-reiseland';;;;'228';'0';'L';;;;'1.0.0+20230131'
'TN';'1.2.40.0.34.5.96';'Tunesien';'https://termgit.elga.gv.at/CodeSystem/ems-reiseland';;;;'229';'0';'L';;;;'1.0.0+20230131'
'TO';'1.2.40.0.34.5.96';'Tonga';'https://termgit.elga.gv.at/CodeSystem/ems-reiseland';;;;'230';'0';'L';;;;'1.0.0+20230131'
'TR';'1.2.40.0.34.5.96';'Türkei';'https://termgit.elga.gv.at/CodeSystem/ems-reiseland';;;;'231';'0';'L';;;;'1.0.0+20230131'
'TT';'1.2.40.0.34.5.96';'Trinidad & Tobago';'https://termgit.elga.gv.at/CodeSystem/ems-reiseland';;;;'232';'0';'L';;;;'1.0.0+20230131'
'TV';'1.2.40.0.34.5.96';'Tuvalu';'https://termgit.elga.gv.at/CodeSystem/ems-reiseland';;;;'233';'0';'L';;;;'1.0.0+20230131'
'TW';'1.2.40.0.34.5.96';'Taiwan';'https://termgit.elga.gv.at/CodeSystem/ems-reiseland';;;;'234';'0';'L';;;;'1.0.0+20230131'
'TZ';'1.2.40.0.34.5.96';'Tansania, Vereinigte Republik';'https://termgit.elga.gv.at/CodeSystem/ems-reiseland';;;;'235';'0';'L';;;;'1.0.0+20230131'
'UA';'1.2.40.0.34.5.96';'Ukraine';'https://termgit.elga.gv.at/CodeSystem/ems-reiseland';;;;'236';'0';'L';;;;'1.0.0+20230131'
'UG';'1.2.40.0.34.5.96';'Uganda';'https://termgit.elga.gv.at/CodeSystem/ems-reiseland';;;;'237';'0';'L';;;;'1.0.0+20230131'
'UK';'1.2.40.0.34.5.96';'Großbritannien';'https://termgit.elga.gv.at/CodeSystem/ems-reiseland';;;;'238';'0';'L';;;;'1.0.0+20230131'
'UM';'1.2.40.0.34.5.96';'USA (sonstige kleine Inseln)';'https://termgit.elga.gv.at/CodeSystem/ems-reiseland';;;;'239';'0';'L';;;;'1.0.0+20230131'
'US';'1.2.40.0.34.5.96';'Vereinigte Staaten';'https://termgit.elga.gv.at/CodeSystem/ems-reiseland';;;;'240';'0';'L';;;;'1.0.0+20230131'
'UY';'1.2.40.0.34.5.96';'Uruguay';'https://termgit.elga.gv.at/CodeSystem/ems-reiseland';;;;'241';'0';'L';;;;'1.0.0+20230131'
'UZ';'1.2.40.0.34.5.96';'Usbekistan';'https://termgit.elga.gv.at/CodeSystem/ems-reiseland';;;;'242';'0';'L';;;;'1.0.0+20230131'
'VA';'1.2.40.0.34.5.96';'Vatikan';'https://termgit.elga.gv.at/CodeSystem/ems-reiseland';;;;'243';'0';'L';;;;'1.0.0+20230131'
'VC';'1.2.40.0.34.5.96';'St. Vincent & Grenadinen';'https://termgit.elga.gv.at/CodeSystem/ems-reiseland';;;;'244';'0';'L';;;;'1.0.0+20230131'
'VE';'1.2.40.0.34.5.96';'Venezuela';'https://termgit.elga.gv.at/CodeSystem/ems-reiseland';;;;'245';'0';'L';;;;'1.0.0+20230131'
'VG';'1.2.40.0.34.5.96';'Jungfern-Inseln Britisch ';'https://termgit.elga.gv.at/CodeSystem/ems-reiseland';;;;'246';'0';'L';;;;'1.0.0+20230131'
'VI';'1.2.40.0.34.5.96';'Jungfern-Inseln USA';'https://termgit.elga.gv.at/CodeSystem/ems-reiseland';;;;'247';'0';'L';;;;'1.0.0+20230131'
'VN';'1.2.40.0.34.5.96';'Vietnam';'https://termgit.elga.gv.at/CodeSystem/ems-reiseland';;;;'248';'0';'L';;;;'1.0.0+20230131'
'VU';'1.2.40.0.34.5.96';'Vanuatu';'https://termgit.elga.gv.at/CodeSystem/ems-reiseland';;;;'249';'0';'L';;;;'1.0.0+20230131'
'WF';'1.2.40.0.34.5.96';'Wallis und Futuna';'https://termgit.elga.gv.at/CodeSystem/ems-reiseland';;;;'250';'0';'L';;;;'1.0.0+20230131'
'WK';'1.2.40.0.34.5.96';'Wake Insel';'https://termgit.elga.gv.at/CodeSystem/ems-reiseland';;;;'251';'0';'L';;;;'1.0.0+20230131'
'WS';'1.2.40.0.34.5.96';'Samoa-West';'https://termgit.elga.gv.at/CodeSystem/ems-reiseland';;;;'252';'0';'L';;;;'1.0.0+20230131'
'XC';'1.2.40.0.34.5.96';'Ceuta ';'https://termgit.elga.gv.at/CodeSystem/ems-reiseland';;;;'253';'0';'L';;;;'1.0.0+20230131'
'XK';'1.2.40.0.34.5.96';'Kosovo';'https://termgit.elga.gv.at/CodeSystem/ems-reiseland';;;;'254';'0';'L';;;;'1.0.0+20230131'
'XL';'1.2.40.0.34.5.96';'Mellila';'https://termgit.elga.gv.at/CodeSystem/ems-reiseland';;;;'255';'0';'L';;;;'1.0.0+20230131'
'YE';'1.2.40.0.34.5.96';'Jemen';'https://termgit.elga.gv.at/CodeSystem/ems-reiseland';;;;'256';'0';'L';;;;'1.0.0+20230131'
'YT';'1.2.40.0.34.5.96';'Mayotte';'https://termgit.elga.gv.at/CodeSystem/ems-reiseland';;;;'257';'0';'L';;;;'1.0.0+20230131'
'YU';'1.2.40.0.34.5.96';'Ex-Jugoslawien';'https://termgit.elga.gv.at/CodeSystem/ems-reiseland';;;;'258';'0';'L';;;;'1.0.0+20230131'
'ZA';'1.2.40.0.34.5.96';'Südafrika';'https://termgit.elga.gv.at/CodeSystem/ems-reiseland';;;;'259';'0';'L';;;;'1.0.0+20230131'
'ZM';'1.2.40.0.34.5.96';'Sambia';'https://termgit.elga.gv.at/CodeSystem/ems-reiseland';;;;'260';'0';'L';;;;'1.0.0+20230131'
'ZW';'1.2.40.0.34.5.96';'Simbabwe';'https://termgit.elga.gv.at/CodeSystem/ems-reiseland';;;;'261';'0';'L';;;;'1.0.0+20230131'
