'code';'codeSystem';'displayName';'parentCode';'concept_Beschreibung';'meaning';'hints';'level';'type';'relationships'
'BBIRZ';'1.2.40.0.34.5.64';'Bestätigungsbefund internationale Referenzzentrale';'';'';'';'';'0';'L';''
'BBNRZ';'1.2.40.0.34.5.64';'Bestätigungsbefund nationale Referenzzentrale';'';'';'';'';'0';'L';''
'EB';'1.2.40.0.34.5.64';'Erstbefund';'';'';'';'';'0';'L';''
'FB';'1.2.40.0.34.5.64';'Folgebefund';'';'';'';'';'0';'L';''
