'code';'codeSystem';'displayName';'parentCodeSystemName';'concept_Beschreibung';'meaning';'hints';'orderNumber';'level';'type';'relationships';'einheit print';'einheit codiert';'codeSystemVersion'
'J07BX03';'1.2.276.0.76.5.547';'Covid-19-Impfstoffe';'https://termgit.elga.gv.at/CodeSystem/atc-deutsch-wido';'covid-19 vaccines';'Covid-19 Vakzine';'DEPRECATED';'1';'0';'L';'2.16.840.1.113883.6.73:J07BX03';;;'ATC deutsch (WIdO)_202205'
'28531000087107';'2.16.840.1.113883.6.96';'COVID-19 vaccine';'https://termgit.elga.gv.at/CodeSystem/snomed-ct-auszug';;'SARS-CoV-2-Impfstoff';;'2';'0';'L';;;;'1.2.0+20230308'
