{
  "resourceType": "CodeSystem",
  "id": "sciphox-seitenlokalisation",
  "url": "https://termgit.elga.gv.at/CodeSystem/sciphox-seitenlokalisation",
  "identifier": [
    {
      "use": "official",
      "system": "urn:ietf:rfc:3986",
      "value": "urn:oid:2.16.840.1.113883.3.7.1.7"
    }
  ],
  "version": "1.0.0+20230131",
  "name": "sciphox-seitenlokalisation",
  "title": "Sciphox_Seitenlokalisation",
  "status": "active",
  "date": "2016-02-17",
  "description": "Vocabulary Domain f\u00fcr Seitenlokalisation",
  "content": "complete",
  "count": 4,
  "concept": [
    {
      "code": "B",
      "display": "beidseits"
    },
    {
      "code": "L",
      "display": "links"
    },
    {
      "code": "M",
      "display": "Mittellinienzone"
    },
    {
      "code": "R",
      "display": "rechts"
    }
  ]
}