'code';'codeSystem';'displayName';'parentCode';'concept_Beschreibung';'meaning';'hints';'level';'type';'relationships'
'B';'2.16.840.1.113883.3.7.1.7';'beidseits';;;;;'0';'L';
'L';'2.16.840.1.113883.3.7.1.7';'links';;;;;'0';'L';
'M';'2.16.840.1.113883.3.7.1.7';'Mittellinienzone';;;;;'0';'L';
'R';'2.16.840.1.113883.3.7.1.7';'rechts';;;;;'0';'L';
