'code';'codeSystem';'displayName';'parentCodeSystemName';'concept_Beschreibung';'meaning';'hints';'orderNumber';'level';'type';'relationships';'einheit print';'einheit codiert'
'15001000';'0.4.0.127.0.16.1.1.2.1';'Actuation';'https://termgit.elga.gv.at/CodeSystem/ehdsi-edqm-auszug';'';'';'';'1';'0';'L';'';'';''
'15002000';'0.4.0.127.0.16.1.1.2.1';'Ampoule';'https://termgit.elga.gv.at/CodeSystem/ehdsi-edqm-auszug';'';'';'';'2';'0';'L';'';'';''
'15004000';'0.4.0.127.0.16.1.1.2.1';'Applicator';'https://termgit.elga.gv.at/CodeSystem/ehdsi-edqm-auszug';'';'';'';'3';'0';'L';'';'';''
'15005000';'0.4.0.127.0.16.1.1.2.1';'Bag';'https://termgit.elga.gv.at/CodeSystem/ehdsi-edqm-auszug';'';'';'';'4';'0';'L';'';'';''
'15006000';'0.4.0.127.0.16.1.1.2.1';'Barrel';'https://termgit.elga.gv.at/CodeSystem/ehdsi-edqm-auszug';'';'';'';'5';'0';'L';'';'';''
'15007000';'0.4.0.127.0.16.1.1.2.1';'Blister';'https://termgit.elga.gv.at/CodeSystem/ehdsi-edqm-auszug';'';'';'';'6';'0';'L';'';'';''
'15008000';'0.4.0.127.0.16.1.1.2.1';'Block';'https://termgit.elga.gv.at/CodeSystem/ehdsi-edqm-auszug';'';'';'';'7';'0';'L';'';'';''
'15009000';'0.4.0.127.0.16.1.1.2.1';'Bottle';'https://termgit.elga.gv.at/CodeSystem/ehdsi-edqm-auszug';'';'';'';'8';'0';'L';'';'';''
'15011000';'0.4.0.127.0.16.1.1.2.1';'Cachet';'https://termgit.elga.gv.at/CodeSystem/ehdsi-edqm-auszug';'';'';'';'9';'0';'L';'';'';''
'15012000';'0.4.0.127.0.16.1.1.2.1';'Capsule';'https://termgit.elga.gv.at/CodeSystem/ehdsi-edqm-auszug';'';'';'';'10';'0';'L';'';'';''
'15013000';'0.4.0.127.0.16.1.1.2.1';'Cartridge';'https://termgit.elga.gv.at/CodeSystem/ehdsi-edqm-auszug';'';'';'';'11';'0';'L';'';'';''
'15016000';'0.4.0.127.0.16.1.1.2.1';'Container';'https://termgit.elga.gv.at/CodeSystem/ehdsi-edqm-auszug';'';'';'';'12';'0';'L';'';'';''
'15017000';'0.4.0.127.0.16.1.1.2.1';'Cup';'https://termgit.elga.gv.at/CodeSystem/ehdsi-edqm-auszug';'';'';'';'13';'0';'L';'';'';''
'15018000';'0.4.0.127.0.16.1.1.2.1';'Cylinder';'https://termgit.elga.gv.at/CodeSystem/ehdsi-edqm-auszug';'';'';'';'14';'0';'L';'';'';''
'15021000';'0.4.0.127.0.16.1.1.2.1';'Dressing';'https://termgit.elga.gv.at/CodeSystem/ehdsi-edqm-auszug';'';'';'';'15';'0';'L';'';'';''
'15022000';'0.4.0.127.0.16.1.1.2.1';'Drop';'https://termgit.elga.gv.at/CodeSystem/ehdsi-edqm-auszug';'';'';'';'16';'0';'L';'';'';''
'15023000';'0.4.0.127.0.16.1.1.2.1';'Film';'https://termgit.elga.gv.at/CodeSystem/ehdsi-edqm-auszug';'';'';'';'17';'0';'L';'';'';''
'15024000';'0.4.0.127.0.16.1.1.2.1';'Chewing gum';'https://termgit.elga.gv.at/CodeSystem/ehdsi-edqm-auszug';'';'';'';'18';'0';'L';'';'';''
'15025000';'0.4.0.127.0.16.1.1.2.1';'Implant';'https://termgit.elga.gv.at/CodeSystem/ehdsi-edqm-auszug';'';'';'';'19';'0';'L';'';'';''
'15026000';'0.4.0.127.0.16.1.1.2.1';'Inhaler';'https://termgit.elga.gv.at/CodeSystem/ehdsi-edqm-auszug';'';'';'';'20';'0';'L';'';'';''
'15027000';'0.4.0.127.0.16.1.1.2.1';'Insert';'https://termgit.elga.gv.at/CodeSystem/ehdsi-edqm-auszug';'';'';'';'21';'0';'L';'';'';''
'15028000';'0.4.0.127.0.16.1.1.2.1';'Jar';'https://termgit.elga.gv.at/CodeSystem/ehdsi-edqm-auszug';'';'';'';'22';'0';'L';'';'';''
'15029000';'0.4.0.127.0.16.1.1.2.1';'Lozenge';'https://termgit.elga.gv.at/CodeSystem/ehdsi-edqm-auszug';'';'';'';'23';'0';'L';'';'';''
'15030000';'0.4.0.127.0.16.1.1.2.1';'Lyophilisate';'https://termgit.elga.gv.at/CodeSystem/ehdsi-edqm-auszug';'';'';'';'24';'0';'L';'';'';''
'15031000';'0.4.0.127.0.16.1.1.2.1';'Matrix';'https://termgit.elga.gv.at/CodeSystem/ehdsi-edqm-auszug';'';'';'';'25';'0';'L';'';'';''
'15033000';'0.4.0.127.0.16.1.1.2.1';'Pad';'https://termgit.elga.gv.at/CodeSystem/ehdsi-edqm-auszug';'';'';'';'26';'0';'L';'';'';''
'15035000';'0.4.0.127.0.16.1.1.2.1';'Pastille';'https://termgit.elga.gv.at/CodeSystem/ehdsi-edqm-auszug';'';'';'';'27';'0';'L';'';'';''
'15036000';'0.4.0.127.0.16.1.1.2.1';'Patch';'https://termgit.elga.gv.at/CodeSystem/ehdsi-edqm-auszug';'';'';'';'28';'0';'L';'';'';''
'15037000';'0.4.0.127.0.16.1.1.2.1';'Pen';'https://termgit.elga.gv.at/CodeSystem/ehdsi-edqm-auszug';'';'';'';'29';'0';'L';'';'';''
'15039000';'0.4.0.127.0.16.1.1.2.1';'Pessary';'https://termgit.elga.gv.at/CodeSystem/ehdsi-edqm-auszug';'';'';'';'30';'0';'L';'';'';''
'15040000';'0.4.0.127.0.16.1.1.2.1';'Pillule';'https://termgit.elga.gv.at/CodeSystem/ehdsi-edqm-auszug';'';'';'';'31';'0';'L';'';'';''
'15041000';'0.4.0.127.0.16.1.1.2.1';'Pipette';'https://termgit.elga.gv.at/CodeSystem/ehdsi-edqm-auszug';'';'';'';'32';'0';'L';'';'';''
'15042000';'0.4.0.127.0.16.1.1.2.1';'Plaster';'https://termgit.elga.gv.at/CodeSystem/ehdsi-edqm-auszug';'';'';'';'33';'0';'L';'';'';''
'15043000';'0.4.0.127.0.16.1.1.2.1';'Plug';'https://termgit.elga.gv.at/CodeSystem/ehdsi-edqm-auszug';'';'';'';'34';'0';'L';'';'';''
'15044000';'0.4.0.127.0.16.1.1.2.1';'Pouch';'https://termgit.elga.gv.at/CodeSystem/ehdsi-edqm-auszug';'';'';'';'35';'0';'L';'';'';''
'15045000';'0.4.0.127.0.16.1.1.2.1';'Sachet';'https://termgit.elga.gv.at/CodeSystem/ehdsi-edqm-auszug';'';'';'';'36';'0';'L';'';'';''
'15046000';'0.4.0.127.0.16.1.1.2.1';'Sponge';'https://termgit.elga.gv.at/CodeSystem/ehdsi-edqm-auszug';'';'';'';'37';'0';'L';'';'';''
'15047000';'0.4.0.127.0.16.1.1.2.1';'Spoonful';'https://termgit.elga.gv.at/CodeSystem/ehdsi-edqm-auszug';'';'';'';'38';'0';'L';'';'';''
'15048000';'0.4.0.127.0.16.1.1.2.1';'Stick';'https://termgit.elga.gv.at/CodeSystem/ehdsi-edqm-auszug';'';'';'';'39';'0';'L';'';'';''
'15049000';'0.4.0.127.0.16.1.1.2.1';'Straw';'https://termgit.elga.gv.at/CodeSystem/ehdsi-edqm-auszug';'';'';'';'40';'0';'L';'';'';''
'15050000';'0.4.0.127.0.16.1.1.2.1';'Strip';'https://termgit.elga.gv.at/CodeSystem/ehdsi-edqm-auszug';'';'';'';'41';'0';'L';'';'';''
'15051000';'0.4.0.127.0.16.1.1.2.1';'Suppository';'https://termgit.elga.gv.at/CodeSystem/ehdsi-edqm-auszug';'';'';'';'42';'0';'L';'';'';''
'15052000';'0.4.0.127.0.16.1.1.2.1';'Syringe';'https://termgit.elga.gv.at/CodeSystem/ehdsi-edqm-auszug';'';'';'';'43';'0';'L';'';'';''
'15053000';'0.4.0.127.0.16.1.1.2.1';'System';'https://termgit.elga.gv.at/CodeSystem/ehdsi-edqm-auszug';'';'';'';'44';'0';'L';'';'';''
'15054000';'0.4.0.127.0.16.1.1.2.1';'Tablet';'https://termgit.elga.gv.at/CodeSystem/ehdsi-edqm-auszug';'';'';'';'45';'0';'L';'';'';''
'15056000';'0.4.0.127.0.16.1.1.2.1';'Tampon';'https://termgit.elga.gv.at/CodeSystem/ehdsi-edqm-auszug';'';'';'';'46';'0';'L';'';'';''
'15057000';'0.4.0.127.0.16.1.1.2.1';'Thread';'https://termgit.elga.gv.at/CodeSystem/ehdsi-edqm-auszug';'';'';'';'47';'0';'L';'';'';''
'15058000';'0.4.0.127.0.16.1.1.2.1';'Tube';'https://termgit.elga.gv.at/CodeSystem/ehdsi-edqm-auszug';'';'';'';'48';'0';'L';'';'';''
'15059000';'0.4.0.127.0.16.1.1.2.1';'Vessel';'https://termgit.elga.gv.at/CodeSystem/ehdsi-edqm-auszug';'';'';'';'49';'0';'L';'';'';''
'15060000';'0.4.0.127.0.16.1.1.2.1';'Vial';'https://termgit.elga.gv.at/CodeSystem/ehdsi-edqm-auszug';'';'';'';'50';'0';'L';'';'';''
'15062000';'0.4.0.127.0.16.1.1.2.1';'Swab';'https://termgit.elga.gv.at/CodeSystem/ehdsi-edqm-auszug';'';'';'';'51';'0';'L';'';'';''
