'code';'codeSystem';'displayName';'parentCodeSystemName';'concept_Beschreibung';'meaning';'hints';'orderNumber';'level';'type';'relationships';'einheit print';'einheit codiert';'codeSystemVersion'
'_ObservationInterpretationSusceptibility';'2.16.840.1.113883.5.83';'ObservationInterpretationSusceptibility';'http://terminology.hl7.org/CodeSystem/v3-ObservationInterpretation';'Gruppierung der Antibiogramm-Ergebnisinterpretation ';'Antibiogramm-Ergebnisinterpretation ';'(wird nicht verwendet)';'1';'0';'A';;;;'2.1.0'
'I';'2.16.840.1.113883.5.83';'Intermediate';'http://terminology.hl7.org/CodeSystem/v3-ObservationInterpretation';'Antibiogramm: Intermediär';'Intermediär';'I';'2';'1';'L';;;;'2.1.0'
'R';'2.16.840.1.113883.5.83';'Resistant';'http://terminology.hl7.org/CodeSystem/v3-ObservationInterpretation';'Antibiogramm: Resistent';'Resistent';'R';'3';'1';'L';;;;'2.1.0'
'S';'2.16.840.1.113883.5.83';'Susceptible';'http://terminology.hl7.org/CodeSystem/v3-ObservationInterpretation';'Antibiogramm: Sensibel';'Sensibel';'S';'4';'1';'L';;;;'2.1.0'
'_ObservationInterpretationNormality';'2.16.840.1.113883.5.83';'ObservationInterpretationNormality';'http://terminology.hl7.org/CodeSystem/v3-ObservationInterpretation';'Gruppierung der Ergebnisinterpretation ';'Ergebnisinterpretation ';'(wird nicht verwendet)';'5';'0';'A';;;;'2.1.0'
'N';'2.16.840.1.113883.5.83';'Normal';'http://terminology.hl7.org/CodeSystem/v3-ObservationInterpretation';'Wert im Referenzbereich (Normalbereich)';'Normalbereich';'(leer lassen)';'6';'1';'L';;;;'2.1.0'
'H';'2.16.840.1.113883.5.83';'High';'http://terminology.hl7.org/CodeSystem/v3-ObservationInterpretation';'Wert oberhalb des Referenzbereiches';'oberhalb des Referenzbereiches';'+';'7';'1';'S';;;;'2.1.0'
'HH';'2.16.840.1.113883.5.83';'Criticallyhigh';'http://terminology.hl7.org/CodeSystem/v3-ObservationInterpretation';'Wert oberhalb des Alarmbereiches';'oberhalb des Alarmbereiches';'++';'8';'2';'L';;;;'2.1.0'
'L';'2.16.840.1.113883.5.83';'Low';'http://terminology.hl7.org/CodeSystem/v3-ObservationInterpretation';'Wert unterhalb des Referenzbereiches';'unterhalb des Referenzbereiches';'-';'9';'1';'S';;;;'2.1.0'
'LL';'2.16.840.1.113883.5.83';'Criticallylow';'http://terminology.hl7.org/CodeSystem/v3-ObservationInterpretation';'Wert unterhalb des Alarmbereiches';'unterhalb des Alarmbereiches';'--';'10';'2';'L';;;;'2.1.0'
'A';'2.16.840.1.113883.5.83';'Abnormal';'http://terminology.hl7.org/CodeSystem/v3-ObservationInterpretation';'Wert nicht im Referenzbereich (für ordinale oder nominale Werte)';'nicht im Referenzbereich';'*';'11';'1';'S';;;;'2.1.0'
'AA';'2.16.840.1.113883.5.83';'Criticallyabnormal';'http://terminology.hl7.org/CodeSystem/v3-ObservationInterpretation';'Wert im Alarmbereich (für ordinale oder nominale Werte)';'im Alarmbereich';'**';'12';'2';'L';;;;'2.1.0'
'U';'2.16.840.1.113883.5.83';'Significantchangeup';'http://terminology.hl7.org/CodeSystem/v3-ObservationInterpretation';'Wert ist signifikant gegenüber der letzten Messung gestiegen (Verwendung zb für Deltacheck)';'gestiegen';'d+';'13';'1';'L';;;;'2.1.0'
'D';'2.16.840.1.113883.5.83';'Significantchangedown';'http://terminology.hl7.org/CodeSystem/v3-ObservationInterpretation';'Wert ist signifikant gegenüber der letzten Messung gefallen  (Verwendung zb für Deltacheck)';'gesunken';'d-';'14';'1';'L';;;;'2.1.0'
'_ObservationInterpretationExceptions';'2.16.840.1.113883.5.83';'ObservationInterpretationExceptions';'http://terminology.hl7.org/CodeSystem/v3-ObservationInterpretation';'Gruppierung der Ergebnisinterpretation für Ausnahmeergebnisse';'Ergebnisinterpretation für Ausnahmeergebnisse';'(wird nicht verwendet)';'15';'0';'A';;;;'2.1.0'
'EX';'2.16.840.1.113883.5.83';'outsidethreshold';'http://terminology.hl7.org/CodeSystem/v3-ObservationInterpretation';'Wert liegt außerhalb des definierten Messprotokolls (Code für die Interpretation von Ausname-Situationen: Optional zur Verwendung)';'außerhalb des definierten Messprotokolls';'EX';'16';'1';'L';;;;'2.1.0'
'>';'2.16.840.1.113883.5.83';'Offscalehigh';'http://terminology.hl7.org/CodeSystem/v3-ObservationInterpretation';'Wert ist höher als der Messbereich des Messgeräts (Code für die Interpretation von Ausname-Situationen: Optional zur Verwendung)';'höher als der Messbereich des Messgeräts';'>';'17';'1';'L';;;;'2.1.0'
'<';'2.16.840.1.113883.5.83';'Offscalelow';'http://terminology.hl7.org/CodeSystem/v3-ObservationInterpretation';'Wert ist kleiner als der Messbereich des Messgeräts (Code für die Interpretation von Ausname-Situationen: Optional zur Verwendung)';'kleiner als der Messbereich des Messgeräts';'<';'18';'1';'L';;;;'2.1.0'
'Refna';'1.2.40.0.34.5.179';'Referenzbereich nicht anwendbar';'https://termgit.elga.gv.at/CodeSystem/elga-ergaenzungsliste';'Ergänzung der ObservationInterpretation Codes für den Fall, dass ein Referenzbereich nicht anwendbar ist';;;'19';'1';'L';;;;'1.0.0+20230131'
'_ObservationInterpretationDetection';'2.16.840.1.113883.5.83';'ObservationInterpretationDetection';'http://terminology.hl7.org/CodeSystem/v3-ObservationInterpretation';'Gruppierung der Ergebnisinterpretation für das Vorhandensein oder die Abwesenheit eines Analyts in einem Test';'Ergebnisinterpretation';'(wird nicht verwendet)';'20';'0';'A';;;;'2.1.0'
'IND';'2.16.840.1.113883.5.83';'Indeterminate';'http://terminology.hl7.org/CodeSystem/v3-ObservationInterpretation';'Das Ergebnis erlaubt keine Aussage, ob der Analyt vorhanden ist oder nicht.';'Unbestimmt';'Unbestimmt';'21';'1';'L';;;;'2.1.0'
'NEG';'2.16.840.1.113883.5.83';'Negative';'http://terminology.hl7.org/CodeSystem/v3-ObservationInterpretation';'Der Analyt wird als nicht vorhanden interpretiert';'Negativ';'Neg.';'22';'1';'L';;;;'2.1.0'
'POS';'2.16.840.1.113883.5.83';'Positive';'http://terminology.hl7.org/CodeSystem/v3-ObservationInterpretation';'Der Analyt wird als vorhanden interpretiert';'Positiv';'Pos.';'23';'1';'L';;;;'2.1.0'
'_RAST';'1.2.40.0.34.5.104';'RAST';'https://termgit.elga.gv.at/CodeSystem/rast-klassen';;;;'24';'0';'A';;;;'1.0.0+20230131'
'RAST0';'1.2.40.0.34.5.104';'< 0.35  kU/l (absent or undetectable allergen specific IgE)';'https://termgit.elga.gv.at/CodeSystem/rast-klassen';'< 0.35  kU/l (absent or undetectable allergen specific IgE)';'negativ, keine spezifischen IgE-Antikörper nachweisbar';'RAST 0';'25';'1';'L';;;;'1.0.0+20230131'
'RAST1';'1.2.40.0.34.5.104';'0.35 - 0.69  kU/l (low level of allergen specific IgE)';'https://termgit.elga.gv.at/CodeSystem/rast-klassen';'0.35 - 0.69  kU/l (low level of allergen specific IgE)';'schwach positiv, geringe Konzentration spezifischer IgE-AK nachweisbar';'RAST 1';'26';'1';'L';;;;'1.0.0+20230131'
'RAST2';'1.2.40.0.34.5.104';'0.70 - 3.49  kU/l (moderate level of allergen specific IgE)';'https://termgit.elga.gv.at/CodeSystem/rast-klassen';'0.70 - 3.49  kU/l (moderate level of allergen specific IgE)';'positiv';'RAST 2';'27';'1';'L';;;;'1.0.0+20230131'
'RAST3';'1.2.40.0.34.5.104';'3.50 - 17.49  kU/l (high level of allergen specific IgE)';'https://termgit.elga.gv.at/CodeSystem/rast-klassen';'3.50 - 17.49  kU/l (high level of allergen specific IgE)';'deutlich positiv';'RAST 3';'28';'1';'L';;;;'1.0.0+20230131'
'RAST4';'1.2.40.0.34.5.104';'17.50 - 49.99  kU/l (very high level of allergen specific IgE)';'https://termgit.elga.gv.at/CodeSystem/rast-klassen';'17.50 - 49.99  kU/l (very high level of allergen specific IgE)';'stark positiv, hohe Konzentration spezifischer IgE-AK nachweisbar';'RAST 4';'29';'1';'L';;;;'1.0.0+20230131'
'RAST5';'1.2.40.0.34.5.104';'50.00 - 100.00  kU/l (ultra high level of allergen specific IgE)';'https://termgit.elga.gv.at/CodeSystem/rast-klassen';'50.00 - 100.00  kU/l (ultra high level of allergen specific IgE)';'sehr stark positiv, sehr hohe Konzentration spezifischer IgE-AK nachweisbar';'RAST 5';'30';'1';'L';;;;'1.0.0+20230131'
'RAST6';'1.2.40.0.34.5.104';'> 100.00  kU/l (extremely high level of allergen specific ige)';'https://termgit.elga.gv.at/CodeSystem/rast-klassen';'> 100.00  kU/l (extremely high level of allergen specific ige)';'hochgradig positiv, extrem hohe Konzentration spezifischer IgE-AK nachweisbar';'RAST 6';'31';'1';'L';;;;'1.0.0+20230131'
