'code';'codeSystem';'displayName';'parentCodeSystemName';'concept_Beschreibung';'meaning';'hints';'orderNumber';'level';'type';'relationships';'einheit print';'einheit codiert';'codeSystemVersion'
'1.2.840.10008.5.1.4.1.1.1';'1.2.840.10008.2.6.1';'Computed Radiography Image Storage';'https://termgit.elga.gv.at/CodeSystem/dicom-sopclasses';;;;'1';'0';'L';;;;'1.0.0+20230131'
'1.2.840.10008.5.1.4.1.1.1.1';'1.2.840.10008.2.6.1';'Digital X-Ray Image Storage - For Presentation';'https://termgit.elga.gv.at/CodeSystem/dicom-sopclasses';;;;'2';'0';'L';;;;'1.0.0+20230131'
'1.2.840.10008.5.1.4.1.1.1.1.1';'1.2.840.10008.2.6.1';'Digital X-Ray Image Storage - For Processing';'https://termgit.elga.gv.at/CodeSystem/dicom-sopclasses';;;;'3';'0';'L';;;;'1.0.0+20230131'
'1.2.840.10008.5.1.4.1.1.1.2';'1.2.840.10008.2.6.1';'Digital Mammography X-Ray Image Storage- For Presentation';'https://termgit.elga.gv.at/CodeSystem/dicom-sopclasses';;;;'4';'0';'L';;;;'1.0.0+20230131'
'1.2.840.10008.5.1.4.1.1.1.2.1';'1.2.840.10008.2.6.1';'Digital Mammography X-Ray Image Storage- For Processing';'https://termgit.elga.gv.at/CodeSystem/dicom-sopclasses';;;;'5';'0';'L';;;;'1.0.0+20230131'
'1.2.840.10008.5.1.4.1.1.1.3';'1.2.840.10008.2.6.1';'Digital Intra-Oral X-Ray Image Storage - For Presentation';'https://termgit.elga.gv.at/CodeSystem/dicom-sopclasses';;;;'6';'0';'L';;;;'1.0.0+20230131'
'1.2.840.10008.5.1.4.1.1.1.3.1';'1.2.840.10008.2.6.1';'Digital Intra-Oral X-Ray Image Storage - For Processing';'https://termgit.elga.gv.at/CodeSystem/dicom-sopclasses';;;;'7';'0';'L';;;;'1.0.0+20230131'
'1.2.840.10008.5.1.4.1.1.104.1';'1.2.840.10008.2.6.1';'Encapsulated PDF Storage';'https://termgit.elga.gv.at/CodeSystem/dicom-sopclasses';;;;'8';'0';'L';;;;'1.0.0+20230131'
'1.2.840.10008.5.1.4.1.1.104.2';'1.2.840.10008.2.6.1';'Encapsulated CDA Storage';'https://termgit.elga.gv.at/CodeSystem/dicom-sopclasses';;;;'9';'0';'L';;;;'1.0.0+20230131'
'1.2.840.10008.5.1.4.1.1.11.1';'1.2.840.10008.2.6.1';'Grayscale Softcopy Presentation State Storage';'https://termgit.elga.gv.at/CodeSystem/dicom-sopclasses';;;;'10';'0';'L';;;;'1.0.0+20230131'
'1.2.840.10008.5.1.4.1.1.11.2';'1.2.840.10008.2.6.1';'Color Softcopy Presentation State Storage';'https://termgit.elga.gv.at/CodeSystem/dicom-sopclasses';;;;'11';'0';'L';;;;'1.0.0+20230131'
'1.2.840.10008.5.1.4.1.1.11.3';'1.2.840.10008.2.6.1';'Pseudo-Color Softcopy Presentation State Storage';'https://termgit.elga.gv.at/CodeSystem/dicom-sopclasses';;;;'12';'0';'L';;;;'1.0.0+20230131'
'1.2.840.10008.5.1.4.1.1.11.4';'1.2.840.10008.2.6.1';'Blending Softcopy Presentation State Storage';'https://termgit.elga.gv.at/CodeSystem/dicom-sopclasses';;;;'13';'0';'L';;;;'1.0.0+20230131'
'1.2.840.10008.5.1.4.1.1.11.5';'1.2.840.10008.2.6.1';'XA/XRF Grayscale Softcopy PresentationState Storage';'https://termgit.elga.gv.at/CodeSystem/dicom-sopclasses';;;;'14';'0';'L';;;;'1.0.0+20230131'
'1.2.840.10008.5.1.4.1.1.12.1';'1.2.840.10008.2.6.1';'X-Ray Angiographic Image Storage';'https://termgit.elga.gv.at/CodeSystem/dicom-sopclasses';;;;'15';'0';'L';;;;'1.0.0+20230131'
'1.2.840.10008.5.1.4.1.1.12.1.1';'1.2.840.10008.2.6.1';'Enhanced XA Image Storage';'https://termgit.elga.gv.at/CodeSystem/dicom-sopclasses';;;;'16';'0';'L';;;;'1.0.0+20230131'
'1.2.840.10008.5.1.4.1.1.12.2';'1.2.840.10008.2.6.1';'X-Ray Radiofluoroscopic Image Storage';'https://termgit.elga.gv.at/CodeSystem/dicom-sopclasses';;;;'17';'0';'L';;;;'1.0.0+20230131'
'1.2.840.10008.5.1.4.1.1.12.2.1';'1.2.840.10008.2.6.1';'Enhanced XRF Image Storage';'https://termgit.elga.gv.at/CodeSystem/dicom-sopclasses';;;;'18';'0';'L';;;;'1.0.0+20230131'
'1.2.840.10008.5.1.4.1.1.128';'1.2.840.10008.2.6.1';'Positron Emission Tomography Image Storage';'https://termgit.elga.gv.at/CodeSystem/dicom-sopclasses';;;;'19';'0';'L';;;;'1.0.0+20230131'
'1.2.840.10008.5.1.4.1.1.128.1';'1.2.840.10008.2.6.1';'Legacy Converted Enhanced PET Image Storage';'https://termgit.elga.gv.at/CodeSystem/dicom-sopclasses';;;;'20';'0';'L';;;;'1.0.0+20230131'
'1.2.840.10008.5.1.4.1.1.13.1.1';'1.2.840.10008.2.6.1';'X-Ray 3D Angiographic Image Storage';'https://termgit.elga.gv.at/CodeSystem/dicom-sopclasses';;;;'21';'0';'L';;;;'1.0.0+20230131'
'1.2.840.10008.5.1.4.1.1.13.1.2';'1.2.840.10008.2.6.1';'X-Ray 3D Craniofacial Image Storage';'https://termgit.elga.gv.at/CodeSystem/dicom-sopclasses';;;;'22';'0';'L';;;;'1.0.0+20230131'
'1.2.840.10008.5.1.4.1.1.13.1.3';'1.2.840.10008.2.6.1';'Breast Tomosynthesis Image Storage';'https://termgit.elga.gv.at/CodeSystem/dicom-sopclasses';;;;'23';'0';'L';;;;'1.0.0+20230131'
'1.2.840.10008.5.1.4.1.1.13.1.4';'1.2.840.10008.2.6.1';'Breast Projection X-Ray Image Storage - For Presentation';'https://termgit.elga.gv.at/CodeSystem/dicom-sopclasses';;;;'24';'0';'L';;;;'1.0.0+20230131'
'1.2.840.10008.5.1.4.1.1.13.1.5';'1.2.840.10008.2.6.1';'Breast Projection X-Ray Image Storage - For Processing';'https://termgit.elga.gv.at/CodeSystem/dicom-sopclasses';;;;'25';'0';'L';;;;'1.0.0+20230131'
'1.2.840.10008.5.1.4.1.1.130';'1.2.840.10008.2.6.1';'Enhanced PET Image Storage';'https://termgit.elga.gv.at/CodeSystem/dicom-sopclasses';;;;'26';'0';'L';;;;'1.0.0+20230131'
'1.2.840.10008.5.1.4.1.1.131';'1.2.840.10008.2.6.1';'Basic Structured Display Storage';'https://termgit.elga.gv.at/CodeSystem/dicom-sopclasses';;;;'27';'0';'L';;;;'1.0.0+20230131'
'1.2.840.10008.5.1.4.1.1.14.1';'1.2.840.10008.2.6.1';'Intravascular Optical Coherence Tomography Image Storage - For Presentation';'https://termgit.elga.gv.at/CodeSystem/dicom-sopclasses';;;;'28';'0';'L';;;;'1.0.0+20230131'
'1.2.840.10008.5.1.4.1.1.14.2';'1.2.840.10008.2.6.1';'Intravascular Optical Coherence Tomography Image Storage - For Processing';'https://termgit.elga.gv.at/CodeSystem/dicom-sopclasses';;;;'29';'0';'L';;;;'1.0.0+20230131'
'1.2.840.10008.5.1.4.1.1.2';'1.2.840.10008.2.6.1';'CT Image Storage';'https://termgit.elga.gv.at/CodeSystem/dicom-sopclasses';;;;'30';'0';'L';;;;'1.0.0+20230131'
'1.2.840.10008.5.1.4.1.1.2.1';'1.2.840.10008.2.6.1';'Enhanced CT Image Storage';'https://termgit.elga.gv.at/CodeSystem/dicom-sopclasses';;;;'31';'0';'L';;;;'1.0.0+20230131'
'1.2.840.10008.5.1.4.1.1.2.2';'1.2.840.10008.2.6.1';'Legacy Converted Enhanced CT Image Storage';'https://termgit.elga.gv.at/CodeSystem/dicom-sopclasses';;;;'32';'0';'L';;;;'1.0.0+20230131'
'1.2.840.10008.5.1.4.1.1.20';'1.2.840.10008.2.6.1';'Nuclear Medicine Image Storage';'https://termgit.elga.gv.at/CodeSystem/dicom-sopclasses';;;;'33';'0';'L';;;;'1.0.0+20230131'
'1.2.840.10008.5.1.4.1.1.3.1';'1.2.840.10008.2.6.1';'Ultrasound Multi-frame Image Storage';'https://termgit.elga.gv.at/CodeSystem/dicom-sopclasses';;;;'34';'0';'L';;;;'1.0.0+20230131'
'1.2.840.10008.5.1.4.1.1.4';'1.2.840.10008.2.6.1';'MR Image Storage';'https://termgit.elga.gv.at/CodeSystem/dicom-sopclasses';;;;'35';'0';'L';;;;'1.0.0+20230131'
'1.2.840.10008.5.1.4.1.1.4.1';'1.2.840.10008.2.6.1';'Enhanced MR Image Storage';'https://termgit.elga.gv.at/CodeSystem/dicom-sopclasses';;;;'36';'0';'L';;;;'1.0.0+20230131'
'1.2.840.10008.5.1.4.1.1.4.2';'1.2.840.10008.2.6.1';'MR Spectroscopy Storage';'https://termgit.elga.gv.at/CodeSystem/dicom-sopclasses';;;;'37';'0';'L';;;;'1.0.0+20230131'
'1.2.840.10008.5.1.4.1.1.4.3';'1.2.840.10008.2.6.1';'Enhanced MR Color Image Storage';'https://termgit.elga.gv.at/CodeSystem/dicom-sopclasses';;;;'38';'0';'L';;;;'1.0.0+20230131'
'1.2.840.10008.5.1.4.1.1.4.4';'1.2.840.10008.2.6.1';'Legacy Converted Enhanced MR ImageStorage';'https://termgit.elga.gv.at/CodeSystem/dicom-sopclasses';;;;'39';'0';'L';;;;'1.0.0+20230131'
'1.2.840.10008.5.1.4.1.1.481.1';'1.2.840.10008.2.6.1';'RT Image Storage';'https://termgit.elga.gv.at/CodeSystem/dicom-sopclasses';;;;'40';'0';'L';;;;'1.0.0+20230131'
'1.2.840.10008.5.1.4.1.1.481.2';'1.2.840.10008.2.6.1';'RT Dose Storage';'https://termgit.elga.gv.at/CodeSystem/dicom-sopclasses';;;;'41';'0';'L';;;;'1.0.0+20230131'
'1.2.840.10008.5.1.4.1.1.481.3';'1.2.840.10008.2.6.1';'RT Structure Set Storage';'https://termgit.elga.gv.at/CodeSystem/dicom-sopclasses';;;;'42';'0';'L';;;;'1.0.0+20230131'
'1.2.840.10008.5.1.4.1.1.481.4';'1.2.840.10008.2.6.1';'RT Beams Treatment Record Storage';'https://termgit.elga.gv.at/CodeSystem/dicom-sopclasses';;;;'43';'0';'L';;;;'1.0.0+20230131'
'1.2.840.10008.5.1.4.1.1.481.5';'1.2.840.10008.2.6.1';'RT Plan Storage';'https://termgit.elga.gv.at/CodeSystem/dicom-sopclasses';;;;'44';'0';'L';;;;'1.0.0+20230131'
'1.2.840.10008.5.1.4.1.1.481.6';'1.2.840.10008.2.6.1';'RT Brachy Treatment Record Storage';'https://termgit.elga.gv.at/CodeSystem/dicom-sopclasses';;;;'45';'0';'L';;;;'1.0.0+20230131'
'1.2.840.10008.5.1.4.1.1.481.7';'1.2.840.10008.2.6.1';'RT Treatment Summary Record Storage';'https://termgit.elga.gv.at/CodeSystem/dicom-sopclasses';;;;'46';'0';'L';;;;'1.0.0+20230131'
'1.2.840.10008.5.1.4.1.1.481.8';'1.2.840.10008.2.6.1';'RT Ion Plan Storage';'https://termgit.elga.gv.at/CodeSystem/dicom-sopclasses';;;;'47';'0';'L';;;;'1.0.0+20230131'
'1.2.840.10008.5.1.4.1.1.481.9';'1.2.840.10008.2.6.1';'RT Ion Beams Treatment Record Storage';'https://termgit.elga.gv.at/CodeSystem/dicom-sopclasses';;;;'48';'0';'L';;;;'1.0.0+20230131'
'1.2.840.10008.5.1.4.1.1.6.1';'1.2.840.10008.2.6.1';'Ultrasound Image Storage';'https://termgit.elga.gv.at/CodeSystem/dicom-sopclasses';;;;'49';'0';'L';;;;'1.0.0+20230131'
'1.2.840.10008.5.1.4.1.1.6.2';'1.2.840.10008.2.6.1';'Enhanced US Volume Storage';'https://termgit.elga.gv.at/CodeSystem/dicom-sopclasses';;;;'50';'0';'L';;;;'1.0.0+20230131'
'1.2.840.10008.5.1.4.1.1.66';'1.2.840.10008.2.6.1';'Raw Data Storage';'https://termgit.elga.gv.at/CodeSystem/dicom-sopclasses';;;;'51';'0';'L';;;;'1.0.0+20230131'
'1.2.840.10008.5.1.4.1.1.66.1';'1.2.840.10008.2.6.1';'Spatial Registration Storage';'https://termgit.elga.gv.at/CodeSystem/dicom-sopclasses';;;;'52';'0';'L';;;;'1.0.0+20230131'
'1.2.840.10008.5.1.4.1.1.66.2';'1.2.840.10008.2.6.1';'Spatial Fiducials Storage';'https://termgit.elga.gv.at/CodeSystem/dicom-sopclasses';;;;'53';'0';'L';;;;'1.0.0+20230131'
'1.2.840.10008.5.1.4.1.1.66.3';'1.2.840.10008.2.6.1';'Deformable Spatial Registration Storage';'https://termgit.elga.gv.at/CodeSystem/dicom-sopclasses';;;;'54';'0';'L';;;;'1.0.0+20230131'
'1.2.840.10008.5.1.4.1.1.66.4';'1.2.840.10008.2.6.1';'Segmentation Storage';'https://termgit.elga.gv.at/CodeSystem/dicom-sopclasses';;;;'55';'0';'L';;;;'1.0.0+20230131'
'1.2.840.10008.5.1.4.1.1.66.5';'1.2.840.10008.2.6.1';'Surface Segmentation Storage';'https://termgit.elga.gv.at/CodeSystem/dicom-sopclasses';;;;'56';'0';'L';;;;'1.0.0+20230131'
'1.2.840.10008.5.1.4.1.1.67';'1.2.840.10008.2.6.1';'Real World Value Mapping Storage';'https://termgit.elga.gv.at/CodeSystem/dicom-sopclasses';;;;'57';'0';'L';;;;'1.0.0+20230131'
'1.2.840.10008.5.1.4.1.1.68.1';'1.2.840.10008.2.6.1';'Surface Scan Mesh Storage';'https://termgit.elga.gv.at/CodeSystem/dicom-sopclasses';;;;'58';'0';'L';;;;'1.0.0+20230131'
'1.2.840.10008.5.1.4.1.1.68.2';'1.2.840.10008.2.6.1';'Surface Scan Point Cloud Storage';'https://termgit.elga.gv.at/CodeSystem/dicom-sopclasses';;;;'59';'0';'L';;;;'1.0.0+20230131'
'1.2.840.10008.5.1.4.1.1.7';'1.2.840.10008.2.6.1';'Secondary Capture Image Storage';'https://termgit.elga.gv.at/CodeSystem/dicom-sopclasses';;;;'60';'0';'L';;;;'1.0.0+20230131'
'1.2.840.10008.5.1.4.1.1.7.1';'1.2.840.10008.2.6.1';'Multi-frame Single Bit Secondary Capture Image Storage';'https://termgit.elga.gv.at/CodeSystem/dicom-sopclasses';;;;'61';'0';'L';;;;'1.0.0+20230131'
'1.2.840.10008.5.1.4.1.1.7.2';'1.2.840.10008.2.6.1';'Multi-frame Grayscale Byte Secondary Capture Image Storage';'https://termgit.elga.gv.at/CodeSystem/dicom-sopclasses';;;;'62';'0';'L';;;;'1.0.0+20230131'
'1.2.840.10008.5.1.4.1.1.7.3';'1.2.840.10008.2.6.1';'Multi-frame Grayscale Word SecondaryCapture Image Storage';'https://termgit.elga.gv.at/CodeSystem/dicom-sopclasses';;;;'63';'0';'L';;;;'1.0.0+20230131'
'1.2.840.10008.5.1.4.1.1.7.4';'1.2.840.10008.2.6.1';'Multi-frame True Color Secondary Capture Image Storage';'https://termgit.elga.gv.at/CodeSystem/dicom-sopclasses';;;;'64';'0';'L';;;;'1.0.0+20230131'
'1.2.840.10008.5.1.4.1.1.77.1.1';'1.2.840.10008.2.6.1';'VL Endoscopic Image Storage';'https://termgit.elga.gv.at/CodeSystem/dicom-sopclasses';;;;'65';'0';'L';;;;'1.0.0+20230131'
'1.2.840.10008.5.1.4.1.1.77.1.1.1';'1.2.840.10008.2.6.1';'Video Endoscopic Image Storage';'https://termgit.elga.gv.at/CodeSystem/dicom-sopclasses';;;;'66';'0';'L';;;;'1.0.0+20230131'
'1.2.840.10008.5.1.4.1.1.77.1.2';'1.2.840.10008.2.6.1';'VL Microscopic Image Storage';'https://termgit.elga.gv.at/CodeSystem/dicom-sopclasses';;;;'67';'0';'L';;;;'1.0.0+20230131'
'1.2.840.10008.5.1.4.1.1.77.1.2.1';'1.2.840.10008.2.6.1';'Video Microscopic Image Storage';'https://termgit.elga.gv.at/CodeSystem/dicom-sopclasses';;;;'68';'0';'L';;;;'1.0.0+20230131'
'1.2.840.10008.5.1.4.1.1.77.1.3';'1.2.840.10008.2.6.1';'VL Slide-Coordinates Microscopic Image Storage';'https://termgit.elga.gv.at/CodeSystem/dicom-sopclasses';;;;'69';'0';'L';;;;'1.0.0+20230131'
'1.2.840.10008.5.1.4.1.1.77.1.4';'1.2.840.10008.2.6.1';'VL Photographic Image Storage';'https://termgit.elga.gv.at/CodeSystem/dicom-sopclasses';;;;'70';'0';'L';;;;'1.0.0+20230131'
'1.2.840.10008.5.1.4.1.1.77.1.4.1';'1.2.840.10008.2.6.1';'Video Photographic Image Storage';'https://termgit.elga.gv.at/CodeSystem/dicom-sopclasses';;;;'71';'0';'L';;;;'1.0.0+20230131'
'1.2.840.10008.5.1.4.1.1.77.1.5.1';'1.2.840.10008.2.6.1';'Ophthalmic Photography 8 Bit Image Storage';'https://termgit.elga.gv.at/CodeSystem/dicom-sopclasses';;;;'72';'0';'L';;;;'1.0.0+20230131'
'1.2.840.10008.5.1.4.1.1.77.1.5.2';'1.2.840.10008.2.6.1';'Ophthalmic Photography 16 Bit Image Storage';'https://termgit.elga.gv.at/CodeSystem/dicom-sopclasses';;;;'73';'0';'L';;;;'1.0.0+20230131'
'1.2.840.10008.5.1.4.1.1.77.1.5.3';'1.2.840.10008.2.6.1';'Stereometric Relationship Storage';'https://termgit.elga.gv.at/CodeSystem/dicom-sopclasses';;;;'74';'0';'L';;;;'1.0.0+20230131'
'1.2.840.10008.5.1.4.1.1.77.1.5.4';'1.2.840.10008.2.6.1';'Ophthalmic Tomography Image Storage';'https://termgit.elga.gv.at/CodeSystem/dicom-sopclasses';;;;'75';'0';'L';;;;'1.0.0+20230131'
'1.2.840.10008.5.1.4.1.1.77.1.6';'1.2.840.10008.2.6.1';'VL Whole Slide Microscopy Image Storage';'https://termgit.elga.gv.at/CodeSystem/dicom-sopclasses';;;;'76';'0';'L';;;;'1.0.0+20230131'
'1.2.840.10008.5.1.4.1.1.78.1';'1.2.840.10008.2.6.1';'Lensometry Measurements Storage';'https://termgit.elga.gv.at/CodeSystem/dicom-sopclasses';;;;'77';'0';'L';;;;'1.0.0+20230131'
'1.2.840.10008.5.1.4.1.1.78.2';'1.2.840.10008.2.6.1';'Autorefraction Measurements Storage';'https://termgit.elga.gv.at/CodeSystem/dicom-sopclasses';;;;'78';'0';'L';;;;'1.0.0+20230131'
'1.2.840.10008.5.1.4.1.1.78.3';'1.2.840.10008.2.6.1';'Keratometry Measurements Storage';'https://termgit.elga.gv.at/CodeSystem/dicom-sopclasses';;;;'79';'0';'L';;;;'1.0.0+20230131'
'1.2.840.10008.5.1.4.1.1.78.4';'1.2.840.10008.2.6.1';'Subjective Refraction Measurements Storage';'https://termgit.elga.gv.at/CodeSystem/dicom-sopclasses';;;;'80';'0';'L';;;;'1.0.0+20230131'
'1.2.840.10008.5.1.4.1.1.78.5';'1.2.840.10008.2.6.1';'Visual Acuity Measurements Storage';'https://termgit.elga.gv.at/CodeSystem/dicom-sopclasses';;;;'81';'0';'L';;;;'1.0.0+20230131'
'1.2.840.10008.5.1.4.1.1.78.6';'1.2.840.10008.2.6.1';'Spectacle Prescription Report Storage';'https://termgit.elga.gv.at/CodeSystem/dicom-sopclasses';;;;'82';'0';'L';;;;'1.0.0+20230131'
'1.2.840.10008.5.1.4.1.1.78.7';'1.2.840.10008.2.6.1';'Ophthalmic Axial Measurements Storage';'https://termgit.elga.gv.at/CodeSystem/dicom-sopclasses';;;;'83';'0';'L';;;;'1.0.0+20230131'
'1.2.840.10008.5.1.4.1.1.78.8';'1.2.840.10008.2.6.1';'Intraocular Lens Calculations Storage';'https://termgit.elga.gv.at/CodeSystem/dicom-sopclasses';;;;'84';'0';'L';;;;'1.0.0+20230131'
'1.2.840.10008.5.1.4.1.1.79.1';'1.2.840.10008.2.6.1';'Macular Grid Thickness and Volume Report';'https://termgit.elga.gv.at/CodeSystem/dicom-sopclasses';;;;'85';'0';'L';;;;'1.0.0+20230131'
'1.2.840.10008.5.1.4.1.1.80.1';'1.2.840.10008.2.6.1';'Ophthalmic Visual Field Static Perimetry Measurements Storage';'https://termgit.elga.gv.at/CodeSystem/dicom-sopclasses';;;;'86';'0';'L';;;;'1.0.0+20230131'
'1.2.840.10008.5.1.4.1.1.81.1';'1.2.840.10008.2.6.1';'Ophthalmic Thickness Map Storage';'https://termgit.elga.gv.at/CodeSystem/dicom-sopclasses';;;;'87';'0';'L';;;;'1.0.0+20230131'
'1.2.840.10008.5.1.4.1.1.82.1';'1.2.840.10008.2.6.1';'Corneal Topography Map Storage';'https://termgit.elga.gv.at/CodeSystem/dicom-sopclasses';;;;'88';'0';'L';;;;'1.0.0+20230131'
'1.2.840.10008.5.1.4.1.1.88.11';'1.2.840.10008.2.6.1';'Basic Text SR';'https://termgit.elga.gv.at/CodeSystem/dicom-sopclasses';;;;'89';'0';'L';;;;'1.0.0+20230131'
'1.2.840.10008.5.1.4.1.1.88.22';'1.2.840.10008.2.6.1';'Enhanced SR';'https://termgit.elga.gv.at/CodeSystem/dicom-sopclasses';;;;'90';'0';'L';;;;'1.0.0+20230131'
'1.2.840.10008.5.1.4.1.1.88.33';'1.2.840.10008.2.6.1';'Comprehensive SR';'https://termgit.elga.gv.at/CodeSystem/dicom-sopclasses';;;;'91';'0';'L';;;;'1.0.0+20230131'
'1.2.840.10008.5.1.4.1.1.88.34';'1.2.840.10008.2.6.1';'Comprehensive 3D SR';'https://termgit.elga.gv.at/CodeSystem/dicom-sopclasses';;;;'92';'0';'L';;;;'1.0.0+20230131'
'1.2.840.10008.5.1.4.1.1.88.40';'1.2.840.10008.2.6.1';'Procedure Log';'https://termgit.elga.gv.at/CodeSystem/dicom-sopclasses';;;;'93';'0';'L';;;;'1.0.0+20230131'
'1.2.840.10008.5.1.4.1.1.88.50';'1.2.840.10008.2.6.1';'Mammography CAD SR';'https://termgit.elga.gv.at/CodeSystem/dicom-sopclasses';;;;'94';'0';'L';;;;'1.0.0+20230131'
'1.2.840.10008.5.1.4.1.1.88.59';'1.2.840.10008.2.6.1';'Key Object Selection';'https://termgit.elga.gv.at/CodeSystem/dicom-sopclasses';;;;'95';'0';'L';;;;'1.0.0+20230131'
'1.2.840.10008.5.1.4.1.1.88.65';'1.2.840.10008.2.6.1';'Chest CAD SR';'https://termgit.elga.gv.at/CodeSystem/dicom-sopclasses';;;;'96';'0';'L';;;;'1.0.0+20230131'
'1.2.840.10008.5.1.4.1.1.88.67';'1.2.840.10008.2.6.1';'X-Ray Radiation Dose SR';'https://termgit.elga.gv.at/CodeSystem/dicom-sopclasses';;;;'97';'0';'L';;;;'1.0.0+20230131'
'1.2.840.10008.5.1.4.1.1.88.68';'1.2.840.10008.2.6.1';'Radiopharmaceutical Radiation Dose SR';'https://termgit.elga.gv.at/CodeSystem/dicom-sopclasses';;;;'98';'0';'L';;;;'1.0.0+20230131'
'1.2.840.10008.5.1.4.1.1.88.69';'1.2.840.10008.2.6.1';'Colon CAD SR';'https://termgit.elga.gv.at/CodeSystem/dicom-sopclasses';;;;'99';'0';'L';;;;'1.0.0+20230131'
'1.2.840.10008.5.1.4.1.1.88.70';'1.2.840.10008.2.6.1';'Implantation Plan SR Document Storage';'https://termgit.elga.gv.at/CodeSystem/dicom-sopclasses';;;;'100';'0';'L';;;;'1.0.0+20230131'
'1.2.840.10008.5.1.4.1.1.9.1.1';'1.2.840.10008.2.6.1';'12-lead ECG Waveform Storage';'https://termgit.elga.gv.at/CodeSystem/dicom-sopclasses';;;;'101';'0';'L';;;;'1.0.0+20230131'
'1.2.840.10008.5.1.4.1.1.9.1.2';'1.2.840.10008.2.6.1';'General ECG Waveform Storage';'https://termgit.elga.gv.at/CodeSystem/dicom-sopclasses';;;;'102';'0';'L';;;;'1.0.0+20230131'
'1.2.840.10008.5.1.4.1.1.9.1.3';'1.2.840.10008.2.6.1';'Ambulatory ECG Waveform Storage';'https://termgit.elga.gv.at/CodeSystem/dicom-sopclasses';;;;'103';'0';'L';;;;'1.0.0+20230131'
'1.2.840.10008.5.1.4.1.1.9.2.1';'1.2.840.10008.2.6.1';'Hemodynamic Waveform Storage';'https://termgit.elga.gv.at/CodeSystem/dicom-sopclasses';;;;'104';'0';'L';;;;'1.0.0+20230131'
'1.2.840.10008.5.1.4.1.1.9.3.1';'1.2.840.10008.2.6.1';'Cardiac Electrophysiology Waveform Storage';'https://termgit.elga.gv.at/CodeSystem/dicom-sopclasses';;;;'105';'0';'L';;;;'1.0.0+20230131'
'1.2.840.10008.5.1.4.1.1.9.4.1';'1.2.840.10008.2.6.1';'Basic Voice Audio Waveform Storage';'https://termgit.elga.gv.at/CodeSystem/dicom-sopclasses';;;;'106';'0';'L';;;;'1.0.0+20230131'
'1.2.840.10008.5.1.4.1.1.9.4.2';'1.2.840.10008.2.6.1';'General Audio Waveform Storage';'https://termgit.elga.gv.at/CodeSystem/dicom-sopclasses';;;;'107';'0';'L';;;;'1.0.0+20230131'
'1.2.840.10008.5.1.4.1.1.9.5.1';'1.2.840.10008.2.6.1';'Arterial Pulse Waveform Storage';'https://termgit.elga.gv.at/CodeSystem/dicom-sopclasses';;;;'108';'0';'L';;;;'1.0.0+20230131'
'1.2.840.10008.5.1.4.1.1.9.6.1';'1.2.840.10008.2.6.1';'Respiratory Waveform Storage';'https://termgit.elga.gv.at/CodeSystem/dicom-sopclasses';;;;'109';'0';'L';;;;'1.0.0+20230131'
'1.2.840.10008.5.1.4.34.7';'1.2.840.10008.2.6.1';'RT Beams Delivery Instruction Storage';'https://termgit.elga.gv.at/CodeSystem/dicom-sopclasses';;;;'110';'0';'L';;;;'1.0.0+20230131'
'1.2.840.10008.5.1.4.43.1';'1.2.840.10008.2.6.1';'Generic Implant Template Storage';'https://termgit.elga.gv.at/CodeSystem/dicom-sopclasses';;;;'111';'0';'L';;;;'1.0.0+20230131'
'1.2.840.10008.5.1.4.44.1';'1.2.840.10008.2.6.1';'Implant Assembly Template Storage';'https://termgit.elga.gv.at/CodeSystem/dicom-sopclasses';;;;'112';'0';'L';;;;'1.0.0+20230131'
'1.2.840.10008.5.1.4.45.1';'1.2.840.10008.2.6.1';'Implant Template Group Storage';'https://termgit.elga.gv.at/CodeSystem/dicom-sopclasses';;;;'113';'0';'L';;;;'1.0.0+20230131'
