"resource";"id";"url";"version";"name";"title";"status";"profile";"identifier";"date";"inactive";"count"
"ValueSet";"eimpf-impfstoffe";"https://termgit.elga.gv.at/ValueSet/eimpf-impfstoffe";"2.20.0+20250122";"eimpf-impfstoffe";"eImpf_Impfstoffe";"active";"http://hl7.at/fhir/HL7ATCoreProfiles/4.0.1/StructureDefinition/at-core-valueset";"1.2.40.0.34.6.0.10.14";"2025-01-22";"True";"210"

"system";"version";"code";"display";"extension";"designation";"inactive"
"https://termgit.elga.gv.at/CodeSystem/eimpf-impfstoffe";"2.34.0+20250122";"0056489";"TETANOL PUR FSPR 0,5ML";"http://hl7.at/fhir/HL7ATCoreProfiles/4.0.1/StructureDefinition/at-core-ext-valueset-systemoid|urn:oid:1.2.40.0.34.4.16.1|oid"
"https://termgit.elga.gv.at/CodeSystem/eimpf-impfstoffe";"2.34.0+20250122";"0514986";"FSME-IMMUN FSPR 0,5ML NAD F";"http://hl7.at/fhir/HL7ATCoreProfiles/4.0.1/StructureDefinition/at-core-ext-valueset-systemoid|urn:oid:1.2.40.0.34.4.16.1|oid"
"https://termgit.elga.gv.at/CodeSystem/eimpf-impfstoffe";"2.34.0+20250122";"0515738";"FSME-IMMUN FSPR 0,5ML NAD F";"http://hl7.at/fhir/HL7ATCoreProfiles/4.0.1/StructureDefinition/at-core-ext-valueset-systemoid|urn:oid:1.2.40.0.34.4.16.1|oid"
"https://termgit.elga.gv.at/CodeSystem/eimpf-impfstoffe";"2.34.0+20250122";"1076502";"VAXIGRIP FSPR M.KANUELE";"http://hl7.at/fhir/HL7ATCoreProfiles/4.0.1/StructureDefinition/at-core-ext-valueset-systemoid|urn:oid:1.2.40.0.34.4.16.1|oid"
"https://termgit.elga.gv.at/CodeSystem/eimpf-impfstoffe";"2.34.0+20250122";"1079021";"SANDOVAC FSPR 0,5ML";"http://hl7.at/fhir/HL7ATCoreProfiles/4.0.1/StructureDefinition/at-core-ext-valueset-systemoid|urn:oid:1.2.40.0.34.4.16.1|oid"
"https://termgit.elga.gv.at/CodeSystem/eimpf-impfstoffe";"2.34.0+20250122";"1258120";"INFLUVAC FSPR 0,5ML";"http://hl7.at/fhir/HL7ATCoreProfiles/4.0.1/StructureDefinition/at-core-ext-valueset-systemoid|urn:oid:1.2.40.0.34.4.16.1|oid"
"https://termgit.elga.gv.at/CodeSystem/eimpf-impfstoffe";"2.34.0+20250122";"1260571";"POLIO SALK MER FSPR 0,5ML";"http://hl7.at/fhir/HL7ATCoreProfiles/4.0.1/StructureDefinition/at-core-ext-valueset-systemoid|urn:oid:1.2.40.0.34.4.16.1|oid"
"https://termgit.elga.gv.at/CodeSystem/eimpf-impfstoffe";"2.34.0+20250122";"1265597";"INFLUVAC FSPR 0,5ML O.KANUEL";"http://hl7.at/fhir/HL7ATCoreProfiles/4.0.1/StructureDefinition/at-core-ext-valueset-systemoid|urn:oid:1.2.40.0.34.4.16.1|oid"
"https://termgit.elga.gv.at/CodeSystem/eimpf-impfstoffe";"2.34.0+20250122";"1276939";"ACT-HIB TRSTAMP +LSM";"http://hl7.at/fhir/HL7ATCoreProfiles/4.0.1/StructureDefinition/at-core-ext-valueset-systemoid|urn:oid:1.2.40.0.34.4.16.1|oid"
"https://termgit.elga.gv.at/CodeSystem/eimpf-impfstoffe";"2.34.0+20250122";"1290520";"DT-REDUCT MER FSPR 0,5ML";"http://hl7.at/fhir/HL7ATCoreProfiles/4.0.1/StructureDefinition/at-core-ext-valueset-systemoid|urn:oid:1.2.40.0.34.4.16.1|oid"
"https://termgit.elga.gv.at/CodeSystem/eimpf-impfstoffe";"2.34.0+20250122";"1292200";"ENGERIX-B FSPR 10MCG/0,5ML";"http://hl7.at/fhir/HL7ATCoreProfiles/4.0.1/StructureDefinition/at-core-ext-valueset-systemoid|urn:oid:1.2.40.0.34.4.16.1|oid"
"https://termgit.elga.gv.at/CodeSystem/eimpf-impfstoffe";"2.34.0+20250122";"1301057";"HAVRIX FSPR 1440 ERW";"http://hl7.at/fhir/HL7ATCoreProfiles/4.0.1/StructureDefinition/at-core-ext-valueset-systemoid|urn:oid:1.2.40.0.34.4.16.1|oid"
"https://termgit.elga.gv.at/CodeSystem/eimpf-impfstoffe";"2.34.0+20250122";"1304498";"TWINRIX ERW INJ FSPR 1ML";"http://hl7.at/fhir/HL7ATCoreProfiles/4.0.1/StructureDefinition/at-core-ext-valueset-systemoid|urn:oid:1.2.40.0.34.4.16.1|oid"
"https://termgit.elga.gv.at/CodeSystem/eimpf-impfstoffe";"2.34.0+20250122";"1309515";"TWINRIX KIND INF FSPR 0,5ML";"http://hl7.at/fhir/HL7ATCoreProfiles/4.0.1/StructureDefinition/at-core-ext-valueset-systemoid|urn:oid:1.2.40.0.34.4.16.1|oid"
"https://termgit.elga.gv.at/CodeSystem/eimpf-impfstoffe";"2.34.0+20250122";"1315496";"HAVRIX FSPR  720 JUNIOR";"http://hl7.at/fhir/HL7ATCoreProfiles/4.0.1/StructureDefinition/at-core-ext-valueset-systemoid|urn:oid:1.2.40.0.34.4.16.1|oid"
"https://termgit.elga.gv.at/CodeSystem/eimpf-impfstoffe";"2.34.0+20250122";"1316018";"VARILRIX PLV+LSM INJSUSP";"http://hl7.at/fhir/HL7ATCoreProfiles/4.0.1/StructureDefinition/at-core-ext-valueset-systemoid|urn:oid:1.2.40.0.34.4.16.1|oid"
"https://termgit.elga.gv.at/CodeSystem/eimpf-impfstoffe";"2.34.0+20250122";"1325750";"PRIORIX PLV+LSM IMPFDS";"http://hl7.at/fhir/HL7ATCoreProfiles/4.0.1/StructureDefinition/at-core-ext-valueset-systemoid|urn:oid:1.2.40.0.34.4.16.1|oid"
"https://termgit.elga.gv.at/CodeSystem/eimpf-impfstoffe";"2.34.0+20250122";"1329251";"VIVOTIF KPS";"http://hl7.at/fhir/HL7ATCoreProfiles/4.0.1/StructureDefinition/at-core-ext-valueset-systemoid|urn:oid:1.2.40.0.34.4.16.1|oid"
"https://termgit.elga.gv.at/CodeSystem/eimpf-impfstoffe";"2.34.0+20250122";"1333991";"TYPHERIX IJLSG 25MCG/0,5ML";"http://hl7.at/fhir/HL7ATCoreProfiles/4.0.1/StructureDefinition/at-core-ext-valueset-systemoid|urn:oid:1.2.40.0.34.4.16.1|oid"
"https://termgit.elga.gv.at/CodeSystem/eimpf-impfstoffe";"2.34.0+20250122";"1349762";"FLUAD FSPR 0,5ML";"http://hl7.at/fhir/HL7ATCoreProfiles/4.0.1/StructureDefinition/at-core-ext-valueset-systemoid|urn:oid:1.2.40.0.34.4.16.1|oid"
"https://termgit.elga.gv.at/CodeSystem/eimpf-impfstoffe";"2.34.0+20250122";"1350268";"HBVAXPRO IJSUS FLA 40MCG";"http://hl7.at/fhir/HL7ATCoreProfiles/4.0.1/StructureDefinition/at-core-ext-valueset-systemoid|urn:oid:1.2.40.0.34.4.16.1|oid"
"https://termgit.elga.gv.at/CodeSystem/eimpf-impfstoffe";"2.34.0+20250122";"1364721";"ENGERIX-B INJ FSPR 20MCG/1ML";"http://hl7.at/fhir/HL7ATCoreProfiles/4.0.1/StructureDefinition/at-core-ext-valueset-systemoid|urn:oid:1.2.40.0.34.4.16.1|oid"
"https://termgit.elga.gv.at/CodeSystem/eimpf-impfstoffe";"2.34.0+20250122";"2228368";"TD PUR ERW FSPR 0,5ML";"http://hl7.at/fhir/HL7ATCoreProfiles/4.0.1/StructureDefinition/at-core-ext-valueset-systemoid|urn:oid:1.2.40.0.34.4.16.1|oid"
"https://termgit.elga.gv.at/CodeSystem/eimpf-impfstoffe";"2.34.0+20250122";"2228374";"TD PUR ERW FSPR 0,5ML";"http://hl7.at/fhir/HL7ATCoreProfiles/4.0.1/StructureDefinition/at-core-ext-valueset-systemoid|urn:oid:1.2.40.0.34.4.16.1|oid"
"https://termgit.elga.gv.at/CodeSystem/eimpf-impfstoffe";"2.34.0+20250122";"2246975";"ENCEPUR FSPR 0,5ML";"http://hl7.at/fhir/HL7ATCoreProfiles/4.0.1/StructureDefinition/at-core-ext-valueset-systemoid|urn:oid:1.2.40.0.34.4.16.1|oid"
"https://termgit.elga.gv.at/CodeSystem/eimpf-impfstoffe";"2.34.0+20250122";"2249436";"ENCEPUR FSPR 0,5ML";"http://hl7.at/fhir/HL7ATCoreProfiles/4.0.1/StructureDefinition/at-core-ext-valueset-systemoid|urn:oid:1.2.40.0.34.4.16.1|oid"
"https://termgit.elga.gv.at/CodeSystem/eimpf-impfstoffe";"2.34.0+20250122";"2420746";"BOOSTRIX INJ FSPR 0,5ML";"http://hl7.at/fhir/HL7ATCoreProfiles/4.0.1/StructureDefinition/at-core-ext-valueset-systemoid|urn:oid:1.2.40.0.34.4.16.1|oid"
"https://termgit.elga.gv.at/CodeSystem/eimpf-impfstoffe";"2.34.0+20250122";"2427180";"FSME-IMMUN FSPR 0,25ML NAD F";"http://hl7.at/fhir/HL7ATCoreProfiles/4.0.1/StructureDefinition/at-core-ext-valueset-systemoid|urn:oid:1.2.40.0.34.4.16.1|oid"
"https://termgit.elga.gv.at/CodeSystem/eimpf-impfstoffe";"2.34.0+20250122";"2427197";"FSME-IMMUN FSPR 0,25ML NAD F";"http://hl7.at/fhir/HL7ATCoreProfiles/4.0.1/StructureDefinition/at-core-ext-valueset-systemoid|urn:oid:1.2.40.0.34.4.16.1|oid"
"https://termgit.elga.gv.at/CodeSystem/eimpf-impfstoffe";"2.34.0+20250122";"2427872";"ENCEPUR FSPR 0,25ML KIND";"http://hl7.at/fhir/HL7ATCoreProfiles/4.0.1/StructureDefinition/at-core-ext-valueset-systemoid|urn:oid:1.2.40.0.34.4.16.1|oid"
"https://termgit.elga.gv.at/CodeSystem/eimpf-impfstoffe";"2.34.0+20250122";"2434027";"VIATIM SUS+LSM IJSUS 2KFSPR";"http://hl7.at/fhir/HL7ATCoreProfiles/4.0.1/StructureDefinition/at-core-ext-valueset-systemoid|urn:oid:1.2.40.0.34.4.16.1|oid"
"https://termgit.elga.gv.at/CodeSystem/eimpf-impfstoffe";"2.34.0+20250122";"2442831";"HEPATYRIX IJSUS FSPR";"http://hl7.at/fhir/HL7ATCoreProfiles/4.0.1/StructureDefinition/at-core-ext-valueset-systemoid|urn:oid:1.2.40.0.34.4.16.1|oid"
"https://termgit.elga.gv.at/CodeSystem/eimpf-impfstoffe";"2.34.0+20250122";"2454461";"RABIPUR PLV LSM 2,5IE/ML";"http://hl7.at/fhir/HL7ATCoreProfiles/4.0.1/StructureDefinition/at-core-ext-valueset-systemoid|urn:oid:1.2.40.0.34.4.16.1|oid"
"https://termgit.elga.gv.at/CodeSystem/eimpf-impfstoffe";"2.34.0+20250122";"2454923";"VARIVAX PLV+LSM FSPR";"http://hl7.at/fhir/HL7ATCoreProfiles/4.0.1/StructureDefinition/at-core-ext-valueset-systemoid|urn:oid:1.2.40.0.34.4.16.1|oid"
"https://termgit.elga.gv.at/CodeSystem/eimpf-impfstoffe";"2.34.0+20250122";"2457324";"BOOSTRIX POLIO FSPR 0,5ML";"http://hl7.at/fhir/HL7ATCoreProfiles/4.0.1/StructureDefinition/at-core-ext-valueset-systemoid|urn:oid:1.2.40.0.34.4.16.1|oid"
"https://termgit.elga.gv.at/CodeSystem/eimpf-impfstoffe";"2.34.0+20250122";"2465140";"DUKORAL SUSP+BRGRAN 2X1DOSIS";"http://hl7.at/fhir/HL7ATCoreProfiles/4.0.1/StructureDefinition/at-core-ext-valueset-systemoid|urn:oid:1.2.40.0.34.4.16.1|oid"
"https://termgit.elga.gv.at/CodeSystem/eimpf-impfstoffe";"2.34.0+20250122";"2467765";"HBVAXPRO IJSUS FSP  5MCG 2KN";"http://hl7.at/fhir/HL7ATCoreProfiles/4.0.1/StructureDefinition/at-core-ext-valueset-systemoid|urn:oid:1.2.40.0.34.4.16.1|oid"
"https://termgit.elga.gv.at/CodeSystem/eimpf-impfstoffe";"2.34.0+20250122";"2467788";"REPEVAX FSPR 0,5ML +KANUELEN";"http://hl7.at/fhir/HL7ATCoreProfiles/4.0.1/StructureDefinition/at-core-ext-valueset-systemoid|urn:oid:1.2.40.0.34.4.16.1|oid"
"https://termgit.elga.gv.at/CodeSystem/eimpf-impfstoffe";"2.34.0+20250122";"2467794";"TETRAVAC FSPR +2KANUELE";"http://hl7.at/fhir/HL7ATCoreProfiles/4.0.1/StructureDefinition/at-core-ext-valueset-systemoid|urn:oid:1.2.40.0.34.4.16.1|oid"
"https://termgit.elga.gv.at/CodeSystem/eimpf-impfstoffe";"2.34.0+20250122";"2469988";"REVAXIS SPR+2 KANUE";"http://hl7.at/fhir/HL7ATCoreProfiles/4.0.1/StructureDefinition/at-core-ext-valueset-systemoid|urn:oid:1.2.40.0.34.4.16.1|oid"
"https://termgit.elga.gv.at/CodeSystem/eimpf-impfstoffe";"2.34.0+20250122";"2469994";"TYPHIM VI FSPR 0,5ML +2 KAN.";"http://hl7.at/fhir/HL7ATCoreProfiles/4.0.1/StructureDefinition/at-core-ext-valueset-systemoid|urn:oid:1.2.40.0.34.4.16.1|oid"
"https://termgit.elga.gv.at/CodeSystem/eimpf-impfstoffe";"2.34.0+20250122";"2470017";"STAMARIL PLV+LSM DFL+FSPR+2K";"http://hl7.at/fhir/HL7ATCoreProfiles/4.0.1/StructureDefinition/at-core-ext-valueset-systemoid|urn:oid:1.2.40.0.34.4.16.1|oid"
"https://termgit.elga.gv.at/CodeSystem/eimpf-impfstoffe";"2.34.0+20250122";"2472795";"PROQUAD PLV+LSM FSPR +2K";"http://hl7.at/fhir/HL7ATCoreProfiles/4.0.1/StructureDefinition/at-core-ext-valueset-systemoid|urn:oid:1.2.40.0.34.4.16.1|oid"
"https://termgit.elga.gv.at/CodeSystem/eimpf-impfstoffe";"2.34.0+20250122";"2472803";"ROTATEQ QUETSCHTB 2ML";"http://hl7.at/fhir/HL7ATCoreProfiles/4.0.1/StructureDefinition/at-core-ext-valueset-systemoid|urn:oid:1.2.40.0.34.4.16.1|oid"
"https://termgit.elga.gv.at/CodeSystem/eimpf-impfstoffe";"2.34.0+20250122";"2472826";"ZOSTAVAX PLV +LSM IJSUS FSPR";"http://hl7.at/fhir/HL7ATCoreProfiles/4.0.1/StructureDefinition/at-core-ext-valueset-systemoid|urn:oid:1.2.40.0.34.4.16.1|oid"
"https://termgit.elga.gv.at/CodeSystem/eimpf-impfstoffe";"2.34.0+20250122";"2479314";"INFANRIX HEXA GLASFL.";"http://hl7.at/fhir/HL7ATCoreProfiles/4.0.1/StructureDefinition/at-core-ext-valueset-systemoid|urn:oid:1.2.40.0.34.4.16.1|oid"
"https://termgit.elga.gv.at/CodeSystem/eimpf-impfstoffe";"2.34.0+20250122";"3511764";"MMRVAXPRO PLV+LSM FSPR +2K";"http://hl7.at/fhir/HL7ATCoreProfiles/4.0.1/StructureDefinition/at-core-ext-valueset-systemoid|urn:oid:1.2.40.0.34.4.16.1|oid"
"https://termgit.elga.gv.at/CodeSystem/eimpf-impfstoffe";"2.34.0+20250122";"3513450";"CERVARIX FSPR 0,5ML";"http://hl7.at/fhir/HL7ATCoreProfiles/4.0.1/StructureDefinition/at-core-ext-valueset-systemoid|urn:oid:1.2.40.0.34.4.16.1|oid"
"https://termgit.elga.gv.at/CodeSystem/eimpf-impfstoffe";"2.34.0+20250122";"3514171";"GARDASIL SPR +2KAN";"http://hl7.at/fhir/HL7ATCoreProfiles/4.0.1/StructureDefinition/at-core-ext-valueset-systemoid|urn:oid:1.2.40.0.34.4.16.1|oid"
"https://termgit.elga.gv.at/CodeSystem/eimpf-impfstoffe";"2.34.0+20250122";"3519599";"HBVAXPRO IJSUS FSP 10MCG 2KN";"http://hl7.at/fhir/HL7ATCoreProfiles/4.0.1/StructureDefinition/at-core-ext-valueset-systemoid|urn:oid:1.2.40.0.34.4.16.1|oid"
"https://termgit.elga.gv.at/CodeSystem/eimpf-impfstoffe";"2.34.0+20250122";"3521662";"MENJUGATE PLV +LSM FSPR";"http://hl7.at/fhir/HL7ATCoreProfiles/4.0.1/StructureDefinition/at-core-ext-valueset-systemoid|urn:oid:1.2.40.0.34.4.16.1|oid"
"https://termgit.elga.gv.at/CodeSystem/eimpf-impfstoffe";"2.34.0+20250122";"3528434";"FLUVACCINOL INJ-SUS FSPR";"http://hl7.at/fhir/HL7ATCoreProfiles/4.0.1/StructureDefinition/at-core-ext-valueset-systemoid|urn:oid:1.2.40.0.34.4.16.1|oid"
"https://termgit.elga.gv.at/CodeSystem/eimpf-impfstoffe";"2.34.0+20250122";"3532424";"NEISVAC-C FSPR 2 NADEL 0,5ML";"http://hl7.at/fhir/HL7ATCoreProfiles/4.0.1/StructureDefinition/at-core-ext-valueset-systemoid|urn:oid:1.2.40.0.34.4.16.1|oid"
"https://termgit.elga.gv.at/CodeSystem/eimpf-impfstoffe";"2.34.0+20250122";"3533837";"SYNFLORIX FSPR 0,5ML";"http://hl7.at/fhir/HL7ATCoreProfiles/4.0.1/StructureDefinition/at-core-ext-valueset-systemoid|urn:oid:1.2.40.0.34.4.16.1|oid"
"https://termgit.elga.gv.at/CodeSystem/eimpf-impfstoffe";"2.34.0+20250122";"3537551";"IXIARO FSPR";"http://hl7.at/fhir/HL7ATCoreProfiles/4.0.1/StructureDefinition/at-core-ext-valueset-systemoid|urn:oid:1.2.40.0.34.4.16.1|oid"
"https://termgit.elga.gv.at/CodeSystem/eimpf-impfstoffe";"2.34.0+20250122";"3539969";"INTANZA 15MCG FSPR";"http://hl7.at/fhir/HL7ATCoreProfiles/4.0.1/StructureDefinition/at-core-ext-valueset-systemoid|urn:oid:1.2.40.0.34.4.16.1|oid"
"https://termgit.elga.gv.at/CodeSystem/eimpf-impfstoffe";"2.34.0+20250122";"3756589";"PREVENAR 13 FSPR 0,5ML+N";"http://hl7.at/fhir/HL7ATCoreProfiles/4.0.1/StructureDefinition/at-core-ext-valueset-systemoid|urn:oid:1.2.40.0.34.4.16.1|oid"
"https://termgit.elga.gv.at/CodeSystem/eimpf-impfstoffe";"2.34.0+20250122";"3760993";"ROTARIX SUS FAPPLIK.1,5ML";"http://hl7.at/fhir/HL7ATCoreProfiles/4.0.1/StructureDefinition/at-core-ext-valueset-systemoid|urn:oid:1.2.40.0.34.4.16.1|oid"
"https://termgit.elga.gv.at/CodeSystem/eimpf-impfstoffe";"2.34.0+20250122";"3761739";"INTANZA  9MCG FSPR";"http://hl7.at/fhir/HL7ATCoreProfiles/4.0.1/StructureDefinition/at-core-ext-valueset-systemoid|urn:oid:1.2.40.0.34.4.16.1|oid"
"https://termgit.elga.gv.at/CodeSystem/eimpf-impfstoffe";"2.34.0+20250122";"3762986";"PRIORIX TETRA PLV DFL FSPR";"http://hl7.at/fhir/HL7ATCoreProfiles/4.0.1/StructureDefinition/at-core-ext-valueset-systemoid|urn:oid:1.2.40.0.34.4.16.1|oid"
"https://termgit.elga.gv.at/CodeSystem/eimpf-impfstoffe";"2.34.0+20250122";"3782291";"MENVEO PLV+LSM DFL";"http://hl7.at/fhir/HL7ATCoreProfiles/4.0.1/StructureDefinition/at-core-ext-valueset-systemoid|urn:oid:1.2.40.0.34.4.16.1|oid"
"https://termgit.elga.gv.at/CodeSystem/eimpf-impfstoffe";"2.34.0+20250122";"3904699";"VAQTA FSPR INJ.SUS";"http://hl7.at/fhir/HL7ATCoreProfiles/4.0.1/StructureDefinition/at-core-ext-valueset-systemoid|urn:oid:1.2.40.0.34.4.16.1|oid"
"https://termgit.elga.gv.at/CodeSystem/eimpf-impfstoffe";"2.34.0+20250122";"3904713";"VAQTA K FSPR INJ.SUS";"http://hl7.at/fhir/HL7ATCoreProfiles/4.0.1/StructureDefinition/at-core-ext-valueset-systemoid|urn:oid:1.2.40.0.34.4.16.1|oid"
"https://termgit.elga.gv.at/CodeSystem/eimpf-impfstoffe";"2.34.0+20250122";"3909165";"NIMENRIX PLV+LSM FSPR 0,5ML";"http://hl7.at/fhir/HL7ATCoreProfiles/4.0.1/StructureDefinition/at-core-ext-valueset-systemoid|urn:oid:1.2.40.0.34.4.16.1|oid"
"https://termgit.elga.gv.at/CodeSystem/eimpf-impfstoffe";"2.34.0+20250122";"3911995";"OPTAFLU INJ-SUS FSPR";"http://hl7.at/fhir/HL7ATCoreProfiles/4.0.1/StructureDefinition/at-core-ext-valueset-systemoid|urn:oid:1.2.40.0.34.4.16.1|oid"
"https://termgit.elga.gv.at/CodeSystem/eimpf-impfstoffe";"2.34.0+20250122";"3919867";"OPTAFLU INJ-SUS FSPR";"http://hl7.at/fhir/HL7ATCoreProfiles/4.0.1/StructureDefinition/at-core-ext-valueset-systemoid|urn:oid:1.2.40.0.34.4.16.1|oid"
"https://termgit.elga.gv.at/CodeSystem/eimpf-impfstoffe";"2.34.0+20250122";"3920095";"BEXSERO INJ.SUS FSPR";"http://hl7.at/fhir/HL7ATCoreProfiles/4.0.1/StructureDefinition/at-core-ext-valueset-systemoid|urn:oid:1.2.40.0.34.4.16.1|oid"
"https://termgit.elga.gv.at/CodeSystem/eimpf-impfstoffe";"2.34.0+20250122";"3925649";"FSME-IMMUN FSPR 0,25ML NAD B";"http://hl7.at/fhir/HL7ATCoreProfiles/4.0.1/StructureDefinition/at-core-ext-valueset-systemoid|urn:oid:1.2.40.0.34.4.16.1|oid"
"https://termgit.elga.gv.at/CodeSystem/eimpf-impfstoffe";"2.34.0+20250122";"3925655";"FSME-IMMUN FSPR 0,25ML";"http://hl7.at/fhir/HL7ATCoreProfiles/4.0.1/StructureDefinition/at-core-ext-valueset-systemoid|urn:oid:1.2.40.0.34.4.16.1|oid"
"https://termgit.elga.gv.at/CodeSystem/eimpf-impfstoffe";"2.34.0+20250122";"3927186";"FLUARIX INJ.SUS FSPR O.NADEL";"http://hl7.at/fhir/HL7ATCoreProfiles/4.0.1/StructureDefinition/at-core-ext-valueset-systemoid|urn:oid:1.2.40.0.34.4.16.1|oid"
"https://termgit.elga.gv.at/CodeSystem/eimpf-impfstoffe";"2.34.0+20250122";"3928168";"HEXYON IJSUS FSPR +2 KAN";"http://hl7.at/fhir/HL7ATCoreProfiles/4.0.1/StructureDefinition/at-core-ext-valueset-systemoid|urn:oid:1.2.40.0.34.4.16.1|oid"
"https://termgit.elga.gv.at/CodeSystem/eimpf-impfstoffe";"2.34.0+20250122";"3932448";"FSME-IMMUN FSPR 0,5ML NAD B";"http://hl7.at/fhir/HL7ATCoreProfiles/4.0.1/StructureDefinition/at-core-ext-valueset-systemoid|urn:oid:1.2.40.0.34.4.16.1|oid"
"https://termgit.elga.gv.at/CodeSystem/eimpf-impfstoffe";"2.34.0+20250122";"3932454";"FSME-IMMUN FSPR 0,5ML";"http://hl7.at/fhir/HL7ATCoreProfiles/4.0.1/StructureDefinition/at-core-ext-valueset-systemoid|urn:oid:1.2.40.0.34.4.16.1|oid"
"https://termgit.elga.gv.at/CodeSystem/eimpf-impfstoffe";"2.34.0+20250122";"4202025";"FLUENZ TETRA NA-SPRAY";"http://hl7.at/fhir/HL7ATCoreProfiles/4.0.1/StructureDefinition/at-core-ext-valueset-systemoid|urn:oid:1.2.40.0.34.4.16.1|oid"
"https://termgit.elga.gv.at/CodeSystem/eimpf-impfstoffe";"2.34.0+20250122";"4202031";"FLUENZ TETRA NA-SPRAY";"http://hl7.at/fhir/HL7ATCoreProfiles/4.0.1/StructureDefinition/at-core-ext-valueset-systemoid|urn:oid:1.2.40.0.34.4.16.1|oid"
"https://termgit.elga.gv.at/CodeSystem/eimpf-impfstoffe";"2.34.0+20250122";"4202462";"PNEUMOVAX 23 DFL 0,5ML";"http://hl7.at/fhir/HL7ATCoreProfiles/4.0.1/StructureDefinition/at-core-ext-valueset-systemoid|urn:oid:1.2.40.0.34.4.16.1|oid"
"https://termgit.elga.gv.at/CodeSystem/eimpf-impfstoffe";"2.34.0+20250122";"4205785";"FLUARIX TETRA FSPR +2ND";"http://hl7.at/fhir/HL7ATCoreProfiles/4.0.1/StructureDefinition/at-core-ext-valueset-systemoid|urn:oid:1.2.40.0.34.4.16.1|oid"
"https://termgit.elga.gv.at/CodeSystem/eimpf-impfstoffe";"2.34.0+20250122";"4209197";"PNEUMOVAX 23 FSPR";"http://hl7.at/fhir/HL7ATCoreProfiles/4.0.1/StructureDefinition/at-core-ext-valueset-systemoid|urn:oid:1.2.40.0.34.4.16.1|oid"
"https://termgit.elga.gv.at/CodeSystem/eimpf-impfstoffe";"2.34.0+20250122";"4209694";"FSME-IMMUN FSPR 0,5ML+S.NAD";"http://hl7.at/fhir/HL7ATCoreProfiles/4.0.1/StructureDefinition/at-core-ext-valueset-systemoid|urn:oid:1.2.40.0.34.4.16.1|oid"
"https://termgit.elga.gv.at/CodeSystem/eimpf-impfstoffe";"2.34.0+20250122";"4209702";"FSME-IMMUN FSPR 0,25ML+S.NAD";"http://hl7.at/fhir/HL7ATCoreProfiles/4.0.1/StructureDefinition/at-core-ext-valueset-systemoid|urn:oid:1.2.40.0.34.4.16.1|oid"
"https://termgit.elga.gv.at/CodeSystem/eimpf-impfstoffe";"2.34.0+20250122";"4215720";"VAXIGRIP FSPR O.KANUELE";"http://hl7.at/fhir/HL7ATCoreProfiles/4.0.1/StructureDefinition/at-core-ext-valueset-systemoid|urn:oid:1.2.40.0.34.4.16.1|oid"
"https://termgit.elga.gv.at/CodeSystem/eimpf-impfstoffe";"2.34.0+20250122";"4224707";"GARDASIL 9 FSPR +2KAN";"http://hl7.at/fhir/HL7ATCoreProfiles/4.0.1/StructureDefinition/at-core-ext-valueset-systemoid|urn:oid:1.2.40.0.34.4.16.1|oid"
"https://termgit.elga.gv.at/CodeSystem/eimpf-impfstoffe";"2.34.0+20250122";"4453106";"MENJUGATE INJ FSPR 10MCG";"http://hl7.at/fhir/HL7ATCoreProfiles/4.0.1/StructureDefinition/at-core-ext-valueset-systemoid|urn:oid:1.2.40.0.34.4.16.1|oid"
"https://termgit.elga.gv.at/CodeSystem/eimpf-impfstoffe";"2.34.0+20250122";"4465799";"RABIPUR PLV+LSM INJ FSPR";"http://hl7.at/fhir/HL7ATCoreProfiles/4.0.1/StructureDefinition/at-core-ext-valueset-systemoid|urn:oid:1.2.40.0.34.4.16.1|oid"
"https://termgit.elga.gv.at/CodeSystem/eimpf-impfstoffe";"2.34.0+20250122";"4466942";"TRUMENBA IJSUS FSPR+NAD0,5ML";"http://hl7.at/fhir/HL7ATCoreProfiles/4.0.1/StructureDefinition/at-core-ext-valueset-systemoid|urn:oid:1.2.40.0.34.4.16.1|oid"
"https://termgit.elga.gv.at/CodeSystem/eimpf-impfstoffe";"2.34.0+20250122";"4467841";"VAXIGRIP TETRA FSPR 0,5ML";"http://hl7.at/fhir/HL7ATCoreProfiles/4.0.1/StructureDefinition/at-core-ext-valueset-systemoid|urn:oid:1.2.40.0.34.4.16.1|oid"
"https://termgit.elga.gv.at/CodeSystem/eimpf-impfstoffe";"2.34.0+20250122";"4467858";"VAXIGRIP TETRA FSPR O.K";"http://hl7.at/fhir/HL7ATCoreProfiles/4.0.1/StructureDefinition/at-core-ext-valueset-systemoid|urn:oid:1.2.40.0.34.4.16.1|oid"
"https://termgit.elga.gv.at/CodeSystem/eimpf-impfstoffe";"2.34.0+20250122";"4475131";"GARDASIL 9 FSPR +2KAN";"http://hl7.at/fhir/HL7ATCoreProfiles/4.0.1/StructureDefinition/at-core-ext-valueset-systemoid|urn:oid:1.2.40.0.34.4.16.1|oid"
"https://termgit.elga.gv.at/CodeSystem/eimpf-impfstoffe";"2.34.0+20250122";"4477035";"PREVENAR INJ.SUS13 0,5ML+NAD";"http://hl7.at/fhir/HL7ATCoreProfiles/4.0.1/StructureDefinition/at-core-ext-valueset-systemoid|urn:oid:1.2.40.0.34.4.16.1|oid"
"https://termgit.elga.gv.at/CodeSystem/eimpf-impfstoffe";"2.34.0+20250122";"4482993";"INFLUVAC TETRA FSPR 0,5ML";"http://hl7.at/fhir/HL7ATCoreProfiles/4.0.1/StructureDefinition/at-core-ext-valueset-systemoid|urn:oid:1.2.40.0.34.4.16.1|oid"
"https://termgit.elga.gv.at/CodeSystem/eimpf-impfstoffe";"2.34.0+20250122";"4961340";"VIVOTIF MSR HKPS";"http://hl7.at/fhir/HL7ATCoreProfiles/4.0.1/StructureDefinition/at-core-ext-valueset-systemoid|urn:oid:1.2.40.0.34.4.16.1|oid"
"https://termgit.elga.gv.at/CodeSystem/eimpf-impfstoffe";"2.34.0+20250122";"4963675";"FLUCELVAX TETRA FSPR 0,5ML";"http://hl7.at/fhir/HL7ATCoreProfiles/4.0.1/StructureDefinition/at-core-ext-valueset-systemoid|urn:oid:1.2.40.0.34.4.16.1|oid"
"https://termgit.elga.gv.at/CodeSystem/eimpf-impfstoffe";"2.34.0+20250122";"4963681";"FLUCELVAX TETRA IJSUS FSPR";"http://hl7.at/fhir/HL7ATCoreProfiles/4.0.1/StructureDefinition/at-core-ext-valueset-systemoid|urn:oid:1.2.40.0.34.4.16.1|oid";"|https://termgit.elga.gv.at/CodeSystem/austrian-designation-use^^hinweise^hinweise^|DEPRECATED";"True"
"https://termgit.elga.gv.at/CodeSystem/eimpf-impfstoffe";"2.34.0+20250122";"4966403";"FLUCELVAX TETRA FSPR 0,5ML";"http://hl7.at/fhir/HL7ATCoreProfiles/4.0.1/StructureDefinition/at-core-ext-valueset-systemoid|urn:oid:1.2.40.0.34.4.16.1|oid";"";""
"https://termgit.elga.gv.at/CodeSystem/eimpf-impfstoffe";"2.34.0+20250122";"4973521";"ROTARIX SUS TUBE 1,5ML";"http://hl7.at/fhir/HL7ATCoreProfiles/4.0.1/StructureDefinition/at-core-ext-valueset-systemoid|urn:oid:1.2.40.0.34.4.16.1|oid";"";""
"https://termgit.elga.gv.at/CodeSystem/eimpf-impfstoffe";"2.34.0+20250122";"4977134";"ENCEPUR FSPR 0,25ML KIND +ND";"http://hl7.at/fhir/HL7ATCoreProfiles/4.0.1/StructureDefinition/at-core-ext-valueset-systemoid|urn:oid:1.2.40.0.34.4.16.1|oid";"";""
"https://termgit.elga.gv.at/CodeSystem/eimpf-impfstoffe";"2.34.0+20250122";"4977140";"ENCEPUR FSPR 0,5ML +ND";"http://hl7.at/fhir/HL7ATCoreProfiles/4.0.1/StructureDefinition/at-core-ext-valueset-systemoid|urn:oid:1.2.40.0.34.4.16.1|oid";"";""
"https://termgit.elga.gv.at/CodeSystem/eimpf-impfstoffe";"2.34.0+20250122";"4977714";"ENCEPUR FSPR 0,5ML BN";"http://hl7.at/fhir/HL7ATCoreProfiles/4.0.1/StructureDefinition/at-core-ext-valueset-systemoid|urn:oid:1.2.40.0.34.4.16.1|oid";"";""
"https://termgit.elga.gv.at/CodeSystem/eimpf-impfstoffe";"2.34.0+20250122";"4977720";"ENCEPUR FSPR 0,25ML KIND BN";"http://hl7.at/fhir/HL7ATCoreProfiles/4.0.1/StructureDefinition/at-core-ext-valueset-systemoid|urn:oid:1.2.40.0.34.4.16.1|oid";"";""
"https://termgit.elga.gv.at/CodeSystem/eimpf-impfstoffe";"2.34.0+20250122";"4983502";"SHINGRIX PLV+SUSP IJSUS DFL";"http://hl7.at/fhir/HL7ATCoreProfiles/4.0.1/StructureDefinition/at-core-ext-valueset-systemoid|urn:oid:1.2.40.0.34.4.16.1|oid";"";""
"https://termgit.elga.gv.at/CodeSystem/eimpf-impfstoffe";"2.34.0+20250122";"4985398";"SHINGRIX PLV+SUSP IJSUS DFL";"http://hl7.at/fhir/HL7ATCoreProfiles/4.0.1/StructureDefinition/at-core-ext-valueset-systemoid|urn:oid:1.2.40.0.34.4.16.1|oid";"";""
"https://termgit.elga.gv.at/CodeSystem/eimpf-impfstoffe";"2.34.0+20250122";"4985702";"FLUAD FSPR 0,5ML";"http://hl7.at/fhir/HL7ATCoreProfiles/4.0.1/StructureDefinition/at-core-ext-valueset-systemoid|urn:oid:1.2.40.0.34.4.16.1|oid";"";""
"https://termgit.elga.gv.at/CodeSystem/eimpf-impfstoffe";"2.34.0+20250122";"4988787";"VARIVAX PLV+LSM FSPR +2KAN";"http://hl7.at/fhir/HL7ATCoreProfiles/4.0.1/StructureDefinition/at-core-ext-valueset-systemoid|urn:oid:1.2.40.0.34.4.16.1|oid";"";""
"https://termgit.elga.gv.at/CodeSystem/eimpf-impfstoffe";"2.34.0+20250122";"4989539";"COMIRNATY COV19 KONZ30 195x6";"http://hl7.at/fhir/HL7ATCoreProfiles/4.0.1/StructureDefinition/at-core-ext-valueset-systemoid|urn:oid:1.2.40.0.34.4.16.1|oid";"";""
"https://termgit.elga.gv.at/CodeSystem/eimpf-impfstoffe";"2.34.0+20250122";"4989918";"EFLUELDA FSPR O.KAN.0,7ML";"http://hl7.at/fhir/HL7ATCoreProfiles/4.0.1/StructureDefinition/at-core-ext-valueset-systemoid|urn:oid:1.2.40.0.34.4.16.1|oid";"";""
"https://termgit.elga.gv.at/CodeSystem/eimpf-impfstoffe";"2.34.0+20250122";"4989947";"TD PUR ERW FSPR 0,5ML O.ND";"http://hl7.at/fhir/HL7ATCoreProfiles/4.0.1/StructureDefinition/at-core-ext-valueset-systemoid|urn:oid:1.2.40.0.34.4.16.1|oid";"";""
"https://termgit.elga.gv.at/CodeSystem/eimpf-impfstoffe";"2.34.0+20250122";"4990123";"FLUAD TETRA FSPR+ND 0,5ML";"http://hl7.at/fhir/HL7ATCoreProfiles/4.0.1/StructureDefinition/at-core-ext-valueset-systemoid|urn:oid:1.2.40.0.34.4.16.1|oid";"";""
"https://termgit.elga.gv.at/CodeSystem/eimpf-impfstoffe";"2.34.0+20250122";"4990146";"FLUAD TETRA FSPR+ND 0,5ML";"http://hl7.at/fhir/HL7ATCoreProfiles/4.0.1/StructureDefinition/at-core-ext-valueset-systemoid|urn:oid:1.2.40.0.34.4.16.1|oid";"";""
"https://termgit.elga.gv.at/CodeSystem/eimpf-impfstoffe";"2.34.0+20250122";"4990459";"VAXZEVRIA COV19        10x10";"http://hl7.at/fhir/HL7ATCoreProfiles/4.0.1/StructureDefinition/at-core-ext-valueset-systemoid|urn:oid:1.2.40.0.34.4.16.1|oid";"";""
"https://termgit.elga.gv.at/CodeSystem/eimpf-impfstoffe";"2.34.0+20250122";"4991720";"JCOVDEN COV19           10x5";"http://hl7.at/fhir/HL7ATCoreProfiles/4.0.1/StructureDefinition/at-core-ext-valueset-systemoid|urn:oid:1.2.40.0.34.4.16.1|oid";"";""
"https://termgit.elga.gv.at/CodeSystem/eimpf-impfstoffe";"2.34.0+20250122";"5424472";"PFIZER-BION COV19 KONZ30 1x6";"http://hl7.at/fhir/HL7ATCoreProfiles/4.0.1/StructureDefinition/at-core-ext-valueset-systemoid|urn:oid:1.2.40.0.34.4.16.1|oid";"";""
"https://termgit.elga.gv.at/CodeSystem/eimpf-impfstoffe";"2.34.0+20250122";"5426867";"MODERNA/SPIKEVAX COV19  1x10";"http://hl7.at/fhir/HL7ATCoreProfiles/4.0.1/StructureDefinition/at-core-ext-valueset-systemoid|urn:oid:1.2.40.0.34.4.16.1|oid";"";""
"https://termgit.elga.gv.at/CodeSystem/eimpf-impfstoffe";"2.34.0+20250122";"5426873";"MODERNA/SPIKEVAX COV19 10x10";"http://hl7.at/fhir/HL7ATCoreProfiles/4.0.1/StructureDefinition/at-core-ext-valueset-systemoid|urn:oid:1.2.40.0.34.4.16.1|oid";"";""
"https://termgit.elga.gv.at/CodeSystem/eimpf-impfstoffe";"2.34.0+20250122";"5502433";"GARDASIL 9 FSPR +2KAN";"http://hl7.at/fhir/HL7ATCoreProfiles/4.0.1/StructureDefinition/at-core-ext-valueset-systemoid|urn:oid:1.2.40.0.34.4.16.1|oid";"";""
"https://termgit.elga.gv.at/CodeSystem/eimpf-impfstoffe";"2.34.0+20250122";"5502522";"JCOVDEN COV19           20x5";"http://hl7.at/fhir/HL7ATCoreProfiles/4.0.1/StructureDefinition/at-core-ext-valueset-systemoid|urn:oid:1.2.40.0.34.4.16.1|oid";"";""
"https://termgit.elga.gv.at/CodeSystem/eimpf-impfstoffe";"2.34.0+20250122";"5505414";"VAXNEUVANCE IJSUS FSPR  +1ND";"http://hl7.at/fhir/HL7ATCoreProfiles/4.0.1/StructureDefinition/at-core-ext-valueset-systemoid|urn:oid:1.2.40.0.34.4.16.1|oid";"";""
"https://termgit.elga.gv.at/CodeSystem/eimpf-impfstoffe";"2.34.0+20250122";"5506342";"COMIRNATY COV19 INJ30  195x6";"http://hl7.at/fhir/HL7ATCoreProfiles/4.0.1/StructureDefinition/at-core-ext-valueset-systemoid|urn:oid:1.2.40.0.34.4.16.1|oid";"";""
"https://termgit.elga.gv.at/CodeSystem/eimpf-impfstoffe";"2.34.0+20250122";"5506359";"COMIRNATY COV19 INJ30   10x6";"http://hl7.at/fhir/HL7ATCoreProfiles/4.0.1/StructureDefinition/at-core-ext-valueset-systemoid|urn:oid:1.2.40.0.34.4.16.1|oid";"";""
"https://termgit.elga.gv.at/CodeSystem/eimpf-impfstoffe";"2.34.0+20250122";"5506431";"VALNEVA COV19          10x10";"http://hl7.at/fhir/HL7ATCoreProfiles/4.0.1/StructureDefinition/at-core-ext-valueset-systemoid|urn:oid:1.2.40.0.34.4.16.1|oid";"";""
"https://termgit.elga.gv.at/CodeSystem/eimpf-impfstoffe";"2.34.0+20250122";"5506448";"COMIRNATY COV19 KONZ10 10x10";"http://hl7.at/fhir/HL7ATCoreProfiles/4.0.1/StructureDefinition/at-core-ext-valueset-systemoid|urn:oid:1.2.40.0.34.4.16.1|oid";"";""
"https://termgit.elga.gv.at/CodeSystem/eimpf-impfstoffe";"2.34.0+20250122";"5506945";"VAXELIS IJSUS FSPR 0,5ML";"http://hl7.at/fhir/HL7ATCoreProfiles/4.0.1/StructureDefinition/at-core-ext-valueset-systemoid|urn:oid:1.2.40.0.34.4.16.1|oid";"";""
"https://termgit.elga.gv.at/CodeSystem/eimpf-impfstoffe";"2.34.0+20250122";"5508341";"APEXXNAR IJSUS FSPR 0,5ML+ND";"http://hl7.at/fhir/HL7ATCoreProfiles/4.0.1/StructureDefinition/at-core-ext-valueset-systemoid|urn:oid:1.2.40.0.34.4.16.1|oid";"";""
"https://termgit.elga.gv.at/CodeSystem/eimpf-impfstoffe";"2.34.0+20250122";"5509702";"FLUAD TETRA FSPR 0,5ML";"http://hl7.at/fhir/HL7ATCoreProfiles/4.0.1/StructureDefinition/at-core-ext-valueset-systemoid|urn:oid:1.2.40.0.34.4.16.1|oid";"";""
"https://termgit.elga.gv.at/CodeSystem/eimpf-impfstoffe";"2.34.0+20250122";"5511774";"PREVENAR 13 FSPR 0,5ML+N";"http://hl7.at/fhir/HL7ATCoreProfiles/4.0.1/StructureDefinition/at-core-ext-valueset-systemoid|urn:oid:1.2.40.0.34.4.16.1|oid";"";""
"https://termgit.elga.gv.at/CodeSystem/eimpf-impfstoffe";"2.34.0+20250122";"5516820";"COMIRNATY COV19 BA1    195x6";"http://hl7.at/fhir/HL7ATCoreProfiles/4.0.1/StructureDefinition/at-core-ext-valueset-systemoid|urn:oid:1.2.40.0.34.4.16.1|oid";"";""
"https://termgit.elga.gv.at/CodeSystem/eimpf-impfstoffe";"2.34.0+20250122";"5516837";"COMIRNATY COV19 BA1     10x6";"http://hl7.at/fhir/HL7ATCoreProfiles/4.0.1/StructureDefinition/at-core-ext-valueset-systemoid|urn:oid:1.2.40.0.34.4.16.1|oid";"";""
"https://termgit.elga.gv.at/CodeSystem/eimpf-impfstoffe";"2.34.0+20250122";"5516843";"COMIRNATY COV19 BA4/5  195x6";"http://hl7.at/fhir/HL7ATCoreProfiles/4.0.1/StructureDefinition/at-core-ext-valueset-systemoid|urn:oid:1.2.40.0.34.4.16.1|oid";"";""
"https://termgit.elga.gv.at/CodeSystem/eimpf-impfstoffe";"2.34.0+20250122";"5516866";"COMIRNATY COV19 BA4/5   10x6";"http://hl7.at/fhir/HL7ATCoreProfiles/4.0.1/StructureDefinition/at-core-ext-valueset-systemoid|urn:oid:1.2.40.0.34.4.16.1|oid";"";""
"https://termgit.elga.gv.at/CodeSystem/eimpf-impfstoffe";"2.34.0+20250122";"5517245";"SPIKEVAX COV19 BA1      10x5";"http://hl7.at/fhir/HL7ATCoreProfiles/4.0.1/StructureDefinition/at-core-ext-valueset-systemoid|urn:oid:1.2.40.0.34.4.16.1|oid";"";""
"https://termgit.elga.gv.at/CodeSystem/eimpf-impfstoffe";"2.34.0+20250122";"5611903";"NUVAXOVID COV19         1x10";"http://hl7.at/fhir/HL7ATCoreProfiles/4.0.1/StructureDefinition/at-core-ext-valueset-systemoid|urn:oid:1.2.40.0.34.4.16.1|oid";"";""
"https://termgit.elga.gv.at/CodeSystem/eimpf-impfstoffe";"2.34.0+20250122";"AUSL_000001";"COVID-19-Impfstoff CVnCoV (CureVac)";"http://hl7.at/fhir/HL7ATCoreProfiles/4.0.1/StructureDefinition/at-core-ext-valueset-systemoid|urn:oid:1.2.40.0.34.4.16.1|oid";"";""
"https://termgit.elga.gv.at/CodeSystem/eimpf-impfstoffe";"2.34.0+20250122";"AUSL_000002";"COVID-19-Impfstoff NVX-CoV2373 (Novavax)";"http://hl7.at/fhir/HL7ATCoreProfiles/4.0.1/StructureDefinition/at-core-ext-valueset-systemoid|urn:oid:1.2.40.0.34.4.16.1|oid";"|https://termgit.elga.gv.at/CodeSystem/austrian-designation-use^^hinweise^hinweise^|DEPRECATED";"True"
"https://termgit.elga.gv.at/CodeSystem/eimpf-impfstoffe";"2.34.0+20250122";"AUSL_000003";"COVID-19-Impfstoff Sputnik-V (Gamaleya)";"http://hl7.at/fhir/HL7ATCoreProfiles/4.0.1/StructureDefinition/at-core-ext-valueset-systemoid|urn:oid:1.2.40.0.34.4.16.1|oid";"";""
"https://termgit.elga.gv.at/CodeSystem/eimpf-impfstoffe";"2.34.0+20250122";"AUSL_000004";"COVID-19-Impfstoff Convidecia (CanSino Biologics)";"http://hl7.at/fhir/HL7ATCoreProfiles/4.0.1/StructureDefinition/at-core-ext-valueset-systemoid|urn:oid:1.2.40.0.34.4.16.1|oid";"";""
"https://termgit.elga.gv.at/CodeSystem/eimpf-impfstoffe";"2.34.0+20250122";"AUSL_000005";"COVID-19-Impfstoff EpiVacCorona (Vektor-Institut)";"http://hl7.at/fhir/HL7ATCoreProfiles/4.0.1/StructureDefinition/at-core-ext-valueset-systemoid|urn:oid:1.2.40.0.34.4.16.1|oid";"";""
"https://termgit.elga.gv.at/CodeSystem/eimpf-impfstoffe";"2.34.0+20250122";"AUSL_000006";"COVID-19-Impfstoff BBIBP-CorV (Sinopharm)";"http://hl7.at/fhir/HL7ATCoreProfiles/4.0.1/StructureDefinition/at-core-ext-valueset-systemoid|urn:oid:1.2.40.0.34.4.16.1|oid";"";""
"https://termgit.elga.gv.at/CodeSystem/eimpf-impfstoffe";"2.34.0+20250122";"AUSL_000007";"COVID-19-Impfstoff Inactivated-SARS-CoV-2-Vero-Cell";"http://hl7.at/fhir/HL7ATCoreProfiles/4.0.1/StructureDefinition/at-core-ext-valueset-systemoid|urn:oid:1.2.40.0.34.4.16.1|oid";"|https://termgit.elga.gv.at/CodeSystem/austrian-designation-use^^hinweise^hinweise^|DEPRECATED";"True"
"https://termgit.elga.gv.at/CodeSystem/eimpf-impfstoffe";"2.34.0+20250122";"AUSL_000008";"COVID-19-Impfstoff CoronaVac (Sinovac Biotech)";"http://hl7.at/fhir/HL7ATCoreProfiles/4.0.1/StructureDefinition/at-core-ext-valueset-systemoid|urn:oid:1.2.40.0.34.4.16.1|oid";"";""
"https://termgit.elga.gv.at/CodeSystem/eimpf-impfstoffe";"2.34.0+20250122";"AUSL_000009";"COVID-19-Impfstoff Covaxin (Bharat Biotech)";"http://hl7.at/fhir/HL7ATCoreProfiles/4.0.1/StructureDefinition/at-core-ext-valueset-systemoid|urn:oid:1.2.40.0.34.4.16.1|oid";"";""
"https://termgit.elga.gv.at/CodeSystem/eimpf-impfstoffe";"2.34.0+20250122";"AUSL_000010";"COVID-19-Impfstoff Covishield (Serum Institute of India)";"http://hl7.at/fhir/HL7ATCoreProfiles/4.0.1/StructureDefinition/at-core-ext-valueset-systemoid|urn:oid:1.2.40.0.34.4.16.1|oid";"";""
"https://termgit.elga.gv.at/CodeSystem/eimpf-impfstoffe";"2.34.0+20250122";"AUSL_000011";"COVID-19-Impfstoff Covid-19 (recombinant) (Fiocruz)";"http://hl7.at/fhir/HL7ATCoreProfiles/4.0.1/StructureDefinition/at-core-ext-valueset-systemoid|urn:oid:1.2.40.0.34.4.16.1|oid";"";""
"https://termgit.elga.gv.at/CodeSystem/eimpf-impfstoffe";"2.34.0+20250122";"AUSL_000012";"COVID-19-Impfstoff R-COVI (R-Pharm CJSC)";"http://hl7.at/fhir/HL7ATCoreProfiles/4.0.1/StructureDefinition/at-core-ext-valueset-systemoid|urn:oid:1.2.40.0.34.4.16.1|oid";"";""
"https://termgit.elga.gv.at/CodeSystem/eimpf-impfstoffe";"2.34.0+20250122";"AUSL_000013";"COVID-19-Impfstoff CoviVac (Chumakov-Federal-Scientific-Center)";"http://hl7.at/fhir/HL7ATCoreProfiles/4.0.1/StructureDefinition/at-core-ext-valueset-systemoid|urn:oid:1.2.40.0.34.4.16.1|oid";"";""
"https://termgit.elga.gv.at/CodeSystem/eimpf-impfstoffe";"2.34.0+20250122";"AUSL_000014";"COVID-19-Impfstoff Sputnik-Light (Gamaleya)";"http://hl7.at/fhir/HL7ATCoreProfiles/4.0.1/StructureDefinition/at-core-ext-valueset-systemoid|urn:oid:1.2.40.0.34.4.16.1|oid";"";""
"https://termgit.elga.gv.at/CodeSystem/eimpf-impfstoffe";"2.34.0+20250122";"AUSL_000015";"COVID-19-Impfstoff Hayat-Vax (Gulf Pharmaceutical Industries)";"http://hl7.at/fhir/HL7ATCoreProfiles/4.0.1/StructureDefinition/at-core-ext-valueset-systemoid|urn:oid:1.2.40.0.34.4.16.1|oid";"";""
"https://termgit.elga.gv.at/CodeSystem/eimpf-impfstoffe";"2.34.0+20250122";"AUSL_000016";"COVID-19-Impfstoff Abdala (Center for Genetic Engineering and Biotechnology)";"http://hl7.at/fhir/HL7ATCoreProfiles/4.0.1/StructureDefinition/at-core-ext-valueset-systemoid|urn:oid:1.2.40.0.34.4.16.1|oid";"";""
"https://termgit.elga.gv.at/CodeSystem/eimpf-impfstoffe";"2.34.0+20250122";"AUSL_000017";"COVID-19-Impfstoff WIBP-CorV (Sinopharm - Wuhan Institute of Biological Products)";"http://hl7.at/fhir/HL7ATCoreProfiles/4.0.1/StructureDefinition/at-core-ext-valueset-systemoid|urn:oid:1.2.40.0.34.4.16.1|oid";"";""
"https://termgit.elga.gv.at/CodeSystem/eimpf-impfstoffe";"2.34.0+20250122";"AUSL_000018";"COVID-19-Impfstoff MVC COVID-19 vaccine (Medigen Vaccine Biologics Corporation)";"http://hl7.at/fhir/HL7ATCoreProfiles/4.0.1/StructureDefinition/at-core-ext-valueset-systemoid|urn:oid:1.2.40.0.34.4.16.1|oid";"";""
"https://termgit.elga.gv.at/CodeSystem/eimpf-impfstoffe";"2.34.0+20250122";"AUSL_000019";"COVID-19-Impfstoff Covovax (Serum Institute Of India Private Limited)";"http://hl7.at/fhir/HL7ATCoreProfiles/4.0.1/StructureDefinition/at-core-ext-valueset-systemoid|urn:oid:1.2.40.0.34.4.16.1|oid";"";""
"https://termgit.elga.gv.at/CodeSystem/eimpf-impfstoffe";"2.34.0+20250122";"AUSL_000020";"COVID-19-Impfstoff Vidprevtyn (Sanofi Pasteur)";"http://hl7.at/fhir/HL7ATCoreProfiles/4.0.1/StructureDefinition/at-core-ext-valueset-systemoid|urn:oid:1.2.40.0.34.4.16.1|oid";"|https://termgit.elga.gv.at/CodeSystem/austrian-designation-use^^hinweise^hinweise^|DEPRECATED";"True"
"https://termgit.elga.gv.at/CodeSystem/eimpf-impfstoffe";"2.34.0+20250122";"AUSL_000021";"COVID-19-Impfstoff VLA2001 (Valneva France)";"http://hl7.at/fhir/HL7ATCoreProfiles/4.0.1/StructureDefinition/at-core-ext-valueset-systemoid|urn:oid:1.2.40.0.34.4.16.1|oid";"|https://termgit.elga.gv.at/CodeSystem/austrian-designation-use^^hinweise^hinweise^|DEPRECATED";"True"
"https://termgit.elga.gv.at/CodeSystem/eimpf-impfstoffe";"2.34.0+20250122";"AUSL_000022";"COVID-19-Impfstoff EpiVacCorona-N (Vector Institute)";"http://hl7.at/fhir/HL7ATCoreProfiles/4.0.1/StructureDefinition/at-core-ext-valueset-systemoid|urn:oid:1.2.40.0.34.4.16.1|oid";"";""
"https://termgit.elga.gv.at/CodeSystem/eimpf-impfstoffe";"2.34.0+20250122";"AUSL_000023";"COVID-19-Impfstoff Sputnik-M (Gamaleya Research Institute)";"http://hl7.at/fhir/HL7ATCoreProfiles/4.0.1/StructureDefinition/at-core-ext-valueset-systemoid|urn:oid:1.2.40.0.34.4.16.1|oid";"";""
"https://termgit.elga.gv.at/CodeSystem/eimpf-impfstoffe";"2.34.0+20250122";"AUSL_000024";"COVID-19-Impfstoff Vacina adsorvida covid-19 (inativada) (Instituto Butantan)";"http://hl7.at/fhir/HL7ATCoreProfiles/4.0.1/StructureDefinition/at-core-ext-valueset-systemoid|urn:oid:1.2.40.0.34.4.16.1|oid";"";""
"https://termgit.elga.gv.at/CodeSystem/eimpf-impfstoffe";"2.34.0+20250122";"AUSL_000025";"COVID-19-Impfstoff NVSI-06-08 (National Vaccine and Serum Institute, China)";"http://hl7.at/fhir/HL7ATCoreProfiles/4.0.1/StructureDefinition/at-core-ext-valueset-systemoid|urn:oid:1.2.40.0.34.4.16.1|oid";"";""
"https://termgit.elga.gv.at/CodeSystem/eimpf-impfstoffe";"2.34.0+20250122";"AUSL_000026";"COVID-19-Impfstoff YS-SC2-010 (Yisheng Biopharma)";"http://hl7.at/fhir/HL7ATCoreProfiles/4.0.1/StructureDefinition/at-core-ext-valueset-systemoid|urn:oid:1.2.40.0.34.4.16.1|oid";"";""
"https://termgit.elga.gv.at/CodeSystem/eimpf-impfstoffe";"2.34.0+20250122";"AUSL_000027";"COVID-19-Impfstoff SCTV01C (Sinocelltech Ltd.)";"http://hl7.at/fhir/HL7ATCoreProfiles/4.0.1/StructureDefinition/at-core-ext-valueset-systemoid|urn:oid:1.2.40.0.34.4.16.1|oid";"";""
"https://termgit.elga.gv.at/CodeSystem/eimpf-impfstoffe";"2.34.0+20250122";"AUSL_000028";"COVID-19-Impfstoff Covifenz (Medicago Inc.)";"http://hl7.at/fhir/HL7ATCoreProfiles/4.0.1/StructureDefinition/at-core-ext-valueset-systemoid|urn:oid:1.2.40.0.34.4.16.1|oid";"";""
"https://termgit.elga.gv.at/CodeSystem/eimpf-impfstoffe";"2.34.0+20250122";"AUSL_000029";"COVID-19-Impfstoff AZD2816 (AstraZeneca AB)";"http://hl7.at/fhir/HL7ATCoreProfiles/4.0.1/StructureDefinition/at-core-ext-valueset-systemoid|urn:oid:1.2.40.0.34.4.16.1|oid";"";""
"https://termgit.elga.gv.at/CodeSystem/eimpf-impfstoffe";"2.34.0+20250122";"AUSL_000030";"COVID-19-Impfstoff Soberana 02 (Finlay-Institute)";"http://hl7.at/fhir/HL7ATCoreProfiles/4.0.1/StructureDefinition/at-core-ext-valueset-systemoid|urn:oid:1.2.40.0.34.4.16.1|oid";"";""
"https://termgit.elga.gv.at/CodeSystem/eimpf-impfstoffe";"2.34.0+20250122";"AUSL_000031";"COVID-19-Impfstoff Soberana Plus (Finlay-Institute)";"http://hl7.at/fhir/HL7ATCoreProfiles/4.0.1/StructureDefinition/at-core-ext-valueset-systemoid|urn:oid:1.2.40.0.34.4.16.1|oid";"";""
"https://termgit.elga.gv.at/CodeSystem/eimpf-impfstoffe";"2.34.0+20250122";"AWEG_000001";"FLUZONE/EFLUELDA 10St";"http://hl7.at/fhir/HL7ATCoreProfiles/4.0.1/StructureDefinition/at-core-ext-valueset-systemoid|urn:oid:1.2.40.0.34.4.16.1|oid";"";""
"https://termgit.elga.gv.at/CodeSystem/eimpf-impfstoffe";"2.34.0+20250122";"AWEG_000002";"QUADRIVALENT INFLUENZA SANOFI 1ST";"http://hl7.at/fhir/HL7ATCoreProfiles/4.0.1/StructureDefinition/at-core-ext-valueset-systemoid|urn:oid:1.2.40.0.34.4.16.1|oid";"";""
"https://termgit.elga.gv.at/CodeSystem/eimpf-impfstoffe";"2.34.0+20250122";"AWEG_000003";"INFLUSPLIT TETRA 1ST";"http://hl7.at/fhir/HL7ATCoreProfiles/4.0.1/StructureDefinition/at-core-ext-valueset-systemoid|urn:oid:1.2.40.0.34.4.16.1|oid";"";""
"https://termgit.elga.gv.at/CodeSystem/eimpf-impfstoffe";"2.34.0+20250122";"AWEG_000004";"JYNNEOS 20ST";"http://hl7.at/fhir/HL7ATCoreProfiles/4.0.1/StructureDefinition/at-core-ext-valueset-systemoid|urn:oid:1.2.40.0.34.4.16.1|oid";"";""
"https://termgit.elga.gv.at/CodeSystem/eimpf-impfstoffe";"2.34.0+20250122";"AWEG_000005";"IMVANEX 20ST";"http://hl7.at/fhir/HL7ATCoreProfiles/4.0.1/StructureDefinition/at-core-ext-valueset-systemoid|urn:oid:1.2.40.0.34.4.16.1|oid";"";""
"https://termgit.elga.gv.at/CodeSystem/eimpf-impfstoffe";"2.34.0+20250122";"5517831";"SPIKEVAX COV19 BA1 FSPR 10x1";"http://hl7.at/fhir/HL7ATCoreProfiles/4.0.1/StructureDefinition/at-core-ext-valueset-systemoid|urn:oid:1.2.40.0.34.4.16.1|oid";"";""
"https://termgit.elga.gv.at/CodeSystem/eimpf-impfstoffe";"2.34.0+20250122";"5517825";"SPIKEVAX COV19 BA1      10x1";"http://hl7.at/fhir/HL7ATCoreProfiles/4.0.1/StructureDefinition/at-core-ext-valueset-systemoid|urn:oid:1.2.40.0.34.4.16.1|oid";"";""
"https://termgit.elga.gv.at/CodeSystem/eimpf-impfstoffe";"2.34.0+20250122";"5517015";"COMIRNATY KO5/5 BA4/5  10x10";"http://hl7.at/fhir/HL7ATCoreProfiles/4.0.1/StructureDefinition/at-core-ext-valueset-systemoid|urn:oid:1.2.40.0.34.4.16.1|oid";"";""
"https://termgit.elga.gv.at/CodeSystem/eimpf-impfstoffe";"2.34.0+20250122";"5516984";"COMIRNATY KO3          10x10";"http://hl7.at/fhir/HL7ATCoreProfiles/4.0.1/StructureDefinition/at-core-ext-valueset-systemoid|urn:oid:1.2.40.0.34.4.16.1|oid";"";""
"https://termgit.elga.gv.at/CodeSystem/eimpf-impfstoffe";"2.34.0+20250122";"5516990";"COMIRNATY KO1,5/1,5    10x10";"http://hl7.at/fhir/HL7ATCoreProfiles/4.0.1/StructureDefinition/at-core-ext-valueset-systemoid|urn:oid:1.2.40.0.34.4.16.1|oid";"";""
"https://termgit.elga.gv.at/CodeSystem/eimpf-impfstoffe";"2.34.0+20250122";"5517908";"VIDPREVTYN COV19       10x10";"http://hl7.at/fhir/HL7ATCoreProfiles/4.0.1/StructureDefinition/at-core-ext-valueset-systemoid|urn:oid:1.2.40.0.34.4.16.1|oid";"";""
"https://termgit.elga.gv.at/CodeSystem/eimpf-impfstoffe";"2.34.0+20250122";"5518730";"SPIKEVAX COV19 BA4/5    10x5";"http://hl7.at/fhir/HL7ATCoreProfiles/4.0.1/StructureDefinition/at-core-ext-valueset-systemoid|urn:oid:1.2.40.0.34.4.16.1|oid";"";""
"https://termgit.elga.gv.at/CodeSystem/eimpf-impfstoffe";"2.34.0+20250122";"4977737";"RABIPUR BN  PLV+LSM INJ FSPR";"http://hl7.at/fhir/HL7ATCoreProfiles/4.0.1/StructureDefinition/at-core-ext-valueset-systemoid|urn:oid:1.2.40.0.34.4.16.1|oid";"";""
"https://termgit.elga.gv.at/CodeSystem/eimpf-impfstoffe";"2.34.0+20250122";"5520483";"SPIKEVAX COV19 BA4/5    10x1";"http://hl7.at/fhir/HL7ATCoreProfiles/4.0.1/StructureDefinition/at-core-ext-valueset-systemoid|urn:oid:1.2.40.0.34.4.16.1|oid";"";""
"https://termgit.elga.gv.at/CodeSystem/eimpf-impfstoffe";"2.34.0+20250122";"5518670";"QDENGA PLV+LSM IJLSG FSPR+ND";"http://hl7.at/fhir/HL7ATCoreProfiles/4.0.1/StructureDefinition/at-core-ext-valueset-systemoid|urn:oid:1.2.40.0.34.4.16.1|oid";"";""
"https://termgit.elga.gv.at/CodeSystem/eimpf-impfstoffe";"2.34.0+20250122";"5525380";"AREXVY PLV+SUSP IJSUS DFL";"http://hl7.at/fhir/HL7ATCoreProfiles/4.0.1/StructureDefinition/at-core-ext-valueset-systemoid|urn:oid:1.2.40.0.34.4.16.1|oid";"";""
"https://termgit.elga.gv.at/CodeSystem/eimpf-impfstoffe";"2.34.0+20250122";"5801354";"IAA FLUENZ TETRA NA-SPRAY";"http://hl7.at/fhir/HL7ATCoreProfiles/4.0.1/StructureDefinition/at-core-ext-valueset-systemoid|urn:oid:1.2.40.0.34.4.16.1|oid";"";""
"https://termgit.elga.gv.at/CodeSystem/eimpf-impfstoffe";"2.34.0+20250122";"5801437";"IAA FLUAD TETRA FSPR 0,5ML";"http://hl7.at/fhir/HL7ATCoreProfiles/4.0.1/StructureDefinition/at-core-ext-valueset-systemoid|urn:oid:1.2.40.0.34.4.16.1|oid";"";""
"https://termgit.elga.gv.at/CodeSystem/eimpf-impfstoffe";"2.34.0+20250122";"5801472";"IAA VAXIGRIP TETRA FSPR O.K";"http://hl7.at/fhir/HL7ATCoreProfiles/4.0.1/StructureDefinition/at-core-ext-valueset-systemoid|urn:oid:1.2.40.0.34.4.16.1|oid";"";""
"https://termgit.elga.gv.at/CodeSystem/eimpf-impfstoffe";"2.34.0+20250122";"5801495";"IAA FLUARIX TETRA FSPR +2ND";"http://hl7.at/fhir/HL7ATCoreProfiles/4.0.1/StructureDefinition/at-core-ext-valueset-systemoid|urn:oid:1.2.40.0.34.4.16.1|oid";"";""
"https://termgit.elga.gv.at/CodeSystem/eimpf-impfstoffe";"2.34.0+20250122";"5528243";"COMIRNATY XBB.1.5 INJ10 10x6";"http://hl7.at/fhir/HL7ATCoreProfiles/4.0.1/StructureDefinition/at-core-ext-valueset-systemoid|urn:oid:1.2.40.0.34.4.16.1|oid";"";""
"https://termgit.elga.gv.at/CodeSystem/eimpf-impfstoffe";"2.34.0+20250122";"5528289";"COMIRNATY XBB.1.5 KO3  10x10";"http://hl7.at/fhir/HL7ATCoreProfiles/4.0.1/StructureDefinition/at-core-ext-valueset-systemoid|urn:oid:1.2.40.0.34.4.16.1|oid";"";""
"https://termgit.elga.gv.at/CodeSystem/eimpf-impfstoffe";"2.34.0+20250122";"5527775";"COMIRNATY XBB.1.5 INJ30 10x6";"http://hl7.at/fhir/HL7ATCoreProfiles/4.0.1/StructureDefinition/at-core-ext-valueset-systemoid|urn:oid:1.2.40.0.34.4.16.1|oid";"";""
"https://termgit.elga.gv.at/CodeSystem/eimpf-impfstoffe";"2.34.0+20250122";"5525687";"ABRYSVO IJLSG PLV+LSM DFL";"http://hl7.at/fhir/HL7ATCoreProfiles/4.0.1/StructureDefinition/at-core-ext-valueset-systemoid|urn:oid:1.2.40.0.34.4.16.1|oid";"";""
"https://termgit.elga.gv.at/CodeSystem/eimpf-impfstoffe";"2.34.0+20250122";"5526847";"NUVAXOVID XBB.1.5 INJ    2x5";"http://hl7.at/fhir/HL7ATCoreProfiles/4.0.1/StructureDefinition/at-core-ext-valueset-systemoid|urn:oid:1.2.40.0.34.4.16.1|oid";"";""
"https://termgit.elga.gv.at/CodeSystem/eimpf-impfstoffe";"2.34.0+20250122";"5526391";"SPIKEVAX XBB.1.5 INJ50   1x1";"http://hl7.at/fhir/HL7ATCoreProfiles/4.0.1/StructureDefinition/at-core-ext-valueset-systemoid|urn:oid:1.2.40.0.34.4.16.1|oid";"";""
"https://termgit.elga.gv.at/CodeSystem/eimpf-impfstoffe";"2.34.0+20250122";"5523808";"VERORAB PLV+LSM IJSUS 0,5ML";"http://hl7.at/fhir/HL7ATCoreProfiles/4.0.1/StructureDefinition/at-core-ext-valueset-systemoid|urn:oid:1.2.40.0.34.4.16.1|oid";"";""
"https://termgit.elga.gv.at/CodeSystem/eimpf-impfstoffe";"2.34.0+20250122";"5534491";"INFLUVAC TETRA FSPR0,5ML O.K";"http://hl7.at/fhir/HL7ATCoreProfiles/4.0.1/StructureDefinition/at-core-ext-valueset-systemoid|urn:oid:1.2.40.0.34.4.16.1|oid";"";""
"https://termgit.elga.gv.at/CodeSystem/eimpf-impfstoffe";"2.34.0+20250122";"5541924";"COMIRNATY JN.1 INJ10    10x6";"http://hl7.at/fhir/HL7ATCoreProfiles/4.0.1/StructureDefinition/at-core-ext-valueset-systemoid|urn:oid:1.2.40.0.34.4.16.1|oid";"";""
"https://termgit.elga.gv.at/CodeSystem/eimpf-impfstoffe";"2.34.0+20250122";"5541887";"COMIRNATY JN.1 INJ30    10x6";"http://hl7.at/fhir/HL7ATCoreProfiles/4.0.1/StructureDefinition/at-core-ext-valueset-systemoid|urn:oid:1.2.40.0.34.4.16.1|oid";"";""
"https://termgit.elga.gv.at/CodeSystem/eimpf-impfstoffe";"2.34.0+20250122";"5541947";"COMIRNATY JN.1 KO3      10x3";"http://hl7.at/fhir/HL7ATCoreProfiles/4.0.1/StructureDefinition/at-core-ext-valueset-systemoid|urn:oid:1.2.40.0.34.4.16.1|oid";"";""
"https://termgit.elga.gv.at/CodeSystem/eimpf-impfstoffe";"2.34.0+20250122";"5536975";"FLUENZ NA-SPRAY";"http://hl7.at/fhir/HL7ATCoreProfiles/4.0.1/StructureDefinition/at-core-ext-valueset-systemoid|urn:oid:1.2.40.0.34.4.16.1|oid";"";""
"https://termgit.elga.gv.at/CodeSystem/eimpf-impfstoffe";"2.34.0+20250122";"5536969";"FLUENZ NA-SPRAY";"http://hl7.at/fhir/HL7ATCoreProfiles/4.0.1/StructureDefinition/at-core-ext-valueset-systemoid|urn:oid:1.2.40.0.34.4.16.1|oid";"";""
"https://termgit.elga.gv.at/CodeSystem/eimpf-impfstoffe";"2.34.0+20250122";"5520075";"PREVENAR 20 FSPR 0,5ML+ND";"http://hl7.at/fhir/HL7ATCoreProfiles/4.0.1/StructureDefinition/at-core-ext-valueset-systemoid|urn:oid:1.2.40.0.34.4.16.1|oid";"";""
"https://termgit.elga.gv.at/CodeSystem/eimpf-impfstoffe";"2.34.0+20250122";"5534108";"TWINRIX ERW INJ FSPR 1ML";"http://hl7.at/fhir/HL7ATCoreProfiles/4.0.1/StructureDefinition/at-core-ext-valueset-systemoid|urn:oid:1.2.40.0.34.4.16.1|oid";"";""
"https://termgit.elga.gv.at/CodeSystem/eimpf-impfstoffe";"2.34.0+20250122";"6051323";"COMIRNATY KP.2 INJ10    10x6";"http://hl7.at/fhir/HL7ATCoreProfiles/4.0.1/StructureDefinition/at-core-ext-valueset-systemoid|urn:oid:1.2.40.0.34.4.16.1|oid";"";""
"https://termgit.elga.gv.at/CodeSystem/eimpf-impfstoffe";"2.34.0+20250122";"6051317";"COMIRNATY KP.2 INJ30    10x6";"http://hl7.at/fhir/HL7ATCoreProfiles/4.0.1/StructureDefinition/at-core-ext-valueset-systemoid|urn:oid:1.2.40.0.34.4.16.1|oid";"";""
"https://termgit.elga.gv.at/CodeSystem/eimpf-impfstoffe";"2.34.0+20250122";"6051346";"COMIRNATY KP.2 KO3      10x3";"http://hl7.at/fhir/HL7ATCoreProfiles/4.0.1/StructureDefinition/at-core-ext-valueset-systemoid|urn:oid:1.2.40.0.34.4.16.1|oid";"";""
"https://termgit.elga.gv.at/CodeSystem/eimpf-impfstoffe";"2.34.0+20250122";"5519126";"BEYFORTUS FSP 100MG/1ML  O.K";"http://hl7.at/fhir/HL7ATCoreProfiles/4.0.1/StructureDefinition/at-core-ext-valueset-systemoid|urn:oid:1.2.40.0.34.4.16.1|oid";"";""
"https://termgit.elga.gv.at/CodeSystem/eimpf-impfstoffe";"2.34.0+20250122";"5519103";"BEYFORTUS FSP 50MG/0,5ML O.K";"http://hl7.at/fhir/HL7ATCoreProfiles/4.0.1/StructureDefinition/at-core-ext-valueset-systemoid|urn:oid:1.2.40.0.34.4.16.1|oid";"";""
"https://termgit.elga.gv.at/CodeSystem/eimpf-impfstoffe";"2.34.0+20250122";"5540089";"NUVAXOVID JN.1 INJ     10x10";"http://hl7.at/fhir/HL7ATCoreProfiles/4.0.1/StructureDefinition/at-core-ext-valueset-systemoid|urn:oid:1.2.40.0.34.4.16.1|oid";"";""
"https://termgit.elga.gv.at/CodeSystem/eimpf-impfstoffe";"2.34.0+20250122";"5939880";"ZBI ZOONOT IFLU SQR FSP0,5ML";"http://hl7.at/fhir/HL7ATCoreProfiles/4.0.1/StructureDefinition/at-core-ext-valueset-systemoid|urn:oid:1.2.40.0.34.4.16.1|oid";"";""
"https://termgit.elga.gv.at/CodeSystem/eimpf-impfstoffe";"2.34.0+20250122";"5534284";"IXCHIQ INJ PLV+LSM FSP 0,5ML";"http://hl7.at/fhir/HL7ATCoreProfiles/4.0.1/StructureDefinition/at-core-ext-valueset-systemoid|urn:oid:1.2.40.0.34.4.16.1|oid";"";""
"https://termgit.elga.gv.at/CodeSystem/eimpf-impfstoffe";"2.34.0+20250122";"5543308";"DTAP BOOSTER FSPR 0,5ML";"http://hl7.at/fhir/HL7ATCoreProfiles/4.0.1/StructureDefinition/at-core-ext-valueset-systemoid|urn:oid:1.2.40.0.34.4.16.1|oid";"";""
"https://termgit.elga.gv.at/CodeSystem/eimpf-impfstoffe";"2.34.0+20250122";"6050128";"EFLUELDA TRIVA FSP 0,5ML O.K";"http://hl7.at/fhir/HL7ATCoreProfiles/4.0.1/StructureDefinition/at-core-ext-valueset-systemoid|urn:oid:1.2.40.0.34.4.16.1|oid";"";""
"https://termgit.elga.gv.at/CodeSystem/eimpf-impfstoffe";"2.34.0+20250122";"6054586";"FLUAD IJSUS FSPR 0,5ML";"http://hl7.at/fhir/HL7ATCoreProfiles/4.0.1/StructureDefinition/at-core-ext-valueset-systemoid|urn:oid:1.2.40.0.34.4.16.1|oid";"";""
"https://termgit.elga.gv.at/CodeSystem/eimpf-impfstoffe";"2.34.0+20250122";"6052771";"INFLUVAC TRI FSPR 0,5ML O.K.";"http://hl7.at/fhir/HL7ATCoreProfiles/4.0.1/StructureDefinition/at-core-ext-valueset-systemoid|urn:oid:1.2.40.0.34.4.16.1|oid";"";""
"https://termgit.elga.gv.at/CodeSystem/eimpf-impfstoffe";"2.34.0+20250122";"6050111";"VAXIGRIP TRIVL FSP 0,5MLO.K.";"http://hl7.at/fhir/HL7ATCoreProfiles/4.0.1/StructureDefinition/at-core-ext-valueset-systemoid|urn:oid:1.2.40.0.34.4.16.1|oid";"";""
"https://termgit.elga.gv.at/CodeSystem/eimpf-impfstoffe";"2.34.0+20250122";"6054592";"FLUCELVAX IJSUS FSPR 0,5ML";"http://hl7.at/fhir/HL7ATCoreProfiles/4.0.1/StructureDefinition/at-core-ext-valueset-systemoid|urn:oid:1.2.40.0.34.4.16.1|oid";"";""