{
  "resourceType": "ValueSet",
  "id": "elga-anamneselabormikrobiologie",
  "meta": {
    "profile": [
      "http://hl7.at/fhir/HL7ATCoreProfiles/4.0.1/StructureDefinition/at-core-valueset"
    ]
  },
  "url": "https://termgit.elga.gv.at/ValueSet/elga-anamneselabormikrobiologie",
  "identifier": [
    {
      "use": "official",
      "system": "urn:ietf:rfc:3986",
      "value": "urn:oid:1.2.40.0.34.6.0.10.66"
    }
  ],
  "version": "1.1.0+20240325",
  "name": "elga-anamneselabormikrobiologie",
  "title": "ELGA_AnamneseLaborMikrobiologie",
  "status": "active",
  "date": "2024-03-25",
  "description": "**Description:** Patient medical history. Contains information protected by copyright of SNOMED International. Any use of SNOMED CT in Austria requires a valid affiliate license or sublicense. The corresponding license is free of charge, provided that the use only takes place in Austria and fulfills the conditions of the Affiliate License Agreement. Affiliate licenses can be requested directly from the respective NRC via the [Member Licensing and Distribution Service](https://mlds.ihtsdotools.org/#/landing/AT?lang=de) (MLDS).\n\n**Beschreibung:** Aspekte der Krankengeschichte. Enth\u00e4lt durch SNOMED International urheberrechtlich gesch\u00fctzte Information. Jede Verwendung von SNOMED CT in \u00d6sterreich erfordert eine aufrechte Affiliate Lizenz oder eine Sublizenz. Die entsprechende Lizenz ist kostenlos, vorausgesetzt die Verwendung findet nur in \u00d6sterreich statt und erf\u00fcllt die Bedingungen des Affiliate License Agreements. Affiliate Lizenzen k\u00f6nnen \u00fcber das [Mitglieder-Lizenzierungs- und Distributions-Service](https://mlds.ihtsdotools.org/#/landing/AT?lang=de) (MLDS) direkt beim jeweiligen NRC beantragt werden.",
  "compose": {
    "include": [
      {
        "extension": [
          {
            "url": "http://hl7.at/fhir/HL7ATCoreProfiles/4.0.1/StructureDefinition/at-core-ext-valueset-systemoid",
            "valueOid": "urn:oid:2.16.840.1.113883.6.96"
          }
        ],
        "system": "https://termgit.elga.gv.at/CodeSystem/snomed-ct-auszug",
        "version": "1.0.0+20230131",
        "concept": [
          {
            "code": "161663000",
            "display": "History of being a tissue or organ recipient (situation)",
            "designation": [
              {
                "language": "de-AT",
                "value": "Transplantiert"
              }
            ]
          },
          {
            "code": "2631000119108",
            "display": "History of bone marrow transplant (situation)",
            "designation": [
              {
                "language": "de-AT",
                "value": "Knochenmarkstransplantation"
              }
            ]
          },
          {
            "code": "266709005",
            "display": "Medication commenced (situation)",
            "designation": [
              {
                "language": "de-AT",
                "value": "Medikation begonnen"
              }
            ]
          },
          {
            "code": "281789004",
            "display": "Antibiotic therapy (procedure)",
            "designation": [
              {
                "language": "de-AT",
                "value": "Antibiotikatherapie"
              }
            ]
          },
          {
            "code": "308540004",
            "display": "Inpatient stay (finding)",
            "designation": [
              {
                "language": "de-AT",
                "value": "Patient hospitalisiert"
              }
            ]
          },
          {
            "code": "31822004",
            "display": "Urethritis (disorder)",
            "designation": [
              {
                "language": "de-AT",
                "value": "Urethritis"
              }
            ]
          },
          {
            "code": "370391006",
            "display": "Patient immunosuppressed (finding)",
            "designation": [
              {
                "language": "de-AT",
                "value": "Patient immunsupprimiert"
              }
            ]
          },
          {
            "code": "408678008",
            "display": "Healthcare associated infectious disease (disorder)",
            "designation": [
              {
                "language": "de-AT",
                "value": "Nosokomiale Infektion"
              }
            ]
          },
          {
            "code": "431309003",
            "display": "Acute urinary tract infection (disorder)",
            "designation": [
              {
                "language": "de-AT",
                "value": "akuter Harnwegsinfekt"
              }
            ]
          },
          {
            "code": "441547007",
            "display": "History of chronic urinary tract infection (situation)",
            "designation": [
              {
                "language": "de-AT",
                "value": "rezidivierender oder chronischer HWI"
              }
            ]
          },
          {
            "code": "49191000119102",
            "display": "History of neutropenia (situation)",
            "designation": [
              {
                "language": "de-AT",
                "value": "Neutropenie"
              }
            ]
          },
          {
            "code": "77386006",
            "display": "Pregnant (finding)",
            "designation": [
              {
                "language": "de-AT",
                "value": "Schwangerschaft"
              }
            ]
          }
        ]
      }
    ]
  },
  "expansion": {
    "timestamp": "2024-03-25T06:36:54+00:00",
    "contains": [
      {
        "extension": [
          {
            "url": "http://hl7.at/fhir/HL7ATCoreProfiles/4.0.1/StructureDefinition/at-core-ext-valueset-systemoid",
            "valueOid": "urn:oid:2.16.840.1.113883.6.96"
          }
        ],
        "system": "https://termgit.elga.gv.at/CodeSystem/snomed-ct-auszug",
        "version": "1.0.0+20230131",
        "code": "161663000",
        "display": "History of being a tissue or organ recipient (situation)",
        "designation": [
          {
            "language": "de-AT",
            "value": "Transplantiert"
          }
        ]
      },
      {
        "extension": [
          {
            "url": "http://hl7.at/fhir/HL7ATCoreProfiles/4.0.1/StructureDefinition/at-core-ext-valueset-systemoid",
            "valueOid": "urn:oid:2.16.840.1.113883.6.96"
          }
        ],
        "system": "https://termgit.elga.gv.at/CodeSystem/snomed-ct-auszug",
        "version": "1.0.0+20230131",
        "code": "2631000119108",
        "display": "History of bone marrow transplant (situation)",
        "designation": [
          {
            "language": "de-AT",
            "value": "Knochenmarkstransplantation"
          }
        ]
      },
      {
        "extension": [
          {
            "url": "http://hl7.at/fhir/HL7ATCoreProfiles/4.0.1/StructureDefinition/at-core-ext-valueset-systemoid",
            "valueOid": "urn:oid:2.16.840.1.113883.6.96"
          }
        ],
        "system": "https://termgit.elga.gv.at/CodeSystem/snomed-ct-auszug",
        "version": "1.0.0+20230131",
        "code": "266709005",
        "display": "Medication commenced (situation)",
        "designation": [
          {
            "language": "de-AT",
            "value": "Medikation begonnen"
          }
        ]
      },
      {
        "extension": [
          {
            "url": "http://hl7.at/fhir/HL7ATCoreProfiles/4.0.1/StructureDefinition/at-core-ext-valueset-systemoid",
            "valueOid": "urn:oid:2.16.840.1.113883.6.96"
          }
        ],
        "system": "https://termgit.elga.gv.at/CodeSystem/snomed-ct-auszug",
        "version": "1.0.0+20230131",
        "code": "281789004",
        "display": "Antibiotic therapy (procedure)",
        "designation": [
          {
            "language": "de-AT",
            "value": "Antibiotikatherapie"
          }
        ]
      },
      {
        "extension": [
          {
            "url": "http://hl7.at/fhir/HL7ATCoreProfiles/4.0.1/StructureDefinition/at-core-ext-valueset-systemoid",
            "valueOid": "urn:oid:2.16.840.1.113883.6.96"
          }
        ],
        "system": "https://termgit.elga.gv.at/CodeSystem/snomed-ct-auszug",
        "version": "1.0.0+20230131",
        "code": "308540004",
        "display": "Inpatient stay (finding)",
        "designation": [
          {
            "language": "de-AT",
            "value": "Patient hospitalisiert"
          }
        ]
      },
      {
        "extension": [
          {
            "url": "http://hl7.at/fhir/HL7ATCoreProfiles/4.0.1/StructureDefinition/at-core-ext-valueset-systemoid",
            "valueOid": "urn:oid:2.16.840.1.113883.6.96"
          }
        ],
        "system": "https://termgit.elga.gv.at/CodeSystem/snomed-ct-auszug",
        "version": "1.0.0+20230131",
        "code": "31822004",
        "display": "Urethritis (disorder)",
        "designation": [
          {
            "language": "de-AT",
            "value": "Urethritis"
          }
        ]
      },
      {
        "extension": [
          {
            "url": "http://hl7.at/fhir/HL7ATCoreProfiles/4.0.1/StructureDefinition/at-core-ext-valueset-systemoid",
            "valueOid": "urn:oid:2.16.840.1.113883.6.96"
          }
        ],
        "system": "https://termgit.elga.gv.at/CodeSystem/snomed-ct-auszug",
        "version": "1.0.0+20230131",
        "code": "370391006",
        "display": "Patient immunosuppressed (finding)",
        "designation": [
          {
            "language": "de-AT",
            "value": "Patient immunsupprimiert"
          }
        ]
      },
      {
        "extension": [
          {
            "url": "http://hl7.at/fhir/HL7ATCoreProfiles/4.0.1/StructureDefinition/at-core-ext-valueset-systemoid",
            "valueOid": "urn:oid:2.16.840.1.113883.6.96"
          }
        ],
        "system": "https://termgit.elga.gv.at/CodeSystem/snomed-ct-auszug",
        "version": "1.0.0+20230131",
        "code": "408678008",
        "display": "Healthcare associated infectious disease (disorder)",
        "designation": [
          {
            "language": "de-AT",
            "value": "Nosokomiale Infektion"
          }
        ]
      },
      {
        "extension": [
          {
            "url": "http://hl7.at/fhir/HL7ATCoreProfiles/4.0.1/StructureDefinition/at-core-ext-valueset-systemoid",
            "valueOid": "urn:oid:2.16.840.1.113883.6.96"
          }
        ],
        "system": "https://termgit.elga.gv.at/CodeSystem/snomed-ct-auszug",
        "version": "1.0.0+20230131",
        "code": "431309003",
        "display": "Acute urinary tract infection (disorder)",
        "designation": [
          {
            "language": "de-AT",
            "value": "akuter Harnwegsinfekt"
          }
        ]
      },
      {
        "extension": [
          {
            "url": "http://hl7.at/fhir/HL7ATCoreProfiles/4.0.1/StructureDefinition/at-core-ext-valueset-systemoid",
            "valueOid": "urn:oid:2.16.840.1.113883.6.96"
          }
        ],
        "system": "https://termgit.elga.gv.at/CodeSystem/snomed-ct-auszug",
        "version": "1.0.0+20230131",
        "code": "441547007",
        "display": "History of chronic urinary tract infection (situation)",
        "designation": [
          {
            "language": "de-AT",
            "value": "rezidivierender oder chronischer HWI"
          }
        ]
      },
      {
        "extension": [
          {
            "url": "http://hl7.at/fhir/HL7ATCoreProfiles/4.0.1/StructureDefinition/at-core-ext-valueset-systemoid",
            "valueOid": "urn:oid:2.16.840.1.113883.6.96"
          }
        ],
        "system": "https://termgit.elga.gv.at/CodeSystem/snomed-ct-auszug",
        "version": "1.0.0+20230131",
        "code": "49191000119102",
        "display": "History of neutropenia (situation)",
        "designation": [
          {
            "language": "de-AT",
            "value": "Neutropenie"
          }
        ]
      },
      {
        "extension": [
          {
            "url": "http://hl7.at/fhir/HL7ATCoreProfiles/4.0.1/StructureDefinition/at-core-ext-valueset-systemoid",
            "valueOid": "urn:oid:2.16.840.1.113883.6.96"
          }
        ],
        "system": "https://termgit.elga.gv.at/CodeSystem/snomed-ct-auszug",
        "version": "1.0.0+20230131",
        "code": "77386006",
        "display": "Pregnant (finding)",
        "designation": [
          {
            "language": "de-AT",
            "value": "Schwangerschaft"
          }
        ]
      }
    ]
  }
}