{
  "resourceType": "ValueSet",
  "id": "elga-problemarten",
  "meta": {
    "profile": [
      "http://hl7.at/fhir/HL7ATCoreProfiles/4.0.1/StructureDefinition/at-core-valueset"
    ]
  },
  "url": "https://termgit.elga.gv.at/ValueSet/elga-problemarten",
  "identifier": [
    {
      "use": "official",
      "system": "urn:ietf:rfc:3986",
      "value": "urn:oid:1.2.40.0.34.10.35"
    }
  ],
  "version": "1.2.0+20240820",
  "name": "elga-problemarten",
  "title": "ELGA_Problemarten",
  "status": "active",
  "date": "2024-08-20",
  "publisher": "ELGA GmbH",
  "contact": [
    {
      "name": "https://www.elga.gv.at",
      "telecom": [
        {
          "system": "url",
          "value": "https://www.elga.gv.at"
        }
      ]
    }
  ],
  "description": "**Description:** Describes the process of establishing a problem, see http://wiki.ihe.net/index.php?title=1.3.6.1.4.1.19376.1.5.3.1.4.5. Contains information protected by copyright of SNOMED International. Any use of SNOMED CT in Austria requires a valid affiliate license or sublicense. The corresponding license is free of charge, provided that the use only takes place in Austria and fulfills the conditions of the Affiliate License Agreement. Affiliate licenses can be requested directly from the respective NRC via the [Member Licensing and Distribution Service](https://mlds.ihtsdotools.org/#/landing/AT?lang=de) (MLDS).\n\n**Beschreibung:** Beschreibt die m\u00f6glichen Problemarten, vgl. http://wiki.ihe.net/index.php?title=1.3.6.1.4.1.19376.1.5.3.1.4.5. Enth\u00e4lt durch SNOMED International urheberrechtlich gesch\u00fctzte Information. Jede Verwendung von SNOMED CT in \u00d6sterreich erfordert eine aufrechte Affiliate Lizenz oder eine Sublizenz. Die entsprechende Lizenz ist kostenlos, vorausgesetzt die Verwendung findet nur in \u00d6sterreich statt und erf\u00fcllt die Bedingungen des Affiliate License Agreements. Affiliate Lizenzen k\u00f6nnen \u00fcber das [Mitglieder-Lizenzierungs- und Distributions-Service](https://mlds.ihtsdotools.org/#/landing/AT?lang=de) (MLDS) direkt beim jeweiligen NRC beantragt werden.",
  "compose": {
    "include": [
      {
        "extension": [
          {
            "url": "http://hl7.at/fhir/HL7ATCoreProfiles/4.0.1/StructureDefinition/at-core-ext-valueset-systemoid",
            "valueOid": "urn:oid:2.16.840.1.113883.6.96"
          }
        ],
        "system": "https://termgit.elga.gv.at/CodeSystem/snomed-ct-auszug",
        "version": "1.0.0+20230131",
        "concept": [
          {
            "code": "160245001",
            "display": "no current problems or disability"
          },
          {
            "code": "248536006",
            "display": "Functional limitation",
            "designation": [
              {
                "language": "de-AT",
                "value": "Funktionellen Einschr\u00e4nkung"
              }
            ]
          },
          {
            "code": "282291009",
            "display": "Diagnosis",
            "designation": [
              {
                "language": "de-AT",
                "value": "Diagnose"
              }
            ]
          },
          {
            "code": "404684003",
            "display": "Finding",
            "designation": [
              {
                "language": "de-AT",
                "value": "Befund"
              }
            ]
          },
          {
            "code": "409586006",
            "display": "Complaint",
            "designation": [
              {
                "language": "de-AT",
                "value": "Beschwerde"
              }
            ]
          },
          {
            "code": "418799008",
            "display": "Symptom"
          },
          {
            "code": "55607006",
            "display": "Problem"
          },
          {
            "code": "64572001",
            "display": "Condition",
            "designation": [
              {
                "language": "de-AT",
                "value": "Zustand"
              }
            ]
          }
        ]
      }
    ]
  },
  "expansion": {
    "timestamp": "2024-09-04T09:10:21+00:00",
    "contains": [
      {
        "extension": [
          {
            "url": "http://hl7.at/fhir/HL7ATCoreProfiles/4.0.1/StructureDefinition/at-core-ext-valueset-systemoid",
            "valueOid": "urn:oid:2.16.840.1.113883.6.96"
          }
        ],
        "system": "https://termgit.elga.gv.at/CodeSystem/snomed-ct-auszug",
        "version": "1.0.0+20230131",
        "code": "160245001",
        "display": "no current problems or disability"
      },
      {
        "extension": [
          {
            "url": "http://hl7.at/fhir/HL7ATCoreProfiles/4.0.1/StructureDefinition/at-core-ext-valueset-systemoid",
            "valueOid": "urn:oid:2.16.840.1.113883.6.96"
          }
        ],
        "system": "https://termgit.elga.gv.at/CodeSystem/snomed-ct-auszug",
        "version": "1.0.0+20230131",
        "code": "248536006",
        "display": "Functional limitation",
        "designation": [
          {
            "language": "de-AT",
            "value": "Funktionellen Einschr\u00e4nkung"
          }
        ]
      },
      {
        "extension": [
          {
            "url": "http://hl7.at/fhir/HL7ATCoreProfiles/4.0.1/StructureDefinition/at-core-ext-valueset-systemoid",
            "valueOid": "urn:oid:2.16.840.1.113883.6.96"
          }
        ],
        "system": "https://termgit.elga.gv.at/CodeSystem/snomed-ct-auszug",
        "version": "1.0.0+20230131",
        "code": "282291009",
        "display": "Diagnosis",
        "designation": [
          {
            "language": "de-AT",
            "value": "Diagnose"
          }
        ]
      },
      {
        "extension": [
          {
            "url": "http://hl7.at/fhir/HL7ATCoreProfiles/4.0.1/StructureDefinition/at-core-ext-valueset-systemoid",
            "valueOid": "urn:oid:2.16.840.1.113883.6.96"
          }
        ],
        "system": "https://termgit.elga.gv.at/CodeSystem/snomed-ct-auszug",
        "version": "1.0.0+20230131",
        "code": "404684003",
        "display": "Finding",
        "designation": [
          {
            "language": "de-AT",
            "value": "Befund"
          }
        ]
      },
      {
        "extension": [
          {
            "url": "http://hl7.at/fhir/HL7ATCoreProfiles/4.0.1/StructureDefinition/at-core-ext-valueset-systemoid",
            "valueOid": "urn:oid:2.16.840.1.113883.6.96"
          }
        ],
        "system": "https://termgit.elga.gv.at/CodeSystem/snomed-ct-auszug",
        "version": "1.0.0+20230131",
        "code": "409586006",
        "display": "Complaint",
        "designation": [
          {
            "language": "de-AT",
            "value": "Beschwerde"
          }
        ]
      },
      {
        "extension": [
          {
            "url": "http://hl7.at/fhir/HL7ATCoreProfiles/4.0.1/StructureDefinition/at-core-ext-valueset-systemoid",
            "valueOid": "urn:oid:2.16.840.1.113883.6.96"
          }
        ],
        "system": "https://termgit.elga.gv.at/CodeSystem/snomed-ct-auszug",
        "version": "1.0.0+20230131",
        "code": "418799008",
        "display": "Symptom"
      },
      {
        "extension": [
          {
            "url": "http://hl7.at/fhir/HL7ATCoreProfiles/4.0.1/StructureDefinition/at-core-ext-valueset-systemoid",
            "valueOid": "urn:oid:2.16.840.1.113883.6.96"
          }
        ],
        "system": "https://termgit.elga.gv.at/CodeSystem/snomed-ct-auszug",
        "version": "1.0.0+20230131",
        "code": "55607006",
        "display": "Problem"
      },
      {
        "extension": [
          {
            "url": "http://hl7.at/fhir/HL7ATCoreProfiles/4.0.1/StructureDefinition/at-core-ext-valueset-systemoid",
            "valueOid": "urn:oid:2.16.840.1.113883.6.96"
          }
        ],
        "system": "https://termgit.elga.gv.at/CodeSystem/snomed-ct-auszug",
        "version": "1.0.0+20230131",
        "code": "64572001",
        "display": "Condition",
        "designation": [
          {
            "language": "de-AT",
            "value": "Zustand"
          }
        ]
      }
    ]
  }
}