"resource";"id";"url";"version";"name";"title";"status";"description";"content";"identifier";"date";"publisher";"contact";"count"
"CodeSystem";"appc-lateralitaet";"https://termgit.elga.gv.at/CodeSystem/appc-lateralitaet";"1.1.0+20240820";"appc-lateralitaet";"APPC_Lateralitaet";"active";"**Description:** Code List for all APPC-Codes for 2nd Axis: Laterality  **Beschreibung:** Code Liste aller Codes der 2. APPC-Achse: Lateralitšt";"complete";"1.2.40.0.34.5.38.2";"2024-08-20";"Bundesfachgruppe Radiologie (BURA)";"http://www.bura.at/|url^http://www.bura.at/^^^^";"6"

"code";"display"
"0";"Lateralitaet unbestimmt"
"1";"rechts"
"2";"links"
"3";"beidseits"
"4";"unpaariges Organ"
"5";"Atypische Situation ( - Transplantat etc.)"