'code';'codeSystem';'displayName';'parentCode';'concept_Beschreibung';'meaning';'hints';'level';'type';'relationships'
'confirmed';'2.16.840.1.113883.4.642.3.115';'bestätigt';;;;;'0';'L';
'refuted';'2.16.840.1.113883.4.642.3.115';'ausgeschlossen';;;;;'0';'L';
'unconfirmed';'2.16.840.1.113883.4.642.3.115';'unbestätigt';;;;;'0';'S';
'differential';'2.16.840.1.113883.4.642.3.115';'alternativ möglich (Differentialdiagnose)';;;;;'1';'L';
'provisional';'2.16.840.1.113883.4.642.3.115';'vorläufig';;;;;'1';'L';
'unknown';'2.16.840.1.113883.4.642.3.115';'unbekannt';;;;;'0';'L';
