'code';'codeSystem';'displayName';'parentCodeSystemName';'concept_Beschreibung';'meaning';'hints';'orderNumber';'level';'type';'relationships';'einheit print';'einheit codiert'
'ABW';'1.0.3166.1.2.3';'Aruba';'https://termgit.elga.gv.at/CodeSystem/iso-3166-1-alpha-3';'';'';'';'1';'0';'L';'';'';''
'AFG';'1.0.3166.1.2.3';'Afghanistan';'https://termgit.elga.gv.at/CodeSystem/iso-3166-1-alpha-3';'';'';'';'2';'0';'L';'';'';''
'AGO';'1.0.3166.1.2.3';'Angola';'https://termgit.elga.gv.at/CodeSystem/iso-3166-1-alpha-3';'';'';'';'3';'0';'L';'';'';''
'AIA';'1.0.3166.1.2.3';'Anguilla';'https://termgit.elga.gv.at/CodeSystem/iso-3166-1-alpha-3';'';'';'';'4';'0';'L';'';'';''
'ALA';'1.0.3166.1.2.3';'Åland';'https://termgit.elga.gv.at/CodeSystem/iso-3166-1-alpha-3';'';'';'';'5';'0';'L';'';'';''
'ALB';'1.0.3166.1.2.3';'Albanien';'https://termgit.elga.gv.at/CodeSystem/iso-3166-1-alpha-3';'';'';'';'6';'0';'L';'';'';''
'AND';'1.0.3166.1.2.3';'Andorra';'https://termgit.elga.gv.at/CodeSystem/iso-3166-1-alpha-3';'';'';'';'7';'0';'L';'';'';''
'ANT';'1.0.3166.1.2.3';'Niederländische Antillen';'https://termgit.elga.gv.at/CodeSystem/iso-3166-1-alpha-3';'';'';'';'8';'0';'L';'';'';''
'ARE';'1.0.3166.1.2.3';'Vereinigte Arabische Emirate';'https://termgit.elga.gv.at/CodeSystem/iso-3166-1-alpha-3';'';'';'';'9';'0';'L';'';'';''
'ARG';'1.0.3166.1.2.3';'Argentinien';'https://termgit.elga.gv.at/CodeSystem/iso-3166-1-alpha-3';'';'';'';'10';'0';'L';'';'';''
'ARM';'1.0.3166.1.2.3';'Armenien';'https://termgit.elga.gv.at/CodeSystem/iso-3166-1-alpha-3';'';'';'';'11';'0';'L';'';'';''
'ASC';'1.0.3166.1.2.3';'Ascension (verwaltet von St. Helena)';'https://termgit.elga.gv.at/CodeSystem/iso-3166-1-alpha-3';'';'';'Nicht offiziell';'12';'0';'L';'';'';''
'ASM';'1.0.3166.1.2.3';'Amerikanisch-Samoa';'https://termgit.elga.gv.at/CodeSystem/iso-3166-1-alpha-3';'';'';'';'13';'0';'L';'';'';''
'ATA';'1.0.3166.1.2.3';'Antarktis (Sonderstatus durch Antarktis-Vertrag)';'https://termgit.elga.gv.at/CodeSystem/iso-3166-1-alpha-3';'';'';'';'14';'0';'L';'';'';''
'ATF';'1.0.3166.1.2.3';'Französische Süd- und Antarktisgebiete';'https://termgit.elga.gv.at/CodeSystem/iso-3166-1-alpha-3';'';'';'';'15';'0';'L';'';'';''
'ATG';'1.0.3166.1.2.3';'Antigua und Barbuda';'https://termgit.elga.gv.at/CodeSystem/iso-3166-1-alpha-3';'';'';'';'16';'0';'L';'';'';''
'AUS';'1.0.3166.1.2.3';'Australien';'https://termgit.elga.gv.at/CodeSystem/iso-3166-1-alpha-3';'';'';'';'17';'0';'L';'';'';''
'AUT';'1.0.3166.1.2.3';'Österreich';'https://termgit.elga.gv.at/CodeSystem/iso-3166-1-alpha-3';'';'';'';'18';'0';'L';'';'';''
'AZE';'1.0.3166.1.2.3';'Aserbaidschan';'https://termgit.elga.gv.at/CodeSystem/iso-3166-1-alpha-3';'';'';'';'19';'0';'L';'';'';''
'BDI';'1.0.3166.1.2.3';'Burundi';'https://termgit.elga.gv.at/CodeSystem/iso-3166-1-alpha-3';'';'';'';'20';'0';'L';'';'';''
'BEL';'1.0.3166.1.2.3';'Belgien';'https://termgit.elga.gv.at/CodeSystem/iso-3166-1-alpha-3';'';'';'';'21';'0';'L';'';'';''
'BEN';'1.0.3166.1.2.3';'Benin';'https://termgit.elga.gv.at/CodeSystem/iso-3166-1-alpha-3';'';'';'';'22';'0';'L';'';'';''
'BES';'1.0.3166.1.2.3';'Bonaire, Sint Eustatius und Saba (Niederlande';'https://termgit.elga.gv.at/CodeSystem/iso-3166-1-alpha-3';'';'';'';'23';'0';'L';'';'';''
'BFA';'1.0.3166.1.2.3';'Burkina Faso';'https://termgit.elga.gv.at/CodeSystem/iso-3166-1-alpha-3';'';'';'';'24';'0';'L';'';'';''
'BGD';'1.0.3166.1.2.3';'Bangladesch';'https://termgit.elga.gv.at/CodeSystem/iso-3166-1-alpha-3';'';'';'';'25';'0';'L';'';'';''
'BGR';'1.0.3166.1.2.3';'Bulgarien';'https://termgit.elga.gv.at/CodeSystem/iso-3166-1-alpha-3';'';'';'';'26';'0';'L';'';'';''
'BHR';'1.0.3166.1.2.3';'Bahrain';'https://termgit.elga.gv.at/CodeSystem/iso-3166-1-alpha-3';'';'';'';'27';'0';'L';'';'';''
'BHS';'1.0.3166.1.2.3';'Bahamas';'https://termgit.elga.gv.at/CodeSystem/iso-3166-1-alpha-3';'';'';'';'28';'0';'L';'';'';''
'BIH';'1.0.3166.1.2.3';'Bosnien und Herzegowina';'https://termgit.elga.gv.at/CodeSystem/iso-3166-1-alpha-3';'';'';'';'29';'0';'L';'';'';''
'BLM';'1.0.3166.1.2.3';'Saint-Barthélemy';'https://termgit.elga.gv.at/CodeSystem/iso-3166-1-alpha-3';'';'';'';'30';'0';'L';'';'';''
'BLR';'1.0.3166.1.2.3';'Belarus (Weißrussland)';'https://termgit.elga.gv.at/CodeSystem/iso-3166-1-alpha-3';'';'';'';'31';'0';'L';'';'';''
'BLZ';'1.0.3166.1.2.3';'Belize';'https://termgit.elga.gv.at/CodeSystem/iso-3166-1-alpha-3';'';'';'';'32';'0';'L';'';'';''
'BMU';'1.0.3166.1.2.3';'Bermuda';'https://termgit.elga.gv.at/CodeSystem/iso-3166-1-alpha-3';'';'';'';'33';'0';'L';'';'';''
'BOL';'1.0.3166.1.2.3';'Bolivien';'https://termgit.elga.gv.at/CodeSystem/iso-3166-1-alpha-3';'';'';'';'34';'0';'L';'';'';''
'BRA';'1.0.3166.1.2.3';'Brasilien';'https://termgit.elga.gv.at/CodeSystem/iso-3166-1-alpha-3';'';'';'';'35';'0';'L';'';'';''
'BRB';'1.0.3166.1.2.3';'Barbados';'https://termgit.elga.gv.at/CodeSystem/iso-3166-1-alpha-3';'';'';'';'36';'0';'L';'';'';''
'BRN';'1.0.3166.1.2.3';'Brunei Darussalam';'https://termgit.elga.gv.at/CodeSystem/iso-3166-1-alpha-3';'';'';'';'37';'0';'L';'';'';''
'BTN';'1.0.3166.1.2.3';'Bhutan';'https://termgit.elga.gv.at/CodeSystem/iso-3166-1-alpha-3';'';'';'';'38';'0';'L';'';'';''
'BUR';'1.0.3166.1.2.3';'Burma (jetzt Myanmar)';'https://termgit.elga.gv.at/CodeSystem/iso-3166-1-alpha-3';'';'';'';'39';'0';'L';'';'';''
'BVT';'1.0.3166.1.2.3';'Bouvetinsel';'https://termgit.elga.gv.at/CodeSystem/iso-3166-1-alpha-3';'';'';'';'40';'0';'L';'';'';''
'BWA';'1.0.3166.1.2.3';'Botsuana';'https://termgit.elga.gv.at/CodeSystem/iso-3166-1-alpha-3';'';'';'';'41';'0';'L';'';'';''
'CAF';'1.0.3166.1.2.3';'Zentralafrikanische Republik';'https://termgit.elga.gv.at/CodeSystem/iso-3166-1-alpha-3';'';'';'';'42';'0';'L';'';'';''
'CAN';'1.0.3166.1.2.3';'Kanada';'https://termgit.elga.gv.at/CodeSystem/iso-3166-1-alpha-3';'';'';'';'43';'0';'L';'';'';''
'CCK';'1.0.3166.1.2.3';'Kokosinseln';'https://termgit.elga.gv.at/CodeSystem/iso-3166-1-alpha-3';'';'';'';'44';'0';'L';'';'';''
'CHE';'1.0.3166.1.2.3';'Schweiz (Confoederatio Helvetica)';'https://termgit.elga.gv.at/CodeSystem/iso-3166-1-alpha-3';'';'';'';'45';'0';'L';'';'';''
'CHL';'1.0.3166.1.2.3';'Chile';'https://termgit.elga.gv.at/CodeSystem/iso-3166-1-alpha-3';'';'';'';'46';'0';'L';'';'';''
'CHN';'1.0.3166.1.2.3';'China';'https://termgit.elga.gv.at/CodeSystem/iso-3166-1-alpha-3';'';'';'';'47';'0';'L';'';'';''
'CIV';'1.0.3166.1.2.3';'Côte d''Ivoire (Elfenbeinküste)';'https://termgit.elga.gv.at/CodeSystem/iso-3166-1-alpha-3';'';'Côte dIvoire (Elfenbeinküste)';'';'48';'0';'L';'';'';''
'CMR';'1.0.3166.1.2.3';'Kamerun';'https://termgit.elga.gv.at/CodeSystem/iso-3166-1-alpha-3';'';'';'';'49';'0';'L';'';'';''
'COD';'1.0.3166.1.2.3';'Kongo';'https://termgit.elga.gv.at/CodeSystem/iso-3166-1-alpha-3';'';'';'';'50';'0';'L';'';'';''
'COG';'1.0.3166.1.2.3';'Republik Kongo';'https://termgit.elga.gv.at/CodeSystem/iso-3166-1-alpha-3';'';'';'';'51';'0';'L';'';'';''
'COK';'1.0.3166.1.2.3';'Cookinseln';'https://termgit.elga.gv.at/CodeSystem/iso-3166-1-alpha-3';'';'';'';'52';'0';'L';'';'';''
'COL';'1.0.3166.1.2.3';'Kolumbien';'https://termgit.elga.gv.at/CodeSystem/iso-3166-1-alpha-3';'';'';'';'53';'0';'L';'';'';''
'COM';'1.0.3166.1.2.3';'Komoren';'https://termgit.elga.gv.at/CodeSystem/iso-3166-1-alpha-3';'';'';'';'54';'0';'L';'';'';''
'CPT';'1.0.3166.1.2.3';'Clipperton (reserviert für ITU)';'https://termgit.elga.gv.at/CodeSystem/iso-3166-1-alpha-3';'';'';'Nicht offiziell';'55';'0';'L';'';'';''
'CPV';'1.0.3166.1.2.3';'Kap Verde';'https://termgit.elga.gv.at/CodeSystem/iso-3166-1-alpha-3';'';'';'';'56';'0';'L';'';'';''
'CRI';'1.0.3166.1.2.3';'Costa Rica';'https://termgit.elga.gv.at/CodeSystem/iso-3166-1-alpha-3';'';'';'';'57';'0';'L';'';'';''
'CSK';'1.0.3166.1.2.3';'Tschechoslowakei (ehemalig)';'https://termgit.elga.gv.at/CodeSystem/iso-3166-1-alpha-3';'';'';'';'58';'0';'L';'';'';''
'CUB';'1.0.3166.1.2.3';'Kuba';'https://termgit.elga.gv.at/CodeSystem/iso-3166-1-alpha-3';'';'';'';'59';'0';'L';'';'';''
'CUW';'1.0.3166.1.2.3';'Curaçao';'https://termgit.elga.gv.at/CodeSystem/iso-3166-1-alpha-3';'';'';'';'60';'0';'L';'';'';''
'CXR';'1.0.3166.1.2.3';'Weihnachtsinsel';'https://termgit.elga.gv.at/CodeSystem/iso-3166-1-alpha-3';'';'';'';'61';'0';'L';'';'';''
'CYM';'1.0.3166.1.2.3';'Kaimaninseln';'https://termgit.elga.gv.at/CodeSystem/iso-3166-1-alpha-3';'';'';'';'62';'0';'L';'';'';''
'CYP';'1.0.3166.1.2.3';'Zypern';'https://termgit.elga.gv.at/CodeSystem/iso-3166-1-alpha-3';'';'';'';'63';'0';'L';'';'';''
'CZE';'1.0.3166.1.2.3';'Tschechische Republik';'https://termgit.elga.gv.at/CodeSystem/iso-3166-1-alpha-3';'';'';'';'64';'0';'L';'';'';''
'DEU';'1.0.3166.1.2.3';'Deutschland';'https://termgit.elga.gv.at/CodeSystem/iso-3166-1-alpha-3';'';'';'';'65';'0';'L';'';'';''
'DGA';'1.0.3166.1.2.3';'Diego Garcia (reserviert für ITU)';'https://termgit.elga.gv.at/CodeSystem/iso-3166-1-alpha-3';'';'';'Nicht offiziell';'66';'0';'L';'';'';''
'DJI';'1.0.3166.1.2.3';'Dschibuti';'https://termgit.elga.gv.at/CodeSystem/iso-3166-1-alpha-3';'';'';'';'67';'0';'L';'';'';''
'DMA';'1.0.3166.1.2.3';'Dominica';'https://termgit.elga.gv.at/CodeSystem/iso-3166-1-alpha-3';'';'';'';'68';'0';'L';'';'';''
'DNK';'1.0.3166.1.2.3';'Dänemark';'https://termgit.elga.gv.at/CodeSystem/iso-3166-1-alpha-3';'';'';'';'69';'0';'L';'';'';''
'DOM';'1.0.3166.1.2.3';'Dominikanische Republik';'https://termgit.elga.gv.at/CodeSystem/iso-3166-1-alpha-3';'';'';'';'70';'0';'L';'';'';''
'DZA';'1.0.3166.1.2.3';'Algerien';'https://termgit.elga.gv.at/CodeSystem/iso-3166-1-alpha-3';'';'';'';'71';'0';'L';'';'';''
'ECU';'1.0.3166.1.2.3';'Ecuador';'https://termgit.elga.gv.at/CodeSystem/iso-3166-1-alpha-3';'';'';'';'72';'0';'L';'';'';''
'EGY';'1.0.3166.1.2.3';'Ägypten';'https://termgit.elga.gv.at/CodeSystem/iso-3166-1-alpha-3';'';'';'';'73';'0';'L';'';'';''
'ERI';'1.0.3166.1.2.3';'Eritrea';'https://termgit.elga.gv.at/CodeSystem/iso-3166-1-alpha-3';'';'';'';'74';'0';'L';'';'';''
'ESH';'1.0.3166.1.2.3';'Westsahara';'https://termgit.elga.gv.at/CodeSystem/iso-3166-1-alpha-3';'';'';'';'75';'0';'L';'';'';''
'ESP';'1.0.3166.1.2.3';'Spanien';'https://termgit.elga.gv.at/CodeSystem/iso-3166-1-alpha-3';'';'';'';'76';'0';'L';'';'';''
'EST';'1.0.3166.1.2.3';'Estland';'https://termgit.elga.gv.at/CodeSystem/iso-3166-1-alpha-3';'';'';'';'77';'0';'L';'';'';''
'ETH';'1.0.3166.1.2.3';'Äthiopien';'https://termgit.elga.gv.at/CodeSystem/iso-3166-1-alpha-3';'';'';'';'78';'0';'L';'';'';''
'FIN';'1.0.3166.1.2.3';'Finnland';'https://termgit.elga.gv.at/CodeSystem/iso-3166-1-alpha-3';'';'';'';'79';'0';'L';'';'';''
'FJI';'1.0.3166.1.2.3';'Fidschi';'https://termgit.elga.gv.at/CodeSystem/iso-3166-1-alpha-3';'';'';'';'80';'0';'L';'';'';''
'FLK';'1.0.3166.1.2.3';'Falklandinseln';'https://termgit.elga.gv.at/CodeSystem/iso-3166-1-alpha-3';'';'';'';'81';'0';'L';'';'';''
'FRA';'1.0.3166.1.2.3';'Frankreich';'https://termgit.elga.gv.at/CodeSystem/iso-3166-1-alpha-3';'';'';'';'82';'0';'L';'';'';''
'FRO';'1.0.3166.1.2.3';'Färöer';'https://termgit.elga.gv.at/CodeSystem/iso-3166-1-alpha-3';'';'';'';'83';'0';'L';'';'';''
'FSM';'1.0.3166.1.2.3';'Mikronesien';'https://termgit.elga.gv.at/CodeSystem/iso-3166-1-alpha-3';'';'';'';'84';'0';'L';'';'';''
'FXX';'1.0.3166.1.2.3';'(europ. Frankreich ohne Übersee-Départements)';'https://termgit.elga.gv.at/CodeSystem/iso-3166-1-alpha-3';'';'';'';'85';'0';'L';'';'';''
'GAB';'1.0.3166.1.2.3';'Gabun';'https://termgit.elga.gv.at/CodeSystem/iso-3166-1-alpha-3';'';'';'';'86';'0';'L';'';'';''
'GBR';'1.0.3166.1.2.3';'Vereinigtes Königreich Großbritannien und Nordirland';'https://termgit.elga.gv.at/CodeSystem/iso-3166-1-alpha-3';'';'';'';'87';'0';'L';'';'';''
'GEO';'1.0.3166.1.2.3';'Georgien';'https://termgit.elga.gv.at/CodeSystem/iso-3166-1-alpha-3';'';'';'';'88';'0';'L';'';'';''
'GGY';'1.0.3166.1.2.3';'Guernsey (Kanalinsel)';'https://termgit.elga.gv.at/CodeSystem/iso-3166-1-alpha-3';'';'';'';'89';'0';'L';'';'';''
'GHA';'1.0.3166.1.2.3';'Ghana';'https://termgit.elga.gv.at/CodeSystem/iso-3166-1-alpha-3';'';'';'';'90';'0';'L';'';'';''
'GIB';'1.0.3166.1.2.3';'Gibraltar';'https://termgit.elga.gv.at/CodeSystem/iso-3166-1-alpha-3';'';'';'';'91';'0';'L';'';'';''
'GIN';'1.0.3166.1.2.3';'Guinea';'https://termgit.elga.gv.at/CodeSystem/iso-3166-1-alpha-3';'';'';'';'92';'0';'L';'';'';''
'GLP';'1.0.3166.1.2.3';'Guadeloupe';'https://termgit.elga.gv.at/CodeSystem/iso-3166-1-alpha-3';'';'';'';'93';'0';'L';'';'';''
'GMB';'1.0.3166.1.2.3';'Gambia';'https://termgit.elga.gv.at/CodeSystem/iso-3166-1-alpha-3';'';'';'';'94';'0';'L';'';'';''
'GNB';'1.0.3166.1.2.3';'Guinea-Bissau';'https://termgit.elga.gv.at/CodeSystem/iso-3166-1-alpha-3';'';'';'';'95';'0';'L';'';'';''
'GNQ';'1.0.3166.1.2.3';'Äquatorialguinea';'https://termgit.elga.gv.at/CodeSystem/iso-3166-1-alpha-3';'';'';'';'96';'0';'L';'';'';''
'GRC';'1.0.3166.1.2.3';'Griechenland';'https://termgit.elga.gv.at/CodeSystem/iso-3166-1-alpha-3';'';'';'';'97';'0';'L';'';'';''
'GRD';'1.0.3166.1.2.3';'Grenada';'https://termgit.elga.gv.at/CodeSystem/iso-3166-1-alpha-3';'';'';'';'98';'0';'L';'';'';''
'GRL';'1.0.3166.1.2.3';'Grönland';'https://termgit.elga.gv.at/CodeSystem/iso-3166-1-alpha-3';'';'';'';'99';'0';'L';'';'';''
'GTM';'1.0.3166.1.2.3';'Guatemala';'https://termgit.elga.gv.at/CodeSystem/iso-3166-1-alpha-3';'';'';'';'100';'0';'L';'';'';''
'GUF';'1.0.3166.1.2.3';'Französisch-Guayana';'https://termgit.elga.gv.at/CodeSystem/iso-3166-1-alpha-3';'';'';'';'101';'0';'L';'';'';''
'GUM';'1.0.3166.1.2.3';'Guam';'https://termgit.elga.gv.at/CodeSystem/iso-3166-1-alpha-3';'';'';'';'102';'0';'L';'';'';''
'GUY';'1.0.3166.1.2.3';'Guyana';'https://termgit.elga.gv.at/CodeSystem/iso-3166-1-alpha-3';'';'';'';'103';'0';'L';'';'';''
'HKG';'1.0.3166.1.2.3';'Hongkong';'https://termgit.elga.gv.at/CodeSystem/iso-3166-1-alpha-3';'';'';'';'104';'0';'L';'';'';''
'HMD';'1.0.3166.1.2.3';'Heard- und McDonald-Inseln';'https://termgit.elga.gv.at/CodeSystem/iso-3166-1-alpha-3';'';'';'';'105';'0';'L';'';'';''
'HND';'1.0.3166.1.2.3';'Honduras';'https://termgit.elga.gv.at/CodeSystem/iso-3166-1-alpha-3';'';'';'';'106';'0';'L';'';'';''
'HRV';'1.0.3166.1.2.3';'Kroatien';'https://termgit.elga.gv.at/CodeSystem/iso-3166-1-alpha-3';'';'';'';'107';'0';'L';'';'';''
'HTI';'1.0.3166.1.2.3';'Haiti';'https://termgit.elga.gv.at/CodeSystem/iso-3166-1-alpha-3';'';'';'';'108';'0';'L';'';'';''
'HUN';'1.0.3166.1.2.3';'Ungarn';'https://termgit.elga.gv.at/CodeSystem/iso-3166-1-alpha-3';'';'';'';'109';'0';'L';'';'';''
'IDN';'1.0.3166.1.2.3';'Indonesien';'https://termgit.elga.gv.at/CodeSystem/iso-3166-1-alpha-3';'';'';'';'110';'0';'L';'';'';''
'IMN';'1.0.3166.1.2.3';'Insel Man';'https://termgit.elga.gv.at/CodeSystem/iso-3166-1-alpha-3';'';'';'';'111';'0';'L';'';'';''
'IND';'1.0.3166.1.2.3';'Indien';'https://termgit.elga.gv.at/CodeSystem/iso-3166-1-alpha-3';'';'';'';'112';'0';'L';'';'';''
'IOT';'1.0.3166.1.2.3';'Britisches Territorium im Indischen Ozean';'https://termgit.elga.gv.at/CodeSystem/iso-3166-1-alpha-3';'';'';'';'113';'0';'L';'';'';''
'IRL';'1.0.3166.1.2.3';'Irland';'https://termgit.elga.gv.at/CodeSystem/iso-3166-1-alpha-3';'';'';'';'114';'0';'L';'';'';''
'IRN';'1.0.3166.1.2.3';'Iran';'https://termgit.elga.gv.at/CodeSystem/iso-3166-1-alpha-3';'';'';'';'115';'0';'L';'';'';''
'IRQ';'1.0.3166.1.2.3';'Irak';'https://termgit.elga.gv.at/CodeSystem/iso-3166-1-alpha-3';'';'';'';'116';'0';'L';'';'';''
'ISL';'1.0.3166.1.2.3';'Island';'https://termgit.elga.gv.at/CodeSystem/iso-3166-1-alpha-3';'';'';'';'117';'0';'L';'';'';''
'ISR';'1.0.3166.1.2.3';'Israel';'https://termgit.elga.gv.at/CodeSystem/iso-3166-1-alpha-3';'';'';'';'118';'0';'L';'';'';''
'ITA';'1.0.3166.1.2.3';'Italien';'https://termgit.elga.gv.at/CodeSystem/iso-3166-1-alpha-3';'';'';'';'119';'0';'L';'';'';''
'JAM';'1.0.3166.1.2.3';'Jamaika';'https://termgit.elga.gv.at/CodeSystem/iso-3166-1-alpha-3';'';'';'';'120';'0';'L';'';'';''
'JEY';'1.0.3166.1.2.3';'Jersey (Kanalinsel)';'https://termgit.elga.gv.at/CodeSystem/iso-3166-1-alpha-3';'';'';'';'121';'0';'L';'';'';''
'JOR';'1.0.3166.1.2.3';'Jordanien';'https://termgit.elga.gv.at/CodeSystem/iso-3166-1-alpha-3';'';'';'';'122';'0';'L';'';'';''
'JPN';'1.0.3166.1.2.3';'Japan';'https://termgit.elga.gv.at/CodeSystem/iso-3166-1-alpha-3';'';'';'';'123';'0';'L';'';'';''
'KAZ';'1.0.3166.1.2.3';'Kasachstan';'https://termgit.elga.gv.at/CodeSystem/iso-3166-1-alpha-3';'';'';'';'124';'0';'L';'';'';''
'KEN';'1.0.3166.1.2.3';'Kenia';'https://termgit.elga.gv.at/CodeSystem/iso-3166-1-alpha-3';'';'';'';'125';'0';'L';'';'';''
'KGZ';'1.0.3166.1.2.3';'Kirgisistan';'https://termgit.elga.gv.at/CodeSystem/iso-3166-1-alpha-3';'';'';'';'126';'0';'L';'';'';''
'KHM';'1.0.3166.1.2.3';'Kambodscha';'https://termgit.elga.gv.at/CodeSystem/iso-3166-1-alpha-3';'';'';'';'127';'0';'L';'';'';''
'KIR';'1.0.3166.1.2.3';'Kiribati';'https://termgit.elga.gv.at/CodeSystem/iso-3166-1-alpha-3';'';'';'';'128';'0';'L';'';'';''
'KNA';'1.0.3166.1.2.3';'St. Kitts und Nevis';'https://termgit.elga.gv.at/CodeSystem/iso-3166-1-alpha-3';'';'';'';'129';'0';'L';'';'';''
'KOR';'1.0.3166.1.2.3';'Korea';'https://termgit.elga.gv.at/CodeSystem/iso-3166-1-alpha-3';'';'';'';'130';'0';'L';'';'';''
'KOS';'1.0.3166.1.2.3';'Kosovo, Republik';'https://termgit.elga.gv.at/CodeSystem/iso-3166-1-alpha-3';'';'';'';'131';'0';'L';'';'';''
'KWT';'1.0.3166.1.2.3';'Kuwait';'https://termgit.elga.gv.at/CodeSystem/iso-3166-1-alpha-3';'';'';'';'132';'0';'L';'';'';''
'LAO';'1.0.3166.1.2.3';'Laos';'https://termgit.elga.gv.at/CodeSystem/iso-3166-1-alpha-3';'';'';'';'133';'0';'L';'';'';''
'LBN';'1.0.3166.1.2.3';'Libanon';'https://termgit.elga.gv.at/CodeSystem/iso-3166-1-alpha-3';'';'';'';'134';'0';'L';'';'';''
'LBR';'1.0.3166.1.2.3';'Liberia';'https://termgit.elga.gv.at/CodeSystem/iso-3166-1-alpha-3';'';'';'';'135';'0';'L';'';'';''
'LBY';'1.0.3166.1.2.3';'Libysch-Arabische Dschamahirija (Libyen)';'https://termgit.elga.gv.at/CodeSystem/iso-3166-1-alpha-3';'';'';'';'136';'0';'L';'';'';''
'LCA';'1.0.3166.1.2.3';'St. Lucia';'https://termgit.elga.gv.at/CodeSystem/iso-3166-1-alpha-3';'';'';'';'137';'0';'L';'';'';''
'LIE';'1.0.3166.1.2.3';'Liechtenstein';'https://termgit.elga.gv.at/CodeSystem/iso-3166-1-alpha-3';'';'';'';'138';'0';'L';'';'';''
'LKA';'1.0.3166.1.2.3';'Sri Lanka';'https://termgit.elga.gv.at/CodeSystem/iso-3166-1-alpha-3';'';'';'';'139';'0';'L';'';'';''
'LSO';'1.0.3166.1.2.3';'Lesotho';'https://termgit.elga.gv.at/CodeSystem/iso-3166-1-alpha-3';'';'';'';'140';'0';'L';'';'';''
'LTU';'1.0.3166.1.2.3';'Litauen';'https://termgit.elga.gv.at/CodeSystem/iso-3166-1-alpha-3';'';'';'';'141';'0';'L';'';'';''
'LUX';'1.0.3166.1.2.3';'Luxemburg';'https://termgit.elga.gv.at/CodeSystem/iso-3166-1-alpha-3';'';'';'';'142';'0';'L';'';'';''
'LVA';'1.0.3166.1.2.3';'Lettland';'https://termgit.elga.gv.at/CodeSystem/iso-3166-1-alpha-3';'';'';'';'143';'0';'L';'';'';''
'MAC';'1.0.3166.1.2.3';'Macao';'https://termgit.elga.gv.at/CodeSystem/iso-3166-1-alpha-3';'';'';'';'144';'0';'L';'';'';''
'MAF';'1.0.3166.1.2.3';'Saint-Martin (franz. Teil)';'https://termgit.elga.gv.at/CodeSystem/iso-3166-1-alpha-3';'';'';'';'145';'0';'L';'';'';''
'MAR';'1.0.3166.1.2.3';'Marokko';'https://termgit.elga.gv.at/CodeSystem/iso-3166-1-alpha-3';'';'';'';'146';'0';'L';'';'';''
'MCO';'1.0.3166.1.2.3';'Monaco';'https://termgit.elga.gv.at/CodeSystem/iso-3166-1-alpha-3';'';'';'';'147';'0';'L';'';'';''
'MDA';'1.0.3166.1.2.3';'Moldawien (Republik Moldau)';'https://termgit.elga.gv.at/CodeSystem/iso-3166-1-alpha-3';'';'';'';'148';'0';'L';'';'';''
'MDG';'1.0.3166.1.2.3';'Madagaskar';'https://termgit.elga.gv.at/CodeSystem/iso-3166-1-alpha-3';'';'';'';'149';'0';'L';'';'';''
'MDV';'1.0.3166.1.2.3';'Malediven';'https://termgit.elga.gv.at/CodeSystem/iso-3166-1-alpha-3';'';'';'';'150';'0';'L';'';'';''
'MEX';'1.0.3166.1.2.3';'Mexiko';'https://termgit.elga.gv.at/CodeSystem/iso-3166-1-alpha-3';'';'';'';'151';'0';'L';'';'';''
'MHL';'1.0.3166.1.2.3';'Marshallinseln';'https://termgit.elga.gv.at/CodeSystem/iso-3166-1-alpha-3';'';'';'';'152';'0';'L';'';'';''
'MKD';'1.0.3166.1.2.3';'Mazedonien';'https://termgit.elga.gv.at/CodeSystem/iso-3166-1-alpha-3';'';'';'';'153';'0';'L';'';'';''
'MLI';'1.0.3166.1.2.3';'Mali';'https://termgit.elga.gv.at/CodeSystem/iso-3166-1-alpha-3';'';'';'';'154';'0';'L';'';'';''
'MLT';'1.0.3166.1.2.3';'Malta';'https://termgit.elga.gv.at/CodeSystem/iso-3166-1-alpha-3';'';'';'';'155';'0';'L';'';'';''
'MMR';'1.0.3166.1.2.3';'Myanmar (Burma)';'https://termgit.elga.gv.at/CodeSystem/iso-3166-1-alpha-3';'';'';'';'156';'0';'L';'';'';''
'MNE';'1.0.3166.1.2.3';'Montenegro';'https://termgit.elga.gv.at/CodeSystem/iso-3166-1-alpha-3';'';'';'';'157';'0';'L';'';'';''
'MNG';'1.0.3166.1.2.3';'Mongolei';'https://termgit.elga.gv.at/CodeSystem/iso-3166-1-alpha-3';'';'';'';'158';'0';'L';'';'';''
'MNP';'1.0.3166.1.2.3';'Nördliche Marianen';'https://termgit.elga.gv.at/CodeSystem/iso-3166-1-alpha-3';'';'';'';'159';'0';'L';'';'';''
'MOZ';'1.0.3166.1.2.3';'Mosambik';'https://termgit.elga.gv.at/CodeSystem/iso-3166-1-alpha-3';'';'';'';'160';'0';'L';'';'';''
'MRT';'1.0.3166.1.2.3';'Mauretanien';'https://termgit.elga.gv.at/CodeSystem/iso-3166-1-alpha-3';'';'';'';'161';'0';'L';'';'';''
'MSR';'1.0.3166.1.2.3';'Montserrat';'https://termgit.elga.gv.at/CodeSystem/iso-3166-1-alpha-3';'';'';'';'162';'0';'L';'';'';''
'MTQ';'1.0.3166.1.2.3';'Martinique';'https://termgit.elga.gv.at/CodeSystem/iso-3166-1-alpha-3';'';'';'';'163';'0';'L';'';'';''
'MUS';'1.0.3166.1.2.3';'Mauritius';'https://termgit.elga.gv.at/CodeSystem/iso-3166-1-alpha-3';'';'';'';'164';'0';'L';'';'';''
'MWI';'1.0.3166.1.2.3';'Malawi';'https://termgit.elga.gv.at/CodeSystem/iso-3166-1-alpha-3';'';'';'';'165';'0';'L';'';'';''
'MYS';'1.0.3166.1.2.3';'Malaysia';'https://termgit.elga.gv.at/CodeSystem/iso-3166-1-alpha-3';'';'';'';'166';'0';'L';'';'';''
'MYT';'1.0.3166.1.2.3';'Mayotte';'https://termgit.elga.gv.at/CodeSystem/iso-3166-1-alpha-3';'';'';'';'167';'0';'L';'';'';''
'NAM';'1.0.3166.1.2.3';'Namibia';'https://termgit.elga.gv.at/CodeSystem/iso-3166-1-alpha-3';'';'';'';'168';'0';'L';'';'';''
'NCL';'1.0.3166.1.2.3';'Neukaledonien';'https://termgit.elga.gv.at/CodeSystem/iso-3166-1-alpha-3';'';'';'';'169';'0';'L';'';'';''
'NER';'1.0.3166.1.2.3';'Niger';'https://termgit.elga.gv.at/CodeSystem/iso-3166-1-alpha-3';'';'';'';'170';'0';'L';'';'';''
'NFK';'1.0.3166.1.2.3';'Norfolkinsel';'https://termgit.elga.gv.at/CodeSystem/iso-3166-1-alpha-3';'';'';'';'171';'0';'L';'';'';''
'NGA';'1.0.3166.1.2.3';'Nigeria';'https://termgit.elga.gv.at/CodeSystem/iso-3166-1-alpha-3';'';'';'';'172';'0';'L';'';'';''
'NIC';'1.0.3166.1.2.3';'Nicaragua';'https://termgit.elga.gv.at/CodeSystem/iso-3166-1-alpha-3';'';'';'';'173';'0';'L';'';'';''
'NIU';'1.0.3166.1.2.3';'Niue';'https://termgit.elga.gv.at/CodeSystem/iso-3166-1-alpha-3';'';'';'';'174';'0';'L';'';'';''
'NLD';'1.0.3166.1.2.3';'Niederlande';'https://termgit.elga.gv.at/CodeSystem/iso-3166-1-alpha-3';'';'';'';'175';'0';'L';'';'';''
'NOR';'1.0.3166.1.2.3';'Norwegen';'https://termgit.elga.gv.at/CodeSystem/iso-3166-1-alpha-3';'';'';'';'176';'0';'L';'';'';''
'NPL';'1.0.3166.1.2.3';'Nepal';'https://termgit.elga.gv.at/CodeSystem/iso-3166-1-alpha-3';'';'';'';'177';'0';'L';'';'';''
'NRU';'1.0.3166.1.2.3';'Nauru';'https://termgit.elga.gv.at/CodeSystem/iso-3166-1-alpha-3';'';'';'';'178';'0';'L';'';'';''
'NTZ';'1.0.3166.1.2.3';'Neutrale Zone (Saudi-Arabien und Irak)';'https://termgit.elga.gv.at/CodeSystem/iso-3166-1-alpha-3';'';'';'';'179';'0';'L';'';'';''
'NZL';'1.0.3166.1.2.3';'Neuseeland';'https://termgit.elga.gv.at/CodeSystem/iso-3166-1-alpha-3';'';'';'';'180';'0';'L';'';'';''
'OMN';'1.0.3166.1.2.3';'Oman';'https://termgit.elga.gv.at/CodeSystem/iso-3166-1-alpha-3';'';'';'';'181';'0';'L';'';'';''
'PAK';'1.0.3166.1.2.3';'Pakistan';'https://termgit.elga.gv.at/CodeSystem/iso-3166-1-alpha-3';'';'';'';'182';'0';'L';'';'';''
'PAN';'1.0.3166.1.2.3';'Panama';'https://termgit.elga.gv.at/CodeSystem/iso-3166-1-alpha-3';'';'';'';'183';'0';'L';'';'';''
'PCN';'1.0.3166.1.2.3';'Pitcairninseln';'https://termgit.elga.gv.at/CodeSystem/iso-3166-1-alpha-3';'';'';'';'184';'0';'L';'';'';''
'PER';'1.0.3166.1.2.3';'Peru';'https://termgit.elga.gv.at/CodeSystem/iso-3166-1-alpha-3';'';'';'';'185';'0';'L';'';'';''
'PHL';'1.0.3166.1.2.3';'Philippinen';'https://termgit.elga.gv.at/CodeSystem/iso-3166-1-alpha-3';'';'';'';'186';'0';'L';'';'';''
'PLW';'1.0.3166.1.2.3';'Palau';'https://termgit.elga.gv.at/CodeSystem/iso-3166-1-alpha-3';'';'';'';'187';'0';'L';'';'';''
'PNG';'1.0.3166.1.2.3';'Papua-Neuguinea';'https://termgit.elga.gv.at/CodeSystem/iso-3166-1-alpha-3';'';'';'';'188';'0';'L';'';'';''
'POL';'1.0.3166.1.2.3';'Polen';'https://termgit.elga.gv.at/CodeSystem/iso-3166-1-alpha-3';'';'';'';'189';'0';'L';'';'';''
'PRI';'1.0.3166.1.2.3';'Puerto Rico';'https://termgit.elga.gv.at/CodeSystem/iso-3166-1-alpha-3';'';'';'';'190';'0';'L';'';'';''
'PRK';'1.0.3166.1.2.3';'Korea';'https://termgit.elga.gv.at/CodeSystem/iso-3166-1-alpha-3';'';'';'';'191';'0';'L';'';'';''
'PRT';'1.0.3166.1.2.3';'Portugal';'https://termgit.elga.gv.at/CodeSystem/iso-3166-1-alpha-3';'';'';'';'192';'0';'L';'';'';''
'PRY';'1.0.3166.1.2.3';'Paraguay';'https://termgit.elga.gv.at/CodeSystem/iso-3166-1-alpha-3';'';'';'';'193';'0';'L';'';'';''
'PSE';'1.0.3166.1.2.3';'Palästinensische Autonomiegebiete';'https://termgit.elga.gv.at/CodeSystem/iso-3166-1-alpha-3';'';'';'';'194';'0';'L';'';'';''
'PYF';'1.0.3166.1.2.3';'Französisch-Polynesien';'https://termgit.elga.gv.at/CodeSystem/iso-3166-1-alpha-3';'';'';'';'195';'0';'L';'';'';''
'QAT';'1.0.3166.1.2.3';'Katar';'https://termgit.elga.gv.at/CodeSystem/iso-3166-1-alpha-3';'';'';'';'196';'0';'L';'';'';''
'REU';'1.0.3166.1.2.3';'Réunion';'https://termgit.elga.gv.at/CodeSystem/iso-3166-1-alpha-3';'';'';'';'197';'0';'L';'';'';''
'ROU';'1.0.3166.1.2.3';'Rumänien';'https://termgit.elga.gv.at/CodeSystem/iso-3166-1-alpha-3';'';'';'';'198';'0';'L';'';'';''
'RUS';'1.0.3166.1.2.3';'Russische Föderation';'https://termgit.elga.gv.at/CodeSystem/iso-3166-1-alpha-3';'';'';'';'199';'0';'L';'';'';''
'RWA';'1.0.3166.1.2.3';'Ruanda';'https://termgit.elga.gv.at/CodeSystem/iso-3166-1-alpha-3';'';'';'';'200';'0';'L';'';'';''
'SAU';'1.0.3166.1.2.3';'Saudi-Arabien';'https://termgit.elga.gv.at/CodeSystem/iso-3166-1-alpha-3';'';'';'';'201';'0';'L';'';'';''
'SCG';'1.0.3166.1.2.3';'Serbien und Montenegro (ehemalig)';'https://termgit.elga.gv.at/CodeSystem/iso-3166-1-alpha-3';'';'';'';'202';'0';'L';'';'';''
'SDN';'1.0.3166.1.2.3';'Sudan';'https://termgit.elga.gv.at/CodeSystem/iso-3166-1-alpha-3';'';'';'';'203';'0';'L';'';'';''
'SEN';'1.0.3166.1.2.3';'Senegal';'https://termgit.elga.gv.at/CodeSystem/iso-3166-1-alpha-3';'';'';'';'204';'0';'L';'';'';''
'SGP';'1.0.3166.1.2.3';'Singapur';'https://termgit.elga.gv.at/CodeSystem/iso-3166-1-alpha-3';'';'';'';'205';'0';'L';'';'';''
'SGS';'1.0.3166.1.2.3';'Südgeorgien und die Südlichen Sandwichinseln';'https://termgit.elga.gv.at/CodeSystem/iso-3166-1-alpha-3';'';'';'';'206';'0';'L';'';'';''
'SHN';'1.0.3166.1.2.3';'St. Helena';'https://termgit.elga.gv.at/CodeSystem/iso-3166-1-alpha-3';'';'';'';'207';'0';'L';'';'';''
'SJM';'1.0.3166.1.2.3';'Svalbard und Jan Mayen';'https://termgit.elga.gv.at/CodeSystem/iso-3166-1-alpha-3';'';'';'';'208';'0';'L';'';'';''
'SLB';'1.0.3166.1.2.3';'Salomonen';'https://termgit.elga.gv.at/CodeSystem/iso-3166-1-alpha-3';'';'';'';'209';'0';'L';'';'';''
'SLE';'1.0.3166.1.2.3';'Sierra Leone';'https://termgit.elga.gv.at/CodeSystem/iso-3166-1-alpha-3';'';'';'';'210';'0';'L';'';'';''
'SLV';'1.0.3166.1.2.3';'El Salvador';'https://termgit.elga.gv.at/CodeSystem/iso-3166-1-alpha-3';'';'';'';'211';'0';'L';'';'';''
'SMR';'1.0.3166.1.2.3';'San Marino';'https://termgit.elga.gv.at/CodeSystem/iso-3166-1-alpha-3';'';'';'';'212';'0';'L';'';'';''
'SOM';'1.0.3166.1.2.3';'Somalia';'https://termgit.elga.gv.at/CodeSystem/iso-3166-1-alpha-3';'';'';'';'213';'0';'L';'';'';''
'SPM';'1.0.3166.1.2.3';'Saint-Pierre und Miquelon';'https://termgit.elga.gv.at/CodeSystem/iso-3166-1-alpha-3';'';'';'';'214';'0';'L';'';'';''
'SRB';'1.0.3166.1.2.3';'Serbien';'https://termgit.elga.gv.at/CodeSystem/iso-3166-1-alpha-3';'';'';'';'215';'0';'L';'';'';''
'SSD';'1.0.3166.1.2.3';'Südsudan';'https://termgit.elga.gv.at/CodeSystem/iso-3166-1-alpha-3';'';'';'';'216';'0';'L';'';'';''
'STP';'1.0.3166.1.2.3';'São Tomé und Príncipe';'https://termgit.elga.gv.at/CodeSystem/iso-3166-1-alpha-3';'';'';'';'217';'0';'L';'';'';''
'SUN';'1.0.3166.1.2.3';'UdSSR (jetzt: Russische Föderation)';'https://termgit.elga.gv.at/CodeSystem/iso-3166-1-alpha-3';'';'';'';'218';'0';'L';'';'';''
'SUR';'1.0.3166.1.2.3';'Suriname';'https://termgit.elga.gv.at/CodeSystem/iso-3166-1-alpha-3';'';'';'';'219';'0';'L';'';'';''
'SVK';'1.0.3166.1.2.3';'Slowakei';'https://termgit.elga.gv.at/CodeSystem/iso-3166-1-alpha-3';'';'';'';'220';'0';'L';'';'';''
'SVN';'1.0.3166.1.2.3';'Slowenien';'https://termgit.elga.gv.at/CodeSystem/iso-3166-1-alpha-3';'';'';'';'221';'0';'L';'';'';''
'SWE';'1.0.3166.1.2.3';'Schweden';'https://termgit.elga.gv.at/CodeSystem/iso-3166-1-alpha-3';'';'';'';'222';'0';'L';'';'';''
'SWZ';'1.0.3166.1.2.3';'Swasiland';'https://termgit.elga.gv.at/CodeSystem/iso-3166-1-alpha-3';'';'';'';'223';'0';'L';'';'';''
'SXM';'1.0.3166.1.2.3';'Sint Maarten (niederl. Teil)';'https://termgit.elga.gv.at/CodeSystem/iso-3166-1-alpha-3';'';'';'';'224';'0';'L';'';'';''
'SYC';'1.0.3166.1.2.3';'Seychellen';'https://termgit.elga.gv.at/CodeSystem/iso-3166-1-alpha-3';'';'';'';'225';'0';'L';'';'';''
'SYR';'1.0.3166.1.2.3';'Syrien';'https://termgit.elga.gv.at/CodeSystem/iso-3166-1-alpha-3';'';'';'';'226';'0';'L';'';'';''
'TAA';'1.0.3166.1.2.3';'Tristan da Cunha (verwaltet von St. Helena)';'https://termgit.elga.gv.at/CodeSystem/iso-3166-1-alpha-3';'';'';'Nicht offiziell';'227';'0';'L';'';'';''
'TCA';'1.0.3166.1.2.3';'Turks- und Caicosinseln';'https://termgit.elga.gv.at/CodeSystem/iso-3166-1-alpha-3';'';'';'';'228';'0';'L';'';'';''
'TCD';'1.0.3166.1.2.3';'Tschad';'https://termgit.elga.gv.at/CodeSystem/iso-3166-1-alpha-3';'';'';'';'229';'0';'L';'';'';''
'TGO';'1.0.3166.1.2.3';'Togo';'https://termgit.elga.gv.at/CodeSystem/iso-3166-1-alpha-3';'';'';'';'230';'0';'L';'';'';''
'THA';'1.0.3166.1.2.3';'Thailand';'https://termgit.elga.gv.at/CodeSystem/iso-3166-1-alpha-3';'';'';'';'231';'0';'L';'';'';''
'TJK';'1.0.3166.1.2.3';'Tadschikistan';'https://termgit.elga.gv.at/CodeSystem/iso-3166-1-alpha-3';'';'';'';'232';'0';'L';'';'';''
'TKL';'1.0.3166.1.2.3';'Tokelau';'https://termgit.elga.gv.at/CodeSystem/iso-3166-1-alpha-3';'';'';'';'233';'0';'L';'';'';''
'TKM';'1.0.3166.1.2.3';'Turkmenistan';'https://termgit.elga.gv.at/CodeSystem/iso-3166-1-alpha-3';'';'';'';'234';'0';'L';'';'';''
'TLS';'1.0.3166.1.2.3';'Osttimor (Timor-L''este)';'https://termgit.elga.gv.at/CodeSystem/iso-3166-1-alpha-3';'';'Osttimor (Timor-Leste)';'';'235';'0';'L';'';'';''
'TMP';'1.0.3166.1.2.3';'Osttimor (alt)';'https://termgit.elga.gv.at/CodeSystem/iso-3166-1-alpha-3';'';'';'Nicht offiziell';'236';'0';'L';'';'';''
'TON';'1.0.3166.1.2.3';'Tonga';'https://termgit.elga.gv.at/CodeSystem/iso-3166-1-alpha-3';'';'';'';'237';'0';'L';'';'';''
'TTO';'1.0.3166.1.2.3';'Trinidad und Tobago';'https://termgit.elga.gv.at/CodeSystem/iso-3166-1-alpha-3';'';'';'';'238';'0';'L';'';'';''
'TUN';'1.0.3166.1.2.3';'Tunesien';'https://termgit.elga.gv.at/CodeSystem/iso-3166-1-alpha-3';'';'';'';'239';'0';'L';'';'';''
'TUR';'1.0.3166.1.2.3';'Türkei';'https://termgit.elga.gv.at/CodeSystem/iso-3166-1-alpha-3';'';'';'';'240';'0';'L';'';'';''
'TUV';'1.0.3166.1.2.3';'Tuvalu';'https://termgit.elga.gv.at/CodeSystem/iso-3166-1-alpha-3';'';'';'';'241';'0';'L';'';'';''
'TWN';'1.0.3166.1.2.3';'Republik China (Taiwan)';'https://termgit.elga.gv.at/CodeSystem/iso-3166-1-alpha-3';'';'';'';'242';'0';'L';'';'';''
'TZA';'1.0.3166.1.2.3';'Tansania';'https://termgit.elga.gv.at/CodeSystem/iso-3166-1-alpha-3';'';'';'';'243';'0';'L';'';'';''
'UGA';'1.0.3166.1.2.3';'Uganda';'https://termgit.elga.gv.at/CodeSystem/iso-3166-1-alpha-3';'';'';'';'244';'0';'L';'';'';''
'UKR';'1.0.3166.1.2.3';'Ukraine';'https://termgit.elga.gv.at/CodeSystem/iso-3166-1-alpha-3';'';'';'';'245';'0';'L';'';'';''
'UMI';'1.0.3166.1.2.3';'United States Minor Outlying Islands';'https://termgit.elga.gv.at/CodeSystem/iso-3166-1-alpha-3';'';'';'';'246';'0';'L';'';'';''
'URY';'1.0.3166.1.2.3';'Uruguay';'https://termgit.elga.gv.at/CodeSystem/iso-3166-1-alpha-3';'';'';'';'247';'0';'L';'';'';''
'USA';'1.0.3166.1.2.3';'Vereinigte Staaten von Amerika';'https://termgit.elga.gv.at/CodeSystem/iso-3166-1-alpha-3';'';'';'';'248';'0';'L';'';'';''
'UZB';'1.0.3166.1.2.3';'Usbekistan';'https://termgit.elga.gv.at/CodeSystem/iso-3166-1-alpha-3';'';'';'';'249';'0';'L';'';'';''
'VAT';'1.0.3166.1.2.3';'Vatikanstadt';'https://termgit.elga.gv.at/CodeSystem/iso-3166-1-alpha-3';'';'';'';'250';'0';'L';'';'';''
'VCT';'1.0.3166.1.2.3';'St. Vincent und die Grenadinen';'https://termgit.elga.gv.at/CodeSystem/iso-3166-1-alpha-3';'';'';'';'251';'0';'L';'';'';''
'VEN';'1.0.3166.1.2.3';'Venezuela';'https://termgit.elga.gv.at/CodeSystem/iso-3166-1-alpha-3';'';'';'';'252';'0';'L';'';'';''
'VGB';'1.0.3166.1.2.3';'Britische Jungferninseln';'https://termgit.elga.gv.at/CodeSystem/iso-3166-1-alpha-3';'';'';'';'253';'0';'L';'';'';''
'VIR';'1.0.3166.1.2.3';'Amerikanische Jungferninseln';'https://termgit.elga.gv.at/CodeSystem/iso-3166-1-alpha-3';'';'';'';'254';'0';'L';'';'';''
'VNM';'1.0.3166.1.2.3';'Vietnam';'https://termgit.elga.gv.at/CodeSystem/iso-3166-1-alpha-3';'';'';'';'255';'0';'L';'';'';''
'VUT';'1.0.3166.1.2.3';'Vanuatu';'https://termgit.elga.gv.at/CodeSystem/iso-3166-1-alpha-3';'';'';'';'256';'0';'L';'';'';''
'WLF';'1.0.3166.1.2.3';'Wallis und Futuna';'https://termgit.elga.gv.at/CodeSystem/iso-3166-1-alpha-3';'';'';'';'257';'0';'L';'';'';''
'WSM';'1.0.3166.1.2.3';'Samoa';'https://termgit.elga.gv.at/CodeSystem/iso-3166-1-alpha-3';'';'';'';'258';'0';'L';'';'';''
'XKS';'1.0.3166.1.2.3';'Kosovo';'https://termgit.elga.gv.at/CodeSystem/iso-3166-1-alpha-3';'';'';'';'259';'0';'L';'';'';''
'XXA';'1.0.3166.1.2.3';'Staatenlos';'https://termgit.elga.gv.at/CodeSystem/iso-3166-1-alpha-3';'';'';'Part D Codes for persons without a defined nationality. User-reserved code element';'260';'0';'L';'';'';''
'XXB';'1.0.3166.1.2.3';'Flüchtling gemäß Genfer Flüchtlingskonvention (GFK) von 1951';'https://termgit.elga.gv.at/CodeSystem/iso-3166-1-alpha-3';'';'';'Part D Codes for persons without a defined nationality. User-reserved code element';'261';'0';'L';'';'';''
'XXC';'1.0.3166.1.2.3';'Anderer Flüchtling';'https://termgit.elga.gv.at/CodeSystem/iso-3166-1-alpha-3';'';'';'Part D Codes for persons without a defined nationality. User-reserved code element';'262';'0';'L';'';'';''
'XXX';'1.0.3166.1.2.3';'Unbekannt';'https://termgit.elga.gv.at/CodeSystem/iso-3166-1-alpha-3';'Nationaltät unbestimmt, unabhängig von der tatsächlichen Staatszugehörigkeit. Kann Personen mit Staatenzugehörigkeit inkludieren, die sich legal im Land aufenthalten, deren Staatenzugehörigkeit derzeit aber unbekannt ist';'';'Part D Codes for persons without a defined nationality. User-reserved code element';'263';'0';'L';'';'';''
'YEM';'1.0.3166.1.2.3';'Jemen';'https://termgit.elga.gv.at/CodeSystem/iso-3166-1-alpha-3';'';'';'';'264';'0';'L';'';'';''
'YUG';'1.0.3166.1.2.3';'Jugoslawien (ehemalig)';'https://termgit.elga.gv.at/CodeSystem/iso-3166-1-alpha-3';'';'';'';'265';'0';'L';'';'';''
'ZAF';'1.0.3166.1.2.3';'Südafrika';'https://termgit.elga.gv.at/CodeSystem/iso-3166-1-alpha-3';'';'';'';'266';'0';'L';'';'';''
'ZAR';'1.0.3166.1.2.3';'Zaire (jetzt Demokratische Republik Kongo)';'https://termgit.elga.gv.at/CodeSystem/iso-3166-1-alpha-3';'';'';'';'267';'0';'L';'';'';''
'ZMB';'1.0.3166.1.2.3';'Sambia';'https://termgit.elga.gv.at/CodeSystem/iso-3166-1-alpha-3';'';'';'';'268';'0';'L';'';'';''
'ZWE';'1.0.3166.1.2.3';'Simbabwe';'https://termgit.elga.gv.at/CodeSystem/iso-3166-1-alpha-3';'';'';'';'269';'0';'L';'';'';''
