'code';'codeSystem';'displayName';'parentCode';'concept_Beschreibung';'meaning';'hints';'level';'type';'relationships'
'1';'1.2.40.0.34.5.87';'1';;;;;'0';'L';
'10';'1.2.40.0.34.5.87';'10';;;;;'0';'L';
'100';'1.2.40.0.34.5.87';'100';;;;;'0';'L';
'101';'1.2.40.0.34.5.87';'101';;;;;'0';'L';
'102';'1.2.40.0.34.5.87';'102';;;;;'0';'L';
'103';'1.2.40.0.34.5.87';'103';;;;;'0';'L';
'104';'1.2.40.0.34.5.87';'104';;;;;'0';'L';
'104A';'1.2.40.0.34.5.87';'104a';;;;;'0';'L';
'104B';'1.2.40.0.34.5.87';'104b';;;;;'0';'L';
'104C';'1.2.40.0.34.5.87';'104c';;;;;'0';'L';
'105';'1.2.40.0.34.5.87';'105';;;;;'0';'L';
'106';'1.2.40.0.34.5.87';'106';;;;;'0';'L';
'107';'1.2.40.0.34.5.87';'107';;;;;'0';'L';
'108';'1.2.40.0.34.5.87';'108';;;;;'0';'L';
'108A';'1.2.40.0.34.5.87';'108a';;;;;'0';'L';
'109';'1.2.40.0.34.5.87';'109';;;;;'0';'L';
'10A';'1.2.40.0.34.5.87';'10a';;;;;'0';'L';
'11';'1.2.40.0.34.5.87';'11';;;;;'0';'L';
'110';'1.2.40.0.34.5.87';'110';;;;;'0';'L';
'110A';'1.2.40.0.34.5.87';'110a';;;;;'0';'L';
'110B';'1.2.40.0.34.5.87';'110b';;;;;'0';'L';
'110C';'1.2.40.0.34.5.87';'110c';;;;;'0';'L';
'111';'1.2.40.0.34.5.87';'111';;;;;'0';'L';
'112';'1.2.40.0.34.5.87';'112';;;;;'0';'L';
'113';'1.2.40.0.34.5.87';'113';;;;;'0';'L';
'114';'1.2.40.0.34.5.87';'114';;;;;'0';'L';
'115';'1.2.40.0.34.5.87';'115';;;;;'0';'L';
'116';'1.2.40.0.34.5.87';'116';;;;;'0';'L';
'117';'1.2.40.0.34.5.87';'117';;;;;'0';'L';
'118';'1.2.40.0.34.5.87';'118';;;;;'0';'L';
'119';'1.2.40.0.34.5.87';'119';;;;;'0';'L';
'11B';'1.2.40.0.34.5.87';'11b';;;;;'0';'L';
'12';'1.2.40.0.34.5.87';'12';;;;;'0';'L';
'120';'1.2.40.0.34.5.87';'120';;;;;'0';'L';
'121';'1.2.40.0.34.5.87';'121';;;;;'0';'L';
'122';'1.2.40.0.34.5.87';'122';;;;;'0';'L';
'123';'1.2.40.0.34.5.87';'123';;;;;'0';'L';
'124';'1.2.40.0.34.5.87';'124';;;;;'0';'L';
'125';'1.2.40.0.34.5.87';'125';;;;;'0';'L';
'126';'1.2.40.0.34.5.87';'126';;;;;'0';'L';
'126A';'1.2.40.0.34.5.87';'126a';;;;;'0';'L';
'127';'1.2.40.0.34.5.87';'127';;;;;'0';'L';
'128';'1.2.40.0.34.5.87';'128';;;;;'0';'L';
'129';'1.2.40.0.34.5.87';'129';;;;;'0';'L';
'129A';'1.2.40.0.34.5.87';'129a';;;;;'0';'L';
'12A';'1.2.40.0.34.5.87';'12a';;;;;'0';'L';
'13';'1.2.40.0.34.5.87';'13';;;;;'0';'L';
'130';'1.2.40.0.34.5.87';'130';;;;;'0';'L';
'131';'1.2.40.0.34.5.87';'131';;;;;'0';'L';
'132';'1.2.40.0.34.5.87';'132';;;;;'0';'L';
'133';'1.2.40.0.34.5.87';'133';;;;;'0';'L';
'134';'1.2.40.0.34.5.87';'134';;;;;'0';'L';
'135';'1.2.40.0.34.5.87';'135';;;;;'0';'L';
'135a';'1.2.40.0.34.5.87';'135a';;;;;'0';'L';
'136';'1.2.40.0.34.5.87';'136';;;;;'0';'L';
'137';'1.2.40.0.34.5.87';'137';;;;;'0';'L';
'138';'1.2.40.0.34.5.87';'138';;;;;'0';'L';
'139';'1.2.40.0.34.5.87';'139';;;;;'0';'L';
'13a';'1.2.40.0.34.5.87';'13a';;;;;'0';'L';
'14';'1.2.40.0.34.5.87';'14';;;;;'0';'L';
'140';'1.2.40.0.34.5.87';'140';;;;;'0';'L';
'141';'1.2.40.0.34.5.87';'141';;;;;'0';'L';
'141a';'1.2.40.0.34.5.87';'141a';;;;;'0';'L';
'142';'1.2.40.0.34.5.87';'142';;;;;'0';'L';
'143';'1.2.40.0.34.5.87';'143';;;;;'0';'L';
'144';'1.2.40.0.34.5.87';'144';;;;;'0';'L';
'145';'1.2.40.0.34.5.87';'145';;;;;'0';'L';
'145a';'1.2.40.0.34.5.87';'145a';;;;;'0';'L';
'146';'1.2.40.0.34.5.87';'146';;;;;'0';'L';
'146a';'1.2.40.0.34.5.87';'146a';;;;;'0';'L';
'147';'1.2.40.0.34.5.87';'147';;;;;'0';'L';
'148';'1.2.40.0.34.5.87';'148';;;;;'0';'L';
'149';'1.2.40.0.34.5.87';'149';;;;;'0';'L';
'14A';'1.2.40.0.34.5.87';'14a';;;;;'0';'L';
'14B';'1.2.40.0.34.5.87';'14b';;;;;'0';'L';
'14C';'1.2.40.0.34.5.87';'14c';;;;;'0';'L';
'15';'1.2.40.0.34.5.87';'15';;;;;'0';'L';
'150';'1.2.40.0.34.5.87';'150';;;;;'0';'L';
'151';'1.2.40.0.34.5.87';'151';;;;;'0';'L';
'153';'1.2.40.0.34.5.87';'153';;;;;'0';'L';
'154';'1.2.40.0.34.5.87';'154';;;;;'0';'L';
'155';'1.2.40.0.34.5.87';'155';;;;;'0';'L';
'156';'1.2.40.0.34.5.87';'156';;;;;'0';'L';
'157';'1.2.40.0.34.5.87';'157';;;;;'0';'L';
'158';'1.2.40.0.34.5.87';'158';;;;;'0';'L';
'159';'1.2.40.0.34.5.87';'159';;;;;'0';'L';
'159a';'1.2.40.0.34.5.87';'159a';;;;;'0';'L';
'15a';'1.2.40.0.34.5.87';'15a';;;;;'0';'L';
'16';'1.2.40.0.34.5.87';'16';;;;;'0';'L';
'160';'1.2.40.0.34.5.87';'160';;;;;'0';'L';
'161';'1.2.40.0.34.5.87';'161';;;;;'0';'L';
'162';'1.2.40.0.34.5.87';'162';;;;;'0';'L';
'163';'1.2.40.0.34.5.87';'163';;;;;'0';'L';
'164';'1.2.40.0.34.5.87';'164';;;;;'0';'L';
'165';'1.2.40.0.34.5.87';'165';;;;;'0';'L';
'166';'1.2.40.0.34.5.87';'166';;;;;'0';'L';
'167';'1.2.40.0.34.5.87';'167';;;;;'0';'L';
'168';'1.2.40.0.34.5.87';'168';;;;;'0';'L';
'168a';'1.2.40.0.34.5.87';'168a';;;;;'0';'L';
'169';'1.2.40.0.34.5.87';'169';;;;;'0';'L';
'17';'1.2.40.0.34.5.87';'17';;;;;'0';'L';
'170';'1.2.40.0.34.5.87';'170';;;;;'0';'L';
'170A';'1.2.40.0.34.5.87';'170a';;;;;'0';'L';
'170B';'1.2.40.0.34.5.87';'170b';;;;;'0';'L';
'171';'1.2.40.0.34.5.87';'171';;;;;'0';'L';
'172';'1.2.40.0.34.5.87';'172';;;;;'0';'L';
'173';'1.2.40.0.34.5.87';'173';;;;;'0';'L';
'174';'1.2.40.0.34.5.87';'174';;;;;'0';'L';
'175';'1.2.40.0.34.5.87';'175';;;;;'0';'L';
'176';'1.2.40.0.34.5.87';'176';;;;;'0';'L';
'177';'1.2.40.0.34.5.87';'177';;;;;'0';'L';
'178';'1.2.40.0.34.5.87';'178';;;;;'0';'L';
'179';'1.2.40.0.34.5.87';'179';;;;;'0';'L';
'18';'1.2.40.0.34.5.87';'18';;;;;'0';'L';
'180';'1.2.40.0.34.5.87';'180';;;;;'0';'L';
'181';'1.2.40.0.34.5.87';'181';;;;;'0';'L';
'182';'1.2.40.0.34.5.87';'182';;;;;'0';'L';
'183';'1.2.40.0.34.5.87';'183';;;;;'0';'L';
'184';'1.2.40.0.34.5.87';'184';;;;;'0';'L';
'185';'1.2.40.0.34.5.87';'185';;;;;'0';'L';
'186';'1.2.40.0.34.5.87';'186';;;;;'0';'L';
'187';'1.2.40.0.34.5.87';'187';;;;;'0';'L';
'188';'1.2.40.0.34.5.87';'188';;;;;'0';'L';
'189';'1.2.40.0.34.5.87';'189';;;;;'0';'L';
'19';'1.2.40.0.34.5.87';'19';;;;;'0';'L';
'190';'1.2.40.0.34.5.87';'190';;;;;'0';'L';
'191';'1.2.40.0.34.5.87';'191';;;;;'0';'L';
'192';'1.2.40.0.34.5.87';'192';;;;;'0';'L';
'193';'1.2.40.0.34.5.87';'193';;;;;'0';'L';
'193a';'1.2.40.0.34.5.87';'193a';;;;;'0';'L';
'194';'1.2.40.0.34.5.87';'194';;;;;'0';'L';
'194a';'1.2.40.0.34.5.87';'194a';;;;;'0';'L';
'195';'1.2.40.0.34.5.87';'195';;;;;'0';'L';
'196';'1.2.40.0.34.5.87';'196';;;;;'0';'L';
'197';'1.2.40.0.34.5.87';'197';;;;;'0';'L';
'198';'1.2.40.0.34.5.87';'198';;;;;'0';'L';
'199';'1.2.40.0.34.5.87';'199';;;;;'0';'L';
'1A';'1.2.40.0.34.5.87';'1a';;;;;'0';'L';
'1B';'1.2.40.0.34.5.87';'1b';;;;;'0';'L';
'1C';'1.2.40.0.34.5.87';'1c';;;;;'0';'L';
'1D';'1.2.40.0.34.5.87';'1d';;;;;'0';'L';
'1E';'1.2.40.0.34.5.87';'1e';;;;;'0';'L';
'1VAR1';'1.2.40.0.34.5.87';'1 var1';;;;;'0';'L';
'1VAR10';'1.2.40.0.34.5.87';'1 var10';;;;;'0';'L';
'1VAR11';'1.2.40.0.34.5.87';'1 var11';;;;;'0';'L';
'1VAR12';'1.2.40.0.34.5.87';'1 var12';;;;;'0';'L';
'1VAR13';'1.2.40.0.34.5.87';'1 var13';;;;;'0';'L';
'1VAR14';'1.2.40.0.34.5.87';'1 var14';;;;;'0';'L';
'1VAR2';'1.2.40.0.34.5.87';'1 var2';;;;;'0';'L';
'1VAR3';'1.2.40.0.34.5.87';'1 var3';;;;;'0';'L';
'1VAR4';'1.2.40.0.34.5.87';'1 var4';;;;;'0';'L';
'1VAR5';'1.2.40.0.34.5.87';'1 var5';;;;;'0';'L';
'1VAR6';'1.2.40.0.34.5.87';'1 var6';;;;;'0';'L';
'1VAR7';'1.2.40.0.34.5.87';'1 var7';;;;;'0';'L';
'1VAR8';'1.2.40.0.34.5.87';'1 var8';;;;;'0';'L';
'1VAR9';'1.2.40.0.34.5.87';'1 var9';;;;;'0';'L';
'2';'1.2.40.0.34.5.87';'2';;;;;'0';'L';
'20';'1.2.40.0.34.5.87';'20';;;;;'0';'L';
'200';'1.2.40.0.34.5.87';'200';;;;;'0';'L';
'201';'1.2.40.0.34.5.87';'201';;;;;'0';'L';
'202';'1.2.40.0.34.5.87';'202';;;;;'0';'L';
'203';'1.2.40.0.34.5.87';'203';;;;;'0';'L';
'204';'1.2.40.0.34.5.87';'204';;;;;'0';'L';
'204A';'1.2.40.0.34.5.87';'204a';;;;;'0';'L';
'204B';'1.2.40.0.34.5.87';'204b';;;;;'0';'L';
'204C';'1.2.40.0.34.5.87';'204c';;;;;'0';'L';
'204D';'1.2.40.0.34.5.87';'204d';;;;;'0';'L';
'204E';'1.2.40.0.34.5.87';'204e';;;;;'0';'L';
'205';'1.2.40.0.34.5.87';'205';;;;;'0';'L';
'206';'1.2.40.0.34.5.87';'206';;;;;'0';'L';
'207';'1.2.40.0.34.5.87';'207';;;;;'0';'L';
'208';'1.2.40.0.34.5.87';'208';;;;;'0';'L';
'208a';'1.2.40.0.34.5.87';'208a';;;;;'0';'L';
'209';'1.2.40.0.34.5.87';'209';;;;;'0';'L';
'20a';'1.2.40.0.34.5.87';'20a';;;;;'0';'L';
'21';'1.2.40.0.34.5.87';'21';;;;;'0';'L';
'21A';'1.2.40.0.34.5.87';'21a';;;;;'0';'L';
'21B';'1.2.40.0.34.5.87';'21b';;;;;'0';'L';
'21C';'1.2.40.0.34.5.87';'21c';;;;;'0';'L';
'22';'1.2.40.0.34.5.87';'22';;;;;'0';'L';
'23';'1.2.40.0.34.5.87';'23';;;;;'0';'L';
'24';'1.2.40.0.34.5.87';'24';;;;;'0';'L';
'24A';'1.2.40.0.34.5.87';'24a';;;;;'0';'L';
'24_VAR';'1.2.40.0.34.5.87';'24 var';;;;;'0';'L';
'25';'1.2.40.0.34.5.87';'25';;;;;'0';'L';
'25A';'1.2.40.0.34.5.87';'25a';;;;;'0';'L';
'26';'1.2.40.0.34.5.87';'26';;;;;'0';'L';
'26A';'1.2.40.0.34.5.87';'26a';;;;;'0';'L';
'27';'1.2.40.0.34.5.87';'27';;;;;'0';'L';
'28';'1.2.40.0.34.5.87';'28';;;;;'0';'L';
'29';'1.2.40.0.34.5.87';'29';;;;;'0';'L';
'29A';'1.2.40.0.34.5.87';'29a';;;;;'0';'L';
'2A';'1.2.40.0.34.5.87';'2a';;;;;'0';'L';
'2B';'1.2.40.0.34.5.87';'2b';;;;;'0';'L';
'2VAR1';'1.2.40.0.34.5.87';'2 var1';;;;;'0';'L';
'3';'1.2.40.0.34.5.87';'3';;;;;'0';'L';
'30';'1.2.40.0.34.5.87';'39';;;;;'0';'L';
'31';'1.2.40.0.34.5.87';'38';;;;;'0';'L';
'31A';'1.2.40.0.34.5.87';'31a';;;;;'0';'L';
'32';'1.2.40.0.34.5.87';'37';;;;;'0';'L';
'32A';'1.2.40.0.34.5.87';'32a';;;;;'0';'L';
'33';'1.2.40.0.34.5.87';'36';;;;;'0';'L';
'34';'1.2.40.0.34.5.87';'35';;;;;'0';'L';
'34A';'1.2.40.0.34.5.87';'34a';;;;;'0';'L';
'34B';'1.2.40.0.34.5.87';'34b';;;;;'0';'L';
'35';'1.2.40.0.34.5.87';'34';;;;;'0';'L';
'36';'1.2.40.0.34.5.87';'33';;;;;'0';'L';
'36A';'1.2.40.0.34.5.87';'36a';;;;;'0';'L';
'37';'1.2.40.0.34.5.87';'32';;;;;'0';'L';
'38';'1.2.40.0.34.5.87';'31';;;;;'0';'L';
'39';'1.2.40.0.34.5.87';'30';;;;;'0';'L';
'3A';'1.2.40.0.34.5.87';'3a';;;;;'0';'L';
'3AI';'1.2.40.0.34.5.87';'3aI';;;;;'0';'L';
'3AI_VAR1';'1.2.40.0.34.5.87';'3aI var1';;;;;'0';'L';
'3AI_VAR4';'1.2.40.0.34.5.87';'3aI var4';;;;;'0';'L';
'3B';'1.2.40.0.34.5.87';'3b';;;;;'0';'L';
'3BVAR1';'1.2.40.0.34.5.87';'3b var1';;;;;'0';'L';
'3BVAR2';'1.2.40.0.34.5.87';'3b var2';;;;;'0';'L';
'3BVAR3';'1.2.40.0.34.5.87';'3b var3';;;;;'0';'L';
'3BVAR6';'1.2.40.0.34.5.87';'3b var6';;;;;'0';'L';
'3BVAR7';'1.2.40.0.34.5.87';'3b var7';;;;;'0';'L';
'3BVAR8';'1.2.40.0.34.5.87';'3b var8';;;;;'0';'L';
'3BVAR9';'1.2.40.0.34.5.87';'3b var9';;;;;'0';'L';
'3VAR2';'1.2.40.0.34.5.87';'3 var2';;;;;'0';'L';
'3VAR4';'1.2.40.0.34.5.87';'3 var4';;;;;'0';'L';
'3VAR6';'1.2.40.0.34.5.87';'3 var6';;;;;'0';'L';
'3VAR7';'1.2.40.0.34.5.87';'3 var7';;;;;'0';'L';
'3VAR8';'1.2.40.0.34.5.87';'3 var8';;;;;'0';'L';
'4';'1.2.40.0.34.5.87';'4';;;;;'0';'L';
'40';'1.2.40.0.34.5.87';'40';;;;;'0';'L';
'41';'1.2.40.0.34.5.87';'41';;;;;'0';'L';
'41A';'1.2.40.0.34.5.87';'41a';;;;;'0';'L';
'42';'1.2.40.0.34.5.87';'42';;;;;'0';'L';
'43';'1.2.40.0.34.5.87';'43';;;;;'0';'L';
'44';'1.2.40.0.34.5.87';'44';;;;;'0';'L';
'45';'1.2.40.0.34.5.87';'45';;;;;'0';'L';
'45A';'1.2.40.0.34.5.87';'45a';;;;;'0';'L';
'45B';'1.2.40.0.34.5.87';'45b';;;;;'0';'L';
'45C';'1.2.40.0.34.5.87';'45c';;;;;'0';'L';
'46';'1.2.40.0.34.5.87';'46';;;;;'0';'L';
'46A';'1.2.40.0.34.5.87';'46a';;;;;'0';'L';
'47';'1.2.40.0.34.5.87';'47';;;;;'0';'L';
'48';'1.2.40.0.34.5.87';'48';;;;;'0';'L';
'49';'1.2.40.0.34.5.87';'49';;;;;'0';'L';
'49A';'1.2.40.0.34.5.87';'49a';;;;;'0';'L';
'49B';'1.2.40.0.34.5.87';'49b';;;;;'0';'L';
'49C';'1.2.40.0.34.5.87';'49c';;;;;'0';'L';
'4A';'1.2.40.0.34.5.87';'4a';;;;;'0';'L';
'4B';'1.2.40.0.34.5.87';'4b';;;;;'0';'L';
'5';'1.2.40.0.34.5.87';'5';;;;;'0';'L';
'50';'1.2.40.0.34.5.87';'50';;;;;'0';'L';
'51';'1.2.40.0.34.5.87';'51';;;;;'0';'L';
'51A';'1.2.40.0.34.5.87';'51a';;;;;'0';'L';
'52';'1.2.40.0.34.5.87';'52';;;;;'0';'L';
'52A';'1.2.40.0.34.5.87';'52a';;;;;'0';'L';
'53';'1.2.40.0.34.5.87';'53';;;;;'0';'L';
'54';'1.2.40.0.34.5.87';'54';;;;;'0';'L';
'55';'1.2.40.0.34.5.87';'55';;;;;'0';'L';
'56';'1.2.40.0.34.5.87';'56';;;;;'0';'L';
'56A';'1.2.40.0.34.5.87';'56a';;;;;'0';'L';
'57';'1.2.40.0.34.5.87';'57';;;;;'0';'L';
'58';'1.2.40.0.34.5.87';'58';;;;;'0';'L';
'59';'1.2.40.0.34.5.87';'59';;;;;'0';'L';
'5A';'1.2.40.0.34.5.87';'5a';;;;;'0';'L';
'5B';'1.2.40.0.34.5.87';'5b';;;;;'0';'L';
'5C';'1.2.40.0.34.5.87';'5c';;;;;'0';'L';
'6';'1.2.40.0.34.5.87';'6';;;;;'0';'L';
'60';'1.2.40.0.34.5.87';'60';;;;;'0';'L';
'61';'1.2.40.0.34.5.87';'61';;;;;'0';'L';
'62';'1.2.40.0.34.5.87';'62';;;;;'0';'L';
'63';'1.2.40.0.34.5.87';'63';;;;;'0';'L';
'64';'1.2.40.0.34.5.87';'64';;;;;'0';'L';
'65';'1.2.40.0.34.5.87';'65';;;;;'0';'L';
'66';'1.2.40.0.34.5.87';'66';;;;;'0';'L';
'66A';'1.2.40.0.34.5.87';'66a';;;;;'0';'L';
'67';'1.2.40.0.34.5.87';'67';;;;;'0';'L';
'67A';'1.2.40.0.34.5.87';'67a';;;;;'0';'L';
'68';'1.2.40.0.34.5.87';'68';;;;;'0';'L';
'69';'1.2.40.0.34.5.87';'69';;;;;'0';'L';
'6A';'1.2.40.0.34.5.87';'6a';;;;;'0';'L';
'6B';'1.2.40.0.34.5.87';'6b';;;;;'0';'L';
'6C';'1.2.40.0.34.5.87';'6c';;;;;'0';'L';
'6D';'1.2.40.0.34.5.87';'6d';;;;;'0';'L';
'7';'1.2.40.0.34.5.87';'7';;;;;'0';'L';
'70';'1.2.40.0.34.5.87';'70';;;;;'0';'L';
'71';'1.2.40.0.34.5.87';'71';;;;;'0';'L';
'72';'1.2.40.0.34.5.87';'72';;;;;'0';'L';
'73';'1.2.40.0.34.5.87';'73';;;;;'0';'L';
'73A';'1.2.40.0.34.5.87';'73a';;;;;'0';'L';
'74';'1.2.40.0.34.5.87';'74';;;;;'0';'L';
'75';'1.2.40.0.34.5.87';'75';;;;;'0';'L';
'76';'1.2.40.0.34.5.87';'76';;;;;'0';'L';
'77';'1.2.40.0.34.5.87';'77';;;;;'0';'L';
'78';'1.2.40.0.34.5.87';'78';;;;;'0';'L';
'79';'1.2.40.0.34.5.87';'79';;;;;'0';'L';
'7A';'1.2.40.0.34.5.87';'7a';;;;;'0';'L';
'8';'1.2.40.0.34.5.87';'8';;;;;'0';'L';
'80';'1.2.40.0.34.5.87';'80';;;;;'0';'L';
'81';'1.2.40.0.34.5.87';'81';;;;;'0';'L';
'82';'1.2.40.0.34.5.87';'82';;;;;'0';'L';
'83';'1.2.40.0.34.5.87';'83';;;;;'0';'L';
'84';'1.2.40.0.34.5.87';'84';;;;;'0';'L';
'85';'1.2.40.0.34.5.87';'85';;;;;'0';'L';
'85A';'1.2.40.0.34.5.87';'58a';;;;;'0';'L';
'86';'1.2.40.0.34.5.87';'86';;;;;'0';'L';
'87';'1.2.40.0.34.5.87';'87';;;;;'0';'L';
'88';'1.2.40.0.34.5.87';'88';;;;;'0';'L';
'89';'1.2.40.0.34.5.87';'89';;;;;'0';'L';
'8A';'1.2.40.0.34.5.87';'8a';;;;;'0';'L';
'9';'1.2.40.0.34.5.87';'9';;;;;'0';'L';
'90';'1.2.40.0.34.5.87';'90';;;;;'0';'L';
'91';'1.2.40.0.34.5.87';'91';;;;;'0';'L';
'92';'1.2.40.0.34.5.87';'92';;;;;'0';'L';
'93';'1.2.40.0.34.5.87';'93';;;;;'0';'L';
'94';'1.2.40.0.34.5.87';'94';;;;;'0';'L';
'95';'1.2.40.0.34.5.87';'95';;;;;'0';'L';
'96';'1.2.40.0.34.5.87';'96';;;;;'0';'L';
'97';'1.2.40.0.34.5.87';'97';;;;;'0';'L';
'98';'1.2.40.0.34.5.87';'98';;;;;'0';'L';
'99';'1.2.40.0.34.5.87';'99';;;;;'0';'L';
'9A';'1.2.40.0.34.5.87';'9a';;;;;'0';'L';
'9B';'1.2.40.0.34.5.87';'9b';;;;;'0';'L';
'9C';'1.2.40.0.34.5.87';'9c';;;;;'0';'L';
'A';'1.2.40.0.34.5.87';'A';;;;;'0';'L';
'B1';'1.2.40.0.34.5.87';'B1';;;;;'0';'L';
'B2';'1.2.40.0.34.5.87';'B2';;;;;'0';'L';
'B3';'1.2.40.0.34.5.87';'B3';;;;;'0';'L';
'BAOR';'1.2.40.0.34.5.87';'BAOR';;;;;'0';'L';
'BATTERSEA';'1.2.40.0.34.5.87';'Battersea';;;;;'0';'L';
'BECCLES';'1.2.40.0.34.5.87';'Beccles';;;;;'0';'L';
'BECCLESVAR1';'1.2.40.0.34.5.87';'Beccles var1';;;;;'0';'L';
'BECCLESVAR2';'1.2.40.0.34.5.87';'Beccles var2';;;;;'0';'L';
'BECCLESVAR3';'1.2.40.0.34.5.87';'Beccles var3';;;;;'0';'L';
'BECCLESVAR4';'1.2.40.0.34.5.87';'Beccles var4';;;;;'0';'L';
'BECCLESVAR5';'1.2.40.0.34.5.87';'Beccles var5';;;;;'0';'L';
'BECCLESVAR6';'1.2.40.0.34.5.87';'Beccles var6';;;;;'0';'L';
'C1';'1.2.40.0.34.5.87';'C1';;;;;'0';'L';
'C10';'1.2.40.0.34.5.87';'C10';;;;;'0';'L';
'C11';'1.2.40.0.34.5.87';'C11';;;;;'0';'L';
'C2';'1.2.40.0.34.5.87';'C2';;;;;'0';'L';
'C3';'1.2.40.0.34.5.87';'C3';;;;;'0';'L';
'C4';'1.2.40.0.34.5.87';'C4';;;;;'0';'L';
'C5';'1.2.40.0.34.5.87';'C5';;;;;'0';'L';
'C6';'1.2.40.0.34.5.87';'C6';;;;;'0';'L';
'C7';'1.2.40.0.34.5.87';'C7';;;;;'0';'L';
'C8';'1.2.40.0.34.5.87';'C8';;;;;'0';'L';
'C9';'1.2.40.0.34.5.87';'C9';;;;;'0';'L';
'COLINDALE';'1.2.40.0.34.5.87';'Colindale';;;;;'0';'L';
'D1';'1.2.40.0.34.5.87';'D1';;;;;'0';'L';
'D10';'1.2.40.0.34.5.87';'D10';;;;;'0';'L';
'D11';'1.2.40.0.34.5.87';'D11';;;;;'0';'L';
'D12';'1.2.40.0.34.5.87';'D12';;;;;'0';'L';
'D1N';'1.2.40.0.34.5.87';'D1n';;;;;'0';'L';
'D2';'1.2.40.0.34.5.87';'D2';;;;;'0';'L';
'D3';'1.2.40.0.34.5.87';'D3';;;;;'0';'L';
'D4';'1.2.40.0.34.5.87';'D4';;;;;'0';'L';
'D5';'1.2.40.0.34.5.87';'D5';;;;;'0';'L';
'D6';'1.2.40.0.34.5.87';'D6';;;;;'0';'L';
'D7';'1.2.40.0.34.5.87';'D7';;;;;'0';'L';
'D8';'1.2.40.0.34.5.87';'D8';;;;;'0';'L';
'D9';'1.2.40.0.34.5.87';'D9';;;;;'0';'L';
'DEGRADEDVI';'1.2.40.0.34.5.87';'Degraded Vi';;;;;'0';'L';
'DEGRADEDVI1';'1.2.40.0.34.5.87';'Degraded Vi1';;;;;'0';'L';
'DEGRADEDVI10';'1.2.40.0.34.5.87';'Degraded Vi10';;;;;'0';'L';
'DEGRADEDVI11';'1.2.40.0.34.5.87';'Degraded Vi11';;;;;'0';'L';
'DEGRADEDVI12';'1.2.40.0.34.5.87';'Degraded Vi12';;;;;'0';'L';
'DEGRADEDVI13';'1.2.40.0.34.5.87';'Degraded Vi13';;;;;'0';'L';
'DEGRADEDVI14';'1.2.40.0.34.5.87';'Degraded Vi14';;;;;'0';'L';
'DEGRADEDVI15';'1.2.40.0.34.5.87';'Degraded Vi15';;;;;'0';'L';
'DEGRADEDVI16';'1.2.40.0.34.5.87';'Degraded Vi16';;;;;'0';'L';
'DEGRADEDVI17';'1.2.40.0.34.5.87';'Degraded Vi17';;;;;'0';'L';
'DEGRADEDVI18';'1.2.40.0.34.5.87';'Degraded Vi18';;;;;'0';'L';
'DEGRADEDVI19';'1.2.40.0.34.5.87';'Degraded Vi19';;;;;'0';'L';
'DEGRADEDVI2';'1.2.40.0.34.5.87';'Degraded Vi2';;;;;'0';'L';
'DEGRADEDVI20';'1.2.40.0.34.5.87';'Degraded Vi20';;;;;'0';'L';
'DEGRADEDVI21';'1.2.40.0.34.5.87';'Degraded Vi21';;;;;'0';'L';
'DEGRADEDVI22';'1.2.40.0.34.5.87';'Degraded Vi22';;;;;'0';'L';
'DEGRADEDVI23';'1.2.40.0.34.5.87';'Degraded Vi23';;;;;'0';'L';
'DEGRADEDVI24';'1.2.40.0.34.5.87';'Degraded Vi24';;;;;'0';'L';
'DEGRADEDVI25';'1.2.40.0.34.5.87';'Degraded Vi25';;;;;'0';'L';
'DEGRADEDVI3';'1.2.40.0.34.5.87';'Degraded Vi3';;;;;'0';'L';
'DEGRADEDVI4';'1.2.40.0.34.5.87';'Degraded Vi4';;;;;'0';'L';
'DEGRADEDVI5';'1.2.40.0.34.5.87';'Degraded Vi5';;;;;'0';'L';
'DEGRADEDVI6';'1.2.40.0.34.5.87';'Degraded Vi6';;;;;'0';'L';
'DEGRADEDVI7';'1.2.40.0.34.5.87';'Degraded Vi7';;;;;'0';'L';
'DEGRADEDVI8';'1.2.40.0.34.5.87';'Degraded Vi8';;;;;'0';'L';
'DEGRADEDVI9';'1.2.40.0.34.5.87';'Degraded Vi9';;;;;'0';'L';
'DUNDEE';'1.2.40.0.34.5.87';'Dundee';;;;;'0';'L';
'DUNDEEVAR1';'1.2.40.0.34.5.87';'Dundee var1';;;;;'0';'L';
'DUNDEEVAR2';'1.2.40.0.34.5.87';'Dundee var2';;;;;'0';'L';
'E1';'1.2.40.0.34.5.87';'E1';;;;;'0';'L';
'E10';'1.2.40.0.34.5.87';'E10';;;;;'0';'L';
'E11';'1.2.40.0.34.5.87';'E11';;;;;'0';'L';
'E12';'1.2.40.0.34.5.87';'E12';;;;;'0';'L';
'E13';'1.2.40.0.34.5.87';'E13';;;;;'0';'L';
'E14';'1.2.40.0.34.5.87';'E14';;;;;'0';'L';
'E1VAR';'1.2.40.0.34.5.87';'E1 var';;;;;'0';'L';
'E2';'1.2.40.0.34.5.87';'E2';;;;;'0';'L';
'E3';'1.2.40.0.34.5.87';'E3';;;;;'0';'L';
'E4';'1.2.40.0.34.5.87';'E4';;;;;'0';'L';
'E5';'1.2.40.0.34.5.87';'E5';;;;;'0';'L';
'E6';'1.2.40.0.34.5.87';'E6';;;;;'0';'L';
'E7';'1.2.40.0.34.5.87';'E7';;;;;'0';'L';
'E8';'1.2.40.0.34.5.87';'E8';;;;;'0';'L';
'E9';'1.2.40.0.34.5.87';'E9';;;;;'0';'L';
'E9VAR';'1.2.40.0.34.5.87';'E9 var';;;;;'0';'L';
'F1';'1.2.40.0.34.5.87';'F1';;;;;'0';'L';
'F2';'1.2.40.0.34.5.87';'F2';;;;;'0';'L';
'F3';'1.2.40.0.34.5.87';'F3';;;;;'0';'L';
'F4';'1.2.40.0.34.5.87';'F4';;;;;'0';'L';
'F5';'1.2.40.0.34.5.87';'F5';;;;;'0';'L';
'F6';'1.2.40.0.34.5.87';'F6';;;;;'0';'L';
'F7';'1.2.40.0.34.5.87';'F7';;;;;'0';'L';
'F8';'1.2.40.0.34.5.87';'F8';;;;;'0';'L';
'F9';'1.2.40.0.34.5.87';'F9';;;;;'0';'L';
'G1';'1.2.40.0.34.5.87';'G1';;;;;'0';'L';
'G2';'1.2.40.0.34.5.87';'G2';;;;;'0';'L';
'G3';'1.2.40.0.34.5.87';'G3';;;;;'0';'L';
'G4';'1.2.40.0.34.5.87';'G4';;;;;'0';'L';
'G5';'1.2.40.0.34.5.87';'G5';;;;;'0';'L';
'H';'1.2.40.0.34.5.87';'H';;;;;'0';'L';
'J1';'1.2.40.0.34.5.87';'J1';;;;;'0';'L';
'J2';'1.2.40.0.34.5.87';'J2';;;;;'0';'L';
'J3';'1.2.40.0.34.5.87';'J3';;;;;'0';'L';
'J4';'1.2.40.0.34.5.87';'J4';;;;;'0';'L';
'J5';'1.2.40.0.34.5.87';'J5';;;;;'0';'L';
'JERSEY';'1.2.40.0.34.5.87';'Jersey';;;;;'0';'L';
'JERSEYVAR1';'1.2.40.0.34.5.87';'Jersey var1';;;;;'0';'L';
'JERSEYVAR2';'1.2.40.0.34.5.87';'Jersey var2';;;;;'0';'L';
'JERSEYVAR3';'1.2.40.0.34.5.87';'Jersey var3';;;;;'0';'L';
'K1';'1.2.40.0.34.5.87';'K1';;;;;'0';'L';
'K2';'1.2.40.0.34.5.87';'K2';;;;;'0';'L';
'K3';'1.2.40.0.34.5.87';'K3';;;;;'0';'L';
'L1';'1.2.40.0.34.5.87';'L1';;;;;'0';'L';
'L2';'1.2.40.0.34.5.87';'L2';;;;;'0';'L';
'M1';'1.2.40.0.34.5.87';'M1';;;;;'0';'L';
'M2';'1.2.40.0.34.5.87';'M2';;;;;'0';'L';
'M3';'1.2.40.0.34.5.87';'M3';;;;;'0';'L';
'M4';'1.2.40.0.34.5.87';'M4';;;;;'0';'L';
'N';'1.2.40.0.34.5.87';'N';;;;;'0';'L';
'NA';'1.2.40.0.34.5.87';'nicht durchgeführt';;;;;'0';'L';
'O';'1.2.40.0.34.5.87';'O';;;;;'0';'L';
'RDNC';'1.2.40.0.34.5.87';'RDNC';;;;;'0';'L';
'SCARBOROUGH';'1.2.40.0.34.5.87';'Scarborough';;;;;'0';'L';
'T';'1.2.40.0.34.5.87';'T';;;;;'0';'L';
'TAUNTON';'1.2.40.0.34.5.87';'Taunton';;;;;'0';'L';
'TAUNTONVAR1';'1.2.40.0.34.5.87';'Taunton var1';;;;;'0';'L';
'U274';'1.2.40.0.34.5.87';'U274';;;;;'0';'L';
'U275';'1.2.40.0.34.5.87';'U275';;;;;'0';'L';
'U276';'1.2.40.0.34.5.87';'U276';;;;;'0';'L';
'U277';'1.2.40.0.34.5.87';'U277';;;;;'0';'L';
'U278';'1.2.40.0.34.5.87';'U278';;;;;'0';'L';
'U279';'1.2.40.0.34.5.87';'U279';;;;;'0';'L';
'U280';'1.2.40.0.34.5.87';'U280';;;;;'0';'L';
'U281';'1.2.40.0.34.5.87';'U281';;;;;'0';'L';
'U282';'1.2.40.0.34.5.87';'U282';;;;;'0';'L';
'U283';'1.2.40.0.34.5.87';'U283';;;;;'0';'L';
'U284';'1.2.40.0.34.5.87';'U284';;;;;'0';'L';
'U285';'1.2.40.0.34.5.87';'U285';;;;;'0';'L';
'U286';'1.2.40.0.34.5.87';'U286';;;;;'0';'L';
'U287';'1.2.40.0.34.5.87';'U287';;;;;'0';'L';
'U288';'1.2.40.0.34.5.87';'U288';;;;;'0';'L';
'U289';'1.2.40.0.34.5.87';'U289';;;;;'0';'L';
'U290';'1.2.40.0.34.5.87';'U290';;;;;'0';'L';
'U291';'1.2.40.0.34.5.87';'U291';;;;;'0';'L';
'U292';'1.2.40.0.34.5.87';'U292';;;;;'0';'L';
'U293';'1.2.40.0.34.5.87';'U293';;;;;'0';'L';
'U294';'1.2.40.0.34.5.87';'U294';;;;;'0';'L';
'U295';'1.2.40.0.34.5.87';'U295';;;;;'0';'L';
'U296';'1.2.40.0.34.5.87';'U296';;;;;'0';'L';
'U297';'1.2.40.0.34.5.87';'U297';;;;;'0';'L';
'U298';'1.2.40.0.34.5.87';'U298';;;;;'0';'L';
'U299';'1.2.40.0.34.5.87';'U299';;;;;'0';'L';
'U300';'1.2.40.0.34.5.87';'U300';;;;;'0';'L';
'U301';'1.2.40.0.34.5.87';'U301';;;;;'0';'L';
'U302';'1.2.40.0.34.5.87';'U302';;;;;'0';'L';
'U303';'1.2.40.0.34.5.87';'U303';;;;;'0';'L';
'U304';'1.2.40.0.34.5.87';'U304';;;;;'0';'L';
'U305';'1.2.40.0.34.5.87';'U305';;;;;'0';'L';
'U306';'1.2.40.0.34.5.87';'U306';;;;;'0';'L';
'U307';'1.2.40.0.34.5.87';'U307';;;;;'0';'L';
'U308';'1.2.40.0.34.5.87';'U308';;;;;'0';'L';
'U309';'1.2.40.0.34.5.87';'U309';;;;;'0';'L';
'U310';'1.2.40.0.34.5.87';'U310';;;;;'0';'L';
'U311';'1.2.40.0.34.5.87';'U311';;;;;'0';'L';
'U312';'1.2.40.0.34.5.87';'U312';;;;;'0';'L';
'U313';'1.2.40.0.34.5.87';'U313';;;;;'0';'L';
'U314';'1.2.40.0.34.5.87';'U314';;;;;'0';'L';
'U315';'1.2.40.0.34.5.87';'U315';;;;;'0';'L';
'U316';'1.2.40.0.34.5.87';'U316';;;;;'0';'L';
'U317';'1.2.40.0.34.5.87';'U317';;;;;'0';'L';
'U318';'1.2.40.0.34.5.87';'U318';;;;;'0';'L';
'U319';'1.2.40.0.34.5.87';'U319';;;;;'0';'L';
'U320';'1.2.40.0.34.5.87';'U320';;;;;'0';'L';
'UNK';'1.2.40.0.34.5.87';'Unknown';;;;;'0';'L';
'UNTYPABLE';'1.2.40.0.34.5.87';'Untypable';;;;;'0';'L';
'UNTYPABLEVI';'1.2.40.0.34.5.87';'Untypable Vi';;;;;'0';'L';
'UNTYPABLEVI1';'1.2.40.0.34.5.87';'Untypable Vi1';;;;;'0';'L';
'UNTYPABLEVI2';'1.2.40.0.34.5.87';'Untypable Vi2';;;;;'0';'L';
'UNTYPABLEVI3';'1.2.40.0.34.5.87';'Untypable Vi3';;;;;'0';'L';
'UNTYPABLEVI4';'1.2.40.0.34.5.87';'Untypable Vi4';;;;;'0';'L';
'UNTYPABLEVI5';'1.2.40.0.34.5.87';'Untypable Vi5';;;;;'0';'L';
'UNTYPABLEVI6';'1.2.40.0.34.5.87';'Untypable Vi6';;;;;'0';'L';
'UNTYPABLEVI7';'1.2.40.0.34.5.87';'Untypable Vi7';;;;;'0';'L';
'VINEGATIVEVAR';'1.2.40.0.34.5.87';'Vi Negative var';;;;;'0';'L';
'WORKSOP';'1.2.40.0.34.5.87';'Worksop';;;;;'0';'L';
