{
  "resourceType": "CodeSystem",
  "id": "ems-testmethodemic-ipd",
  "url": "https://termgit.elga.gv.at/CodeSystem/ems-testmethodemic-ipd",
  "identifier": [
    {
      "use": "official",
      "system": "urn:ietf:rfc:3986",
      "value": "urn:oid:1.2.40.0.34.5.79"
    }
  ],
  "version": "1.0.0+20230131",
  "name": "ems-testmethodemic-ipd",
  "title": "EMS_TestMethodeMIC_IPD",
  "status": "active",
  "date": "2017-01-26",
  "description": "EMS Liste Testmethoden MIC IPD: Verwendung bei Pneumokokken",
  "content": "complete",
  "count": 6,
  "concept": [
    {
      "code": "AGGLUSERO",
      "display": "Serotyp Agglutination"
    },
    {
      "code": "ANTIKMIKROTITER",
      "display": "Mikrotiterverfahren"
    },
    {
      "code": "RESISTENZAUTOMAT",
      "display": "Automatisierte MHK Testung (Vitek\u00a9 etc.)"
    },
    {
      "code": "RESISTENZDIFF",
      "display": "Agar Diffusionstest"
    },
    {
      "code": "RESISTENZGRAD",
      "display": "Antibiotikumgradiententest (E-test\u00a9, etc.)"
    },
    {
      "code": "RESISTENZMHK",
      "display": "Antibiotika Resistenztestung MHK"
    }
  ]
}