{
  "resourceType": "CodeSystem",
  "id": "medikationpackaging",
  "url": "https://termgit.elga.gv.at/CodeSystem/medikationpackaging",
  "identifier": [
    {
      "use": "official",
      "system": "urn:ietf:rfc:3986",
      "value": "urn:oid:1.2.40.0.34.5.219"
    }
  ],
  "version": "1.4.0+20250121",
  "name": "medikationpackaging",
  "title": "Medikation_Packaging",
  "status": "active",
  "date": "2025-01-21",
  "description": "**Description:** Medikation Packaging. Liability and terms of use you can find on this website https://www.basg.gv.at/fuer-unternehmen/online-service/nutzungshinweise#termgit\n\n**Beschreibung:** Medikation Packaging. Haftung und Nutzungsbestimmungen finden Sie unter folgender Webseite https://www.basg.gv.at/fuer-unternehmen/online-service/nutzungshinweise#termgit",
  "content": "complete",
  "count": 37,
  "concept": [
    {
      "code": "100000073490",
      "display": "Ampulle"
    },
    {
      "code": "100000073491",
      "display": "Applikator"
    },
    {
      "code": "100000073493",
      "display": "Beutel"
    },
    {
      "code": "100000073495",
      "display": "Kanister"
    },
    {
      "code": "100000073496",
      "display": "Blisterpackung"
    },
    {
      "code": "100000073497",
      "display": "Flasche"
    },
    {
      "code": "100000073498",
      "display": "Schachtel"
    },
    {
      "code": "100000073501",
      "display": "Kan\u00fcle"
    },
    {
      "code": "100000073503",
      "display": "Patrone"
    },
    {
      "code": "100000073509",
      "display": "Streudose"
    },
    {
      "code": "100000073512",
      "display": "Tropfbeh\u00e4ltnis"
    },
    {
      "code": "100000073514",
      "display": "Druckbeh\u00e4ltnis"
    },
    {
      "code": "100000073517",
      "display": "Inhalator"
    },
    {
      "code": "100000073523",
      "display": "Weithalsgef\u00e4ss"
    },
    {
      "code": "100000073530",
      "display": "Mehrdosenbeh\u00e4ltnis"
    },
    {
      "code": "100000073531",
      "display": "Mehrdosenbeh\u00e4ltnis mit gasfreiem Pumpsystem"
    },
    {
      "code": "100000073541",
      "display": "Gie\u00dfbeh\u00e4ltnis"
    },
    {
      "code": "100000073543",
      "display": "Fertigpen"
    },
    {
      "code": "100000073544",
      "display": "Fertigspritze"
    },
    {
      "code": "100000073545",
      "display": "Druckbeh\u00e4ltnis"
    },
    {
      "code": "100000073547",
      "display": "Beutel"
    },
    {
      "code": "100000073548",
      "display": "Einritzer"
    },
    {
      "code": "100000073550",
      "display": "Einzeldosisbeh\u00e4ltnis"
    },
    {
      "code": "100000073553",
      "display": "Spraydose"
    },
    {
      "code": "100000073559",
      "display": "Folienstreifen"
    },
    {
      "code": "100000073560",
      "display": "Tablettenbeh\u00e4ltnis"
    },
    {
      "code": "100000073561",
      "display": "Tube"
    },
    {
      "code": "100000073563",
      "display": "Durchstechflasche"
    },
    {
      "code": "100000116195",
      "display": "Kalenderpackung"
    },
    {
      "code": "100000137702",
      "display": "Beh\u00e4ltnis"
    },
    {
      "code": "100000174066",
      "display": "Einzeldosisblister"
    },
    {
      "code": "200000005585",
      "display": "H\u00fclle"
    },
    {
      "code": "900000000002",
      "display": "Injektionsset (NE)"
    },
    {
      "code": "900000000006",
      "display": "Applikationssystem (NE)"
    },
    {
      "code": "900000000007",
      "display": "Tiegel (NE)"
    },
    {
      "code": "900000000009",
      "display": "Beh\u00e4ltnis (NE)"
    },
    {
      "code": "900000000011",
      "display": "Generator (NE)"
    }
  ]
}