'code';'codeSystem';'displayName';'parentCode';'concept_Beschreibung';'meaning';'hints';'level';'type';'relationships';'status'
'SP001';'1.2.40.0.34.5.45';'Adenovirus im Konjunktivalabstrich (*)';;;;'vgl.Falldefinitionen des Robert-Koch-Institutes';'0';'L';
'SP002';'1.2.40.0.34.5.45';'HIV';;;;;'0';'L';
'SP003';'1.2.40.0.34.5.45';'Bacillus anthracis';;;;;'0';'L';
'SP004';'1.2.40.0.34.5.45';'Influenza A/H5';;;;;'0';'L';
'SP005';'1.2.40.0.34.5.45';'Influenza A/H5N1';;;;;'0';'L';
'SP006';'1.2.40.0.34.5.45';'Clostridium botulinum';;;;;'0';'L';
'SP007';'1.2.40.0.34.5.45';'Brucella spp.';;;;;'0';'L';
'SP008';'1.2.40.0.34.5.45';'Campylobacter spp.';;;;;'0';'L';
'SP009';'1.2.40.0.34.5.45';'Chlamydia trachomatis';;;;;'0';'L';
'SP010';'1.2.40.0.34.5.45';'Vibrio cholerae';;;;;'0';'L';
'SP011';'1.2.40.0.34.5.45';'Denguevirus';;;;;'0';'L';
'SP012';'1.2.40.0.34.5.45';'Corynebacterium diphtheriae';;;;;'0';'L';
'SP013';'1.2.40.0.34.5.45';'Corynebacterium ulcerans';;;;;'0';'L';
'SP014';'1.2.40.0.34.5.45';'Ebolavirus';;;;'vgl.Falldefinitionen des Robert-Koch-Institutes';'0';'L';
'SP015';'1.2.40.0.34.5.45';'Escherichia coli, sonstige darmpathogene Stämme';;;;'vgl.Falldefinitionen des Robert-Koch-Institutes';'0';'L';
'SP016';'1.2.40.0.34.5.45';'Echinococcus spp.';;;;;'0';'L';
'SP017';'1.2.40.0.34.5.45';'Rickettsia prowazekii';;;;'vgl.Falldefinitionen des Robert-Koch-Institutes';'0';'L';
'SP018';'1.2.40.0.34.5.45';'FSME-Virus';;;;'vgl.Falldefinitionen des Robert-Koch-Institutes';'0';'L';
'SP019';'1.2.40.0.34.5.45';'Gelbfieber-Virus';;;;;'0';'L';
'SP020';'1.2.40.0.34.5.45';'Giardia lamblia';;;;;'0';'L';
'SP021';'1.2.40.0.34.5.45';'Neisseria gonorrhoeae';;;;;'0';'L';
'SP022';'1.2.40.0.34.5.45';'Haemophilus influenzae';;;;;'0';'L';
'SP023';'1.2.40.0.34.5.45';'Hantavirus';;;;'vgl.Falldefinitionen des Robert-Koch-Institutes';'0';'L';
'SP024';'1.2.40.0.34.5.45';'Hepatitis-A-Virus';;;;;'0';'L';
'SP025';'1.2.40.0.34.5.45';'Hepatitis-B-Virus';;;;;'0';'L';
'SP026';'1.2.40.0.34.5.45';'Hepatitis-C-Virus';;;;;'0';'L';
'SP027';'1.2.40.0.34.5.45';'HDV - Hepatitis-D-Virus akut';;;;'vgl.Falldefinitionen des Robert-Koch-Institutes';'0';'L';
'SP028';'1.2.40.0.34.5.45';'HEV - akute Virushepatitis E';;;;'vgl.Falldefinitionen des Robert-Koch-Institutes';'0';'L';
'SP029';'1.2.40.0.34.5.45';'Influenzavirus';;;;;'0';'L';
'SP030';'1.2.40.0.34.5.45';'Bordetella pertussis';;;;;'0';'L';
'SP031';'1.2.40.0.34.5.45';'Cryptosporidium spp.';;;;;'0';'L';
'SP032';'1.2.40.0.34.5.45';'Lassavirus';;;;'vgl.Falldefinitionen des Robert-Koch-Institutes';'0';'L';
'SP033';'1.2.40.0.34.5.45';'Borrelia recurrentis';;;;;'0';'L';
'SP034';'1.2.40.0.34.5.45';'Legionella spp.';;;;;'0';'L';
'SP035';'1.2.40.0.34.5.45';'Mycobacterium leprae';;;;'vgl.Falldefinitionen des Robert-Koch-Institutes';'0';'L';
'SP036';'1.2.40.0.34.5.45';'Leptospira interrogans';;;;;'0';'L';
'SP037';'1.2.40.0.34.5.45';'Listeria monocytogenes';;;;;'0';'L';
'SP038';'1.2.40.0.34.5.45';'Plasmodium spp.';;;;;'0';'L';
'SP039';'1.2.40.0.34.5.45';'Marburgvirus';;;;'vgl.Falldefinitionen des Robert-Koch-Institutes';'0';'L';
'SP040';'1.2.40.0.34.5.45';'Masernvirus';;;;;'0';'L';
'SP041';'1.2.40.0.34.5.45';'Neisseria meningitidis';;;;;'0';'L';
'SP042';'1.2.40.0.34.5.45';'Mumpsvirus';;;;;'0';'L';
'SP043';'1.2.40.0.34.5.45';'Norovirus';;;;'vgl.Falldefinitionen des Robert-Koch-Institutes';'0';'L';
'SP044';'1.2.40.0.34.5.45';'Chlamydophila psittaci';;;;'vgl.Falldefinitionen des Robert-Koch-Institutes';'0';'L';
'SP045';'1.2.40.0.34.5.45';'Yersinia pestis';;;;;'0';'L';
'SP046';'1.2.40.0.34.5.45';'Streptococcus pneumoniae';;;;;'0';'L';
'SP047';'1.2.40.0.34.5.45';'Variola-Virus';;;;;'0';'L';
'SP048';'1.2.40.0.34.5.45';'Poliovirus';;;;;'0';'L';
'SP049';'1.2.40.0.34.5.45';'Coxiella burnetii';;;;;'0';'L';
'SP050';'1.2.40.0.34.5.45';'Rotavirus';;;;'vgl.Falldefinitionen des Robert-Koch-Institutes';'0';'L';
'SP051';'1.2.40.0.34.5.45';'Rubella-Virus';;;;;'0';'L';
'SP052';'1.2.40.0.34.5.45';'DEPRECATED: Rubella-Virus';;;;'DEPRECATED, Duplikat, daher auf Ungültig (DEPRECATED) gesetzt';'0';'D';;'retired'
'SP053';'1.2.40.0.34.5.45';'Salmonella spp. außer S. Typhi und S. Paratyphi';;;;;'0';'L';
'SP054';'1.2.40.0.34.5.45';'SARS-Coronavirus, SARS-CoV';;;;;'0';'L';
'SP055';'1.2.40.0.34.5.45';'Shigella spp.';;;;;'0';'L';
'SP056';'1.2.40.0.34.5.45';'Treponema pallidum';;;;;'0';'L';
'SP057';'1.2.40.0.34.5.45';'Clostridium tetani';;;;;'0';'L';
'SP058';'1.2.40.0.34.5.45';'Lyssa-Virus';;;;;'0';'L';
'SP059';'1.2.40.0.34.5.45';'Toxoplasma gondii';;;;;'0';'L';
'SP060';'1.2.40.0.34.5.45';'Trichinella spp.';;;;;'0';'L';
'SP061';'1.2.40.0.34.5.45';'Mycobacterium-tuberculosis-Komplex';;;;;'0';'L';
'SP062';'1.2.40.0.34.5.45';'Francisella tularensis';;;;;'0';'L';
'SP063';'1.2.40.0.34.5.45';'Salmonella typhi';;;;;'0';'L';
'SP064';'1.2.40.0.34.5.45';'Salmonella paratyphi';;;;;'0';'L';
'SP065';'1.2.40.0.34.5.45';'West-Nil-Virus';;;;;'0';'L';
'SP066';'1.2.40.0.34.5.45';'Yersinia enterocolitica';;;;;'0';'L';
'SP067';'1.2.40.0.34.5.45';'Yersinia pseudotuberculosis';;;;;'0';'L';
