'code';'codeSystem';'displayName';'parentCode';'concept_Beschreibung';'meaning';'hints';'level';'type';'relationships'
'104';'1.2.40.0.34.3.1.10.50';'Reisemedizin';'';'';'';'';'0';'L';''
'3';'1.2.40.0.34.3.1.10.50';'Angiologische Basisdiagnostik';'';'';'';'';'0';'L';''
'4210';'1.2.40.0.34.3.1.10.50';'Sonographie Abdomen';'';'';'';'';'0';'L';''
'4212';'1.2.40.0.34.3.1.10.50';'Sonographie Arterien';'';'';'';'';'0';'L';''
'4214';'1.2.40.0.34.3.1.10.50';'Sonographie Bewegungsapparat';'';'';'';'';'0';'L';''
'4216';'1.2.40.0.34.3.1.10.50';'Sonographie Bulbus und Anhängsel';'';'';'';'';'0';'L';''
'4218';'1.2.40.0.34.3.1.10.50';'Sonographie Echokardiographie';'';'';'';'';'0';'L';''
'4220';'1.2.40.0.34.3.1.10.50';'Sonographie Hirnversorgende Arterien';'';'';'';'';'0';'L';''
'4222';'1.2.40.0.34.3.1.10.50';'Sonographie Hüftsonographie';'';'';'';'';'0';'L';''
'4224';'1.2.40.0.34.3.1.10.50';'Sonographie Mammae';'';'';'';'';'0';'L';''
'4226';'1.2.40.0.34.3.1.10.50';'Sonographie Orbita';'';'';'';'';'0';'L';''
'4228';'1.2.40.0.34.3.1.10.50';'Sonographie Päd Echokardiographie';'';'';'';'';'0';'L';''
'4230';'1.2.40.0.34.3.1.10.50';'Sonographie Pädiatrische Echokardiographie';'';'';'';'';'0';'L';''
'4232';'1.2.40.0.34.3.1.10.50';'Sonographie Pädiatrische Sonographie';'';'';'';'';'0';'L';''
'4234';'1.2.40.0.34.3.1.10.50';'Sonographie Pleura und Lunge';'';'';'';'';'0';'L';''
'4236';'1.2.40.0.34.3.1.10.50';'Sonographie Schilddrüse';'';'';'';'';'0';'L';''
'4238';'1.2.40.0.34.3.1.10.50';'Sonographie Smallpart';'';'';'';'';'0';'L';''
'4240';'1.2.40.0.34.3.1.10.50';'Sonographie TEE Fokussierte Echokardiographie';'';'';'';'';'0';'L';''
'4242';'1.2.40.0.34.3.1.10.50';'Sonographie transkraniell';'';'';'';'';'0';'L';''
'4244';'1.2.40.0.34.3.1.10.50';'Sonographie Urogenital';'';'';'';'';'0';'L';''
'4246';'1.2.40.0.34.3.1.10.50';'Sonographie Venen';'';'';'';'';'0';'L';''
'4248';'1.2.40.0.34.3.1.10.50';'Sonographie Weiblicher Unterbauch';'';'';'';'';'0';'L';''
'54';'1.2.40.0.34.3.1.10.50';'Elektroenzephalographie';'';'';'';'';'0';'L';''
'7';'1.2.40.0.34.3.1.10.50';'Ärztliche Wundbehandlung';'';'';'';'';'0';'L';''
'8';'1.2.40.0.34.3.1.10.50';'Basismodul Sexualmedizin';'';'';'';'';'0';'L';''
