{
  "resourceType": "CodeSystem",
  "id": "lkf-ergaenzung",
  "url": "https://termgit.elga.gv.at/CodeSystem/lkf-ergaenzung",
  "identifier": [
    {
      "use": "official",
      "system": "urn:ietf:rfc:3986",
      "value": "urn:oid:1.2.40.0.34.5.211"
    }
  ],
  "version": "1.0.0+20230131",
  "name": "lkf-ergaenzung",
  "title": "LKF_Ergaenzung",
  "status": "active",
  "date": "2021-09-27",
  "description": "Erg\u00e4nzung zu Diagnosesicherheit",
  "content": "complete",
  "count": 3,
  "concept": [
    {
      "code": "ART",
      "display": "Diagnose-Art"
    },
    {
      "code": "STAT",
      "display": "Diagnose-statAuf"
    },
    {
      "code": "TYP",
      "display": "Diagnose-Typ"
    }
  ]
}