{
  "resourceType": "ValueSet",
  "id": "elga-medikationpharmazeutischeempfehlungstatus",
  "meta": {
    "profile": [
      "http://hl7.at/fhir/HL7ATCoreProfiles/4.0.1/StructureDefinition/at-core-valueset"
    ]
  },
  "url": "https://termgit.elga.gv.at/ValueSet/elga-medikationpharmazeutischeempfehlungstatus",
  "identifier": [
    {
      "use": "official",
      "system": "urn:ietf:rfc:3986",
      "value": "urn:oid:1.2.40.0.34.10.71"
    }
  ],
  "version": "1.1.0+20240325",
  "name": "elga-medikationpharmazeutischeempfehlungstatus",
  "title": "ELGA_MedikationPharmazeutischeEmpfehlungStatus",
  "status": "active",
  "date": "2024-03-25",
  "description": "**Description:** ELGA ValueSet for Pharmaceutical Advice status\n\n**Beschreibung:** ELGA ValueSet f\u00fcr Pharmazeutische Empfehlung Status",
  "compose": {
    "include": [
      {
        "extension": [
          {
            "url": "http://hl7.at/fhir/HL7ATCoreProfiles/4.0.1/StructureDefinition/at-core-ext-valueset-systemoid",
            "valueOid": "urn:oid:1.3.6.1.4.1.19376.1.9.2.1"
          }
        ],
        "system": "https://termgit.elga.gv.at/CodeSystem/ihe-pharmaceutical-advice-status-list",
        "version": "1.0.0+20230131",
        "concept": [
          {
            "code": "CANCEL",
            "display": "Storno/Absetzen"
          },
          {
            "code": "CHANGE",
            "display": "\u00c4nderung"
          }
        ]
      }
    ]
  },
  "expansion": {
    "timestamp": "2024-03-25T06:36:54+00:00",
    "contains": [
      {
        "extension": [
          {
            "url": "http://hl7.at/fhir/HL7ATCoreProfiles/4.0.1/StructureDefinition/at-core-ext-valueset-systemoid",
            "valueOid": "urn:oid:1.3.6.1.4.1.19376.1.9.2.1"
          }
        ],
        "system": "https://termgit.elga.gv.at/CodeSystem/ihe-pharmaceutical-advice-status-list",
        "version": "1.0.0+20230131",
        "code": "CANCEL",
        "display": "Storno/Absetzen"
      },
      {
        "extension": [
          {
            "url": "http://hl7.at/fhir/HL7ATCoreProfiles/4.0.1/StructureDefinition/at-core-ext-valueset-systemoid",
            "valueOid": "urn:oid:1.3.6.1.4.1.19376.1.9.2.1"
          }
        ],
        "system": "https://termgit.elga.gv.at/CodeSystem/ihe-pharmaceutical-advice-status-list",
        "version": "1.0.0+20230131",
        "code": "CHANGE",
        "display": "\u00c4nderung"
      }
    ]
  }
}