'code';'codeSystem';'displayName';'parentCodeSystemName';'concept_Beschreibung';'meaning';'hints';'orderNumber';'level';'type';'relationships';'einheit print';'einheit codiert'
'NI';'2.16.840.1.113883.5.1008';'NoInformation';'http://terminology.hl7.org/CodeSystem/v3-NullFlavor';'';'keine Information vorhanden';'';'1';'0';'S';'';'';''
'INV';'2.16.840.1.113883.5.1008';'invalid';'http://terminology.hl7.org/CodeSystem/v3-NullFlavor';'';'';'Nur Gruppierung, nicht verwenden (in CDA R2 nicht erlaubt)';'2';'1';'A';'';'';''
'OTH';'2.16.840.1.113883.5.1008';'Other';'http://terminology.hl7.org/CodeSystem/v3-NullFlavor';'';'Andere';'';'3';'2';'S';'';'';''
'NINF';'2.16.840.1.113883.5.1008';'Negative infinity';'http://terminology.hl7.org/CodeSystem/v3-NullFlavor';'';'negativ unendlich';'';'4';'3';'L';'';'';''
'PINF';'2.16.840.1.113883.5.1008';'Positive infinity';'http://terminology.hl7.org/CodeSystem/v3-NullFlavor';'';'positiv unendlich';'';'5';'3';'L';'';'';''
'MSK';'2.16.840.1.113883.5.1008';'Masked';'http://terminology.hl7.org/CodeSystem/v3-NullFlavor';'';'maskiert/vertraulich/ nicht freigegeben';'';'6';'1';'L';'';'';''
'NA';'2.16.840.1.113883.5.1008';'Not applicable';'http://terminology.hl7.org/CodeSystem/v3-NullFlavor';'';'nicht anwendbar';'';'7';'1';'L';'';'';''
'UNK';'2.16.840.1.113883.5.1008';'Unknown';'http://terminology.hl7.org/CodeSystem/v3-NullFlavor';'';'unbekannt';'Wert ist unbekannt. Wenn der Wert bekannt ist, aber nicht codiert werden kann, soll UNC oder OTH verwendet werden.';'8';'1';'S';'';'';''
'ASKU';'2.16.840.1.113883.5.1008';'Asked, but unknown';'http://terminology.hl7.org/CodeSystem/v3-NullFlavor';'';'erfragt, aber unbekannt';'';'9';'2';'S';'';'';''
'NAV';'2.16.840.1.113883.5.1008';'Temporarily unavailable';'http://terminology.hl7.org/CodeSystem/v3-NullFlavor';'';'noch nicht bekannt';'';'10';'3';'L';'';'';''
'NASK';'2.16.840.1.113883.5.1008';'Not asked';'http://terminology.hl7.org/CodeSystem/v3-NullFlavor';'';'nicht erfragt';'';'11';'2';'L';'';'';''
'TRC';'2.16.840.1.113883.5.1008';'Trace';'http://terminology.hl7.org/CodeSystem/v3-NullFlavor';'';'nur in Spuren vorhanden';'';'12';'2';'L';'';'';''
