"resource";"id";"url";"version";"name";"title";"status";"profile";"description";"identifier";"date";"publisher";"contact";"count"
"ValueSet";"elga-auditparticipantobjecttype";"https://termgit.elga.gv.at/ValueSet/elga-auditparticipantobjecttype";"1.2.0+20240820";"elga-auditparticipantobjecttype";"ELGA_AuditParticipantObjectType";"active";"http://hl7.at/fhir/HL7ATCoreProfiles/4.0.1/StructureDefinition/at-core-valueset";"Codeliste der ELGA spezifischen Audit Participant Object Type Codes. Der Audit Participant Object Type beschreibt die Art eines Objekts, welches im Audit Event referenziert ist.";"1.2.40.0.34.10.154";"2024-08-20";"ELGA GmbH";"https://www.elga.gv.at|url^https://www.elga.gv.at^^^^";"4"

"system";"version";"code";"display";"extension"
"https://termgit.elga.gv.at/CodeSystem/elga-auditparticipantobjecttype";"1.0.1+20240129";"100";"Policy";"http://hl7.at/fhir/HL7ATCoreProfiles/4.0.1/StructureDefinition/at-core-ext-valueset-systemoid|urn:oid:1.2.40.0.34.5.153|oid"
"https://termgit.elga.gv.at/CodeSystem/elga-auditparticipantobjecttype";"1.0.1+20240129";"110";"Kontaktbestätigung";"http://hl7.at/fhir/HL7ATCoreProfiles/4.0.1/StructureDefinition/at-core-ext-valueset-systemoid|urn:oid:1.2.40.0.34.5.153|oid"
"https://termgit.elga.gv.at/CodeSystem/elga-auditparticipantobjecttype";"1.0.1+20240129";"120";"Security Token";"http://hl7.at/fhir/HL7ATCoreProfiles/4.0.1/StructureDefinition/at-core-ext-valueset-systemoid|urn:oid:1.2.40.0.34.5.153|oid"
"https://termgit.elga.gv.at/CodeSystem/elga-auditparticipantobjecttype";"1.0.1+20240129";"130";"Vollmacht";"http://hl7.at/fhir/HL7ATCoreProfiles/4.0.1/StructureDefinition/at-core-ext-valueset-systemoid|urn:oid:1.2.40.0.34.5.153|oid"