{
  "resourceType": "ValueSet",
  "id": "elga-pregnancystatus",
  "meta": {
    "profile": [
      "http://hl7.at/fhir/HL7ATCoreProfiles/4.0.1/StructureDefinition/at-core-valueset"
    ]
  },
  "url": "https://termgit.elga.gv.at/ValueSet/elga-pregnancystatus",
  "identifier": [
    {
      "use": "official",
      "system": "urn:ietf:rfc:3986",
      "value": "urn:oid:1.2.40.0.34.6.0.10.52"
    }
  ],
  "version": "1.2.0+20240325",
  "name": "elga-pregnancystatus",
  "title": "ELGA_PregnancyStatus",
  "status": "active",
  "date": "2024-03-25",
  "publisher": "ELGA GmbH",
  "compose": {
    "include": [
      {
        "extension": [
          {
            "url": "http://hl7.at/fhir/HL7ATCoreProfiles/4.0.1/StructureDefinition/at-core-ext-valueset-systemoid",
            "valueOid": "urn:oid:2.16.840.1.113883.6.1"
          }
        ],
        "system": "http://loinc.org",
        "version": "2.73",
        "concept": [
          {
            "code": "LA15173-0",
            "display": "Pregnant"
          },
          {
            "code": "LA26683-5",
            "display": "Not pregnant"
          },
          {
            "code": "LA4489-6",
            "display": "Unknown"
          }
        ]
      }
    ]
  },
  "expansion": {
    "timestamp": "2024-03-25T06:36:54+00:00",
    "contains": [
      {
        "extension": [
          {
            "url": "http://hl7.at/fhir/HL7ATCoreProfiles/4.0.1/StructureDefinition/at-core-ext-valueset-systemoid",
            "valueOid": "urn:oid:2.16.840.1.113883.6.1"
          }
        ],
        "system": "http://loinc.org",
        "version": "2.73",
        "code": "LA15173-0",
        "display": "Pregnant"
      },
      {
        "extension": [
          {
            "url": "http://hl7.at/fhir/HL7ATCoreProfiles/4.0.1/StructureDefinition/at-core-ext-valueset-systemoid",
            "valueOid": "urn:oid:2.16.840.1.113883.6.1"
          }
        ],
        "system": "http://loinc.org",
        "version": "2.73",
        "code": "LA26683-5",
        "display": "Not pregnant"
      },
      {
        "extension": [
          {
            "url": "http://hl7.at/fhir/HL7ATCoreProfiles/4.0.1/StructureDefinition/at-core-ext-valueset-systemoid",
            "valueOid": "urn:oid:2.16.840.1.113883.6.1"
          }
        ],
        "system": "http://loinc.org",
        "version": "2.73",
        "code": "LA4489-6",
        "display": "Unknown"
      }
    ]
  }
}