'code';'codeSystem';'displayName';'parentCode';'concept_Beschreibung';'meaning';'hints';'level';'type';'relationships'
'1.2.840.10008.5.1.4.1.1.1';'1.2.840.10008.2.6.1';'Computed Radiography Image Storage';'';'';'';'';'0';'L';''
'1.2.840.10008.5.1.4.1.1.1.1';'1.2.840.10008.2.6.1';'Digital X-Ray Image Storage - For Presentation';'';'';'';'';'0';'L';''
'1.2.840.10008.5.1.4.1.1.1.1.1';'1.2.840.10008.2.6.1';'Digital X-Ray Image Storage - For Processing';'';'';'';'';'0';'L';''
'1.2.840.10008.5.1.4.1.1.1.2';'1.2.840.10008.2.6.1';'Digital Mammography X-Ray Image Storage- For Presentation';'';'';'';'';'0';'L';''
'1.2.840.10008.5.1.4.1.1.1.2.1';'1.2.840.10008.2.6.1';'Digital Mammography X-Ray Image Storage- For Processing';'';'';'';'';'0';'L';''
'1.2.840.10008.5.1.4.1.1.1.3';'1.2.840.10008.2.6.1';'Digital Intra-Oral X-Ray Image Storage - For Presentation';'';'';'';'';'0';'L';''
'1.2.840.10008.5.1.4.1.1.1.3.1';'1.2.840.10008.2.6.1';'Digital Intra-Oral X-Ray Image Storage - For Processing';'';'';'';'';'0';'L';''
'1.2.840.10008.5.1.4.1.1.104.1';'1.2.840.10008.2.6.1';'Encapsulated PDF Storage';'';'';'';'';'0';'L';''
'1.2.840.10008.5.1.4.1.1.104.2';'1.2.840.10008.2.6.1';'Encapsulated CDA Storage';'';'';'';'';'0';'L';''
'1.2.840.10008.5.1.4.1.1.11.1';'1.2.840.10008.2.6.1';'Grayscale Softcopy Presentation State Storage';'';'';'';'';'0';'L';''
'1.2.840.10008.5.1.4.1.1.11.2';'1.2.840.10008.2.6.1';'Color Softcopy Presentation State Storage';'';'';'';'';'0';'L';''
'1.2.840.10008.5.1.4.1.1.11.3';'1.2.840.10008.2.6.1';'Pseudo-Color Softcopy Presentation State Storage';'';'';'';'';'0';'L';''
'1.2.840.10008.5.1.4.1.1.11.4';'1.2.840.10008.2.6.1';'Blending Softcopy Presentation State Storage';'';'';'';'';'0';'L';''
'1.2.840.10008.5.1.4.1.1.11.5';'1.2.840.10008.2.6.1';'XA/XRF Grayscale Softcopy PresentationState Storage';'';'';'';'';'0';'L';''
'1.2.840.10008.5.1.4.1.1.12.1';'1.2.840.10008.2.6.1';'X-Ray Angiographic Image Storage';'';'';'';'';'0';'L';''
'1.2.840.10008.5.1.4.1.1.12.1.1';'1.2.840.10008.2.6.1';'Enhanced XA Image Storage';'';'';'';'';'0';'L';''
'1.2.840.10008.5.1.4.1.1.12.2';'1.2.840.10008.2.6.1';'X-Ray Radiofluoroscopic Image Storage';'';'';'';'';'0';'L';''
'1.2.840.10008.5.1.4.1.1.12.2.1';'1.2.840.10008.2.6.1';'Enhanced XRF Image Storage';'';'';'';'';'0';'L';''
'1.2.840.10008.5.1.4.1.1.128';'1.2.840.10008.2.6.1';'Positron Emission Tomography Image Storage';'';'';'';'';'0';'L';''
'1.2.840.10008.5.1.4.1.1.128.1';'1.2.840.10008.2.6.1';'Legacy Converted Enhanced PET Image Storage';'';'';'';'';'0';'L';''
'1.2.840.10008.5.1.4.1.1.13.1.1';'1.2.840.10008.2.6.1';'X-Ray 3D Angiographic Image Storage';'';'';'';'';'0';'L';''
'1.2.840.10008.5.1.4.1.1.13.1.2';'1.2.840.10008.2.6.1';'X-Ray 3D Craniofacial Image Storage';'';'';'';'';'0';'L';''
'1.2.840.10008.5.1.4.1.1.13.1.3';'1.2.840.10008.2.6.1';'Breast Tomosynthesis Image Storage';'';'';'';'';'0';'L';''
'1.2.840.10008.5.1.4.1.1.13.1.4';'1.2.840.10008.2.6.1';'Breast Projection X-Ray Image Storage - For Presentation';'';'';'';'';'0';'L';''
'1.2.840.10008.5.1.4.1.1.13.1.5';'1.2.840.10008.2.6.1';'Breast Projection X-Ray Image Storage - For Processing';'';'';'';'';'0';'L';''
'1.2.840.10008.5.1.4.1.1.130';'1.2.840.10008.2.6.1';'Enhanced PET Image Storage';'';'';'';'';'0';'L';''
'1.2.840.10008.5.1.4.1.1.131';'1.2.840.10008.2.6.1';'Basic Structured Display Storage';'';'';'';'';'0';'L';''
'1.2.840.10008.5.1.4.1.1.14.1';'1.2.840.10008.2.6.1';'Intravascular Optical Coherence Tomography Image Storage - For Presentation';'';'';'';'';'0';'L';''
'1.2.840.10008.5.1.4.1.1.14.2';'1.2.840.10008.2.6.1';'Intravascular Optical Coherence Tomography Image Storage - For Processing';'';'';'';'';'0';'L';''
'1.2.840.10008.5.1.4.1.1.2';'1.2.840.10008.2.6.1';'CT Image Storage';'';'';'';'';'0';'L';''
'1.2.840.10008.5.1.4.1.1.2.1';'1.2.840.10008.2.6.1';'Enhanced CT Image Storage';'';'';'';'';'0';'L';''
'1.2.840.10008.5.1.4.1.1.2.2';'1.2.840.10008.2.6.1';'Legacy Converted Enhanced CT Image Storage';'';'';'';'';'0';'L';''
'1.2.840.10008.5.1.4.1.1.20';'1.2.840.10008.2.6.1';'Nuclear Medicine Image Storage';'';'';'';'';'0';'L';''
'1.2.840.10008.5.1.4.1.1.3.1';'1.2.840.10008.2.6.1';'Ultrasound Multi-frame Image Storage';'';'';'';'';'0';'L';''
'1.2.840.10008.5.1.4.1.1.4';'1.2.840.10008.2.6.1';'MR Image Storage';'';'';'';'';'0';'L';''
'1.2.840.10008.5.1.4.1.1.4.1';'1.2.840.10008.2.6.1';'Enhanced MR Image Storage';'';'';'';'';'0';'L';''
'1.2.840.10008.5.1.4.1.1.4.2';'1.2.840.10008.2.6.1';'MR Spectroscopy Storage';'';'';'';'';'0';'L';''
'1.2.840.10008.5.1.4.1.1.4.3';'1.2.840.10008.2.6.1';'Enhanced MR Color Image Storage';'';'';'';'';'0';'L';''
'1.2.840.10008.5.1.4.1.1.4.4';'1.2.840.10008.2.6.1';'Legacy Converted Enhanced MR ImageStorage';'';'';'';'';'0';'L';''
'1.2.840.10008.5.1.4.1.1.481.1';'1.2.840.10008.2.6.1';'RT Image Storage';'';'';'';'';'0';'L';''
'1.2.840.10008.5.1.4.1.1.481.2';'1.2.840.10008.2.6.1';'RT Dose Storage';'';'';'';'';'0';'L';''
'1.2.840.10008.5.1.4.1.1.481.3';'1.2.840.10008.2.6.1';'RT Structure Set Storage';'';'';'';'';'0';'L';''
'1.2.840.10008.5.1.4.1.1.481.4';'1.2.840.10008.2.6.1';'RT Beams Treatment Record Storage';'';'';'';'';'0';'L';''
'1.2.840.10008.5.1.4.1.1.481.5';'1.2.840.10008.2.6.1';'RT Plan Storage';'';'';'';'';'0';'L';''
'1.2.840.10008.5.1.4.1.1.481.6';'1.2.840.10008.2.6.1';'RT Brachy Treatment Record Storage';'';'';'';'';'0';'L';''
'1.2.840.10008.5.1.4.1.1.481.7';'1.2.840.10008.2.6.1';'RT Treatment Summary Record Storage';'';'';'';'';'0';'L';''
'1.2.840.10008.5.1.4.1.1.481.8';'1.2.840.10008.2.6.1';'RT Ion Plan Storage';'';'';'';'';'0';'L';''
'1.2.840.10008.5.1.4.1.1.481.9';'1.2.840.10008.2.6.1';'RT Ion Beams Treatment Record Storage';'';'';'';'';'0';'L';''
'1.2.840.10008.5.1.4.1.1.6.1';'1.2.840.10008.2.6.1';'Ultrasound Image Storage';'';'';'';'';'0';'L';''
'1.2.840.10008.5.1.4.1.1.6.2';'1.2.840.10008.2.6.1';'Enhanced US Volume Storage';'';'';'';'';'0';'L';''
'1.2.840.10008.5.1.4.1.1.66';'1.2.840.10008.2.6.1';'Raw Data Storage';'';'';'';'';'0';'L';''
'1.2.840.10008.5.1.4.1.1.66.1';'1.2.840.10008.2.6.1';'Spatial Registration Storage';'';'';'';'';'0';'L';''
'1.2.840.10008.5.1.4.1.1.66.2';'1.2.840.10008.2.6.1';'Spatial Fiducials Storage';'';'';'';'';'0';'L';''
'1.2.840.10008.5.1.4.1.1.66.3';'1.2.840.10008.2.6.1';'Deformable Spatial Registration Storage';'';'';'';'';'0';'L';''
'1.2.840.10008.5.1.4.1.1.66.4';'1.2.840.10008.2.6.1';'Segmentation Storage';'';'';'';'';'0';'L';''
'1.2.840.10008.5.1.4.1.1.66.5';'1.2.840.10008.2.6.1';'Surface Segmentation Storage';'';'';'';'';'0';'L';''
'1.2.840.10008.5.1.4.1.1.67';'1.2.840.10008.2.6.1';'Real World Value Mapping Storage';'';'';'';'';'0';'L';''
'1.2.840.10008.5.1.4.1.1.68.1';'1.2.840.10008.2.6.1';'Surface Scan Mesh Storage';'';'';'';'';'0';'L';''
'1.2.840.10008.5.1.4.1.1.68.2';'1.2.840.10008.2.6.1';'Surface Scan Point Cloud Storage';'';'';'';'';'0';'L';''
'1.2.840.10008.5.1.4.1.1.7';'1.2.840.10008.2.6.1';'Secondary Capture Image Storage';'';'';'';'';'0';'L';''
'1.2.840.10008.5.1.4.1.1.7.1';'1.2.840.10008.2.6.1';'Multi-frame Single Bit Secondary Capture Image Storage';'';'';'';'';'0';'L';''
'1.2.840.10008.5.1.4.1.1.7.2';'1.2.840.10008.2.6.1';'Multi-frame Grayscale Byte Secondary Capture Image Storage';'';'';'';'';'0';'L';''
'1.2.840.10008.5.1.4.1.1.7.3';'1.2.840.10008.2.6.1';'Multi-frame Grayscale Word SecondaryCapture Image Storage';'';'';'';'';'0';'L';''
'1.2.840.10008.5.1.4.1.1.7.4';'1.2.840.10008.2.6.1';'Multi-frame True Color Secondary Capture Image Storage';'';'';'';'';'0';'L';''
'1.2.840.10008.5.1.4.1.1.77.1.1';'1.2.840.10008.2.6.1';'VL Endoscopic Image Storage';'';'';'';'';'0';'L';''
'1.2.840.10008.5.1.4.1.1.77.1.1.1';'1.2.840.10008.2.6.1';'Video Endoscopic Image Storage';'';'';'';'';'0';'L';''
'1.2.840.10008.5.1.4.1.1.77.1.2';'1.2.840.10008.2.6.1';'VL Microscopic Image Storage';'';'';'';'';'0';'L';''
'1.2.840.10008.5.1.4.1.1.77.1.2.1';'1.2.840.10008.2.6.1';'Video Microscopic Image Storage';'';'';'';'';'0';'L';''
'1.2.840.10008.5.1.4.1.1.77.1.3';'1.2.840.10008.2.6.1';'VL Slide-Coordinates Microscopic Image Storage';'';'';'';'';'0';'L';''
'1.2.840.10008.5.1.4.1.1.77.1.4';'1.2.840.10008.2.6.1';'VL Photographic Image Storage';'';'';'';'';'0';'L';''
'1.2.840.10008.5.1.4.1.1.77.1.4.1';'1.2.840.10008.2.6.1';'Video Photographic Image Storage';'';'';'';'';'0';'L';''
'1.2.840.10008.5.1.4.1.1.77.1.5.1';'1.2.840.10008.2.6.1';'Ophthalmic Photography 8 Bit Image Storage';'';'';'';'';'0';'L';''
'1.2.840.10008.5.1.4.1.1.77.1.5.2';'1.2.840.10008.2.6.1';'Ophthalmic Photography 16 Bit Image Storage';'';'';'';'';'0';'L';''
'1.2.840.10008.5.1.4.1.1.77.1.5.3';'1.2.840.10008.2.6.1';'Stereometric Relationship Storage';'';'';'';'';'0';'L';''
'1.2.840.10008.5.1.4.1.1.77.1.5.4';'1.2.840.10008.2.6.1';'Ophthalmic Tomography Image Storage';'';'';'';'';'0';'L';''
'1.2.840.10008.5.1.4.1.1.77.1.6';'1.2.840.10008.2.6.1';'VL Whole Slide Microscopy Image Storage';'';'';'';'';'0';'L';''
'1.2.840.10008.5.1.4.1.1.78.1';'1.2.840.10008.2.6.1';'Lensometry Measurements Storage';'';'';'';'';'0';'L';''
'1.2.840.10008.5.1.4.1.1.78.2';'1.2.840.10008.2.6.1';'Autorefraction Measurements Storage';'';'';'';'';'0';'L';''
'1.2.840.10008.5.1.4.1.1.78.3';'1.2.840.10008.2.6.1';'Keratometry Measurements Storage';'';'';'';'';'0';'L';''
'1.2.840.10008.5.1.4.1.1.78.4';'1.2.840.10008.2.6.1';'Subjective Refraction Measurements Storage';'';'';'';'';'0';'L';''
'1.2.840.10008.5.1.4.1.1.78.5';'1.2.840.10008.2.6.1';'Visual Acuity Measurements Storage';'';'';'';'';'0';'L';''
'1.2.840.10008.5.1.4.1.1.78.6';'1.2.840.10008.2.6.1';'Spectacle Prescription Report Storage';'';'';'';'';'0';'L';''
'1.2.840.10008.5.1.4.1.1.78.7';'1.2.840.10008.2.6.1';'Ophthalmic Axial Measurements Storage';'';'';'';'';'0';'L';''
'1.2.840.10008.5.1.4.1.1.78.8';'1.2.840.10008.2.6.1';'Intraocular Lens Calculations Storage';'';'';'';'';'0';'L';''
'1.2.840.10008.5.1.4.1.1.79.1';'1.2.840.10008.2.6.1';'Macular Grid Thickness and Volume Report';'';'';'';'';'0';'L';''
'1.2.840.10008.5.1.4.1.1.80.1';'1.2.840.10008.2.6.1';'Ophthalmic Visual Field Static Perimetry Measurements Storage';'';'';'';'';'0';'L';''
'1.2.840.10008.5.1.4.1.1.81.1';'1.2.840.10008.2.6.1';'Ophthalmic Thickness Map Storage';'';'';'';'';'0';'L';''
'1.2.840.10008.5.1.4.1.1.82.1';'1.2.840.10008.2.6.1';'Corneal Topography Map Storage';'';'';'';'';'0';'L';''
'1.2.840.10008.5.1.4.1.1.88.11';'1.2.840.10008.2.6.1';'Basic Text SR';'';'';'';'';'0';'L';''
'1.2.840.10008.5.1.4.1.1.88.22';'1.2.840.10008.2.6.1';'Enhanced SR';'';'';'';'';'0';'L';''
'1.2.840.10008.5.1.4.1.1.88.33';'1.2.840.10008.2.6.1';'Comprehensive SR';'';'';'';'';'0';'L';''
'1.2.840.10008.5.1.4.1.1.88.34';'1.2.840.10008.2.6.1';'Comprehensive 3D SR';'';'';'';'';'0';'L';''
'1.2.840.10008.5.1.4.1.1.88.40';'1.2.840.10008.2.6.1';'Procedure Log';'';'';'';'';'0';'L';''
'1.2.840.10008.5.1.4.1.1.88.50';'1.2.840.10008.2.6.1';'Mammography CAD SR';'';'';'';'';'0';'L';''
'1.2.840.10008.5.1.4.1.1.88.59';'1.2.840.10008.2.6.1';'Key Object Selection';'';'';'';'';'0';'L';''
'1.2.840.10008.5.1.4.1.1.88.65';'1.2.840.10008.2.6.1';'Chest CAD SR';'';'';'';'';'0';'L';''
'1.2.840.10008.5.1.4.1.1.88.67';'1.2.840.10008.2.6.1';'X-Ray Radiation Dose SR';'';'';'';'';'0';'L';''
'1.2.840.10008.5.1.4.1.1.88.68';'1.2.840.10008.2.6.1';'Radiopharmaceutical Radiation Dose SR';'';'';'';'';'0';'L';''
'1.2.840.10008.5.1.4.1.1.88.69';'1.2.840.10008.2.6.1';'Colon CAD SR';'';'';'';'';'0';'L';''
'1.2.840.10008.5.1.4.1.1.88.70';'1.2.840.10008.2.6.1';'Implantation Plan SR Document Storage';'';'';'';'';'0';'L';''
'1.2.840.10008.5.1.4.1.1.9.1.1';'1.2.840.10008.2.6.1';'12-lead ECG Waveform Storage';'';'';'';'';'0';'L';''
'1.2.840.10008.5.1.4.1.1.9.1.2';'1.2.840.10008.2.6.1';'General ECG Waveform Storage';'';'';'';'';'0';'L';''
'1.2.840.10008.5.1.4.1.1.9.1.3';'1.2.840.10008.2.6.1';'Ambulatory ECG Waveform Storage';'';'';'';'';'0';'L';''
'1.2.840.10008.5.1.4.1.1.9.2.1';'1.2.840.10008.2.6.1';'Hemodynamic Waveform Storage';'';'';'';'';'0';'L';''
'1.2.840.10008.5.1.4.1.1.9.3.1';'1.2.840.10008.2.6.1';'Cardiac Electrophysiology Waveform Storage';'';'';'';'';'0';'L';''
'1.2.840.10008.5.1.4.1.1.9.4.1';'1.2.840.10008.2.6.1';'Basic Voice Audio Waveform Storage';'';'';'';'';'0';'L';''
'1.2.840.10008.5.1.4.1.1.9.4.2';'1.2.840.10008.2.6.1';'General Audio Waveform Storage';'';'';'';'';'0';'L';''
'1.2.840.10008.5.1.4.1.1.9.5.1';'1.2.840.10008.2.6.1';'Arterial Pulse Waveform Storage';'';'';'';'';'0';'L';''
'1.2.840.10008.5.1.4.1.1.9.6.1';'1.2.840.10008.2.6.1';'Respiratory Waveform Storage';'';'';'';'';'0';'L';''
'1.2.840.10008.5.1.4.34.7';'1.2.840.10008.2.6.1';'RT Beams Delivery Instruction Storage';'';'';'';'';'0';'L';''
'1.2.840.10008.5.1.4.43.1';'1.2.840.10008.2.6.1';'Generic Implant Template Storage';'';'';'';'';'0';'L';''
'1.2.840.10008.5.1.4.44.1';'1.2.840.10008.2.6.1';'Implant Assembly Template Storage';'';'';'';'';'0';'L';''
'1.2.840.10008.5.1.4.45.1';'1.2.840.10008.2.6.1';'Implant Template Group Storage';'';'';'';'';'0';'L';''
