"resource";"id";"url";"version";"name";"title";"status";"profile";"identifier";"date";"count"
"ValueSet";"elga-diagnosesicherheit";"https://termgit.elga.gv.at/ValueSet/elga-diagnosesicherheit";"1.1.0+20240325";"elga-diagnosesicherheit";"ELGA_Diagnosesicherheit";"active";"http://hl7.at/fhir/HL7ATCoreProfiles/4.0.1/StructureDefinition/at-core-valueset";"1.2.40.0.34.10.168";"2024-03-25";"2"

"system";"version";"code";"display";"designation";"extension";"designation"
"https://termgit.elga.gv.at/CodeSystem/sciphox-diagnosenzusatz";"1.0.0+20230131";"G";"Gesichert";"|https://termgit.elga.gv.at/CodeSystem/austrian-designation-use^^concept_beschreibung^concept_beschreibung^|Gesicherte Diagnose ";"http://hl7.at/fhir/HL7ATCoreProfiles/4.0.1/StructureDefinition/at-core-ext-valueset-systemoid|urn:oid:2.16.840.1.113883.3.7.1.8|oid"
"https://termgit.elga.gv.at/CodeSystem/sciphox-diagnosenzusatz";"1.0.0+20230131";"V";"Verdacht auf";"|https://termgit.elga.gv.at/CodeSystem/austrian-designation-use^^concept_beschreibung^concept_beschreibung^|Verdachtsdiagnose ";"http://hl7.at/fhir/HL7ATCoreProfiles/4.0.1/StructureDefinition/at-core-ext-valueset-systemoid|urn:oid:2.16.840.1.113883.3.7.1.8|oid";"|https://termgit.elga.gv.at/CodeSystem/austrian-designation-use^^hinweise^hinweise^|uncertaintyCode = UN"