"resource";"id";"url";"version";"name";"title";"status";"description";"content";"identifier";"date";"count"
"CodeSystem";"ems-nachweisbar";"https://termgit.elga.gv.at/CodeSystem/ems-nachweisbar";"1.0.0+20230131";"ems-nachweisbar";"EMS_Nachweisbar";"active";"EMS Liste Nachweisbar: Verwendung bei TBC 'INH-Resistenzgen (KatG/inhA PCR)' und 'RMP-Resistenzgen (PCR)'";"complete";"1.2.40.0.34.5.78";"2020-11-06";"4"

"code";"display"
"N";"nachweisbar"
"NB";"nicht bestimmbar"
"NN";"nicht nachweisbar"
"NOTEST";"nicht durchgeführt"