'code';'codeSystem';'displayName';'parentCode';'concept_Beschreibung';'meaning';'hints';'level';'type';'relationships'
'C';'2.16.840.1.113883.5.4';'corrected';;;;;'0';'L';
'DIET';'2.16.840.1.113883.5.4';'Diet';;;;;'0';'S';
'BR';'2.16.840.1.113883.5.4';'breikost (GE)';;;;;'1';'L';
'DM';'2.16.840.1.113883.5.4';'diabetes mellitus diet';;;;;'1';'L';
'FAST';'2.16.840.1.113883.5.4';'fasting';;;;;'1';'L';
'GF';'2.16.840.1.113883.5.4';'gluten free';;;;;'1';'L';
'LF';'2.16.840.1.113883.5.4';'low fat';;;;;'1';'L';
'LP';'2.16.840.1.113883.5.4';'low protein';;;;;'1';'L';
'LQ';'2.16.840.1.113883.5.4';'liquid';;;;;'1';'L';
'LS';'2.16.840.1.113883.5.4';'low sodium';;;;;'1';'L';
'N';'2.16.840.1.113883.5.4';'normal diet';;;;;'1';'L';
'NF';'2.16.840.1.113883.5.4';'no fat';;;;;'1';'L';
'PAF';'2.16.840.1.113883.5.4';'phenylalanine free';;;;;'1';'L';
'PAR';'2.16.840.1.113883.5.4';'parenteral';;;;;'1';'L';
'RD';'2.16.840.1.113883.5.4';'reduction diet';;;;;'1';'L';
'SCH';'2.16.840.1.113883.5.4';'schonkost (GE)';;;;;'1';'L';
'T';'2.16.840.1.113883.5.4';'tea only';;;;;'1';'L';
'VLI';'2.16.840.1.113883.5.4';'low valin, leucin, isoleucin';;;;;'1';'L';
'DRUGPRG';'2.16.840.1.113883.5.4';'drug program';;;;;'0';'L';
'F';'2.16.840.1.113883.5.4';'final';;;;;'0';'L';
'PRLMN';'2.16.840.1.113883.5.4';'preliminary';;;;;'0';'L';
'STORE';'2.16.840.1.113883.5.4';'Storage';;;;;'0';'L';
'SUBSIDFFS';'2.16.840.1.113883.5.4';'subsidized fee for service program';;;;;'0';'L';
'WRKCOMP';'2.16.840.1.113883.5.4';'(workers compensation program';;;;;'0';'L';
'_ActAccountCode';'2.16.840.1.113883.5.4';'ActAccountCode';;;;;'0';'S';
'ACCTRECEIVABLE';'2.16.840.1.113883.5.4';'account receivable';;;;;'1';'L';
'CASH';'2.16.840.1.113883.5.4';'Cash';;;;;'1';'L';
'CC';'2.16.840.1.113883.5.4';'credit card';;;;;'1';'S';
'AE';'2.16.840.1.113883.5.4';'American Express';;;;;'2';'L';
'DN';'2.16.840.1.113883.5.4';'Diner`s Club';;;;;'2';'L';
'DV';'2.16.840.1.113883.5.4';'Discover Card';;;;;'2';'L';
'MC';'2.16.840.1.113883.5.4';'Master Card';;;;;'2';'L';
'V';'2.16.840.1.113883.5.4';'Visa';;;;;'2';'L';
'PBILLACCT';'2.16.840.1.113883.5.4';'patient billing account';;;;;'1';'L';
'_ActAdjudicationCode';'2.16.840.1.113883.5.4';'ActAdjudicationCode';;;;;'0';'S';
'AA';'2.16.840.1.113883.5.4';'adjudicated with adjustments';;;;;'1';'S';
'ANF';'2.16.840.1.113883.5.4';'adjudicated with adjustments and no financial impact';;;;;'2';'L';
'AR';'2.16.840.1.113883.5.4';'adjudicated as refused';;;;;'1';'L';
'AS';'2.16.840.1.113883.5.4';'adjudicated as submitted';;;;;'1';'L';
'_ActAdjudicationGroupCode';'2.16.840.1.113883.5.4';'ActAdjudicationGroupCode';;;;;'1';'S';
'CONT';'2.16.840.1.113883.5.4';'contract';;;;;'3';'L';
'DAY';'2.16.840.1.113883.5.4';'day';;;;;'3';'L';
'LOC';'2.16.840.1.113883.5.4';'location';;;;;'3';'L';
'MONTH';'2.16.840.1.113883.5.4';'month';;;;;'3';'L';
'PERIOD';'2.16.840.1.113883.5.4';'period';;;;;'3';'L';
'PROV';'2.16.840.1.113883.5.4';'provider';;;;;'3';'L';
'WEEK';'2.16.840.1.113883.5.4';'week';;;;;'3';'L';
'YEAR';'2.16.840.1.113883.5.4';'year';;;;;'3';'L';
'_ActAdjudicationResultActionCode';'2.16.840.1.113883.5.4';'ActAdjudicationResultActionCode';;;;;'0';'S';
'DISPLAY';'2.16.840.1.113883.5.4';'Display';;;;;'1';'L';
'FORM';'2.16.840.1.113883.5.4';'Print on Form';;;;;'1';'L';
'_ActBillableModifierCode';'2.16.840.1.113883.5.4';'ActBillableModifierCode';;;;;'0';'S';
'CPTM';'2.16.840.1.113883.5.4';'CPT modifier codes';;;;;'1';'L';
'HCPCSA';'2.16.840.1.113883.5.4';'HCPCS Level II and Carrier-assigned';;;;;'1';'L';
'_ActBillingArrangementCode';'2.16.840.1.113883.5.4';'ActBillingArrangementCode';;;;;'0';'S';
'BLK';'2.16.840.1.113883.5.4';'block funding';;;;;'1';'L';
'CAP';'2.16.840.1.113883.5.4';'capitation funding';;;;;'1';'L';
'CONTF';'2.16.840.1.113883.5.4';'contract funding';;;;;'1';'L';
'FINBILL';'2.16.840.1.113883.5.4';'financial';;;;;'1';'L';
'ROST';'2.16.840.1.113883.5.4';'roster funding';;;;;'1';'L';
'SESS';'2.16.840.1.113883.5.4';'sessional funding';;;;;'1';'L';
'_ActBoundedROICode';'2.16.840.1.113883.5.4';'ActBoundedROICode';;;;;'0';'S';
'ROIFS';'2.16.840.1.113883.5.4';'fully specified ROI';;;;;'1';'L';
'ROIPS';'2.16.840.1.113883.5.4';'partially specified ROI';;;;;'1';'L';
'_ActCareProvisionCode';'2.16.840.1.113883.5.4';'act care provision';;;;;'0';'S';
'_ActCredentialedCareCode';'2.16.840.1.113883.5.4';'act credentialed care';;;;;'1';'S';
'_ActCredentialedCareProvisionPersonCode';'2.16.840.1.113883.5.4';'act credentialed care provision peron';;;;;'2';'S';
'CACC';'2.16.840.1.113883.5.4';'certified anatomic pathology and clinical pathology care';;;;;'3';'L';
'CAIC';'2.16.840.1.113883.5.4';'certified allergy and immunology care';;;;;'3';'L';
'CAMC';'2.16.840.1.113883.5.4';'certified aerospace medicine care';;;;;'3';'L';
'CANC';'2.16.840.1.113883.5.4';'certified anesthesiology care';;;;;'3';'L';
'CAPC';'2.16.840.1.113883.5.4';'certified anatomic pathology care';;;;;'3';'L';
'CBGC';'2.16.840.1.113883.5.4';'certified clinical biochemical genetics care';;;;;'3';'L';
'CCCC';'2.16.840.1.113883.5.4';'certified clinical cytogenetics care';;;;;'3';'L';
'CCGC';'2.16.840.1.113883.5.4';'certified clinical genetics (M.D.) care';;;;;'3';'L';
'CCPC';'2.16.840.1.113883.5.4';'certified clinical pathology care';;;;;'3';'L';
'CCSC';'2.16.840.1.113883.5.4';'certified colon and rectal surgery care';;;;;'3';'L';
'CDEC';'2.16.840.1.113883.5.4';'certified dermatology care';;;;;'3';'L';
'CDRC';'2.16.840.1.113883.5.4';'certified diagnostic radiology care';;;;;'3';'L';
'CEMC';'2.16.840.1.113883.5.4';'certified emergency medicine care';;;;;'3';'L';
'CFPC';'2.16.840.1.113883.5.4';'certified family practice care';;;;;'3';'L';
'CIMC';'2.16.840.1.113883.5.4';'certified internal medicine care';;;;;'3';'L';
'CMGC';'2.16.840.1.113883.5.4';'certified clinical molecular genetics care';;;;;'3';'L';
'CNEC';'2.16.840.1.113883.5.4';'certified neurology care';;;;;'3';'L';
'CNMC';'2.16.840.1.113883.5.4';'certified nuclear medicine care';;;;;'3';'L';
'CNQC';'2.16.840.1.113883.5.4';'certified neurology with special qualifications in child neurology care';;;;;'3';'L';
'CNSC';'2.16.840.1.113883.5.4';'certified neurological surgery care';;;;;'3';'L';
'COGC';'2.16.840.1.113883.5.4';'certified obstetrics and gynecology care';;;;;'3';'L';
'COMC';'2.16.840.1.113883.5.4';'certified occupational medicine care';;;;;'3';'L';
'COPC';'2.16.840.1.113883.5.4';'certified ophthalmology care';;;;;'3';'L';
'COSC';'2.16.840.1.113883.5.4';'certified orthopaedic surgery care';;;;;'3';'L';
'COTC';'2.16.840.1.113883.5.4';'certified otolaryngology care';;;;;'3';'L';
'CPEC';'2.16.840.1.113883.5.4';'certified pediatrics care';;;;;'3';'L';
'CPGC';'2.16.840.1.113883.5.4';'certified Ph.D. medical genetics care';;;;;'3';'L';
'CPHC';'2.16.840.1.113883.5.4';'certified public health and general preventive medicine care';;;;;'3';'L';
'CPRC';'2.16.840.1.113883.5.4';'certified physical medicine and rehabilitation care';;;;;'3';'L';
'CPSC';'2.16.840.1.113883.5.4';'certified plastic surgery care';;;;;'3';'L';
'CPYC';'2.16.840.1.113883.5.4';'certified psychiatry care';;;;;'3';'L';
'CROC';'2.16.840.1.113883.5.4';'certified radiation oncology care';;;;;'3';'L';
'CRPC';'2.16.840.1.113883.5.4';'certified radiological physics care';;;;;'3';'L';
'CSUC';'2.16.840.1.113883.5.4';'certified surgery care';;;;;'3';'L';
'CTSC';'2.16.840.1.113883.5.4';'certified thoracic surgery care';;;;;'3';'L';
'CURC';'2.16.840.1.113883.5.4';'certified urology care';;;;;'3';'L';
'CVSC';'2.16.840.1.113883.5.4';'certified vascular surgery care';;;;;'3';'L';
'LGPC';'2.16.840.1.113883.5.4';'licensed general physician care';;;;;'3';'L';
'_ActCredentialedCareProvisionProgramCode';'2.16.840.1.113883.5.4';'act credentialed care provision program';;;;;'2';'S';
'AALC';'2.16.840.1.113883.5.4';'accredited assisted living care';;;;;'3';'L';
'AAMC';'2.16.840.1.113883.5.4';'accredited ambulatory care';;;;;'3';'L';
'ABHC';'2.16.840.1.113883.5.4';'accredited behavioral health care';;;;;'3';'L';
'ACAC';'2.16.840.1.113883.5.4';'accredited critical access hospital care';;;;;'3';'L';
'ACHC';'2.16.840.1.113883.5.4';'accredited hospital care';;;;;'3';'L';
'AHOC';'2.16.840.1.113883.5.4';'accredited home care';;;;;'3';'L';
'ALTC';'2.16.840.1.113883.5.4';'accredited long term care';;;;;'3';'L';
'AOSC';'2.16.840.1.113883.5.4';'accredited office-based surgery care';;;;;'3';'L';
'CACS';'2.16.840.1.113883.5.4';'certified acute coronary syndrome care';;;;;'3';'L';
'CAMI';'2.16.840.1.113883.5.4';'certified acute myocardial infarction care';;;;;'3';'L';
'CAST';'2.16.840.1.113883.5.4';'certified asthma care';;;;;'3';'L';
'CBAR';'2.16.840.1.113883.5.4';'certified bariatric surgery care';;;;;'3';'L';
'CCAD';'2.16.840.1.113883.5.4';'certified coronary artery disease care';;;;;'3';'L';
'CCAR';'2.16.840.1.113883.5.4';'certified cardiac care';;;;;'3';'L';
'CDEP';'2.16.840.1.113883.5.4';'certified depression care';;;;;'3';'L';
'CDGD';'2.16.840.1.113883.5.4';'certified digestive/gastrointestinal disorders care';;;;;'3';'L';
'CDIA';'2.16.840.1.113883.5.4';'certified diabetes care';;;;;'3';'L';
'CEPI';'2.16.840.1.113883.5.4';'certified epilepsy care';;;;;'3';'L';
'CFEL';'2.16.840.1.113883.5.4';'certified frail elderly care';;;;;'3';'L';
'CHFC';'2.16.840.1.113883.5.4';'certified heart failure care';;;;;'3';'L';
'CHRO';'2.16.840.1.113883.5.4';'certified high risk obstetrics care';;;;;'3';'L';
'CHYP';'2.16.840.1.113883.5.4';'certified hyperlipidemia care';;;;;'3';'L';
'CMIH';'2.16.840.1.113883.5.4';'certified migraine headache care';;;;;'3';'L';
'CMSC';'2.16.840.1.113883.5.4';'certified multiple sclerosis care';;;;;'3';'L';
'COJR';'2.16.840.1.113883.5.4';'certified orthopedic joint replacement care';;;;;'3';'L';
'CONC';'2.16.840.1.113883.5.4';'certified oncology care';;;;;'3';'L';
'COPD';'2.16.840.1.113883.5.4';'certified chronic obstructive pulmonary disease care';;;;;'3';'L';
'CORT';'2.16.840.1.113883.5.4';'certified organ transplant care';;;;;'3';'L';
'CPAD';'2.16.840.1.113883.5.4';'certified parkinsons disease care';;;;;'3';'L';
'CPND';'2.16.840.1.113883.5.4';'certified pneumonia disease care';;;;;'3';'L';
'CPST';'2.16.840.1.113883.5.4';'certified primary stroke center care';;;;;'3';'L';
'CSDM';'2.16.840.1.113883.5.4';'certified stroke disease management care';;;;;'3';'L';
'CSIC';'2.16.840.1.113883.5.4';'certified sickle cell care';;;;;'3';'L';
'CSLD';'2.16.840.1.113883.5.4';'certified sleep disorders care';;;;;'3';'L';
'CSPT';'2.16.840.1.113883.5.4';'certified spine treatment care';;;;;'3';'L';
'CTBU';'2.16.840.1.113883.5.4';'certified trauma/burn center care';;;;;'3';'L';
'CVDC';'2.16.840.1.113883.5.4';'certified vascular diseases care';;;;;'3';'L';
'CWMA';'2.16.840.1.113883.5.4';'certified wound management care';;;;;'3';'L';
'CWOH';'2.16.840.1.113883.5.4';'certified women`s health care';;;;;'3';'L';
'_ActEncounterCode';'2.16.840.1.113883.5.4';'ActEncounterCode';;;;;'1';'S';
'AMB';'2.16.840.1.113883.5.4';'ambulatory';;;;;'2';'L';
'EMER';'2.16.840.1.113883.5.4';'emergency';;;;;'2';'L';
'FLD';'2.16.840.1.113883.5.4';'field';;;;;'2';'L';
'HH';'2.16.840.1.113883.5.4';'home health';;;;;'2';'L';
'IMP';'2.16.840.1.113883.5.4';'inpatient encounter';;;;;'2';'S';
'ACUTE';'2.16.840.1.113883.5.4';'inpatient acute';;;;;'3';'L';
'NONAC';'2.16.840.1.113883.5.4';'inpatient non-acute';;;;;'3';'L';
'PRENC';'2.16.840.1.113883.5.4';'pre-admission';;;;;'2';'L';
'SS';'2.16.840.1.113883.5.4';'short stay';;;;;'2';'L';
'VR';'2.16.840.1.113883.5.4';'virtual';;;;;'2';'L';
'_ActMedicalServiceCode';'2.16.840.1.113883.5.4';'ActMedicalServiceCode';;;;;'1';'S';
'ALC';'2.16.840.1.113883.5.4';'Alternative Level of Care';;;;;'2';'L';
'CARD';'2.16.840.1.113883.5.4';'Cardiology';;;;;'2';'L';
'CHR';'2.16.840.1.113883.5.4';'Chronic';;;;;'2';'L';
'DNTL';'2.16.840.1.113883.5.4';'Dental';;;;;'2';'L';
'DRGRHB';'2.16.840.1.113883.5.4';'Drug Rehab';;;;;'2';'L';
'GENRL';'2.16.840.1.113883.5.4';'General';;;;;'2';'L';
'MED';'2.16.840.1.113883.5.4';'Medical';;;;;'2';'L';
'OBS';'2.16.840.1.113883.5.4';'Obstetrics';;;;;'2';'L';
'ONC';'2.16.840.1.113883.5.4';'Oncology';;;;;'2';'L';
'PALL';'2.16.840.1.113883.5.4';'Palliative';;;;;'2';'L';
'PED';'2.16.840.1.113883.5.4';'Pediatrics';;;;;'2';'L';
'PHAR';'2.16.840.1.113883.5.4';'Pharmaceutical';;;;;'2';'L';
'PHYRHB';'2.16.840.1.113883.5.4';'Physical Rehab';;;;;'2';'L';
'PSYCH';'2.16.840.1.113883.5.4';'Psychiatric';;;;;'2';'L';
'SURG';'2.16.840.1.113883.5.4';'Surgical';;;;;'2';'L';
'_ActClaimAttachmentCategoryCode';'2.16.840.1.113883.5.4';'ActClaimAttachmentCategoryCode';;;;;'0';'S';
'AUTOATTCH';'2.16.840.1.113883.5.4';'auto attachment';;;;;'1';'L';
'DOCUMENT';'2.16.840.1.113883.5.4';'document';;;;;'1';'L';
'HEALTHREC';'2.16.840.1.113883.5.4';'health record';;;;;'1';'L';
'IMG';'2.16.840.1.113883.5.4';'image';;;;;'1';'L';
'LABRESULTS';'2.16.840.1.113883.5.4';'lab results';;;;;'1';'L';
'MODEL';'2.16.840.1.113883.5.4';'model';;;;;'1';'L';
'WIATTCH';'2.16.840.1.113883.5.4';'work injury report attachment';;;;;'1';'L';
'XRAY';'2.16.840.1.113883.5.4';'x-ray';;;;;'1';'L';
'_ActConsentType';'2.16.840.1.113883.5.4';'ActConsentType';;;;;'0';'S';
'ICOL';'2.16.840.1.113883.5.4';'information collection';;;;;'1';'L';
'IDSCL';'2.16.840.1.113883.5.4';'information disclosure';;;;;'1';'L';
'INFA';'2.16.840.1.113883.5.4';'information access';;;;;'1';'S';
'INFAO';'2.16.840.1.113883.5.4';'access only';;;;;'2';'L';
'INFASO';'2.16.840.1.113883.5.4';'access and save only';;;;;'2';'L';
'IRDSCL';'2.16.840.1.113883.5.4';'information redisclosure';;;;;'1';'L';
'RESEARCH';'2.16.840.1.113883.5.4';'research information access';;;;;'1';'S';
'RSDID';'2.16.840.1.113883.5.4';'de-identified information access';;;;;'2';'L';
'RSREID';'2.16.840.1.113883.5.4';'re-identifiable information access';;;;;'2';'L';
'_ActContainerRegistrationCode';'2.16.840.1.113883.5.4';'ActContainerRegistrationCode';;;;;'0';'S';
'ID';'2.16.840.1.113883.5.4';'Identified';;;;;'1';'L';
'IP';'2.16.840.1.113883.5.4';'In Position';;;;;'1';'L';
'L';'2.16.840.1.113883.5.4';'Left Equipment';;;;;'1';'L';
'M';'2.16.840.1.113883.5.4';'Missing';;;;;'1';'L';
'O';'2.16.840.1.113883.5.4';'In Process';;;;;'1';'L';
'R';'2.16.840.1.113883.5.4';'Process Completed';;;;;'1';'L';
'X';'2.16.840.1.113883.5.4';'Container Unavailable';;;;;'1';'L';
'_ActControlVariable';'2.16.840.1.113883.5.4';'ActControlVariable';;;;;'0';'S';
'AUTO';'2.16.840.1.113883.5.4';'auto-repeat permission';;;;;'1';'L';
'ENDC';'2.16.840.1.113883.5.4';'endogenous content';;;;;'1';'L';
'REFLEX';'2.16.840.1.113883.5.4';'reflex permission';;;;;'1';'L';
'_ActCoverageConfirmationCode';'2.16.840.1.113883.5.4';'ActCoverageConfirmationCode';;;;;'0';'S';
'_ActCoverageAuthorizationConfirmationCode';'2.16.840.1.113883.5.4';'ActCoverageAuthorizationConfirmationCode';;;;;'1';'S';
'AUTH';'2.16.840.1.113883.5.4';'Authorized';;;;;'2';'L';
'NAUTH';'2.16.840.1.113883.5.4';'Not Authorized';;;;;'2';'L';
'_ActCoverageLimitCode';'2.16.840.1.113883.5.4';'ActCoverageLimitCode';;;;;'0';'S';
'COVMX';'2.16.840.1.113883.5.4';'coverage maximum';;;;;'1';'S';
'LFEMX';'2.16.840.1.113883.5.4';'life time maximum';;;;;'2';'L';
'PRDMX';'2.16.840.1.113883.5.4';'period maximum';;;;;'2';'L';
'_ActCoverageQuantityLimitCode';'2.16.840.1.113883.5.4';'ActCoverageQuantityLimitCode';;;;;'1';'S';
'COVPRD';'2.16.840.1.113883.5.4';'coverage period';;;;;'2';'L';
'NETAMT';'2.16.840.1.113883.5.4';'Net Amount';;;;;'2';'L';
'UNITPRICE';'2.16.840.1.113883.5.4';'Unit Price';;;;;'2';'L';
'UNITQTY';'2.16.840.1.113883.5.4';'Unit Quantity';;;;;'2';'L';
'_ActCoverageTypeCode';'2.16.840.1.113883.5.4';'ActCoverageTypeCode';;;;;'0';'S';
'_ActInsurancePolicyCode';'2.16.840.1.113883.5.4';'ActInsurancePolicyCode';;;;;'1';'S';
'AUTOPOL';'2.16.840.1.113883.5.4';'automobile';;;;;'2';'S';
'COL';'2.16.840.1.113883.5.4';'collision coverage policy';;;;;'3';'L';
'UNINSMOT';'2.16.840.1.113883.5.4';'uninsured motorist policy';;;;;'3';'L';
'EHCPOL';'2.16.840.1.113883.5.4';'extended healthcare';;;;;'3';'L';
'HSAPOL';'2.16.840.1.113883.5.4';'health spending account';;;;;'3';'L';
'PUBLICPOL';'2.16.840.1.113883.5.4';'public healthcare';;;;;'2';'S';
'DENTPRG';'2.16.840.1.113883.5.4';'dental program';;;;;'3';'L';
'DISEASEPRG';'2.16.840.1.113883.5.4';'disease program';;;;;'3';'S';
'CANPRG';'2.16.840.1.113883.5.4';'disease program';;;;;'4';'L';
'ENDRENAL';'2.16.840.1.113883.5.4';'end renal program';;;;;'4';'L';
'HIVAIDS';'2.16.840.1.113883.5.4';'HIV-AIDS program';;;;;'4';'L';
'MANDPOL';'2.16.840.1.113883.5.4';'mandatory health program';;;;;'3';'L';
'MENTPRG';'2.16.840.1.113883.5.4';'mental health program';;;;;'3';'L';
'SAFNET';'2.16.840.1.113883.5.4';'safety net clinic program';;;;;'3';'L';
'SUBPRG';'2.16.840.1.113883.5.4';'substance use program';;;;;'3';'L';
'SUBSIDIZ';'2.16.840.1.113883.5.4';'subsidized health program';;;;;'3';'S';
'SUBSIDMC';'2.16.840.1.113883.5.4';'subsidized managed care program';;;;;'4';'L';
'SUBSUPP';'2.16.840.1.113883.5.4';'subsidized supplemental health program';;;;;'4';'L';
'_ActInsuranceTypeCode';'2.16.840.1.113883.5.4';'ActInsuranceTypeCode';;;;;'1';'S';
'DIS';'2.16.840.1.113883.5.4';'disability insurance policy';;;;;'2';'L';
'EWB';'2.16.840.1.113883.5.4';'employee welfare benefit plan policy';;;;;'2';'L';
'FLEXP';'2.16.840.1.113883.5.4';'flexible benefit plan policy';;;;;'2';'L';
'LIFE';'2.16.840.1.113883.5.4';'life insurance policy';;;;;'2';'S';
'ANNU';'2.16.840.1.113883.5.4';'annuity policy';;;;;'3';'L';
'TLIFE';'2.16.840.1.113883.5.4';'term life insurance policy';;;;;'3';'L';
'ULIFE';'2.16.840.1.113883.5.4';'universal life insurance policy';;;;;'3';'L';
'PNC';'2.16.840.1.113883.5.4';'property and casualty insurance policy';;;;;'2';'L';
'REI';'2.16.840.1.113883.5.4';'reinsurance policy';;;;;'2';'L';
'SURPL';'2.16.840.1.113883.5.4';'surplus line insurance policy';;;;;'2';'L';
'UMBRL';'2.16.840.1.113883.5.4';'umbrella liability insurance policy';;;;;'2';'L';
'_ActHealthInsuranceTypeCode';'2.16.840.1.113883.5.4';'ActHealthInsuranceTypeCode';;;;;'2';'S';
'DENTAL';'2.16.840.1.113883.5.4';'dental care policy';;;;;'3';'L';
'DISEASE';'2.16.840.1.113883.5.4';'disease specific policy';;;;;'3';'L';
'DRUGPOL';'2.16.840.1.113883.5.4';'drug policy';;;;;'3';'L';
'HIP';'2.16.840.1.113883.5.4';'health insurance plan policy';;;;;'3';'L';
'LTC';'2.16.840.1.113883.5.4';'long term care policy';;;;;'3';'L';
'MCPOL';'2.16.840.1.113883.5.4';'managed care policy';;;;;'3';'S';
'HMO';'2.16.840.1.113883.5.4';'health maintenance organization policy';;;;;'4';'L';
'POS';'2.16.840.1.113883.5.4';'point of service policy';;;;;'5';'L';
'PPO';'2.16.840.1.113883.5.4';'preferred provider organization policy';;;;;'4';'L';
'MENTPOL';'2.16.840.1.113883.5.4';'mental health policy';;;;;'3';'L';
'SUBPOL';'2.16.840.1.113883.5.4';'substance use policy';;;;;'3';'L';
'VISPOL';'2.16.840.1.113883.5.4';'vision care policy';;;;;'3';'L';
'_ActProgramTypeCode';'2.16.840.1.113883.5.4';'ActProgramTypeCode';;;;;'1';'S';
'CHAR';'2.16.840.1.113883.5.4';'charity program';;;;;'2';'L';
'CRIME';'2.16.840.1.113883.5.4';'crime victim program';;;;;'2';'L';
'EAP';'2.16.840.1.113883.5.4';'employee assistance program';;;;;'2';'L';
'GOVEMP';'2.16.840.1.113883.5.4';'government employee health program';;;;;'2';'L';
'HIRISK';'2.16.840.1.113883.5.4';'high risk pool program';;;;;'2';'L';
'IND';'2.16.840.1.113883.5.4';'indigenous peoples health program';;;;;'2';'L';
'MILITARY';'2.16.840.1.113883.5.4';'military health program';;;;;'2';'L';
'RETIRE';'2.16.840.1.113883.5.4';'retiree health program';;;;;'2';'L';
'SOCIAL';'2.16.840.1.113883.5.4';'social service program';;;;;'2';'L';
'VET';'2.16.840.1.113883.5.4';'veteran health program';;;;;'2';'L';
'WCBPOL';'2.16.840.1.113883.5.4';'worker`s compensation';;;;;'2';'L';
'_ActDetectedIssueManagementCode';'2.16.840.1.113883.5.4';'ActDetectedIssueManagementCode';;;;;'0';'S';
'1';'2.16.840.1.113883.5.4';'Therapy Appropriate';;;;;'1';'S';
'19';'2.16.840.1.113883.5.4';'Consulted Supplier';;;;;'2';'L';
'2';'2.16.840.1.113883.5.4';'Assessed Patient';;;;;'2';'L';
'22';'2.16.840.1.113883.5.4';'appropriate indication or diagnosis';;;;;'2';'L';
'23';'2.16.840.1.113883.5.4';'prior therapy documented';;;;;'2';'L';
'3';'2.16.840.1.113883.5.4';'Patient Explanation';;;;;'2';'L';
'4';'2.16.840.1.113883.5.4';'Consulted Other Source';;;;;'2';'L';
'5';'2.16.840.1.113883.5.4';'Consulted Prescriber';;;;;'2';'S';
'6';'2.16.840.1.113883.5.4';'Prescriber Declined Change';;;;;'3';'L';
'7';'2.16.840.1.113883.5.4';'Interacting Therapy No Longer Active/Planned';;;;;'2';'L';
'14';'2.16.840.1.113883.5.4';'Supply Appropriate';;;;;'1';'S';
'15';'2.16.840.1.113883.5.4';'Replacement';;;;;'2';'L';
'16';'2.16.840.1.113883.5.4';'Vacation Supply';;;;;'2';'L';
'17';'2.16.840.1.113883.5.4';'Weekend Supply';;;;;'2';'L';
'18';'2.16.840.1.113883.5.4';'Leave of Absence';;;;;'2';'L';
'20';'2.16.840.1.113883.5.4';'additional quantity on separate dispense';;;;;'2';'L';
'8';'2.16.840.1.113883.5.4';'Other Action Taken';;;;;'1';'S';
'10';'2.16.840.1.113883.5.4';'Provided Patient Education';;;;;'2';'L';
'11';'2.16.840.1.113883.5.4';'Added Concurrent Therapy';;;;;'2';'L';
'12';'2.16.840.1.113883.5.4';'Temporarily Suspended Concurrent Therapy';;;;;'2';'L';
'13';'2.16.840.1.113883.5.4';'Stopped Concurrent Therapy';;;;;'2';'L';
'9';'2.16.840.1.113883.5.4';'Instituted Ongoing Monitoring Program';;;;;'2';'L';
'_ActAdministrativeDetectedIssueManagementCode';'2.16.840.1.113883.5.4';'ActAdministrativeDetectedIssueManagementCode';;;;;'1';'S';
'_AuthorizationIssueManagementCode';'2.16.840.1.113883.5.4';'Authorization Issue Management Code';;;;;'2';'S';
'EMAUTH';'2.16.840.1.113883.5.4';'emergency authorization override';;;;;'3';'S';
'21';'2.16.840.1.113883.5.4';'authorization confirmed';;;;;'4';'L';
'_ActExposureCode';'2.16.840.1.113883.5.4';'ActExposureCode';;;;;'0';'S';
'CHLDCARE';'2.16.840.1.113883.5.4';'Day care - Child care Interaction';;;;;'1';'L';
'CONVEYNC';'2.16.840.1.113883.5.4';'Common Conveyance Interaction';;;;;'1';'L';
'HLTHCARE';'2.16.840.1.113883.5.4';'Health Care Interaction - Not Patient Care';;;;;'1';'L';
'HOMECARE';'2.16.840.1.113883.5.4';'Care Giver Interaction';;;;;'1';'L';
'HOSPPTNT';'2.16.840.1.113883.5.4';'Hospital Patient Interaction';;;;;'1';'L';
'HOSPVSTR';'2.16.840.1.113883.5.4';'Hospital Visitor Interaction';;;;;'1';'L';
'HOUSEHLD';'2.16.840.1.113883.5.4';'Household Interaction';;;;;'1';'L';
'INMATE';'2.16.840.1.113883.5.4';'Inmate Interaction';;;;;'1';'L';
'INTIMATE';'2.16.840.1.113883.5.4';'Intimate Interaction';;;;;'1';'L';
'LTRMCARE';'2.16.840.1.113883.5.4';'Long Term Care Facility Interaction';;;;;'1';'L';
'PLACE';'2.16.840.1.113883.5.4';'Common Space Interaction';;;;;'1';'L';
'PTNTCARE';'2.16.840.1.113883.5.4';'Health Care Interaction - Patient Care';;;;;'1';'L';
'SCHOOL2';'2.16.840.1.113883.5.4';'School Interaction';;;;;'1';'L';
'SOCIAL2';'2.16.840.1.113883.5.4';'Social/Extended Family Interaction';;;;;'1';'L';
'SUBSTNCE';'2.16.840.1.113883.5.4';'Common Substance Interaction';;;;;'1';'L';
'TRAVINT';'2.16.840.1.113883.5.4';'Common Travel Interaction';;;;;'1';'L';
'WORK2';'2.16.840.1.113883.5.4';'Work Interaction';;;;;'1';'L';
'_ActFinancialTransactionCode';'2.16.840.1.113883.5.4';'ActFinancialTransactionCode';;;;;'0';'S';
'CHRG';'2.16.840.1.113883.5.4';'Standard Charge';;;;;'1';'L';
'REV';'2.16.840.1.113883.5.4';'Standard Charge Reversal';;;;;'1';'L';
'_ActIncidentCode';'2.16.840.1.113883.5.4';'ActIncidentCode';;;;;'0';'S';
'MVA';'2.16.840.1.113883.5.4';'Motor vehicle accident';;;;;'1';'L';
'SCHOOL';'2.16.840.1.113883.5.4';'School Accident';;;;;'1';'L';
'SPT';'2.16.840.1.113883.5.4';'Sporting Accident';;;;;'1';'L';
'WPA';'2.16.840.1.113883.5.4';'Workplace accident';;;;;'1';'L';
'_ActInformationAccessCode';'2.16.840.1.113883.5.4';'ActInformationAccessCode';;;;;'0';'S';
'ACADR';'2.16.840.1.113883.5.4';'adverse drug reaction access';;;;;'1';'L';
'ACALL';'2.16.840.1.113883.5.4';'all access';;;;;'1';'L';
'ACALLG';'2.16.840.1.113883.5.4';'allergy access';;;;;'1';'L';
'ACCONS';'2.16.840.1.113883.5.4';'informational consent access';;;;;'1';'L';
'ACDEMO';'2.16.840.1.113883.5.4';'demographics access';;;;;'1';'L';
'ACDI';'2.16.840.1.113883.5.4';'diagnostic imaging access';;;;;'1';'L';
'ACIMMUN';'2.16.840.1.113883.5.4';'immunization access';;;;;'1';'L';
'ACLAB';'2.16.840.1.113883.5.4';'lab test result access';;;;;'1';'L';
'ACMED';'2.16.840.1.113883.5.4';'medication access';;;;;'1';'L';
'ACMEDC';'2.16.840.1.113883.5.4';'medical condition access';;;;;'1';'L';
'ACMEN';'2.16.840.1.113883.5.4';'mental health access';;;;;'1';'L';
'ACOBS';'2.16.840.1.113883.5.4';'common observations access';;;;;'1';'L';
'ACPOLPRG';'2.16.840.1.113883.5.4';'policy or program information access';;;;;'1';'L';
'ACPROV';'2.16.840.1.113883.5.4';'provider information access';;;;;'1';'L';
'ACPSERV';'2.16.840.1.113883.5.4';'professional service access';;;;;'1';'L';
'ACSUBSTAB';'2.16.840.1.113883.5.4';'substance abuse access';;;;;'1';'L';
'_ActInformationAccessContextCode';'2.16.840.1.113883.5.4';'ActInformationAccessContextCode';;;;;'0';'S';
'INFAUT';'2.16.840.1.113883.5.4';'authorized information transfer';;;;;'1';'L';
'INFCON';'2.16.840.1.113883.5.4';'after explicit consent';;;;;'1';'L';
'INFCRT';'2.16.840.1.113883.5.4';'only on court order';;;;;'1';'L';
'INFDNG';'2.16.840.1.113883.5.4';'only if danger to others';;;;;'1';'L';
'INFEMER';'2.16.840.1.113883.5.4';'only in an emergency';;;;;'1';'L';
'INFPWR';'2.16.840.1.113883.5.4';'only if public welfare risk';;;;;'1';'L';
'INFREG';'2.16.840.1.113883.5.4';'regulatory information transfer';;;;;'1';'L';
'_ActInformationCategoryCode';'2.16.840.1.113883.5.4';'ActInformationCategoryCode';;;;;'0';'S';
'ALLCAT';'2.16.840.1.113883.5.4';'all categories';;;;;'1';'L';
'ALLGCAT';'2.16.840.1.113883.5.4';'allergy category';;;;;'1';'L';
'ARCAT';'2.16.840.1.113883.5.4';'adverse drug reaction category';;;;;'1';'L';
'COBSCAT';'2.16.840.1.113883.5.4';'common observation category';;;;;'1';'L';
'DEMOCAT';'2.16.840.1.113883.5.4';'demographics category';;;;;'1';'L';
'DICAT';'2.16.840.1.113883.5.4';'diagnostic image category';;;;;'1';'L';
'IMMUCAT';'2.16.840.1.113883.5.4';'immunization category';;;;;'1';'L';
'LABCAT';'2.16.840.1.113883.5.4';'lab test category';;;;;'1';'L';
'MEDCCAT';'2.16.840.1.113883.5.4';'medical condition category';;;;;'1';'L';
'MENCAT';'2.16.840.1.113883.5.4';'mental health category';;;;;'1';'L';
'PSVCCAT';'2.16.840.1.113883.5.4';'professional service category';;;;;'1';'L';
'RXCAT';'2.16.840.1.113883.5.4';'medication category';;;;;'1';'L';
'_ActInvoiceElementCode';'2.16.840.1.113883.5.4';'ActInvoiceElementCode';;;;;'0';'S';
'_ActInvoiceAdjudicationPaymentCode';'2.16.840.1.113883.5.4';'ActInvoiceAdjudicationPaymentCode';;;;;'1';'S';
'_ActInvoiceAdjudicationPaymentGroupCode';'2.16.840.1.113883.5.4';'ActInvoiceAdjudicationPaymentGroupCode';;;;;'2';'S';
'ALEC';'2.16.840.1.113883.5.4';'alternate electronic';;;;;'3';'L';
'BONUS';'2.16.840.1.113883.5.4';'bonus';;;;;'3';'L';
'CFWD';'2.16.840.1.113883.5.4';'carry forward adjusment';;;;;'3';'L';
'EDU';'2.16.840.1.113883.5.4';'education fees';;;;;'3';'L';
'EPYMT';'2.16.840.1.113883.5.4';'early payment fee';;;;;'3';'L';
'GARN';'2.16.840.1.113883.5.4';'garnishee';;;;;'3';'L';
'INVOICE';'2.16.840.1.113883.5.4';'submitted invoice';;;;;'3';'L';
'PINV';'2.16.840.1.113883.5.4';'paper invoice';;;;;'3';'L';
'PPRD';'2.16.840.1.113883.5.4';'prior period adjustment';;;;;'3';'L';
'PROA';'2.16.840.1.113883.5.4';'professional association deduction';;;;;'3';'L';
'RECOV';'2.16.840.1.113883.5.4';'recovery';;;;;'3';'L';
'RETRO';'2.16.840.1.113883.5.4';'retro adjustment';;;;;'3';'L';
'TRAN';'2.16.840.1.113883.5.4';'transaction fee';;;;;'3';'L';
'_ActInvoiceAdjudicationPaymentSummaryCode';'2.16.840.1.113883.5.4';'ActInvoiceAdjudicationPaymentSummaryCode';;;;;'2';'S';
'INVTYPE';'2.16.840.1.113883.5.4';'invoice type';;;;;'3';'L';
'PAYEE';'2.16.840.1.113883.5.4';'payee';;;;;'3';'L';
'PAYOR';'2.16.840.1.113883.5.4';'payor';;;;;'3';'L';
'SENDAPP';'2.16.840.1.113883.5.4';'sending application';;;;;'3';'L';
'_ActInvoiceDetailCode';'2.16.840.1.113883.5.4';'ActInvoiceDetailCode';;;;;'1';'S';
'_ActInvoiceDetailClinicalProductCode';'2.16.840.1.113883.5.4';'ActInvoiceDetailClinicalProductCode';;;;;'2';'S';
'UNSPSC';'2.16.840.1.113883.5.4';'United Nations Standard Products and Services Classification';;;;;'3';'L';
'_ActInvoiceDetailDrugProductCode';'2.16.840.1.113883.5.4';'ActInvoiceDetailDrugProductCode';;;;;'2';'S';
'GTIN';'2.16.840.1.113883.5.4';'Global Trade Item Number';;;;;'3';'L';
'UPC';'2.16.840.1.113883.5.4';'Universal Product Code';;;;;'3';'L';
'_ActInvoiceDetailGenericCode';'2.16.840.1.113883.5.4';'ActInvoiceDetailGenericCode';;;;;'2';'S';
'_ActInvoiceDetailGenericAdjudicatorCode';'2.16.840.1.113883.5.4';'ActInvoiceDetailGenericAdjudicatorCode';;;;;'3';'S';
'COIN';'2.16.840.1.113883.5.4';'coinsurance';;;;;'4';'L';
'COPAYMENT';'2.16.840.1.113883.5.4';'patient co-pay';;;;;'4';'L';
'DEDUCTIBLE';'2.16.840.1.113883.5.4';'deductible';;;;;'4';'L';
'PAY';'2.16.840.1.113883.5.4';'payment';;;;;'4';'L';
'SPEND';'2.16.840.1.113883.5.4';'spend down';;;;;'4';'L';
'_ActInvoiceDetailGenericModifierCode';'2.16.840.1.113883.5.4';'ActInvoiceDetailGenericModifierCode';;;;;'3';'S';
'AFTHRS';'2.16.840.1.113883.5.4';'non-normal hours';;;;;'4';'L';
'ISOL';'2.16.840.1.113883.5.4';'isolation allowance';;;;;'4';'L';
'OOO';'2.16.840.1.113883.5.4';'out of office';;;;;'4';'L';
'_ActInvoiceDetailGenericProviderCode';'2.16.840.1.113883.5.4';'ActInvoiceDetailGenericProviderCode';;;;;'3';'S';
'CANCAPT';'2.16.840.1.113883.5.4';'cancelled appointment';;;;;'4';'L';
'DSC';'2.16.840.1.113883.5.4';'discount';;;;;'4';'L';
'ESA';'2.16.840.1.113883.5.4';'extraordinary service assessment';;;;;'4';'L';
'FFSTOP';'2.16.840.1.113883.5.4';'fee for service top off';;;;;'4';'L';
'FNLFEE';'2.16.840.1.113883.5.4';'final fee';;;;;'4';'L';
'FRSTFEE';'2.16.840.1.113883.5.4';'first fee';;;;;'4';'L';
'MARKUP';'2.16.840.1.113883.5.4';'markup or up-charge';;;;;'4';'L';
'MISSAPT';'2.16.840.1.113883.5.4';'missed appointment';;;;;'4';'L';
'PERFEE';'2.16.840.1.113883.5.4';'periodic fee';;;;;'4';'L';
'PERMBNS';'2.16.840.1.113883.5.4';'performance bonus';;;;;'4';'L';
'RESTOCK';'2.16.840.1.113883.5.4';'restocking fee';;;;;'4';'L';
'TRAVEL';'2.16.840.1.113883.5.4';'travel';;;;;'4';'L';
'URGENT';'2.16.840.1.113883.5.4';'urgent';;;;;'4';'L';
'_ActInvoiceDetailTaxCode';'2.16.840.1.113883.5.4';'ActInvoiceDetailTaxCode';;;;;'3';'S';
'FST';'2.16.840.1.113883.5.4';'federal sales tax';;;;;'4';'L';
'HST';'2.16.840.1.113883.5.4';'harmonized sales Tax';;;;;'4';'L';
'PST';'2.16.840.1.113883.5.4';'provincial/state sales tax';;;;;'4';'L';
'_ActInvoiceDetailPreferredAccommodationCode';'2.16.840.1.113883.5.4';'ActInvoiceDetailPreferredAccommodationCode';;;;;'2';'S';
'_ActEncounterAccommodationCode';'2.16.840.1.113883.5.4';'ActEncounterAccommodationCode';;;;;'3';'S';
'_HL7AccommodationCode';'2.16.840.1.113883.5.4';'HL7AccommodationCode';;;;;'4';'S';
'I';'2.16.840.1.113883.5.4';'Isolation';;;;;'5';'L';
'P';'2.16.840.1.113883.5.4';'Private';;;;;'5';'L';
'S';'2.16.840.1.113883.5.4';'Suite';;;;;'5';'L';
'SP';'2.16.840.1.113883.5.4';'Semi-private';;;;;'5';'L';
'W';'2.16.840.1.113883.5.4';'Ward';;;;;'5';'L';
'_ActInvoiceGroupCode';'2.16.840.1.113883.5.4';'ActInvoiceGroupCode';;;;;'1';'S';
'_ActInvoiceInterGroupCode';'2.16.840.1.113883.5.4';'ActInvoiceInterGroupCode';;;;;'2';'S';
'CPNDDRGING';'2.16.840.1.113883.5.4';'compound drug invoice group';;;;;'3';'L';
'CPNDINDING';'2.16.840.1.113883.5.4';'compound ingredient invoice group';;;;;'3';'L';
'CPNDSUPING';'2.16.840.1.113883.5.4';'compound supply invoice group';;;;;'3';'L';
'DRUGING';'2.16.840.1.113883.5.4';'drug invoice group';;;;;'3';'L';
'FRAMEING';'2.16.840.1.113883.5.4';'frame invoice group';;;;;'3';'L';
'LENSING';'2.16.840.1.113883.5.4';'lens invoice group';;;;;'3';'L';
'PRDING';'2.16.840.1.113883.5.4';'product invoice group';;;;;'3';'L';
'_ActInvoiceRootGroupCode';'2.16.840.1.113883.5.4';'ActInvoiceRootGroupCode';;;;;'2';'S';
'CPINV';'2.16.840.1.113883.5.4';'clinical product invoice';;;;;'3';'L';
'CSINV';'2.16.840.1.113883.5.4';'clinical service invoice';;;;;'3';'L';
'CSPINV';'2.16.840.1.113883.5.4';'clinical service and product';;;;;'3';'L';
'FININV';'2.16.840.1.113883.5.4';'financial invoice';;;;;'3';'L';
'OHSINV';'2.16.840.1.113883.5.4';'oral health service';;;;;'3';'L';
'PAINV';'2.16.840.1.113883.5.4';'preferred accommodation invoice';;;;;'3';'L';
'RXCINV';'2.16.840.1.113883.5.4';'Rx compound invoice';;;;;'3';'L';
'RXDINV';'2.16.840.1.113883.5.4';'Rx dispense invoice';;;;;'3';'L';
'SBFINV';'2.16.840.1.113883.5.4';'sessional or block fee invoice';;;;;'3';'L';
'VRXINV';'2.16.840.1.113883.5.4';'vision dispense invoice';;;;;'3';'L';
'_ActInvoiceElementSummaryCode';'2.16.840.1.113883.5.4';'ActInvoiceElementSummaryCode';;;;;'0';'S';
'_InvoiceElementAdjudicated';'2.16.840.1.113883.5.4';'InvoiceElementAdjudicated';;;;;'1';'S';
'ADNFPPELAT';'2.16.840.1.113883.5.4';'adjud. nullified prior-period electronic amount';;;;;'2';'L';
'ADNFPPELCT';'2.16.840.1.113883.5.4';'adjud. nullified prior-period electronic count';;;;;'2';'L';
'ADNFPPMNAT';'2.16.840.1.113883.5.4';'adjud. nullified prior-period manual amount';;;;;'2';'L';
'ADNFPPMNCT';'2.16.840.1.113883.5.4';'adjud. nullified prior-period manual count';;;;;'2';'L';
'ADNFSPELAT';'2.16.840.1.113883.5.4';'adjud. nullified same-period electronic amount';;;;;'2';'L';
'ADNFSPELCT';'2.16.840.1.113883.5.4';'adjud. nullified same-period electronic count';;;;;'2';'L';
'ADNFSPMNAT';'2.16.840.1.113883.5.4';'adjud. nullified same-period manual amount';;;;;'2';'L';
'ADNFSPMNCT';'2.16.840.1.113883.5.4';'adjud. nullified same-period manual count';;;;;'2';'L';
'ADNPPPELAT';'2.16.840.1.113883.5.4';'adjud. non-payee payable prior-period electronic amount';;;;;'2';'L';
'ADNPPPELCT';'2.16.840.1.113883.5.4';'adjud. non-payee payable prior-period electronic count';;;;;'2';'L';
'ADNPPPMNAT';'2.16.840.1.113883.5.4';'adjud. non-payee payable prior-period manual amount';;;;;'2';'L';
'ADNPPPMNCT';'2.16.840.1.113883.5.4';'adjud. non-payee payable prior-period manual count';;;;;'2';'L';
'ADNPSPELAT';'2.16.840.1.113883.5.4';'adjud. non-payee payable same-period electronic amount';;;;;'2';'L';
'ADNPSPELCT';'2.16.840.1.113883.5.4';'adjud. non-payee payable same-period electronic count';;;;;'2';'L';
'ADNPSPMNAT';'2.16.840.1.113883.5.4';'adjud. non-payee payable same-period manual amount';;;;;'2';'L';
'ADNPSPMNCT';'2.16.840.1.113883.5.4';'adjud. non-payee payable same-period manual count';;;;;'2';'L';
'ADPPPPELAT';'2.16.840.1.113883.5.4';'adjud. payee payable prior-period electronic amount';;;;;'2';'L';
'ADPPPPELCT';'2.16.840.1.113883.5.4';'adjud. payee payable prior-period electronic count';;;;;'2';'L';
'ADPPPPMNAT';'2.16.840.1.113883.5.4';'adjud. payee payable prior-period manual amout';;;;;'2';'L';
'ADPPPPMNCT';'2.16.840.1.113883.5.4';'adjud. payee payable prior-period manual count';;;;;'2';'L';
'ADPPSPELAT';'2.16.840.1.113883.5.4';'adjud. payee payable same-period electronic amount';;;;;'2';'L';
'ADPPSPELCT';'2.16.840.1.113883.5.4';'adjud. payee payable same-period electronic count';;;;;'2';'L';
'ADPPSPMNAT';'2.16.840.1.113883.5.4';'adjud. payee payable same-period manual amount';;;;;'2';'L';
'ADPPSPMNCT';'2.16.840.1.113883.5.4';'adjud. payee payable same-period manual count';;;;;'2';'L';
'ADRFPPELAT';'2.16.840.1.113883.5.4';'adjud. refused prior-period electronic amount';;;;;'2';'L';
'ADRFPPELCT';'2.16.840.1.113883.5.4';'adjud. refused prior-period electronic count';;;;;'2';'L';
'ADRFPPMNAT';'2.16.840.1.113883.5.4';'adjud. refused prior-period manual amount';;;;;'2';'L';
'ADRFPPMNCT';'2.16.840.1.113883.5.4';'adjud. refused prior-period manual count';;;;;'2';'L';
'ADRFSPELAT';'2.16.840.1.113883.5.4';'adjud. refused same-period electronic amount';;;;;'2';'L';
'ADRFSPELCT';'2.16.840.1.113883.5.4';'adjud. refused same-period electronic count';;;;;'2';'L';
'ADRFSPMNAT';'2.16.840.1.113883.5.4';'adjud. refused same-period manual amount';;;;;'2';'L';
'ADRFSPMNCT';'2.16.840.1.113883.5.4';'adjud. refused same-period manual count';;;;;'2';'L';
'_InvoiceElementPaid';'2.16.840.1.113883.5.4';'InvoiceElementPaid';;;;;'1';'S';
'PDNFPPELAT';'2.16.840.1.113883.5.4';'paid nullified prior-period electronic amount';;;;;'2';'L';
'PDNFPPELCT';'2.16.840.1.113883.5.4';'paid nullified prior-period electronic count';;;;;'2';'L';
'PDNFPPMNAT';'2.16.840.1.113883.5.4';'paid nullified prior-period manual amount';;;;;'2';'L';
'PDNFPPMNCT';'2.16.840.1.113883.5.4';'paid nullified prior-period manual count';;;;;'2';'L';
'PDNFSPELAT';'2.16.840.1.113883.5.4';'paid nullified same-period electronic amount';;;;;'2';'L';
'PDNFSPELCT';'2.16.840.1.113883.5.4';'paid nullified same-period electronic count';;;;;'2';'L';
'PDNFSPMNAT';'2.16.840.1.113883.5.4';'paid nullified same-period manual amount';;;;;'2';'L';
'PDNFSPMNCT';'2.16.840.1.113883.5.4';'paid nullified same-period manual count';;;;;'2';'L';
'PDNPPPELAT';'2.16.840.1.113883.5.4';'paid non-payee payable prior-period electronic amount';;;;;'2';'L';
'PDNPPPELCT';'2.16.840.1.113883.5.4';'paid non-payee payable prior-period electronic count';;;;;'2';'L';
'PDNPPPMNAT';'2.16.840.1.113883.5.4';'paid non-payee payable prior-period manual amount';;;;;'2';'L';
'PDNPPPMNCT';'2.16.840.1.113883.5.4';'paid non-payee payable prior-period manual count';;;;;'2';'L';
'PDNPSPELAT';'2.16.840.1.113883.5.4';'paid non-payee payable same-period electronic amount';;;;;'2';'L';
'PDNPSPELCT';'2.16.840.1.113883.5.4';'paid non-payee payable same-period electronic count';;;;;'2';'L';
'PDNPSPMNAT';'2.16.840.1.113883.5.4';'paid non-payee payable same-period manual amount';;;;;'2';'L';
'PDNPSPMNCT';'2.16.840.1.113883.5.4';'paid non-payee payable same-period manual count';;;;;'2';'L';
'PDPPPPELAT';'2.16.840.1.113883.5.4';'paid payee payable prior-period electronic amount';;;;;'2';'L';
'PDPPPPELCT';'2.16.840.1.113883.5.4';'paid payee payable prior-period electronic count';;;;;'2';'L';
'PDPPPPMNAT';'2.16.840.1.113883.5.4';'paid payee payable prior-period manual amount';;;;;'2';'L';
'PDPPPPMNCT';'2.16.840.1.113883.5.4';'paid payee payable prior-period manual count';;;;;'2';'L';
'PDPPSPELAT';'2.16.840.1.113883.5.4';'paid payee payable same-period electronic amount';;;;;'2';'L';
'PDPPSPELCT';'2.16.840.1.113883.5.4';'paid payee payable same-period electronic count';;;;;'2';'L';
'PDPPSPMNAT';'2.16.840.1.113883.5.4';'paid payee payable same-period manual amount';;;;;'2';'L';
'PDPPSPMNCT';'2.16.840.1.113883.5.4';'paid payee payable same-period manual count';;;;;'2';'L';
'_InvoiceElementSubmitted';'2.16.840.1.113883.5.4';'InvoiceElementSubmitted';;;;;'1';'S';
'SBBLELAT';'2.16.840.1.113883.5.4';'submitted billed electronic amount';;;;;'2';'L';
'SBBLELCT';'2.16.840.1.113883.5.4';'submitted billed electronic count';;;;;'2';'L';
'SBNFELAT';'2.16.840.1.113883.5.4';'submitted nullified electronic amount';;;;;'2';'L';
'SBNFELCT';'2.16.840.1.113883.5.4';'submitted cancelled electronic count';;;;;'2';'L';
'SBPDELAT';'2.16.840.1.113883.5.4';'submitted pending electronic amount';;;;;'2';'L';
'SBPDELCT';'2.16.840.1.113883.5.4';'submitted pending electronic count';;;;;'2';'L';
'_ActInvoiceOverrideCode';'2.16.840.1.113883.5.4';'ActInvoiceOverrideCode';;;;;'0';'S';
'COVGE';'2.16.840.1.113883.5.4';'coverage problem';;;;;'1';'L';
'EFORM';'2.16.840.1.113883.5.4';'electronic form to follow';;;;;'1';'L';
'FAX';'2.16.840.1.113883.5.4';'fax to follow';;;;;'1';'L';
'GFTH';'2.16.840.1.113883.5.4';'good faith indicator';;;;;'1';'L';
'LATE';'2.16.840.1.113883.5.4';'late invoice';;;;;'1';'L';
'MANUAL';'2.16.840.1.113883.5.4';'manual review';;;;;'1';'L';
'OOJ';'2.16.840.1.113883.5.4';'out of jurisdiction';;;;;'1';'L';
'ORTHO';'2.16.840.1.113883.5.4';'orthodontic service';;;;;'1';'L';
'PAPER';'2.16.840.1.113883.5.4';'paper documentation to follow';;;;;'1';'L';
'PIE';'2.16.840.1.113883.5.4';'public insurance exhausted';;;;;'1';'L';
'PYRDELAY';'2.16.840.1.113883.5.4';'delayed by a previous payor';;;;;'1';'L';
'REFNR';'2.16.840.1.113883.5.4';'referral not required';;;;;'1';'L';
'REPSERV';'2.16.840.1.113883.5.4';'repeated service';;;;;'1';'L';
'UNRELAT';'2.16.840.1.113883.5.4';'unrelated service';;;;;'1';'L';
'VERBAUTH';'2.16.840.1.113883.5.4';'verbal authorization';;;;;'1';'L';
'_ActListCode';'2.16.840.1.113883.5.4';'ActListCode';;;;;'0';'S';
'MEDLIST';'2.16.840.1.113883.5.4';'medication list';;;;;'1';'S';
'CURMEDLIST';'2.16.840.1.113883.5.4';'current medication list';;;;;'2';'L';
'DISCMEDLIST';'2.16.840.1.113883.5.4';'discharge medication list';;;;;'2';'L';
'HISTMEDLIST';'2.16.840.1.113883.5.4';'medication history';;;;;'2';'L';
'_ActObservationList';'2.16.840.1.113883.5.4';'ActObservationList';;;;;'1';'S';
'CARELIST';'2.16.840.1.113883.5.4';'care plan';;;;;'2';'L';
'CONDLIST';'2.16.840.1.113883.5.4';'condition list';;;;;'2';'S';
'INTOLIST';'2.16.840.1.113883.5.4';'intolerance list';;;;;'3';'L';
'PROBLIST';'2.16.840.1.113883.5.4';'problem list';;;;;'3';'L';
'RISKLIST';'2.16.840.1.113883.5.4';'risk factors';;;;;'3';'L';
'GOALLIST';'2.16.840.1.113883.5.4';'goal list';;;;;'2';'L';
'_ActTherapyDurationWorkingListCode';'2.16.840.1.113883.5.4';'ActTherapyDurationWorkingListCode';;;;;'1';'S';
'_ActMedicationTherapyDurationWorkingListCode';'2.16.840.1.113883.5.4';'act medication therapy duration working list';;;;;'2';'S';
'ACU';'2.16.840.1.113883.5.4';'short term/acute';;;;;'3';'L';
'CHRON';'2.16.840.1.113883.5.4';'continuous/chronic';;;;;'3';'L';
'ONET';'2.16.840.1.113883.5.4';'one time';;;;;'3';'L';
'PRN';'2.16.840.1.113883.5.4';'as needed';;;;;'3';'L';
'_ActMonitoringProtocolCode';'2.16.840.1.113883.5.4';'ActMonitoringProtocolCode';;;;;'0';'S';
'CTLSUB';'2.16.840.1.113883.5.4';'Controlled Substance';;;;;'1';'L';
'INV';'2.16.840.1.113883.5.4';'investigational';;;;;'1';'L';
'LU';'2.16.840.1.113883.5.4';'limited use';;;;;'1';'L';
'OTC';'2.16.840.1.113883.5.4';'non prescription medicine';;;;;'1';'L';
'RX';'2.16.840.1.113883.5.4';'prescription only medicine';;;;;'1';'L';
'SA';'2.16.840.1.113883.5.4';'special authorization';;;;;'1';'L';
'SAC';'2.16.840.1.113883.5.4';'special access';;;;;'1';'L';
'_ActNonObservationIndicationCode';'2.16.840.1.113883.5.4';'ActNonObservationIndicationCode';;;;;'0';'S';
'IND01';'2.16.840.1.113883.5.4';'imaging study requiring contrast';;;;;'1';'L';
'IND02';'2.16.840.1.113883.5.4';'colonoscopy prep';;;;;'1';'L';
'IND03';'2.16.840.1.113883.5.4';'prophylaxis';;;;;'1';'L';
'IND04';'2.16.840.1.113883.5.4';'surgical prophylaxis';;;;;'1';'L';
'IND05';'2.16.840.1.113883.5.4';'pregnancy prophylaxis';;;;;'1';'L';
'_ActObservationVerificationType';'2.16.840.1.113883.5.4';'act observation verification';;;;;'0';'S';
'VFPAPER';'2.16.840.1.113883.5.4';'verify paper';;;;;'1';'L';
'VRFPAPER';'2.16.840.1.113883.5.4';'verify paper';;;;;'1';'L';
'_ActPaymentCode';'2.16.840.1.113883.5.4';'ActPaymentCode';;;;;'0';'S';
'ACH';'2.16.840.1.113883.5.4';'Automated Clearing House';;;;;'1';'L';
'CHK';'2.16.840.1.113883.5.4';'Cheque';;;;;'1';'L';
'DDP';'2.16.840.1.113883.5.4';'Direct Deposit';;;;;'1';'L';
'NON';'2.16.840.1.113883.5.4';'Non-Payment Data';;;;;'1';'L';
'_ActPharmacySupplyType';'2.16.840.1.113883.5.4';'ActPharmacySupplyType';;;;;'0';'S';
'DF';'2.16.840.1.113883.5.4';'Daily Fill';;;;;'2';'L';
'EM';'2.16.840.1.113883.5.4';'Emergency Supply';;;;;'1';'S';
'SO';'2.16.840.1.113883.5.4';'Script Owing';;;;;'2';'L';
'FF';'2.16.840.1.113883.5.4';'First Fill';;;;;'1';'S';
'FFC';'2.16.840.1.113883.5.4';'First Fill - Complete';;;;;'2';'S';
'FFCS';'2.16.840.1.113883.5.4';'first fill complete, partial strength';;;;;'3';'L';
'FFP';'2.16.840.1.113883.5.4';'First Fill - Part Fill';;;;;'2';'L';
'FFPS';'2.16.840.1.113883.5.4';'first fill, part fill, partial strength';;;;;'3';'L';
'FFSS';'2.16.840.1.113883.5.4';'first fill, partial strength';;;;;'2';'L';
'TF';'2.16.840.1.113883.5.4';'Trial Fill';;;;;'2';'S';
'TFS';'2.16.840.1.113883.5.4';'trial fill partial strength';;;;;'3';'L';
'FS';'2.16.840.1.113883.5.4';'Floor stock';;;;;'1';'L';
'MS';'2.16.840.1.113883.5.4';'Manufacturer Sample';;;;;'1';'L';
'RF';'2.16.840.1.113883.5.4';'Refill';;;;;'1';'S';
'RFC';'2.16.840.1.113883.5.4';'Refill - Complete';;;;;'2';'S';
'RFCS';'2.16.840.1.113883.5.4';'refill complete partial strength';;;;;'3';'L';
'RFF';'2.16.840.1.113883.5.4';'Refill (First fill this facility)';;;;;'2';'S';
'RFFS';'2.16.840.1.113883.5.4';'refill partial strength (first fill this facility)';;;;;'3';'L';
'RFP';'2.16.840.1.113883.5.4';'Refill - Part Fill';;;;;'2';'S';
'RFPS';'2.16.840.1.113883.5.4';'refill part fill partial strength';;;;;'3';'L';
'RFS';'2.16.840.1.113883.5.4';'refill partial strength';;;;;'2';'L';
'TB';'2.16.840.1.113883.5.4';'Trial Balance';;;;;'2';'S';
'TBS';'2.16.840.1.113883.5.4';'trial balance partial strength';;;;;'3';'L';
'UD';'2.16.840.1.113883.5.4';'Unit Dose';;;;;'2';'L';
'UDE';'2.16.840.1.113883.5.4';'unit dose equivalent';;;;;'1';'L';
'_ActPolicyType';'2.16.840.1.113883.5.4';'ActPolicyType';;;;;'0';'S';
'COVPOL';'2.16.840.1.113883.5.4';'benefit policy';;;;;'1';'L';
'_ActProductAcquisitionCode';'2.16.840.1.113883.5.4';'ActProductAcquisitionCode';;;;;'0';'S';
'LOAN';'2.16.840.1.113883.5.4';'Loan';;;;;'1';'S';
'RENT';'2.16.840.1.113883.5.4';'Rent';;;;;'2';'L';
'TRANSFER';'2.16.840.1.113883.5.4';'Transfer';;;;;'1';'S';
'SALE';'2.16.840.1.113883.5.4';'Sale';;;;;'2';'L';
'_ActSpecimenTransportCode';'2.16.840.1.113883.5.4';'ActSpecimenTransportCode';;;;;'0';'S';
'SREC';'2.16.840.1.113883.5.4';'specimen received';;;;;'1';'L';
'SSTOR';'2.16.840.1.113883.5.4';'specimen in storage';;;;;'1';'L';
'STRAN';'2.16.840.1.113883.5.4';'specimen in transit';;;;;'1';'L';
'_ActSpecimenTreatmentCode';'2.16.840.1.113883.5.4';'ActSpecimenTreatmentCode';;;;;'0';'S';
'ACID';'2.16.840.1.113883.5.4';'Acidification';;;;;'1';'L';
'ALK';'2.16.840.1.113883.5.4';'Alkalization';;;;;'1';'L';
'DEFB';'2.16.840.1.113883.5.4';'Defibrination';;;;;'1';'L';
'FILT';'2.16.840.1.113883.5.4';'Filtration';;;;;'1';'L';
'LDLP';'2.16.840.1.113883.5.4';'LDL Precipitation';;;;;'1';'L';
'NEUT';'2.16.840.1.113883.5.4';'Neutralization';;;;;'1';'L';
'RECA';'2.16.840.1.113883.5.4';'Recalcification';;;;;'1';'L';
'UFIL';'2.16.840.1.113883.5.4';'Ultrafiltration';;;;;'1';'L';
'_ActSubstanceAdministrationCode';'2.16.840.1.113883.5.4';'ActSubstanceAdministrationCode';;;;;'0';'S';
'DRUG';'2.16.840.1.113883.5.4';'Drug therapy';;;;;'1';'L';
'FD';'2.16.840.1.113883.5.4';'food';;;;;'1';'L';
'IMMUNIZ';'2.16.840.1.113883.5.4';'Immunization';;;;;'1';'L';
'_ActTaskCode';'2.16.840.1.113883.5.4';'ActTaskCode';;;;;'0';'S';
'OE';'2.16.840.1.113883.5.4';'order entry task';;;;;'1';'S';
'LABOE';'2.16.840.1.113883.5.4';'laboratory test order entry task';;;;;'2';'L';
'MEDOE';'2.16.840.1.113883.5.4';'medication order entry task';;;;;'2';'L';
'PATDOC';'2.16.840.1.113883.5.4';'patient documentation task';;;;;'1';'S';
'ALLERLREV';'2.16.840.1.113883.5.4';'allergy list review';;;;;'2';'L';
'CLINNOTEE';'2.16.840.1.113883.5.4';'clinical note entry task';;;;;'2';'S';
'DIAGLISTE';'2.16.840.1.113883.5.4';'diagnosis list entry task';;;;;'3';'L';
'DISCHSUME';'2.16.840.1.113883.5.4';'discharge summary entry task';;;;;'3';'L';
'PATREPE';'2.16.840.1.113883.5.4';'pathology report entry task';;;;;'3';'L';
'PROBLISTE';'2.16.840.1.113883.5.4';'problem list entry task';;;;;'3';'L';
'RADREPE';'2.16.840.1.113883.5.4';'radiology report entry task';;;;;'3';'L';
'IMMLREV';'2.16.840.1.113883.5.4';'immunization list review';;;;;'2';'L';
'REMLREV';'2.16.840.1.113883.5.4';'reminder list review';;;;;'2';'S';
'WELLREMLREV';'2.16.840.1.113883.5.4';'wellness reminder list review';;;;;'3';'L';
'PATINFO';'2.16.840.1.113883.5.4';'patient information review task';;;;;'1';'S';
'ALLERLE';'2.16.840.1.113883.5.4';'allergy list entry';;;;;'2';'L';
'CLINNOTEREV';'2.16.840.1.113883.5.4';'clinical note review task';;;;;'2';'S';
'DISCHSUMREV';'2.16.840.1.113883.5.4';'discharge summary review task';;;;;'3';'L';
'DIAGLISTREV';'2.16.840.1.113883.5.4';'diagnosis list review task';;;;;'2';'L';
'IMMLE';'2.16.840.1.113883.5.4';'immunization list entry';;;;;'2';'L';
'LABRREV';'2.16.840.1.113883.5.4';'laboratory results review task';;;;;'2';'L';
'MICRORREV';'2.16.840.1.113883.5.4';'microbiology results review task';;;;;'2';'S';
'MICROORGRREV';'2.16.840.1.113883.5.4';'microbiology organisms results review task';;;;;'3';'L';
'MICROSENSRREV';'2.16.840.1.113883.5.4';'microbiology sensitivity test results review task';;;;;'3';'L';
'MLREV';'2.16.840.1.113883.5.4';'medication list review task';;;;;'2';'S';
'MARWLREV';'2.16.840.1.113883.5.4';'medication administration record work list review task';;;;;'3';'L';
'OREV';'2.16.840.1.113883.5.4';'orders review task';;;;;'2';'L';
'PATREPREV';'2.16.840.1.113883.5.4';'pathology report review task';;;;;'2';'L';
'PROBLISTREV';'2.16.840.1.113883.5.4';'problem list review task';;;;;'2';'L';
'RADREPREV';'2.16.840.1.113883.5.4';'radiology report review task';;;;;'2';'L';
'REMLE';'2.16.840.1.113883.5.4';'reminder list entry';;;;;'2';'S';
'WELLREMLE';'2.16.840.1.113883.5.4';'wellness reminder list entry';;;;;'3';'L';
'RISKASSESS';'2.16.840.1.113883.5.4';'risk assessment instrument task';;;;;'2';'S';
'FALLRISK';'2.16.840.1.113883.5.4';'falls risk assessment instrument task';;;;;'3';'L';
'_ActTransportationModeCode';'2.16.840.1.113883.5.4';'ActTransportationModeCode';;;;;'0';'S';
'_ActPatientTransportationModeCode';'2.16.840.1.113883.5.4';'ActPatientTransportationModeCode';;;;;'1';'S';
'AFOOT';'2.16.840.1.113883.5.4';'pedestrian transport';;;;;'2';'L';
'AMBT';'2.16.840.1.113883.5.4';'ambulance transport';;;;;'2';'S';
'AMBAIR';'2.16.840.1.113883.5.4';'fixed-wing ambulance transport';;;;;'3';'L';
'AMBGRND';'2.16.840.1.113883.5.4';'ground ambulance transport';;;;;'3';'L';
'AMBHELO';'2.16.840.1.113883.5.4';'helicopter ambulance transport';;;;;'3';'L';
'LAWENF';'2.16.840.1.113883.5.4';'law enforcement transport';;;;;'2';'L';
'PRVTRN';'2.16.840.1.113883.5.4';'private transport';;;;;'2';'L';
'PUBTRN';'2.16.840.1.113883.5.4';'public transport';;;;;'2';'L';
'_ObservationType';'2.16.840.1.113883.5.4';'ObservationType';;;;;'0';'S';
'ADVERSE_REACTION';'2.16.840.1.113883.5.4';'Adverse Reaction';;;;;'1';'L';
'ASSERTION';'2.16.840.1.113883.5.4';'Assertion';;;;;'1';'L';
'CASESER';'2.16.840.1.113883.5.4';'case seriousness criteria';;;;;'1';'L';
'DX';'2.16.840.1.113883.5.4';'ObservationDiagnosisTypes';;;;;'1';'S';
'ADMDX';'2.16.840.1.113883.5.4';'admitting diagnosis';;;;;'2';'L';
'DISDX';'2.16.840.1.113883.5.4';'discharge diagnosis';;;;;'2';'L';
'INTDX';'2.16.840.1.113883.5.4';'intermediate diagnosis';;;;;'2';'L';
'NOI';'2.16.840.1.113883.5.4';'nature of injury';;;;;'2';'L';
'GISTIER';'2.16.840.1.113883.5.4';'GIS tier';;;;;'1';'L';
'HHOBS';'2.16.840.1.113883.5.4';'household situation observation';;;;;'1';'L';
'ISSUE';'2.16.840.1.113883.5.4';'detected issue';;;;;'1';'S';
'_ActAdministrativeDetectedIssueCode';'2.16.840.1.113883.5.4';'ActAdministrativeDetectedIssueCode';;;;;'2';'S';
'_ActAdministrativeAuthorizationDetectedIssueCode';'2.16.840.1.113883.5.4';'ActAdministrativeAuthorizationDetectedIssueCode';;;;;'3';'S';
'NAT';'2.16.840.1.113883.5.4';'Insufficient authorization';;;;;'4';'L';
'SUPPRESSED';'2.16.840.1.113883.5.4';'record suppressed';;;;;'4';'L';
'VALIDAT';'2.16.840.1.113883.5.4';'validation issue';;;;;'4';'S';
'BUS';'2.16.840.1.113883.5.4';'business constraint violation';;;;;'5';'L';
'CODE_INVAL';'2.16.840.1.113883.5.4';'code is not valid';;;;;'5';'S';
'CODE_DEPREC';'2.16.840.1.113883.5.4';'code has been deprecated';;;;;'6';'L';
'COMPLY';'2.16.840.1.113883.5.4';'Compliance Alert';;;;;'5';'S';
'ABUSE';'2.16.840.1.113883.5.4';'commonly abused/misused alert';;;;;'6';'L';
'DUPTHPY';'2.16.840.1.113883.5.4';'Duplicate Therapy Alert';;;;;'8';'S';
'DUPTHPCLS';'2.16.840.1.113883.5.4';'duplicate therapeutic alass alert';;;;;'11';'L';
'DUPTHPGEN';'2.16.840.1.113883.5.4';'duplicate generic alert';;;;;'11';'L';
'FRAUD';'2.16.840.1.113883.5.4';'potential fraud';;;;;'7';'L';
'PLYDOC';'2.16.840.1.113883.5.4';'Poly-orderer Alert';;;;;'7';'L';
'PLYPHRM';'2.16.840.1.113883.5.4';'Poly-supplier Alert';;;;;'7';'L';
'DOSE';'2.16.840.1.113883.5.4';'Dosage problem';;;;;'6';'S';
'DOSECOND';'2.16.840.1.113883.5.4';'dosage-condition alert';;;;;'8';'L';
'DOSEDUR';'2.16.840.1.113883.5.4';'Dose-Duration Alert';;;;;'8';'S';
'DOSEDURH';'2.16.840.1.113883.5.4';'Dose-Duration High Alert';;;;;'9';'S';
'DOSEDURHIND';'2.16.840.1.113883.5.4';'Dose-Duration High for Indication Alert';;;;;'11';'L';
'DOSEDURL';'2.16.840.1.113883.5.4';'Dose-Duration Low Alert';;;;;'9';'S';
'DOSEDURLIND';'2.16.840.1.113883.5.4';'Dose-Duration Low for Indication Alert';;;;;'11';'L';
'DOSEH';'2.16.840.1.113883.5.4';'High Dose Alert';;;;;'7';'S';
'DOSEHIND';'2.16.840.1.113883.5.4';'High Dose for Indication Alert';;;;;'9';'L';
'DOSEHINDA';'2.16.840.1.113883.5.4';'High Dose for Age Alert';;;;;'10';'L';
'DOSEHINDSA';'2.16.840.1.113883.5.4';'High Dose for Height/Surface Area Alert';;;;;'9';'L';
'DOSEHINDW';'2.16.840.1.113883.5.4';'High Dose for Weight Alert';;;;;'9';'L';
'DOSEIVL';'2.16.840.1.113883.5.4';'Dose-Interval Alert';;;;;'7';'S';
'DOSEIVLIND';'2.16.840.1.113883.5.4';'Dose-Interval for Indication Alert';;;;;'9';'L';
'DOSEL';'2.16.840.1.113883.5.4';'Low Dose Alert';;;;;'8';'S';
'DOSELIND';'2.16.840.1.113883.5.4';'Low Dose for Indication Alert';;;;;'10';'L';
'DOSELINDA';'2.16.840.1.113883.5.4';'Low Dose for Age Alert';;;;;'10';'L';
'DOSELINDSA';'2.16.840.1.113883.5.4';'Low Dose for Height/Surface Area Alert';;;;;'9';'L';
'DOSELINDW';'2.16.840.1.113883.5.4';'Low Dose for Weight Alert';;;;;'10';'L';
'MDOSE';'2.16.840.1.113883.5.4';'maximum dosage reached';;;;;'8';'L';
'FORMAT';'2.16.840.1.113883.5.4';'invalid format';;;;;'5';'L';
'ILLEGAL';'2.16.840.1.113883.5.4';'illegal';;;;;'5';'L';
'KEY204';'2.16.840.1.113883.5.4';'Unknown key identifier';;;;;'6';'L';
'KEY205';'2.16.840.1.113883.5.4';'Duplicate key identifier';;;;;'6';'L';
'LEN_RANGE';'2.16.840.1.113883.5.4';'length out of range';;;;;'5';'S';
'LEN_LONG';'2.16.840.1.113883.5.4';'length is too long';;;;;'6';'L';
'LEN_SHORT';'2.16.840.1.113883.5.4';'length is too short';;;;;'6';'L';
'MISSCOND';'2.16.840.1.113883.5.4';'conditional element missing';;;;;'5';'L';
'MISSMAND';'2.16.840.1.113883.5.4';'mandatory element missing';;;;;'5';'L';
'NODUPS';'2.16.840.1.113883.5.4';'duplicate values are not permitted';;;;;'5';'L';
'NOPERSIST';'2.16.840.1.113883.5.4';'element will not be persisted';;;;;'5';'L';
'OBSA';'2.16.840.1.113883.5.4';'Observation Alert';;;;;'5';'S';
'AGE';'2.16.840.1.113883.5.4';'Age Alert';;;;;'6';'L';
'COND';'2.16.840.1.113883.5.4';'Condition Alert';;;;;'6';'S';
'HGHT';'2.16.840.1.113883.5.4';'HGHT';;;;;'7';'L';
'LACT';'2.16.840.1.113883.5.4';'Lactation Alert';;;;;'7';'L';
'PREG';'2.16.840.1.113883.5.4';'Pregnancy Alert';;;;;'7';'L';
'WGHT';'2.16.840.1.113883.5.4';'WGHT';;;;;'7';'L';
'CREACT';'2.16.840.1.113883.5.4';'common reaction alert';;;;;'6';'L';
'GEN';'2.16.840.1.113883.5.4';'Genetic Alert';;;;;'6';'L';
'GEND';'2.16.840.1.113883.5.4';'Gender Alert';;;;;'6';'L';
'LAB';'2.16.840.1.113883.5.4';'Lab Alert';;;;;'6';'L';
'REACT';'2.16.840.1.113883.5.4';'Reaction Alert';;;;;'6';'S';
'ALGY';'2.16.840.1.113883.5.4';'Allergy Alert';;;;;'7';'L';
'INT';'2.16.840.1.113883.5.4';'Intolerance Alert';;;;;'7';'L';
'RREACT';'2.16.840.1.113883.5.4';'Related Reaction Alert';;;;;'6';'S';
'RALG';'2.16.840.1.113883.5.4';'Related Allergy Alert';;;;;'7';'L';
'RAR';'2.16.840.1.113883.5.4';'Related Prior Reaction Alert';;;;;'7';'L';
'RINT';'2.16.840.1.113883.5.4';'Related Intolerance Alert';;;;;'7';'L';
'REP_RANGE';'2.16.840.1.113883.5.4';'repetitions out of range';;;;;'5';'S';
'MAXOCCURS';'2.16.840.1.113883.5.4';'repetitions above maximum';;;;;'6';'L';
'MINOCCURS';'2.16.840.1.113883.5.4';'repetitions below minimum';;;;;'6';'L';
'_ActAdministrativeRuleDetectedIssueCode';'2.16.840.1.113883.5.4';'ActAdministrativeRuleDetectedIssueCode';;;;;'3';'S';
'KEY206';'2.16.840.1.113883.5.4';'non-matching identification';;;;;'4';'L';
'OBSOLETE';'2.16.840.1.113883.5.4';'obsolete record returned';;;;;'4';'L';
'_ActSuppliedItemDetectedIssueCode';'2.16.840.1.113883.5.4';'ActSuppliedItemDetectedIssueCode';;;;;'2';'S';
'HISTORIC';'2.16.840.1.113883.5.4';'record recorded as historical';;;;;'3';'L';
'PATPREF';'2.16.840.1.113883.5.4';'violates stated preferences';;;;;'3';'S';
'PATPREFALT';'2.16.840.1.113883.5.4';'violates stated preferences, alternate available';;;;;'4';'L';
'_AdministrationDetectedIssueCode';'2.16.840.1.113883.5.4';'AdministrationDetectedIssueCode';;;;;'3';'S';
'DACT';'2.16.840.1.113883.5.4';'drug action detected issue';;;;;'4';'L';
'TIME';'2.16.840.1.113883.5.4';'timing detected issue';;;;;'4';'S';
'ALRTENDLATE';'2.16.840.1.113883.5.4';'end too late alert';;;;;'5';'L';
'ALRTSTRTLATE';'2.16.840.1.113883.5.4';'start too late alert';;;;;'5';'L';
'_AppropriatenessDetectedIssueCode';'2.16.840.1.113883.5.4';'AppropriatenessDetectedIssueCode';;;;;'4';'S';
'PREVINEF';'2.16.840.1.113883.5.4';'previously ineffective';;;;;'5';'L';
'_InteractionDetectedIssueCode';'2.16.840.1.113883.5.4';'InteractionDetectedIssueCode';;;;;'5';'S';
'FOOD';'2.16.840.1.113883.5.4';'Food Interaction Alert';;;;;'6';'L';
'TPROD';'2.16.840.1.113883.5.4';'Therapeutic Product Alert';;;;;'6';'S';
'DRG';'2.16.840.1.113883.5.4';'Drug Interaction Alert';;;;;'7';'L';
'NHP';'2.16.840.1.113883.5.4';'Natural Health Product Alert';;;;;'7';'L';
'NONRX';'2.16.840.1.113883.5.4';'Non-Prescription Interaction Alert';;;;;'7';'L';
'_SupplyDetectedIssueCode';'2.16.840.1.113883.5.4';'SupplyDetectedIssueCode';;;;;'3';'S';
'ALLDONE';'2.16.840.1.113883.5.4';'already performed';;;;;'4';'L';
'FULFIL';'2.16.840.1.113883.5.4';'fulfillment alert';;;;;'4';'S';
'NOTACTN';'2.16.840.1.113883.5.4';'no longer actionable';;;;;'5';'L';
'OTEQUIV';'2.16.840.1.113883.5.4';'not equivalent alert';;;;;'5';'S';
'NOTEQUIVGEN';'2.16.840.1.113883.5.4';'not generically equivalent alert';;;;;'6';'L';
'NOTEQUIVTHER';'2.16.840.1.113883.5.4';'not therapeutically equivalent alert';;;;;'6';'L';
'TIMING';'2.16.840.1.113883.5.4';'event timing incorrect alert';;;;;'5';'S';
'INTERVAL';'2.16.840.1.113883.5.4';'outside requested time';;;;;'6';'L';
'MINFREQ';'2.16.840.1.113883.5.4';'too soon within frequency based on the usage';;;;;'6';'L';
'HELD';'2.16.840.1.113883.5.4';'held/suspended alert';;;;;'4';'L';
'TOOLATE';'2.16.840.1.113883.5.4';'Refill Too Late Alert';;;;;'4';'L';
'TOOSOON';'2.16.840.1.113883.5.4';'Refill Too Soon Alert';;;;;'4';'L';
'IndividualCaseSafetyReportType';'2.16.840.1.113883.5.4';'Individual Case Safety Report Type';;;;;'1';'S';
'PAT_ADV_EVNT';'2.16.840.1.113883.5.4';'patient adverse event';;;;;'2';'L';
'VAC_PROBLEM';'2.16.840.1.113883.5.4';'vaccine product problem';;;;;'2';'L';
'KSUBJ';'2.16.840.1.113883.5.4';'knowledge subject';;;;;'1';'L';
'KSUBT';'2.16.840.1.113883.5.4';'knowledge subtopic';;;;;'1';'L';
'OINT';'2.16.840.1.113883.5.4';'intolerance';;;;;'1';'S';
'ALG';'2.16.840.1.113883.5.4';'Allergy';;;;;'2';'S';
'DALG';'2.16.840.1.113883.5.4';'Drug Allergy';;;;;'3';'L';
'EALG';'2.16.840.1.113883.5.4';'Environmental Allergy';;;;;'3';'L';
'FALG';'2.16.840.1.113883.5.4';'Food Allergy';;;;;'3';'L';
'DINT';'2.16.840.1.113883.5.4';'Drug Intolerance';;;;;'2';'S';
'DNAINT';'2.16.840.1.113883.5.4';'Drug Non-Allergy Intolerance';;;;;'3';'L';
'EINT';'2.16.840.1.113883.5.4';'Environmental Intolerance';;;;;'2';'S';
'ENAINT';'2.16.840.1.113883.5.4';'Environmental Non-Allergy Intolerance';;;;;'3';'L';
'FINT';'2.16.840.1.113883.5.4';'Food Intolerance';;;;;'2';'S';
'FNAINT';'2.16.840.1.113883.5.4';'Food Non-Allergy Intolerance';;;;;'3';'L';
'NAINT';'2.16.840.1.113883.5.4';'Non-Allergy Intolerance';;;;;'2';'L';
'SEV';'2.16.840.1.113883.5.4';'Severity Observation';;;;;'1';'L';
'_ActSpecObsCode';'2.16.840.1.113883.5.4';'ActSpecObsCode';;;;;'1';'S';
'ARTBLD';'2.16.840.1.113883.5.4';'ActSpecObsArtBldCode';;;;;'2';'L';
'DILUTION';'2.16.840.1.113883.5.4';'ActSpecObsDilutionCode';;;;;'2';'S';
'AUTO-HIGH';'2.16.840.1.113883.5.4';'Auto-High Dilution';;;;;'3';'L';
'AUTO-LOW';'2.16.840.1.113883.5.4';'Auto-Low Dilution';;;;;'3';'L';
'PRE';'2.16.840.1.113883.5.4';'Pre-Dilution';;;;;'3';'L';
'RERUN';'2.16.840.1.113883.5.4';'Rerun Dilution';;;;;'3';'L';
'EVNFCTS';'2.16.840.1.113883.5.4';'ActSpecObsEvntfctsCode';;;;;'2';'L';
'INTFR';'2.16.840.1.113883.5.4';'ActSpecObsInterferenceCode';;;;;'2';'S';
'FIBRIN';'2.16.840.1.113883.5.4';'Fibrin';;;;;'3';'L';
'HEMOLYSIS';'2.16.840.1.113883.5.4';'Hemolysis';;;;;'3';'L';
'ICTERUS';'2.16.840.1.113883.5.4';'Icterus';;;;;'3';'L';
'LIPEMIA';'2.16.840.1.113883.5.4';'Lipemia';;;;;'3';'L';
'VOLUME';'2.16.840.1.113883.5.4';'ActSpecObsVolumeCode';;;;;'2';'S';
'AVAILABLE';'2.16.840.1.113883.5.4';'Available Volume';;;;;'3';'L';
'CONSUMPTION';'2.16.840.1.113883.5.4';'Consumption Volume';;;;;'3';'L';
'CURRENT';'2.16.840.1.113883.5.4';'Current Volume';;;;;'3';'L';
'INITIAL';'2.16.840.1.113883.5.4';'Initial Volume';;;;;'3';'L';
'_AnnotationType';'2.16.840.1.113883.5.4';'AnnotationType';;;;;'1';'S';
'_ActPatientAnnotationType';'2.16.840.1.113883.5.4';'ActPatientAnnotationType';;;;;'2';'S';
'ANNDI';'2.16.840.1.113883.5.4';'diagnostic image note';;;;;'3';'L';
'ANNGEN';'2.16.840.1.113883.5.4';'general note';;;;;'3';'L';
'ANNIMM';'2.16.840.1.113883.5.4';'immunization note';;;;;'3';'L';
'ANNLAB';'2.16.840.1.113883.5.4';'laboratory note';;;;;'3';'L';
'ANNMED';'2.16.840.1.113883.5.4';'medication note';;;;;'3';'L';
'_GeneticObservationType';'2.16.840.1.113883.5.4';'GeneticObservationType';;;;;'1';'S';
'GENE';'2.16.840.1.113883.5.4';'gene';;;;;'2';'L';
'_ImmunizationObservationType';'2.16.840.1.113883.5.4';'ImmunizationObservationType';;;;;'1';'S';
'OBSANTC';'2.16.840.1.113883.5.4';'antigen count';;;;;'2';'L';
'OBSANTV';'2.16.840.1.113883.5.4';'antigen validity';;;;;'2';'L';
'_LOINCObservationActContextAgeType';'2.16.840.1.113883.5.4';'LOINCObservationActContextAgeType';;;;;'1';'S';
'21611-9';'2.16.840.1.113883.5.4';'age patient qn est';;;;;'2';'L';
'21612-7';'2.16.840.1.113883.5.4';'age patient qn reported';;;;;'2';'L';
'29553-5';'2.16.840.1.113883.5.4';'age patient qn calc';;;;;'2';'L';
'30525-0';'2.16.840.1.113883.5.4';'age patient qn definition';;;;;'2';'L';
'30972-4';'2.16.840.1.113883.5.4';'age at onset of adverse event';;;;;'2';'L';
'_MedicationObservationType';'2.16.840.1.113883.5.4';'MedicationObservationType';;;;;'1';'S';
'REP_HALF_LIFE';'2.16.840.1.113883.5.4';'representative half-life';;;;;'2';'L';
'SPLCOATING';'2.16.840.1.113883.5.4';'coating';;;;;'2';'L';
'SPLCOLOR';'2.16.840.1.113883.5.4';'color';;;;;'2';'L';
'SPLIMAGE';'2.16.840.1.113883.5.4';'image';;;;;'2';'L';
'SPLIMPRINT';'2.16.840.1.113883.5.4';'imprint';;;;;'2';'L';
'SPLSCORING';'2.16.840.1.113883.5.4';'scoring';;;;;'2';'L';
'SPLSHAPE';'2.16.840.1.113883.5.4';'shape';;;;;'2';'L';
'SPLSIZE';'2.16.840.1.113883.5.4';'size';;;;;'2';'L';
'SPLSYMBOL';'2.16.840.1.113883.5.4';'symbol';;;;;'2';'L';
'_ObservationIssueTriggerCodedObservationType';'2.16.840.1.113883.5.4';'ObservationIssueTriggerCodedObservationType';;;;;'1';'S';
'_CaseTransmissionMode';'2.16.840.1.113883.5.4';'case transmission mode';;;;;'2';'S';
'AIRTRNS';'2.16.840.1.113883.5.4';'airborne transmission';;;;;'3';'L';
'ANANTRNS';'2.16.840.1.113883.5.4';'animal to animal transmission';;;;;'3';'L';
'ANHUMTRNS';'2.16.840.1.113883.5.4';'animal to human transmission';;;;;'3';'L';
'BDYFLDTRNS';'2.16.840.1.113883.5.4';'body fluid contact transmission';;;;;'3';'L';
'BLDTRNS';'2.16.840.1.113883.5.4';'blood borne transmission';;;;;'3';'L';
'DERMTRNS';'2.16.840.1.113883.5.4';'transdermal transmission';;;;;'3';'L';
'ENVTRNS';'2.16.840.1.113883.5.4';'environmental exposure transmission';;;;;'3';'L';
'FECTRNS';'2.16.840.1.113883.5.4';'fecal-oral transmission';;;;;'3';'L';
'FOMTRNS';'2.16.840.1.113883.5.4';'fomite transmission';;;;;'3';'L';
'FOODTRNS';'2.16.840.1.113883.5.4';'food-borne transmission';;;;;'3';'L';
'HUMHUMTRNS';'2.16.840.1.113883.5.4';'human to human transmission';;;;;'3';'L';
'INDTRNS';'2.16.840.1.113883.5.4';'indeterminate disease transmission mode';;;;;'3';'L';
'LACTTRNS';'2.16.840.1.113883.5.4';'lactation transmission';;;;;'3';'L';
'NOSTRNS';'2.16.840.1.113883.5.4';'nosocomial transmission';;;;;'3';'L';
'PARTRNS';'2.16.840.1.113883.5.4';'parenteral transmission';;;;;'3';'L';
'PLACTRNS';'2.16.840.1.113883.5.4';'transplacental transmission';;;;;'3';'L';
'SEXTRNS';'2.16.840.1.113883.5.4';'sexual transmission';;;;;'3';'L';
'TRNSFTRNS';'2.16.840.1.113883.5.4';'transfusion transmission';;;;;'3';'L';
'VECTRNS';'2.16.840.1.113883.5.4';'vector-borne transmission';;;;;'3';'L';
'WATTRNS';'2.16.840.1.113883.5.4';'water-borne transmission';;;;;'3';'L';
'_ObservationQualityMeasureAttribute';'2.16.840.1.113883.5.4';'ObservationQualityMeasureAttribute';;;;;'1';'S';
'COPY';'2.16.840.1.113883.5.4';'copyright';;;;;'2';'L';
'DISC';'2.16.840.1.113883.5.4';'disclaimer';;;;;'2';'L';
'KEY';'2.16.840.1.113883.5.4';'keyword';;;;;'2';'L';
'MSRADJ';'2.16.840.1.113883.5.4';'health quality measure risk adjustment';;;;;'2';'L';
'MSRAGG';'2.16.840.1.113883.5.4';'health quality measure data aggregation';;;;;'2';'L';
'MSRIMPROV';'2.16.840.1.113883.5.4';'health quality measure improvement notation';;;;;'2';'L';
'MSRSCORE';'2.16.840.1.113883.5.4';'health quality measure scoring';;;;;'2';'L';
'MSRSET';'2.16.840.1.113883.5.4';'health quality measure care setting';;;;;'2';'L';
'MSRTOPIC';'2.16.840.1.113883.5.4';'health quality measure topic type';;;;;'2';'L';
'MSRTYPE';'2.16.840.1.113883.5.4';'health quality measure type';;;;;'2';'L';
'RAT';'2.16.840.1.113883.5.4';'rationale';;;;;'2';'L';
'REF';'2.16.840.1.113883.5.4';'reference';;;;;'2';'L';
'USE';'2.16.840.1.113883.5.4';'notice of use';;;;;'2';'L';
'_ObservationSequenceType';'2.16.840.1.113883.5.4';'ObservationSequenceType';;;;;'1';'S';
'TIME_ABSOLUTE';'2.16.840.1.113883.5.4';'absolute time sequence';;;;;'2';'L';
'TIME_RELATIVE';'2.16.840.1.113883.5.4';'relative time sequence';;;;;'2';'L';
'_ObservationSeriesType';'2.16.840.1.113883.5.4';'ObservationSeriesType';;;;;'1';'S';
'_ECGObservationSeriesType';'2.16.840.1.113883.5.4';'ECGObservationSeriesType';;;;;'2';'S';
'REPRESENTATIVE_BEAT';'2.16.840.1.113883.5.4';'ECG representative beat waveforms';;;;;'3';'L';
'RHYTHM';'2.16.840.1.113883.5.4';'ECG rhythm waveforms';;;;;'3';'L';
'_PatientImmunizationRelatedObservationType';'2.16.840.1.113883.5.4';'PatientImmunizationRelatedObservationType';;;;;'1';'S';
'CLSSRM';'2.16.840.1.113883.5.4';'classroom';;;;;'2';'L';
'GRADE';'2.16.840.1.113883.5.4';'grade';;;;;'2';'L';
'SCHL';'2.16.840.1.113883.5.4';'school';;;;;'2';'L';
'SCHLDIV';'2.16.840.1.113883.5.4';'school division';;;;;'2';'L';
'TEACHER';'2.16.840.1.113883.5.4';'teacher';;;;;'2';'L';
'_ROIOverlayShape';'2.16.840.1.113883.5.4';'ROIOverlayShape';;;;;'0';'S';
'CIRCLE';'2.16.840.1.113883.5.4';'circle';;;;;'1';'L';
'ELLIPSE';'2.16.840.1.113883.5.4';'ellipse';;;;;'1';'L';
'POINT';'2.16.840.1.113883.5.4';'point';;;;;'1';'L';
'POLY';'2.16.840.1.113883.5.4';'polyline';;;;;'1';'L';
