'code';'codeSystem';'displayName';'parentCodeSystemName';'concept_Beschreibung';'meaning';'hints';'orderNumber';'level';'type';'relationships';'einheit print';'einheit codiert';'codeSystemVersion'
'aborted';'2.16.840.1.113883.5.14';'aborted';'http://terminology.hl7.org/CodeSystem/v3-ActStatus';'Vor Abschluss abgebrochen, wird nicht mehr aufgenommen';'Abgebrochen ';;'1';'0';'L';;;;'2.1.0'
'active';'2.16.840.1.113883.5.14';'active';'http://terminology.hl7.org/CodeSystem/v3-ActStatus';'Bereits begonnen oder kann begonnen werden';'Aktiv';;'2';'0';'L';;;;'2.1.0'
'completed';'2.16.840.1.113883.5.14';'completed';'http://terminology.hl7.org/CodeSystem/v3-ActStatus';'Normal fertiggestellt';'Abgeschlossen        ';;'3';'0';'L';;;;'2.1.0'
'suspended';'2.16.840.1.113883.5.14';'suspended';'http://terminology.hl7.org/CodeSystem/v3-ActStatus';'NachBeginn/Aktivierung unterbrochen -Act kann fortgesetzt werden';'Ausgesetzt    ';;'4';'0';'L';;;;'2.1.0'
