'code';'codeSystem';'displayName';'parentCodeSystemName';'concept_Beschreibung';'meaning';'hints';'orderNumber';'level';'type';'relationships';'einheit print';'einheit codiert';'codeSystemVersion'
'Verstorben';'1.2.40.0.34.5.105';'Verstorben';'https://termgit.elga.gv.at/CodeSystem/ems-krankheitsmerkmale';;;;'1';'0';'A';;;;'1.0.0+20230131'
'TOD';'1.2.40.0.34.5.105';'Tod';'https://termgit.elga.gv.at/CodeSystem/ems-krankheitsmerkmale';;;;'2';'1';'L';;;;'1.0.0+20230131'
'TOD_KRANKHEIT';'1.2.40.0.34.5.105';'Krankheitsbezogener Tod';'https://termgit.elga.gv.at/CodeSystem/ems-krankheitsmerkmale';;;;'3';'1';'L';;;;'1.0.0+20230131'
'AUSSCHEIDER';'1.2.40.0.34.5.105';'Ausscheider';'https://termgit.elga.gv.at/CodeSystem/ems-krankheitsmerkmale';;;;'4';'0';'L';;;;'1.0.0+20230131'
'ASYMPTOMATISCH';'1.2.40.0.34.5.105';'Asymptomatisch';'https://termgit.elga.gv.at/CodeSystem/ems-krankheitsmerkmale';;;;'5';'0';'L';;;;'1.0.0+20230131'
