{
  "resourceType": "CodeSystem",
  "id": "oeaek-berechtigungen",
  "url": "https://termgit.elga.gv.at/CodeSystem/oeaek-berechtigungen",
  "identifier": [
    {
      "use": "official",
      "system": "urn:ietf:rfc:3986",
      "value": "urn:oid:1.2.40.0.34.3.1.10"
    }
  ],
  "version": "1.0.0+20230131",
  "name": "oeaek-berechtigungen",
  "title": "OEAEK_Berechtigungen",
  "status": "active",
  "date": "2018-07-01",
  "description": "**Description:** Code List of all disciplines valid in Austria issued by the Medical Chamber of Austria\n\n**Beschreibung:** Code Liste aller in \u00d6sterreich g\u00fcltigen Fachrichtungen",
  "content": "complete",
  "count": 2,
  "concept": [
    {
      "code": "0",
      "display": "Allgemeinmedizin"
    },
    {
      "code": "99",
      "display": "Approbierter Arzt"
    }
  ]
}