'code';'codeSystem';'displayName';'parentCode';'concept_Beschreibung';'meaning';'hints';'level';'type';'relationships'
'1';'1.2.40.0.34.5.65';'1';;'"1" wird verwendet bei Shigellose und Yersiniose';;;'0';'L';
'1A';'1.2.40.0.34.5.65';'1A';;'"1A" wird verwendet bei Yersiniose';;;'0';'L';
'1B';'1.2.40.0.34.5.65';'1B';;'"1B" wird verwendet bei Yersiniose';;;'0';'L';
'2';'1.2.40.0.34.5.65';'2';;'"2" wird verwendet bei Shigellose und Yersiniose';;;'0';'L';
'3';'1.2.40.0.34.5.65';'3';;'"3" wird verwendet bei Shigellose und Yersiniose';;;'0';'L';
'4';'1.2.40.0.34.5.65';'4';;'"4" wird verwendet bei Shigellose und Yersiniose';;;'0';'L';
'5';'1.2.40.0.34.5.65';'5';;'"5" wird verwendet bei Shigellose und Yersiniose';;;'0';'L';
'6';'1.2.40.0.34.5.65';'6';;'"6" wird verwendet bei Shigellose';;;'0';'L';
'AB';'1.2.40.0.34.5.65';'ab';;'"ab" wird verwendet bei Shigellose';;;'0';'L';
'CD';'1.2.40.0.34.5.65';'cd';;'"cd" wird verwendet bei Shigellose';;;'0';'L';
'ELTOR';'1.2.40.0.34.5.65';'El-Tor';;'"El-Tor" wird verwendet bei Cholera';;;'0';'L';
'GL';'1.2.40.0.34.5.65';'gl';;'"gl" wird verwendet bei Shigellose';;;'0';'L';
'VARBELF';'1.2.40.0.34.5.65';'var belfanti';;'bei Diphtherie';;;'0';'L';
'VARGRAV';'1.2.40.0.34.5.65';'var gravis';;'bei Diphtherie';;;'0';'L';
'VARINTMED';'1.2.40.0.34.5.65';'var intermedius';;'bei Diphtherie';;;'0';'L';
'VARMITIS';'1.2.40.0.34.5.65';'var mitis';;'bei Diphtherie';;;'0';'L';
'VIBRIOC';'1.2.40.0.34.5.65';'Vibrio Comma (klassisch)';;'"Vibrio Comma" wird verwendet bei Cholera';;;'0';'L';
