'code';'codeSystem';'displayName';'parentCodeSystemName';'concept_Beschreibung';'meaning';'hints';'orderNumber';'level';'type';'relationships';'einheit print';'einheit codiert';'codeSystemVersion'
'260373001';'2.16.840.1.113883.6.96';'Detected (qualifier value)';'https://termgit.elga.gv.at/CodeSystem/snomed-ct-auszug';'detected';'nachgewiesen';'0';'1';'0';'L';'2.16.840.1.113883.6.96:260373001';;;'1.0.0+20230131'
'260415000';'2.16.840.1.113883.6.96';'Not detected (qualifier value)';'https://termgit.elga.gv.at/CodeSystem/snomed-ct-auszug';'not detected';'nicht nachgewiesen';'1';'2';'0';'L';'2.16.840.1.113883.6.96:260415000';;;'1.0.0+20230131'
'82334004';'2.16.840.1.113883.6.96';'Indeterminate';'https://termgit.elga.gv.at/CodeSystem/snomed-ct-auszug';'Indeterminate';'nicht bestimmbar';'0';'3';'0';'L';'2.16.840.1.113883.6.96:82334004';;;'1.0.0+20230131'
