{
  "resourceType": "CodeSystem",
  "id": "ems-yersinapathogen",
  "url": "https://termgit.elga.gv.at/CodeSystem/ems-yersinapathogen",
  "identifier": [
    {
      "use": "official",
      "system": "urn:ietf:rfc:3986",
      "value": "urn:oid:1.2.40.0.34.5.85"
    }
  ],
  "version": "1.0.0+20230131",
  "name": "ems-yersinapathogen",
  "title": "EMS_YersinaPathogen",
  "status": "active",
  "date": "2017-01-26",
  "description": "EMS Yersinia Pathogen",
  "content": "complete",
  "count": 4,
  "concept": [
    {
      "code": "YERENT",
      "display": "Yersinia enterocolitica"
    },
    {
      "code": "YEROTHER",
      "display": "andere Yersinia"
    },
    {
      "code": "YERPSE",
      "display": "Yersinia pseudotuberculosis"
    },
    {
      "code": "YERSPP",
      "display": "Yersinia unspezifiziert"
    }
  ]
}