'code';'codeSystem';'displayName';'parentCode';'concept_Beschreibung';'meaning';'hints';'level';'type';'relationships'
'_RAST';'1.2.40.0.34.5.104';'RAST';'';'';'';'';'0';'S';''
'RAST0';'1.2.40.0.34.5.104';'< 0.35  kU/l (absent or undetectable allergen specific IgE)';'';'';'negativ, keine spezifischen IgE-Antikörper nachweisbar';'RAST 0';'1';'L';''
'RAST1';'1.2.40.0.34.5.104';'0.35 - 0.69  kU/l (low level of allergen specific IgE)';'';'';'schwach positiv, geringe Konzentration spezifischer IgE-AK nachweisbar';'RAST 1';'1';'L';''
'RAST2';'1.2.40.0.34.5.104';'0.70 - 3.49  kU/l (moderate level of allergen specific IgE)';'';'';'positiv';'RAST 2';'1';'L';''
'RAST3';'1.2.40.0.34.5.104';'3.50 - 17.49  kU/l (high level of allergen specific IgE)';'';'';'deutlich positiv';'RAST 3';'1';'L';''
'RAST4';'1.2.40.0.34.5.104';'17.50 - 49.99  kU/l (very high level of allergen specific IgE)';'';'';'stark positiv, hohe Konzentration spezifischer IgE-AK nachweisbar';'RAST 4';'1';'L';''
'RAST5';'1.2.40.0.34.5.104';'50.00 - 100.00  kU/l (ultra high level of allergen specific IgE)';'';'';'sehr stark positiv, sehr hohe Konzentration spezifischer IgE-AK nachweisbar';'RAST 5';'1';'L';''
'RAST6';'1.2.40.0.34.5.104';'> 100.00  kU/l (extremely high level of allergen specific ige)';'';'';'hochgradig positiv, extrem hohe Konzentration spezifischer IgE-AK nachweisbar';'RAST 6';'1';'L';''
