"resource";"id";"url";"version";"name";"title";"status";"description";"content";"identifier";"date";"count"
"CodeSystem";"ems-artquartier";"https://termgit.elga.gv.at/CodeSystem/ems-artquartier";"1.0.0+20230131";"ems-artquartier";"EMS_ArtQuartier";"active";"EMS Liste der Quartierart";"complete";"1.2.40.0.34.5.63";"2017-01-26";"4"

"code";"display"
"CAMPING";"Campingplatz"
"HOTEL";"Hotel"
"PRIV";"privat"
"SHIP";"Schiff"