'code';'codeSystem';'displayName';'parentCodeSystemName';'concept_Beschreibung';'meaning';'hints';'orderNumber';'level';'type';'relationships';'einheit print';'einheit codiert';'codeSystemVersion'
'AS';'2.16.840.1.113883.5.1119';'answering service';'http://terminology.hl7.org/CodeSystem/v3-AddressUse';;'Anrufbeantworter';;'1';'0';'L';;;;'2.1.0'
'EC';'2.16.840.1.113883.5.1119';'emergency contact';'http://terminology.hl7.org/CodeSystem/v3-AddressUse';;'Notfallnummer';;'2';'0';'L';;;;'2.1.0'
'H';'2.16.840.1.113883.5.1119';'home address';'http://terminology.hl7.org/CodeSystem/v3-AddressUse';;'zu Hause';;'3';'0';'L';;;;'2.1.0'
'HP';'2.16.840.1.113883.5.1119';'primary home';'http://terminology.hl7.org/CodeSystem/v3-AddressUse';;'Privat';;'4';'0';'L';;;;'2.1.0'
'HV';'2.16.840.1.113883.5.1119';'vacation home';'http://terminology.hl7.org/CodeSystem/v3-AddressUse';;'Im Urlaub';;'5';'0';'L';;;;'2.1.0'
'MC';'2.16.840.1.113883.5.1119';'mobile contact';'http://terminology.hl7.org/CodeSystem/v3-AddressUse';;'Mobiltelefon';;'6';'0';'L';;;;'2.1.0'
'PG';'2.16.840.1.113883.5.1119';'pager';'http://terminology.hl7.org/CodeSystem/v3-AddressUse';;'Pager';;'7';'0';'L';;;;'2.1.0'
'WP';'2.16.840.1.113883.5.1119';'work place';'http://terminology.hl7.org/CodeSystem/v3-AddressUse';;'Geschäftlich';;'8';'0';'L';;;;'2.1.0'
'TMP';'2.16.840.1.113883.5.1119';'temporary address';'http://terminology.hl7.org/CodeSystem/v3-AddressUse';;'Pflegeadresse';;'9';'0';'L';;;;'2.1.0'
'PHYS';'2.16.840.1.113883.5.1119';'physical visit address';'http://terminology.hl7.org/CodeSystem/v3-AddressUse';;;;'10';'0';'L';;;;'2.1.0'
'PST';'2.16.840.1.113883.5.1119';'postal address';'http://terminology.hl7.org/CodeSystem/v3-AddressUse';;;;'11';'0';'L';;;;'2.1.0'
