{
  "resourceType": "CodeSystem",
  "id": "ems-nachweis",
  "url": "https://termgit.elga.gv.at/CodeSystem/ems-nachweis",
  "identifier": [
    {
      "use": "official",
      "system": "urn:ietf:rfc:3986",
      "value": "urn:oid:1.2.40.0.34.5.81"
    }
  ],
  "version": "1.0.0+20230131",
  "name": "ems-nachweis",
  "title": "EMS_Nachweis",
  "status": "active",
  "date": "2017-01-26",
  "description": "EMS Nachweis",
  "content": "complete",
  "count": 4,
  "concept": [
    {
      "code": "EA",
      "display": "Ergebnis ausst\u00e4ndig"
    },
    {
      "code": "NA",
      "display": "nicht anwendbar"
    },
    {
      "code": "NE",
      "display": "Nachweis erfolgt"
    },
    {
      "code": "NNE",
      "display": "Nachweis nicht erfolgt"
    }
  ]
}