'code';'codeSystem';'displayName';'parentCode';'concept_Beschreibung';'meaning';'hints';'level';'type';'relationships'
'0';'1.2.40.0.34.5.150';'PAP Event';;;;;'0';'S';
'1';'1.2.40.0.34.5.150';'Generelle Policyverwaltung';;;;;'1';'L';
'2';'1.2.40.0.34.5.150';'Patientenzustimmung';;;;;'1';'L';
'10';'1.2.40.0.34.5.150';'Kontaktbestätigung';;;;;'0';'L';
'20';'1.2.40.0.34.5.150';'ELGA Token Service';;;;;'0';'L';
'30';'1.2.40.0.34.5.150';'Dokumentenverwaltung';;;;;'0';'L';
'40';'1.2.40.0.34.5.150';'e-Medikation';;;;;'0';'L';
'90';'1.2.40.0.34.5.150';'Administration';;;;;'0';'L';
