"resource";"id";"url";"version";"name";"title";"status";"description";"content";"identifier";"date";"count"
"CodeSystem";"ems-genotyppora-r1";"https://termgit.elga.gv.at/CodeSystem/ems-genotyppora-r1";"1.0.0+20230131";"ems-genotyppora-r1";"EMS_GenotypPorA_R1";"active";"EMS Liste Genotyp PorA variable region 1";"complete";"1.2.40.0.34.5.72";"2017-01-26";"166"

"code";"display"
"12";"12"
"12_1";"12-1"
"12_10";"12-10"
"12_11";"12-11"
"12_12";"12-12"
"12_13";"12-13"
"12_14";"12-14"
"12_15";"12-15"
"12_16";"12-16"
"12_17";"12-17"
"12_18";"12-18"
"12_2";"12-2"
"12_3";"12-3"
"12_4";"12-4"
"12_5";"12-5"
"12_6";"12-6"
"12_7";"12-7"
"12_8";"12-8"
"12_9";"12-9"
"17";"17"
"17_1";"17-1"
"17_2";"17-2"
"17_3";"17-3"
"18";"18"
"18_1";"18-1"
"18_10";"18-10"
"18_11";"18-11"
"18_12";"18-12"
"18_13";"18-13"
"18_14";"18-14"
"18_15";"18-15"
"18_16";"18-16"
"18_17";"18-17"
"18_18";"18-18"
"18_19";"18-19"
"18_2";"18-2"
"18_20";"18-20"
"18_3";"18-3"
"18_4";"18-4"
"18_5";"18-5"
"18_6";"18-6"
"18_7";"18-7"
"18_8";"18-8"
"18_9";"18-9"
"19";"19"
"19_1";"19-1"
"19_10";"19-10"
"19_11";"19-11"
"19_12";"19-12"
"19_13";"19-13"
"19_14";"19-14"
"19_15";"19-15"
"19_16";"19-16"
"19_17";"19-17"
"19_18";"19-18"
"19_19";"19-19"
"19_2";"19-2"
"19_20";"19-20"
"19_21";"19-21"
"19_22";"19-22"
"19_23";"19-23"
"19_24";"19-24"
"19_25";"19-25"
"19_26";"19-26"
"19_27";"19-27"
"19_28";"19-28"
"19_29";"19-29"
"19_3";"19-3"
"19_4";"19-4"
"19_5";"19-5"
"19_6";"19-6"
"19_7";"19-7"
"19_8";"19-8"
"19_9";"19-9"
"20";"20"
"20_1";"20-1"
"20_2";"20-2"
"20_3";"20-3"
"20_4";"20-4"
"21";"21"
"21_1";"21-1"
"21_10";"21-10"
"21_11";"21-11"
"21_12";"21-12"
"21_13";"21-13"
"21_2";"21-2"
"21_3";"21-3"
"21_4";"21-4"
"21_5";"21-5"
"21_6";"21-6"
"21_7";"21-7"
"21_8";"21-8"
"21_9";"21-9"
"22";"22"
"22_1";"22-1"
"22_10";"22-10"
"22_11";"22-11"
"22_12";"22-12"
"22_13";"22-13"
"22_14";"22-14"
"22_15";"22-15"
"22_16";"22-16"
"22_17";"22-17"
"22_18";"22-18"
"22_19";"22-19"
"22_2";"22-2"
"22_3";"22-3"
"22_4";"22-4"
"22_5";"22-5"
"22_6";"22-6"
"22_7";"22-7"
"22_8";"22-8"
"22_9";"22-9"
"31";"31"
"5";"5"
"5_1";"5-1"
"5_10";"5-10"
"5_11";"5-11"
"5_12";"5-12"
"5_13";"5-13"
"5_14";"5-14"
"5_15";"5-15"
"5_16";"5-16"
"5_17";"5-17"
"5_18";"5-18"
"5_19";"5-19"
"5_2";"5-2"
"5_20";"5-20"
"5_3";"5-3"
"5_4";"5-4"
"5_5";"5-5"
"5_6";"5-6"
"5_7";"5-7"
"5_8";"5-8"
"5_9";"5-9"
"7";"7"
"7_1";"7-1"
"7_10";"7-10"
"7_11";"7-11"
"7_12";"7-12"
"7_13";"7-13"
"7_14";"7-14"
"7_15";"7-15"
"7_16";"7-16"
"7_17";"7-17"
"7_18";"7-18"
"7_19";"7-19"
"7_2";"7-2"
"7_20";"7-20"
"7_21";"7-21"
"7_22";"7-22"
"7_23";"7-23"
"7_24";"7-24"
"7_25";"7-25"
"7_26";"7-26"
"7_27";"7-27"
"7_28";"7-28"
"7_3";"7-3"
"7_4";"7-4"
"7_5";"7-5"
"7_6";"7-6"
"7_7";"7-7"
"7_8";"7-8"
"7_9";"7-9"
"NOTEST";"Nicht durchgeführt"
"NST";"Not subtypeable"