'code';'codeSystem';'displayName';'parentCode';'concept_Beschreibung';'meaning';'hints';'level';'type';'relationships'
'A';'2.16.840.1.113883.5.2';'Annulled';;;;;'0';'L';
'D';'2.16.840.1.113883.5.2';'Divorced';;;;;'0';'L';
'I';'2.16.840.1.113883.5.2';'Interlocutory';;;;;'0';'L';
'L';'2.16.840.1.113883.5.2';'Legally Separated';;;;;'0';'L';
'M';'2.16.840.1.113883.5.2';'Married';;;;;'0';'L';
'P';'2.16.840.1.113883.5.2';'Polygamous';;;;;'0';'L';
'S';'2.16.840.1.113883.5.2';'Never Married';;;;;'0';'L';
'T';'2.16.840.1.113883.5.2';'Domestic partner';;;;;'0';'L';
'W';'2.16.840.1.113883.5.2';'Widowed';;;;;'0';'L';
