'code';'codeSystem';'displayName';'parentCodeSystemName';'concept_Beschreibung';'meaning';'hints';'orderNumber';'level';'type';'relationships';'einheit print';'einheit codiert'
'BE';'2.16.840.1.113883.5.1052';'bilateral ears';'http://terminology.hl7.org/CodeSystem/v3-ActSite';'';'Ohren beidseits';'';'1';'0';'L';'';'';''
'BN';'2.16.840.1.113883.5.1052';'bilateral nares';'http://terminology.hl7.org/CodeSystem/v3-ActSite';'';'Nasennebenhöhlen beidseits';'';'2';'0';'L';'';'';''
'BU';'2.16.840.1.113883.5.1052';'buttock';'http://terminology.hl7.org/CodeSystem/v3-ActSite';'';'Gesäß';'';'3';'0';'L';'';'';''
'LA';'2.16.840.1.113883.5.1052';'left arm';'http://terminology.hl7.org/CodeSystem/v3-ActSite';'';'linker Arm';'';'4';'0';'L';'';'';''
'LAC';'2.16.840.1.113883.5.1052';'left anterior chest';'http://terminology.hl7.org/CodeSystem/v3-ActSite';'';'linker Brustkorb anterior';'';'5';'0';'L';'';'';''
'LACF';'2.16.840.1.113883.5.1052';'left antecubital fossa';'http://terminology.hl7.org/CodeSystem/v3-ActSite';'';'Linke Ellenbeuge';'';'6';'0';'L';'';'';''
'LD';'2.16.840.1.113883.5.1052';'left deltoid';'http://terminology.hl7.org/CodeSystem/v3-ActSite';'';'linker Deltoideus';'';'7';'0';'L';'';'';''
'LE';'2.16.840.1.113883.5.1052';'left ear';'http://terminology.hl7.org/CodeSystem/v3-ActSite';'';'linkes Ohr';'';'8';'0';'L';'';'';''
'LEJ';'2.16.840.1.113883.5.1052';'left external jugular';'http://terminology.hl7.org/CodeSystem/v3-ActSite';'';'Vena jugularis externa, links';'';'9';'0';'L';'';'';''
'LF';'2.16.840.1.113883.5.1052';'left foot';'http://terminology.hl7.org/CodeSystem/v3-ActSite';'';'linker Fuß';'';'10';'0';'L';'';'';''
'LG';'2.16.840.1.113883.5.1052';'left gluteus medius';'http://terminology.hl7.org/CodeSystem/v3-ActSite';'';'linker mittlerer Gesäßmuskel';'';'11';'0';'L';'';'';''
'LH';'2.16.840.1.113883.5.1052';'left hand';'http://terminology.hl7.org/CodeSystem/v3-ActSite';'';'linke Hand';'';'12';'0';'L';'';'';''
'LIJ';'2.16.840.1.113883.5.1052';'left internal jugular';'http://terminology.hl7.org/CodeSystem/v3-ActSite';'';'Vena jugularis interna links';'';'13';'0';'L';'';'';''
'LLAQ';'2.16.840.1.113883.5.1052';'left lower abd quadrant';'http://terminology.hl7.org/CodeSystem/v3-ActSite';'';'Abdomen, linker unterer Quadrant';'';'14';'0';'L';'';'';''
'LLFA';'2.16.840.1.113883.5.1052';'left lower forearm';'http://terminology.hl7.org/CodeSystem/v3-ActSite';'';'linker unterer Unterarm';'';'15';'0';'L';'';'';''
'LMFA';'2.16.840.1.113883.5.1052';'left mid forearm';'http://terminology.hl7.org/CodeSystem/v3-ActSite';'';'linker mittlerer Unterarm';'';'16';'0';'L';'';'';''
'LN';'2.16.840.1.113883.5.1052';'left naris';'http://terminology.hl7.org/CodeSystem/v3-ActSite';'';'linkes Nasenloch';'';'17';'0';'L';'';'';''
'LPC';'2.16.840.1.113883.5.1052';'left posterior chest';'http://terminology.hl7.org/CodeSystem/v3-ActSite';'';'linker Brustkorb posterior';'';'18';'0';'L';'';'';''
'LSC';'2.16.840.1.113883.5.1052';'left subclavian';'http://terminology.hl7.org/CodeSystem/v3-ActSite';'';'linke Subklavia';'';'19';'0';'L';'';'';''
'LT';'2.16.840.1.113883.5.1052';'left thigh';'http://terminology.hl7.org/CodeSystem/v3-ActSite';'';'linker Oberschenkel';'';'20';'0';'L';'';'';''
'LUA';'2.16.840.1.113883.5.1052';'left upper arm';'http://terminology.hl7.org/CodeSystem/v3-ActSite';'';'linker Oberarm';'';'21';'0';'L';'';'';''
'LUAQ';'2.16.840.1.113883.5.1052';'left upper abd quadrant';'http://terminology.hl7.org/CodeSystem/v3-ActSite';'';'Abdomen, linker oberer Quadrant';'';'22';'0';'L';'';'';''
'LUFA';'2.16.840.1.113883.5.1052';'left upper forearm';'http://terminology.hl7.org/CodeSystem/v3-ActSite';'';'linker oberer Oberarm';'';'23';'0';'L';'';'';''
'LVG';'2.16.840.1.113883.5.1052';'left ventragluteal';'http://terminology.hl7.org/CodeSystem/v3-ActSite';'';'ventraglutäal links';'';'24';'0';'L';'';'';''
'LVL';'2.16.840.1.113883.5.1052';'left vastus lateralis';'http://terminology.hl7.org/CodeSystem/v3-ActSite';'';'linker Vastus lateralis';'';'25';'0';'L';'';'';''
'OD';'2.16.840.1.113883.5.1052';'right eye';'http://terminology.hl7.org/CodeSystem/v3-ActSite';'';'rechtes Auge';'';'26';'0';'L';'';'';''
'OS';'2.16.840.1.113883.5.1052';'left eye';'http://terminology.hl7.org/CodeSystem/v3-ActSite';'';'linkes Auge';'';'27';'0';'L';'';'';''
'OU';'2.16.840.1.113883.5.1052';'bilateral eyes';'http://terminology.hl7.org/CodeSystem/v3-ActSite';'';'Augen, beidseits';'';'28';'0';'L';'';'';''
'PA';'2.16.840.1.113883.5.1052';'perianal';'http://terminology.hl7.org/CodeSystem/v3-ActSite';'';'';'';'29';'0';'L';'';'';''
'PERIN';'2.16.840.1.113883.5.1052';'perineal';'http://terminology.hl7.org/CodeSystem/v3-ActSite';'';'';'';'30';'0';'L';'';'';''
'RA';'2.16.840.1.113883.5.1052';'right arm';'http://terminology.hl7.org/CodeSystem/v3-ActSite';'';'rechter Arm';'';'31';'0';'L';'';'';''
'RAC';'2.16.840.1.113883.5.1052';'right anterior chest';'http://terminology.hl7.org/CodeSystem/v3-ActSite';'';'rechter Brustkorb anterior';'';'32';'0';'L';'';'';''
'RACF';'2.16.840.1.113883.5.1052';'right antecubital fossa';'http://terminology.hl7.org/CodeSystem/v3-ActSite';'';'rechte Ellenbeuge';'';'33';'0';'L';'';'';''
'RD';'2.16.840.1.113883.5.1052';'right deltoid';'http://terminology.hl7.org/CodeSystem/v3-ActSite';'';'rechter Deltoideus';'';'34';'0';'L';'';'';''
'RE';'2.16.840.1.113883.5.1052';'right ear';'http://terminology.hl7.org/CodeSystem/v3-ActSite';'';'rechtes Auge';'';'35';'0';'L';'';'';''
'REJ';'2.16.840.1.113883.5.1052';'right external jugular';'http://terminology.hl7.org/CodeSystem/v3-ActSite';'';'Vena jugularis externa, rechts';'';'36';'0';'L';'';'';''
'RF';'2.16.840.1.113883.5.1052';'right foot';'http://terminology.hl7.org/CodeSystem/v3-ActSite';'';'rechter Fuß';'';'37';'0';'L';'';'';''
'RG';'2.16.840.1.113883.5.1052';'right gluteus medius';'http://terminology.hl7.org/CodeSystem/v3-ActSite';'';'rechter mittlerer Gesäßmuskel';'';'38';'0';'L';'';'';''
'RH';'2.16.840.1.113883.5.1052';'right hand';'http://terminology.hl7.org/CodeSystem/v3-ActSite';'';'rechte Hand';'';'39';'0';'L';'';'';''
'RIJ';'2.16.840.1.113883.5.1052';'right internal jugular';'http://terminology.hl7.org/CodeSystem/v3-ActSite';'';'Vena jugularis interna rechts';'';'40';'0';'L';'';'';''
'RLAQ';'2.16.840.1.113883.5.1052';'right lower abd quadrant';'http://terminology.hl7.org/CodeSystem/v3-ActSite';'';'Abdomen, rechter unterer Quadrant';'';'41';'0';'L';'';'';''
'RLFA';'2.16.840.1.113883.5.1052';'right lower forearm';'http://terminology.hl7.org/CodeSystem/v3-ActSite';'';'rechter unterer Unterarm';'';'42';'0';'L';'';'';''
'RMFA';'2.16.840.1.113883.5.1052';'right mid forearm';'http://terminology.hl7.org/CodeSystem/v3-ActSite';'';'rechter mittlerer Unterarm';'';'43';'0';'L';'';'';''
'RN';'2.16.840.1.113883.5.1052';'right naris';'http://terminology.hl7.org/CodeSystem/v3-ActSite';'';'rechtes Nasenloch';'';'44';'0';'L';'';'';''
'RPC';'2.16.840.1.113883.5.1052';'right posterior chest';'http://terminology.hl7.org/CodeSystem/v3-ActSite';'';'rechter Brustkorb posterior';'';'45';'0';'L';'';'';''
'RSC';'2.16.840.1.113883.5.1052';'right subclavian';'http://terminology.hl7.org/CodeSystem/v3-ActSite';'';'rechte Subklavia';'';'46';'0';'L';'';'';''
'RT';'2.16.840.1.113883.5.1052';'right thigh';'http://terminology.hl7.org/CodeSystem/v3-ActSite';'';'rechter Oberschenkel';'';'47';'0';'L';'';'';''
'RUA';'2.16.840.1.113883.5.1052';'right upper arm';'http://terminology.hl7.org/CodeSystem/v3-ActSite';'';'rechter Oberarm';'';'48';'0';'L';'';'';''
'RUAQ';'2.16.840.1.113883.5.1052';'right upper abd quadrant';'http://terminology.hl7.org/CodeSystem/v3-ActSite';'';'Abdomen, rechter oberer Quadrant';'';'49';'0';'L';'';'';''
'RUFA';'2.16.840.1.113883.5.1052';'right upper forearm';'http://terminology.hl7.org/CodeSystem/v3-ActSite';'';'rechter oberer Oberarm';'';'50';'0';'L';'';'';''
'RVG';'2.16.840.1.113883.5.1052';'right ventragluteal';'http://terminology.hl7.org/CodeSystem/v3-ActSite';'';'ventraglutäal rechts';'';'51';'0';'L';'';'';''
'RVL';'2.16.840.1.113883.5.1052';'right vastus lateralis';'http://terminology.hl7.org/CodeSystem/v3-ActSite';'';'rechter Vastus lateralis';'';'52';'0';'L';'';'';''
