{
  "resourceType": "CodeSystem",
  "id": "ems-reiseland",
  "url": "https://termgit.elga.gv.at/CodeSystem/ems-reiseland",
  "identifier": [
    {
      "use": "official",
      "system": "urn:ietf:rfc:3986",
      "value": "urn:oid:1.2.40.0.34.5.96"
    }
  ],
  "version": "1.0.0+20230131",
  "name": "ems-reiseland",
  "title": "EMS_Reiseland",
  "status": "active",
  "date": "2017-01-26",
  "description": "Reiseland",
  "content": "complete",
  "count": 261,
  "concept": [
    {
      "code": "AD",
      "display": "Andorra"
    },
    {
      "code": "AE",
      "display": "Vereinigte Arabische Emirate"
    },
    {
      "code": "AF",
      "display": "Afghanistan"
    },
    {
      "code": "AG",
      "display": "Antigua & Barbuda"
    },
    {
      "code": "AI",
      "display": "Anguilla"
    },
    {
      "code": "AL",
      "display": "Albanien"
    },
    {
      "code": "AM",
      "display": "Armenien"
    },
    {
      "code": "AN",
      "display": "Niederl\u00e4ndische Antillen"
    },
    {
      "code": "AO",
      "display": "Angola"
    },
    {
      "code": "AQ",
      "display": "Antarktis"
    },
    {
      "code": "AR",
      "display": "Argentinien"
    },
    {
      "code": "AS",
      "display": "Samoa-Amerikanisch"
    },
    {
      "code": "AT",
      "display": "\u00d6sterreich"
    },
    {
      "code": "AU",
      "display": "Australien"
    },
    {
      "code": "AW",
      "display": "Aruba"
    },
    {
      "code": "AX",
      "display": "Aland Islands"
    },
    {
      "code": "AZ",
      "display": "Aserbaidschan"
    },
    {
      "code": "BA",
      "display": "Bosnien & Herzegowina"
    },
    {
      "code": "BB",
      "display": "Barbados"
    },
    {
      "code": "BD",
      "display": "Bangladesch"
    },
    {
      "code": "BE",
      "display": "Belgien"
    },
    {
      "code": "BF",
      "display": "Burkina Faso"
    },
    {
      "code": "BG",
      "display": "Bulgarien"
    },
    {
      "code": "BH",
      "display": "Bahrain"
    },
    {
      "code": "BI",
      "display": "Burundi"
    },
    {
      "code": "BJ",
      "display": "Benin"
    },
    {
      "code": "BL",
      "display": "Saint Barthelemy"
    },
    {
      "code": "BM",
      "display": "Bermuda"
    },
    {
      "code": "BN",
      "display": "Brunei Darussalam"
    },
    {
      "code": "BO",
      "display": "Bolivien"
    },
    {
      "code": "BQ",
      "display": "Bonaire, Sint Eustatius und Saba"
    },
    {
      "code": "BR",
      "display": "Brasilien"
    },
    {
      "code": "BS",
      "display": "Bahamas"
    },
    {
      "code": "BT",
      "display": "Bhutan"
    },
    {
      "code": "BV",
      "display": "Bouvetinsel"
    },
    {
      "code": "BW",
      "display": "Botsuana"
    },
    {
      "code": "BY",
      "display": "Belarus"
    },
    {
      "code": "BZ",
      "display": "Belize"
    },
    {
      "code": "CA",
      "display": "Kanada"
    },
    {
      "code": "CC",
      "display": "Kokosinseln"
    },
    {
      "code": "CD",
      "display": "Kongo, Demokr. Republik"
    },
    {
      "code": "CF",
      "display": "Zentralafrikanische Republik"
    },
    {
      "code": "CG",
      "display": "Kongo"
    },
    {
      "code": "CH",
      "display": "Schweiz"
    },
    {
      "code": "CI",
      "display": "Elfenbeink\u00fcste"
    },
    {
      "code": "CK",
      "display": "Cook-Inseln"
    },
    {
      "code": "CL",
      "display": "Chile"
    },
    {
      "code": "CM",
      "display": "Kamerun"
    },
    {
      "code": "CN",
      "display": "China"
    },
    {
      "code": "CO",
      "display": "Kolumbien"
    },
    {
      "code": "CR",
      "display": "Costa Rica"
    },
    {
      "code": "CT",
      "display": "Canton & Enderburyinseln"
    },
    {
      "code": "CU",
      "display": "Kuba"
    },
    {
      "code": "CV",
      "display": "Kap Verde"
    },
    {
      "code": "CW",
      "display": "Curacao"
    },
    {
      "code": "CX",
      "display": "Weihnachtsinsel"
    },
    {
      "code": "CY",
      "display": "Zypern"
    },
    {
      "code": "CZ",
      "display": "Tschechische Republik"
    },
    {
      "code": "DE",
      "display": "Deutschland"
    },
    {
      "code": "DJ",
      "display": "Dschibuti"
    },
    {
      "code": "DK",
      "display": "D\u00e4nemark"
    },
    {
      "code": "DM",
      "display": "Dominica"
    },
    {
      "code": "DO",
      "display": "Dominikanische Republik"
    },
    {
      "code": "DZ",
      "display": "Algerien"
    },
    {
      "code": "EC",
      "display": "Ecuador"
    },
    {
      "code": "EE",
      "display": "Estland"
    },
    {
      "code": "EG",
      "display": "\u00c4gypten"
    },
    {
      "code": "EH",
      "display": "Westsahara Eigenst\u00e4ndiger Staat"
    },
    {
      "code": "ER",
      "display": "Eritrea"
    },
    {
      "code": "ES",
      "display": "Spanien"
    },
    {
      "code": "ET",
      "display": "\u00c4thiopien"
    },
    {
      "code": "FI",
      "display": "Finnland"
    },
    {
      "code": "FJ",
      "display": "Fidschi"
    },
    {
      "code": "FK",
      "display": "Falklandinseln"
    },
    {
      "code": "FM",
      "display": "Mikronesien"
    },
    {
      "code": "FO",
      "display": "F\u00e4roeer Inseln"
    },
    {
      "code": "FQ",
      "display": "Franz\u00f6sische S\u00fcdpolargebiete"
    },
    {
      "code": "FR",
      "display": "Frankreich"
    },
    {
      "code": "GA",
      "display": "Gabun"
    },
    {
      "code": "GD",
      "display": "Grenada"
    },
    {
      "code": "GE",
      "display": "Georgien"
    },
    {
      "code": "GF",
      "display": "Franz\u00f6sisch Guayana"
    },
    {
      "code": "GG",
      "display": "Guernsey Insel"
    },
    {
      "code": "GH",
      "display": "Ghana"
    },
    {
      "code": "GI",
      "display": "Gibraltar"
    },
    {
      "code": "GL",
      "display": "Gr\u00f6nland"
    },
    {
      "code": "GM",
      "display": "Gambia"
    },
    {
      "code": "GN",
      "display": "Guinea"
    },
    {
      "code": "GP",
      "display": "Guadeloupe"
    },
    {
      "code": "GQ",
      "display": "\u00c4quatorial Guinea"
    },
    {
      "code": "GR",
      "display": "Griechenland"
    },
    {
      "code": "GS",
      "display": "S\u00fcdgeorgien & s\u00fcdl. Sandwich-I."
    },
    {
      "code": "GT",
      "display": "Guatemala"
    },
    {
      "code": "GU",
      "display": "Guam US-Verwaltung"
    },
    {
      "code": "GW",
      "display": "Guinea-Bissau"
    },
    {
      "code": "GY",
      "display": "Guyana"
    },
    {
      "code": "HK",
      "display": "Hongkong"
    },
    {
      "code": "HM",
      "display": "Heard & McDonaldinseln"
    },
    {
      "code": "HN",
      "display": "Honduras"
    },
    {
      "code": "HR",
      "display": "Kroatien"
    },
    {
      "code": "HT",
      "display": "Haiti"
    },
    {
      "code": "HU",
      "display": "Ungarn"
    },
    {
      "code": "IC",
      "display": "Kanarische Inseln"
    },
    {
      "code": "ID",
      "display": "Indonesien"
    },
    {
      "code": "IE",
      "display": "Irland"
    },
    {
      "code": "IL",
      "display": "Israel"
    },
    {
      "code": "IM",
      "display": "Isle of Man"
    },
    {
      "code": "IN",
      "display": "Indien"
    },
    {
      "code": "IO",
      "display": "Brit. Territorium im Ind. Ozean"
    },
    {
      "code": "IQ",
      "display": "Irak"
    },
    {
      "code": "IR",
      "display": "Iran"
    },
    {
      "code": "IS",
      "display": "Island"
    },
    {
      "code": "IT",
      "display": "Italien"
    },
    {
      "code": "JE",
      "display": "Jersey Insel"
    },
    {
      "code": "JM",
      "display": "Jamaika"
    },
    {
      "code": "JO",
      "display": "Jordanien"
    },
    {
      "code": "JP",
      "display": "Japan"
    },
    {
      "code": "JT",
      "display": "Johnston Insel"
    },
    {
      "code": "KE",
      "display": "Kenia"
    },
    {
      "code": "KG",
      "display": "Kirgisistan"
    },
    {
      "code": "KH",
      "display": "Kambodscha"
    },
    {
      "code": "KI",
      "display": "Kiribati"
    },
    {
      "code": "KM",
      "display": "Komoren"
    },
    {
      "code": "KN",
      "display": "St. Kitts & Nevis"
    },
    {
      "code": "KP",
      "display": "Korea, Demokr. Volksrepublik"
    },
    {
      "code": "KR",
      "display": "Korea, Republik von"
    },
    {
      "code": "KW",
      "display": "Kuwait"
    },
    {
      "code": "KY",
      "display": "Kaimaninseln"
    },
    {
      "code": "KZ",
      "display": "Kasachstan"
    },
    {
      "code": "LA",
      "display": "Laos"
    },
    {
      "code": "LB",
      "display": "Libanon"
    },
    {
      "code": "LC",
      "display": "St. Lucia"
    },
    {
      "code": "LI",
      "display": "Liechtenstein"
    },
    {
      "code": "LK",
      "display": "Sri Lanka"
    },
    {
      "code": "LR",
      "display": "Liberien"
    },
    {
      "code": "LS",
      "display": "Lesotho"
    },
    {
      "code": "LT",
      "display": "Litauen"
    },
    {
      "code": "LU",
      "display": "Luxemburg"
    },
    {
      "code": "LV",
      "display": "Lettland"
    },
    {
      "code": "LY",
      "display": "Libysch-Arab. Dschamahirija"
    },
    {
      "code": "MA",
      "display": "Marokko"
    },
    {
      "code": "MC",
      "display": "Monaco"
    },
    {
      "code": "MD",
      "display": "Moldau, Republik"
    },
    {
      "code": "ME",
      "display": "Montenegro"
    },
    {
      "code": "MF",
      "display": "Saint Martin (franz\u00f6sischer Teil)"
    },
    {
      "code": "MG",
      "display": "Madagaskar"
    },
    {
      "code": "MH",
      "display": "Marshall Inseln"
    },
    {
      "code": "MI",
      "display": "Midway Inseln"
    },
    {
      "code": "MK",
      "display": "Mazedonien"
    },
    {
      "code": "ML",
      "display": "Mali"
    },
    {
      "code": "MM",
      "display": "Myanmar"
    },
    {
      "code": "MN",
      "display": "Mongolei"
    },
    {
      "code": "MO",
      "display": "Macao"
    },
    {
      "code": "MP",
      "display": "N\u00f6rdliche Marianen"
    },
    {
      "code": "MQ",
      "display": "Martinique"
    },
    {
      "code": "MR",
      "display": "Mauretanien"
    },
    {
      "code": "MS",
      "display": "Montserrat"
    },
    {
      "code": "MT",
      "display": "Malta"
    },
    {
      "code": "MU",
      "display": "Mauritius"
    },
    {
      "code": "MV",
      "display": "Malediven"
    },
    {
      "code": "MW",
      "display": "Malawi"
    },
    {
      "code": "MX",
      "display": "Mexiko"
    },
    {
      "code": "MY",
      "display": "Malaysia"
    },
    {
      "code": "MZ",
      "display": "Mosambik"
    },
    {
      "code": "NA",
      "display": "Namibia"
    },
    {
      "code": "NC",
      "display": "Neukaledonien"
    },
    {
      "code": "NE",
      "display": "Niger"
    },
    {
      "code": "NF",
      "display": "Norfolkinsel"
    },
    {
      "code": "NG",
      "display": "Nigeria"
    },
    {
      "code": "NI",
      "display": "Nicaragua"
    },
    {
      "code": "NL",
      "display": "Niederlande"
    },
    {
      "code": "NO",
      "display": "Norwegen"
    },
    {
      "code": "NP",
      "display": "Nepal"
    },
    {
      "code": "NR",
      "display": "Nauru"
    },
    {
      "code": "NU",
      "display": "Niue"
    },
    {
      "code": "NZ",
      "display": "Neuseeland"
    },
    {
      "code": "OM",
      "display": "Oman"
    },
    {
      "code": "PA",
      "display": "Panama"
    },
    {
      "code": "PE",
      "display": "Peru"
    },
    {
      "code": "PF",
      "display": "Franz\u00f6sisch Polynesien"
    },
    {
      "code": "PG",
      "display": "Papua Neuguinea"
    },
    {
      "code": "PH",
      "display": "Philippinen"
    },
    {
      "code": "PK",
      "display": "Pakistan"
    },
    {
      "code": "PL",
      "display": "Polen"
    },
    {
      "code": "PM",
      "display": "St. Pierre & Miquelon"
    },
    {
      "code": "PN",
      "display": "Pitcairn Inseln"
    },
    {
      "code": "PR",
      "display": "Puerto Rico"
    },
    {
      "code": "PS",
      "display": "Pal\u00e4stina, Besetzt"
    },
    {
      "code": "PT",
      "display": "Portugal"
    },
    {
      "code": "PU",
      "display": "Pazifische Inseln US"
    },
    {
      "code": "PW",
      "display": "Palau"
    },
    {
      "code": "PY",
      "display": "Paraguay"
    },
    {
      "code": "PZ",
      "display": "Panama Kanalzone"
    },
    {
      "code": "QA",
      "display": "Katar"
    },
    {
      "code": "RE",
      "display": "R\u00e9union"
    },
    {
      "code": "RO",
      "display": "Rum\u00e4nien"
    },
    {
      "code": "RS",
      "display": "Serbien"
    },
    {
      "code": "RU",
      "display": "Russische F\u00f6deration"
    },
    {
      "code": "RW",
      "display": "Ruanda"
    },
    {
      "code": "SA",
      "display": "Saudi-Arabien"
    },
    {
      "code": "SB",
      "display": "Salomonen"
    },
    {
      "code": "SC",
      "display": "Seychellen"
    },
    {
      "code": "SD",
      "display": "Sudan"
    },
    {
      "code": "SE",
      "display": "Schweden"
    },
    {
      "code": "SG",
      "display": "Singapur"
    },
    {
      "code": "SH",
      "display": "St. Helena"
    },
    {
      "code": "SI",
      "display": "Slowenien"
    },
    {
      "code": "SJ",
      "display": "Spitzbergen & Jan Mayen Inseln"
    },
    {
      "code": "SK",
      "display": "Slowakei"
    },
    {
      "code": "SL",
      "display": "Sierra Leone"
    },
    {
      "code": "SM",
      "display": "San Marino"
    },
    {
      "code": "SN",
      "display": "Senegal"
    },
    {
      "code": "SO",
      "display": "Somalia"
    },
    {
      "code": "SR",
      "display": "Suriname"
    },
    {
      "code": "ST",
      "display": "S\u00e3o Tom\u00e9 & Pr\u00edncipe"
    },
    {
      "code": "SV",
      "display": "El Salvador"
    },
    {
      "code": "SX",
      "display": "Sint Maarten (holll\u00e4ndischer Teil)"
    },
    {
      "code": "SY",
      "display": "Syrien"
    },
    {
      "code": "SZ",
      "display": "Swasiland"
    },
    {
      "code": "TC",
      "display": "Turks- & Caicosinseln"
    },
    {
      "code": "TD",
      "display": "Tschad"
    },
    {
      "code": "TF",
      "display": "Franz\u00f6sische S\u00fcdgebiete"
    },
    {
      "code": "TG",
      "display": "Togo"
    },
    {
      "code": "TH",
      "display": "Thailand"
    },
    {
      "code": "TJ",
      "display": "Tadschikistan"
    },
    {
      "code": "TK",
      "display": "Tokelau"
    },
    {
      "code": "TL",
      "display": "Timor-Leste"
    },
    {
      "code": "TM",
      "display": "Turkmenistan"
    },
    {
      "code": "TN",
      "display": "Tunesien"
    },
    {
      "code": "TO",
      "display": "Tonga"
    },
    {
      "code": "TR",
      "display": "T\u00fcrkei"
    },
    {
      "code": "TT",
      "display": "Trinidad & Tobago"
    },
    {
      "code": "TV",
      "display": "Tuvalu"
    },
    {
      "code": "TW",
      "display": "Taiwan"
    },
    {
      "code": "TZ",
      "display": "Tansania, Vereinigte Republik"
    },
    {
      "code": "UA",
      "display": "Ukraine"
    },
    {
      "code": "UG",
      "display": "Uganda"
    },
    {
      "code": "UK",
      "display": "Gro\u00dfbritannien"
    },
    {
      "code": "UM",
      "display": "USA (sonstige kleine Inseln)"
    },
    {
      "code": "US",
      "display": "Vereinigte Staaten"
    },
    {
      "code": "UY",
      "display": "Uruguay"
    },
    {
      "code": "UZ",
      "display": "Usbekistan"
    },
    {
      "code": "VA",
      "display": "Vatikan"
    },
    {
      "code": "VC",
      "display": "St. Vincent & Grenadinen"
    },
    {
      "code": "VE",
      "display": "Venezuela"
    },
    {
      "code": "VG",
      "display": "Jungfern-Inseln Britisch"
    },
    {
      "code": "VI",
      "display": "Jungfern-Inseln USA"
    },
    {
      "code": "VN",
      "display": "Vietnam"
    },
    {
      "code": "VU",
      "display": "Vanuatu"
    },
    {
      "code": "WF",
      "display": "Wallis und Futuna"
    },
    {
      "code": "WK",
      "display": "Wake Insel"
    },
    {
      "code": "WS",
      "display": "Samoa-West"
    },
    {
      "code": "XC",
      "display": "Ceuta"
    },
    {
      "code": "XK",
      "display": "Kosovo"
    },
    {
      "code": "XL",
      "display": "Mellila"
    },
    {
      "code": "YE",
      "display": "Jemen"
    },
    {
      "code": "YT",
      "display": "Mayotte"
    },
    {
      "code": "YU",
      "display": "Ex-Jugoslawien"
    },
    {
      "code": "ZA",
      "display": "S\u00fcdafrika"
    },
    {
      "code": "ZM",
      "display": "Sambia"
    },
    {
      "code": "ZW",
      "display": "Simbabwe"
    }
  ]
}