'code';'codeSystem';'displayName';'parentCode';'concept_Beschreibung';'meaning';'hints';'level';'type';'relationships'
'56';'1.2.40.0.34.3.1.10.30';'Geriatrie';'';'';'';'';'0';'L';''
'60';'1.2.40.0.34.3.1.10.30';'Infektiologie und Tropenmedizin';'';'';'';'';'0';'L';''
'61';'1.2.40.0.34.3.1.10.30';'Infektologie';'';'';'';'';'0';'L';''
'64';'1.2.40.0.34.3.1.10.30';'Pädiatrische Intensivmedizin';'';'';'';'';'0';'L';''
'65';'1.2.40.0.34.3.1.10.30';'Kinderchirurgie';'';'';'';'';'0';'L';''
'66';'1.2.40.0.34.3.1.10.30';'Zf. Plastische Chirurgie';'';'';'';'';'0';'L';''
'67';'1.2.40.0.34.3.1.10.30';'Nuklearmedizin';'';'';'';'';'0';'L';''
'68';'1.2.40.0.34.3.1.10.30';'Kinder- und Jugendneuropsychiatrie';'';'';'';'';'0';'L';''
'69';'1.2.40.0.34.3.1.10.30';'Mund-, Kiefer- und Gesichtschirurgie';'';'';'';'';'0';'L';''
'70';'1.2.40.0.34.3.1.10.30';'Klinische Pharmakologie';'';'';'';'';'0';'L';''
'71';'1.2.40.0.34.3.1.10.30';'Hochvolt- und Brachytherapie';'';'';'';'';'0';'L';''
'72';'1.2.40.0.34.3.1.10.30';'Gefäßchirurgie';'';'';'';'';'0';'L';''
'73';'1.2.40.0.34.3.1.10.30';'Zytodiagnostik';'';'';'';'';'0';'L';''
'74';'1.2.40.0.34.3.1.10.30';'Kardiologie';'';'';'';'';'0';'L';''
'75';'1.2.40.0.34.3.1.10.30';'Nephrologie';'';'';'';'';'0';'L';''
'76';'1.2.40.0.34.3.1.10.30';'Phoniatrie';'';'';'';'';'0';'L';''
'77';'1.2.40.0.34.3.1.10.30';'Humangenetik';'';'';'';'';'0';'L';''
'78';'1.2.40.0.34.3.1.10.30';'Angiologie';'';'';'';'';'0';'L';''
'79';'1.2.40.0.34.3.1.10.30';'Endokrinologie u. Stoffwechselerkr.';'';'';'';'';'0';'L';''
'80';'1.2.40.0.34.3.1.10.30';'Gastroenterologie und Hepatologie';'';'';'';'';'0';'L';''
'81';'1.2.40.0.34.3.1.10.30';'Herzchirurgie';'';'';'';'';'0';'L';''
'82';'1.2.40.0.34.3.1.10.30';'Hämatologie und internistische Onkologie';'';'';'';'';'0';'L';''
'83';'1.2.40.0.34.3.1.10.30';'Intensivmedizin';'';'';'';'';'0';'L';''
'84';'1.2.40.0.34.3.1.10.30';'Internistische Sportheilkunde';'';'';'';'';'0';'L';''
'85';'1.2.40.0.34.3.1.10.30';'Physikalische Sportheilkunde';'';'';'';'';'0';'L';''
'86';'1.2.40.0.34.3.1.10.30';'Rheumatologie';'';'';'';'';'0';'L';''
'87';'1.2.40.0.34.3.1.10.30';'Sportorthopädie';'';'';'';'';'0';'L';''
'88';'1.2.40.0.34.3.1.10.30';'Sporttraumatologie';'';'';'';'';'0';'L';''
'89';'1.2.40.0.34.3.1.10.30';'Thoraxchirurgie';'';'';'';'';'0';'L';''
'90';'1.2.40.0.34.3.1.10.30';'Tropenmedizin';'';'';'';'';'0';'L';''
'91';'1.2.40.0.34.3.1.10.30';'Viszeralchirurgie';'';'';'';'';'0';'L';''
'92';'1.2.40.0.34.3.1.10.30';'Neonatologie und pädiatrische Intensivmedizin';'';'';'';'';'0';'L';''
'93';'1.2.40.0.34.3.1.10.30';'Pädiatrische Intensivmedizin und Neonatologie';'';'';'';'';'0';'L';''
'94';'1.2.40.0.34.3.1.10.30';'Neuropädiatrie';'';'';'';'';'0';'L';''
'95';'1.2.40.0.34.3.1.10.30';'Pädiatrische Endokrinologie und Diabetologie';'';'';'';'';'0';'L';''
'96';'1.2.40.0.34.3.1.10.30';'Pädiatrische Hämatologie und Onkologie';'';'';'';'';'0';'L';''
'97';'1.2.40.0.34.3.1.10.30';'Pädiatrische Kardiologie';'';'';'';'';'0';'L';''
'98';'1.2.40.0.34.3.1.10.30';'Pädiatrische Pulmonologie';'';'';'';'';'0';'L';''
