'code';'codeSystem';'displayName';'parentCodeSystemName';'concept_Beschreibung';'meaning';'hints';'orderNumber';'level';'type';'relationships';'einheit print';'einheit codiert';'codeSystemVersion';'language_en-US'
'BI-RADS';'2.16.840.1.113883.6.76';'BI-RADS®';'http://terminology.hl7.org/CodeSystem/ACR';;;;'1';'0';'L';;;;'2.0.1';'Breast Imaging Reporting & Data System'
'CAD-RADS';'2.16.840.1.113883.6.76';'CAD-RADS™';'http://terminology.hl7.org/CodeSystem/ACR';;;;'2';'0';'L';;;;'2.0.1';'Coronary Artery Disease Reporting & Data System'
'LI-RADS';'2.16.840.1.113883.6.76';'LI-RADS®';'http://terminology.hl7.org/CodeSystem/ACR';;;;'3';'0';'L';;;;'2.0.1';'Liver Imaging Reporting & Data System'
'PI-RADS';'2.16.840.1.113883.6.76';'PI-RADS®';'http://terminology.hl7.org/CodeSystem/ACR';;;;'4';'0';'L';;;;'2.0.1';'Prostate Imaging Reporting & Data System'
'TI-RADS';'2.16.840.1.113883.6.76';'TI-RADS™';'http://terminology.hl7.org/CodeSystem/ACR';;;;'5';'0';'L';;;;'2.0.1';'Thyroid Imaging Reporting & Data System'
