'code';'codeSystem';'displayName';'parentCode';'concept_Beschreibung';'meaning';'hints';'level';'type';'relationships'
'ABSTRICH';'1.2.40.0.34.5.58';'Abstriche';'';'';'';'';'0';'L';''
'ABSZESS';'1.2.40.0.34.5.58';'Abszess';'';'';'';'';'0';'L';''
'ANAL';'1.2.40.0.34.5.58';'Rektalabstrich';'';'Analabstrich | Rektalabstrich | Stuhl/Analabstrich';'';'';'0';'L';''
'ASCITES';'1.2.40.0.34.5.58';'Ascites';'';'';'';'';'0';'L';''
'BIOPSIE';'1.2.40.0.34.5.58';'Biopsiematerial';'';'Biopsate | Biopsie (periphere Nerven) | Biopsiematerial';'';'';'0';'L';''
'BLOOD';'1.2.40.0.34.5.58';'Blut';'';'Blut | Blut (DNA/Leukozyten)';'';'';'0';'L';''
'BLOODAUS';'1.2.40.0.34.5.58';'Blutausstrich';'';'';'';'';'0';'L';''
'BLOODDRY';'1.2.40.0.34.5.58';'getrockneter Bluttropfen';'';'';'';'';'0';'L';''
'BLOODFULL';'1.2.40.0.34.5.58';'Vollblut';'';'';'';'';'0';'L';''
'BLOODPOST';'1.2.40.0.34.5.58';'Leichenblut';'';'';'';'';'0';'L';''
'BRONCHLAV';'1.2.40.0.34.5.58';'Bronchiallavage';'';'';'';'';'0';'L';''
'BRONCHSEKR';'1.2.40.0.34.5.58';'Bronchialsekret';'';'';'';'';'0';'L';''
'CERVSWAB';'1.2.40.0.34.5.58';'Cervicalabstrich';'';'';'';'';'0';'L';''
'CSF';'1.2.40.0.34.5.58';'Liquor';'';'';'';'';'0';'L';''
'EDTA';'1.2.40.0.34.5.58';'EDTA-Blut';'';'';'';'';'0';'L';''
'EDTAPLAS';'1.2.40.0.34.5.58';'EDTA-Blut/Plas,a';'';'EDTA Blut/Plasma';'';'';'0';'L';''
'EITER';'1.2.40.0.34.5.58';'Eiter';'';'';'';'';'0';'L';''
'EJAKULAT';'1.2.40.0.34.5.58';'Ejakulat';'';'';'';'';'0';'L';''
'ERBR';'1.2.40.0.34.5.58';'Erbrochenes';'';'';'';'';'0';'L';''
'EXSUPERI';'1.2.40.0.34.5.58';'Exsudat Peritoneum';'';'';'';'';'0';'L';''
'EXSUPLEURA';'1.2.40.0.34.5.58';'Exsudat Pleura';'';'';'';'';'0';'L';''
'GALLE';'1.2.40.0.34.5.58';'Gallenflüssigkeit';'';'';'';'';'0';'L';''
'GELENK';'1.2.40.0.34.5.58';'Gelenkflüssigkeit';'';'';'';'';'0';'L';''
'GEWEBE';'1.2.40.0.34.5.58';'Gewebe';'';'Gewebeprobe | Gewebeproben | Epithelabstrich';'';'';'0';'L';''
'GURGELAT';'1.2.40.0.34.5.58';'Gurgelat';'';'';'';'';'0';'L';''
'HAUT';'1.2.40.0.34.5.58';'Haut';'';'Abstrich von Hautläsionen | Haut | Hautbiopsie oder Aspirat von Purpura/Petechien | verdächtige Hautareale';'';'';'0';'L';''
'HIRN';'1.2.40.0.34.5.58';'Hirn';'';'Hirnbiopsie/ -gewebe | Hirnbiopsie-Gewebe | Hirngewebe';'';'';'0';'L';''
'ISOLAT';'1.2.40.0.34.5.58';'Isolat';'';'Bakterienisolat | Isolat | Isolate';'';'';'0';'L';''
'KNOCHENMARK';'1.2.40.0.34.5.58';'Knochenmark';'';'';'';'';'0';'L';''
'KRUSTE';'1.2.40.0.34.5.58';'Kruste';'';'';'';'';'0';'L';''
'LAVAGE';'1.2.40.0.34.5.58';'Lavage';'';'';'';'';'0';'L';''
'LEBER';'1.2.40.0.34.5.58';'Leberbiopsie';'';'';'';'';'0';'L';''
'LUNGE';'1.2.40.0.34.5.58';'Lunge';'';'Lunge | Pleurapunktat';'';'';'0';'L';''
'LYMPH';'1.2.40.0.34.5.58';'Lymphknoten';'';'Punktat von Lymphknoten | Resektionsmaterial aus Lymphknoten';'';'';'0';'L';''
'MAGENSAFT';'1.2.40.0.34.5.58';'Magensaft';'';'';'';'';'0';'L';''
'MEMBRAN';'1.2.40.0.34.5.58';'Membran';'';'';'';'';'0';'L';''
'MILZ';'1.2.40.0.34.5.58';'Milz';'';'';'';'';'0';'L';''
'NACKENHAUT';'1.2.40.0.34.5.58';'Nackenhautbiopsie';'';'';'';'';'0';'L';''
'NASALSWAB';'1.2.40.0.34.5.58';'Nasenabstrich';'';'';'';'';'0';'L';''
'NASALTHROATSWAB';'1.2.40.0.34.5.58';'Rachenabstrich';'';'Abstrich Nasen-Rachenschleimhaut | Nasen- oder Nasen-/Rachenabstrich';'';'';'0';'L';''
'NEWBORNSWAB';'1.2.40.0.34.5.58';'Neugeborenenabstrich';'';'';'';'';'0';'L';''
'OPMATERIAL';'1.2.40.0.34.5.58';'Operationsmaterial';'';'intraoperatives Material | Operationsmaterial';'';'';'0';'L';''
'OTHER';'1.2.40.0.34.5.58';'anderes';'';'';'';'';'0';'L';''
'OTHERBODY';'1.2.40.0.34.5.58';'andere erregerhaltige Körperflüssigkeiten';'';'';'';'';'0';'L';''
'OTHERNOTSTERILE';'1.2.40.0.34.5.58';'andere nicht sterile Probe';'';'andere nicht sterile Probe | andere nicht-sterile Probe';'';'';'0';'L';''
'OTHERSTERILE';'1.2.40.0.34.5.58';'andere sterile Probe';'';'andere sterile Probe | andere sterile Stelle';'';'';'0';'L';''
'OTHERSWAB';'1.2.40.0.34.5.58';'andere Abstriche';'';'';'';'';'0';'L';''
'PLASMA';'1.2.40.0.34.5.58';'Plasma';'';'';'';'';'0';'L';''
'POSTMORTEM';'1.2.40.0.34.5.58';'post mortem-Material';'';'post mortem-Material | Proben von Verstorbenen';'';'';'0';'L';''
'PUNKTAT';'1.2.40.0.34.5.58';'Punktat';'';'Punktionsmaterial';'';'';'0';'L';''
'RESPSEKR';'1.2.40.0.34.5.58';'Respiratorische Sekrete';'';'';'';'';'0';'L';''
'RNA';'1.2.40.0.34.5.58';'nCoV RNA';'';'';'';'';'0';'L';''
'SEKRETE';'1.2.40.0.34.5.58';'Sekrete';'';'';'';'';'0';'L';''
'SERUM';'1.2.40.0.34.5.58';'Serum';'';'';'';'';'0';'L';''
'SONST';'1.2.40.0.34.5.58';'sonstiges';'';'';'';'';'0';'L';''
'SPEICHEL';'1.2.40.0.34.5.58';'Speichel';'';'oral Fluid | Speichel | Speichel/oral fluid';'';'';'0';'L';''
'SPRITZE';'1.2.40.0.34.5.58';'Spritzeninhalt';'';'';'';'';'0';'L';''
'SPUTUM';'1.2.40.0.34.5.58';'Sputum';'';'Sputum | tiefes respiratorisches Sekret';'';'';'0';'L';''
'STUHL';'1.2.40.0.34.5.58';'Stuhl';'';'';'';'';'0';'L';''
'THROATSWAB';'1.2.40.0.34.5.58';'Rachenabstrich';'';'';'';'';'0';'L';''
'THROATSWABFLUSS';'1.2.40.0.34.5.58';'Rachenspülflüssigkeit Serum';'';'';'';'';'0';'L';''
'TONS';'1.2.40.0.34.5.58';'Tonsillenabstrich';'';'';'';'';'0';'L';''
'UMGEB';'1.2.40.0.34.5.58';'Umgebungsprobe';'';'';'';'';'0';'L';''
'URINE';'1.2.40.0.34.5.58';'Harn';'';'Harn | Urin';'';'';'0';'L';''
'WUND';'1.2.40.0.34.5.58';'Wundsekret';'';'Wundabstrich | Wundsekret';'';'';'0';'L';''
