'code';'codeSystem';'displayName';'parentCode';'concept_Beschreibung';'meaning';'hints';'level';'type';'relationships'
'female';'1.2.40.0.34.5.230';'Female';;;'Weiblich';;'0';'L';
'male';'1.2.40.0.34.5.230';'Male';;;'Männlich';;'0';'L';
'other';'1.2.40.0.34.5.230';'Other';;;'Nicht-binär';;'0';'L';
'unknown';'1.2.40.0.34.5.230';'Unknown';;;'Unbekannt';;'0';'L';
