'code';'codeSystem';'displayName';'parentCode';'concept_Beschreibung';'meaning';'hints';'level';'type';'relationships'
'urn:ehealth-austria:BMP';'2.16.840.1.113883.2.16.1.4.10';'BMP-Bilddaten (Windows Bitmap)';'';'';'';'';'0';'L';''
'urn:ehealth-austria:DICOM';'2.16.840.1.113883.2.16.1.4.10';'DICOM Objekte';'';'';'';'';'0';'L';''
'urn:ehealth-austria:JPG';'2.16.840.1.113883.2.16.1.4.10';'JPG-Bilddaten';'';'';'';'';'0';'L';''
'urn:ehealth-austria:MP4';'2.16.840.1.113883.2.16.1.4.10';'MPEG-4-Videodateien gem. ISO/IEC 14496-12 und -14';'';'';'';'';'0';'L';''
'urn:ehealth-austria:PDF';'2.16.840.1.113883.2.16.1.4.10';'PDF-Dokumente';'';'';'';'';'0';'L';''
'urn:ehealth-austria:PDF/A-1';'2.16.840.1.113883.2.16.1.4.10';'PDF-Dokumente gem. ISO 19005-1:2005';'';'';'';'';'0';'L';''
'urn:ehealth-austria:PDF/A-2';'2.16.840.1.113883.2.16.1.4.10';'PDF-Dokumente gem. ISO 19005-2:2011';'';'';'';'';'0';'L';''
'urn:ehealth-austria:PDF/A-3';'2.16.840.1.113883.2.16.1.4.10';'PDF-Dokumente gem. ISO 19005-3:2012';'';'';'';'';'0';'L';''
'urn:ehealth-austria:WMF';'2.16.840.1.113883.2.16.1.4.10';'WMF-Bilddaten (Windows Metafile)';'';'';'';'';'0';'L';''
