"resource";"id";"url";"version";"name";"title";"status";"description";"content";"identifier";"date";"publisher";"contact";"count"
"CodeSystem";"elga-auditparticipantobjecttype";"https://termgit.elga.gv.at/CodeSystem/elga-auditparticipantobjecttype";"1.1.0+20240820";"elga-auditparticipantobjecttype";"ELGA_AuditParticipantObjectType";"active";"Codeliste der ELGA spezifischen Audit Participant Object Type Codes. Der Audit Participant Object Type beschreibt die Art eines Objekts, welches im Audit Event referenziert ist.";"complete";"1.2.40.0.34.5.153";"2024-08-20";"ELGA GmbH";"https://www.elga.gv.at|url^https://www.elga.gv.at^^^^";"5"

"code";"display"
"0";"ELGA Objekt"
"100";"Policy"
"110";"Kontaktbestätigung"
"120";"Security Token"
"130";"Vollmacht"