"resource";"id";"url";"version";"name";"title";"status";"content";"identifier";"date";"count";"property";"property"
"CodeSystem";"hl7-role-class";"https://termgit.elga.gv.at/CodeSystem/hl7-role-class";"1.0.0+20230131";"hl7-role-class";"HL7 Role Class";"retired";"complete";"2.16.840.1.113883.5.110";"2023-06-30";"108";"child|||code";"parent|||code"

"code";"display";"property";"property";"property";"property";"property";"property";"property";"property";"property";"property";"property";"property";"property";"property";"property";"property";"property";"property";"property"
"CHILD";"child"
"CRED";"credentialed entity"
"NURPRAC";"nurse practitioner"
"NURS";"nurse"
"PA";"physician assistant"
"PHYS";"physician"
"ROL";"role";"child|_RoleClassAssociative|code";"child|_RoleClassOntological|code";"child|_RoleClassPartitive|code"
"_RoleClassAssociative";"RoleClassAssociative";"parent|ROL|code";"child|_RoleClassMutualRelationship|code";"child|_RoleClassPassive|code"
"_RoleClassMutualRelationship";"RoleClassMutualRelationship";"parent|_RoleClassAssociative|code";"child|CAREGIVER|code";"child|PRS|code";"child|_RoleClassRelationshipFormal|code"
"CAREGIVER";"caregiver";"parent|_RoleClassMutualRelationship|code";"";"";""
"PRS";"personal relationship";"parent|_RoleClassMutualRelationship|code";"";"";""
"_RoleClassRelationshipFormal";"RoleClassRelationshipFormal";"parent|_RoleClassMutualRelationship|code";"child|AFFL|code";"child|AGNT|code";"child|CIT|code";"child|COVPTY|code";"child|CRINV|code";"child|CRSPNSR|code";"child|EMP|code";"child|GUAR|code";"child|INVSBJ|code";"child|LIC|code";"child|PAT|code";"child|PAYEE|code";"child|PAYOR|code";"child|POLHOLD|code";"child|QUAL|code";"child|SPNSR|code";"child|STD|code";"child|UNDWRT|code"
"AFFL";"affiliate";"parent|_RoleClassRelationshipFormal|code";"";"";"";"";"";"";"";"";"";"";"";"";"";"";"";"";"";""
"AGNT";"agent";"parent|_RoleClassRelationshipFormal|code";"child|ASSIGNED|code";"child|CON|code";"child|GUARD|code";"";"";"";"";"";"";"";"";"";"";"";"";"";"";""
"ASSIGNED";"assigned entity";"parent|AGNT|code";"child|COMPAR|code";"child|SGNOFF|code";"";"";"";"";"";"";"";"";"";"";"";"";"";"";"";""
"COMPAR";"commissioning party";"parent|ASSIGNED|code";"";"";"";"";"";"";"";"";"";"";"";"";"";"";"";"";"";""
"SGNOFF";"signing authority or officer";"parent|ASSIGNED|code";"";"";"";"";"";"";"";"";"";"";"";"";"";"";"";"";"";""
"CON";"contact";"parent|AGNT|code";"child|ECON|code";"child|NOK|code";"";"";"";"";"";"";"";"";"";"";"";"";"";"";"";""
"ECON";"emergency contact";"parent|CON|code";"";"";"";"";"";"";"";"";"";"";"";"";"";"";"";"";"";""
"NOK";"next of kin";"parent|CON|code";"";"";"";"";"";"";"";"";"";"";"";"";"";"";"";"";"";""
"GUARD";"guardian";"parent|AGNT|code";"";"";"";"";"";"";"";"";"";"";"";"";"";"";"";"";"";""
"CIT";"citizen";"parent|_RoleClassRelationshipFormal|code";"";"";"";"";"";"";"";"";"";"";"";"";"";"";"";"";"";""
"COVPTY";"covered party";"parent|_RoleClassRelationshipFormal|code";"child|CLAIM|code";"child|NAMED|code";"child|PROG|code";"";"";"";"";"";"";"";"";"";"";"";"";"";"";""
"CLAIM";"claimant";"parent|COVPTY|code";"";"";"";"";"";"";"";"";"";"";"";"";"";"";"";"";"";""
"NAMED";"named insured";"parent|COVPTY|code";"child|DEPEN|code";"child|INDIV|code";"child|SUBSCR|code";"";"";"";"";"";"";"";"";"";"";"";"";"";"";""
"DEPEN";"dependent";"parent|NAMED|code";"";"";"";"";"";"";"";"";"";"";"";"";"";"";"";"";"";""
"INDIV";"individual";"parent|NAMED|code";"";"";"";"";"";"";"";"";"";"";"";"";"";"";"";"";"";""
"SUBSCR";"subscriber";"parent|NAMED|code";"";"";"";"";"";"";"";"";"";"";"";"";"";"";"";"";"";""
"PROG";"program eligible";"parent|COVPTY|code";"";"";"";"";"";"";"";"";"";"";"";"";"";"";"";"";"";""
"CRINV";"clinical research investigator";"parent|_RoleClassRelationshipFormal|code";"";"";"";"";"";"";"";"";"";"";"";"";"";"";"";"";"";""
"CRSPNSR";"clinical research sponsor";"parent|_RoleClassRelationshipFormal|code";"";"";"";"";"";"";"";"";"";"";"";"";"";"";"";"";"";""
"EMP";"employee";"parent|_RoleClassRelationshipFormal|code";"child|MIL|code";"";"";"";"";"";"";"";"";"";"";"";"";"";"";"";"";""
"MIL";"military person";"parent|EMP|code";"";"";"";"";"";"";"";"";"";"";"";"";"";"";"";"";"";""
"GUAR";"guarantor";"parent|_RoleClassRelationshipFormal|code";"";"";"";"";"";"";"";"";"";"";"";"";"";"";"";"";"";""
"INVSBJ";"Investigation Subject";"parent|_RoleClassRelationshipFormal|code";"child|CASEBJ|code";"child|RESBJ|code";"";"";"";"";"";"";"";"";"";"";"";"";"";"";"";""
"CASEBJ";"Case Subject";"parent|INVSBJ|code";"";"";"";"";"";"";"";"";"";"";"";"";"";"";"";"";"";""
"RESBJ";"research subject";"parent|INVSBJ|code";"";"";"";"";"";"";"";"";"";"";"";"";"";"";"";"";"";""
"LIC";"licensed entity";"parent|_RoleClassRelationshipFormal|code";"child|NOT|code";"child|PROV|code";"";"";"";"";"";"";"";"";"";"";"";"";"";"";"";""
"NOT";"notary public";"parent|LIC|code";"";"";"";"";"";"";"";"";"";"";"";"";"";"";"";"";"";""
"PROV";"healthcare provider";"parent|LIC|code";"";"";"";"";"";"";"";"";"";"";"";"";"";"";"";"";"";""
"PAT";"patient";"parent|_RoleClassRelationshipFormal|code";"";"";"";"";"";"";"";"";"";"";"";"";"";"";"";"";"";""
"PAYEE";"payee";"parent|_RoleClassRelationshipFormal|code";"";"";"";"";"";"";"";"";"";"";"";"";"";"";"";"";"";""
"PAYOR";"invoice payor";"parent|_RoleClassRelationshipFormal|code";"";"";"";"";"";"";"";"";"";"";"";"";"";"";"";"";"";""
"POLHOLD";"policy holder";"parent|_RoleClassRelationshipFormal|code";"";"";"";"";"";"";"";"";"";"";"";"";"";"";"";"";"";""
"QUAL";"qualified entity";"parent|_RoleClassRelationshipFormal|code";"";"";"";"";"";"";"";"";"";"";"";"";"";"";"";"";"";""
"SPNSR";"coverage sponsor";"parent|_RoleClassRelationshipFormal|code";"";"";"";"";"";"";"";"";"";"";"";"";"";"";"";"";"";""
"STD";"student";"parent|_RoleClassRelationshipFormal|code";"";"";"";"";"";"";"";"";"";"";"";"";"";"";"";"";"";""
"UNDWRT";"underwriter";"parent|_RoleClassRelationshipFormal|code";"";"";"";"";"";"";"";"";"";"";"";"";"";"";"";"";"";""
"_RoleClassPassive";"RoleClassPassive";"parent|_RoleClassAssociative|code";"child|ADJY|code";"child|ADMM|code";"child|BIRTHPL|code";"child|DEATHPLC|code";"child|DST|code";"child|EXPR|code";"child|HLD|code";"child|HLTHCHRT|code";"child|IDENT|code";"child|MANU|code";"child|MNT|code";"child|OWN|code";"child|RGPR|code";"child|SDLOC|code";"child|TERR|code";"child|USED|code";"child|WRTE|code";""
"ADJY";"adjacency";"parent|_RoleClassPassive|code";"child|CONC|code";"";"";"";"";"";"";"";"";"";"";"";"";"";"";"";"";""
"CONC";"connection";"parent|ADJY|code";"child|BOND|code";"child|CONY|code";"";"";"";"";"";"";"";"";"";"";"";"";"";"";"";""
"BOND";"molecular bond";"parent|CONC|code";"";"";"";"";"";"";"";"";"";"";"";"";"";"";"";"";"";""
"CONY";"continuity";"parent|CONC|code";"";"";"";"";"";"";"";"";"";"";"";"";"";"";"";"";"";""
"ADMM";"Administerable Material";"parent|_RoleClassPassive|code";"";"";"";"";"";"";"";"";"";"";"";"";"";"";"";"";"";""
"BIRTHPL";"birthplace";"parent|_RoleClassPassive|code";"";"";"";"";"";"";"";"";"";"";"";"";"";"";"";"";"";""
"DEATHPLC";"place of death";"parent|_RoleClassPassive|code";"";"";"";"";"";"";"";"";"";"";"";"";"";"";"";"";"";""
"DST";"distributed material";"parent|_RoleClassPassive|code";"child|RET|code";"";"";"";"";"";"";"";"";"";"";"";"";"";"";"";"";""
"RET";"retailed material";"parent|DST|code";"";"";"";"";"";"";"";"";"";"";"";"";"";"";"";"";"";""
"EXPR";"exposed entity";"parent|_RoleClassPassive|code";"";"";"";"";"";"";"";"";"";"";"";"";"";"";"";"";"";""
"HLD";"held entity";"parent|_RoleClassPassive|code";"";"";"";"";"";"";"";"";"";"";"";"";"";"";"";"";"";""
"HLTHCHRT";"health chart";"parent|_RoleClassPassive|code";"";"";"";"";"";"";"";"";"";"";"";"";"";"";"";"";"";""
"IDENT";"identified entity";"parent|_RoleClassPassive|code";"";"";"";"";"";"";"";"";"";"";"";"";"";"";"";"";"";""
"MANU";"manufactured product";"parent|_RoleClassPassive|code";"child|THER|code";"";"";"";"";"";"";"";"";"";"";"";"";"";"";"";"";""
"THER";"therapeutic agent";"parent|MANU|code";"";"";"";"";"";"";"";"";"";"";"";"";"";"";"";"";"";""
"MNT";"maintained entity";"parent|_RoleClassPassive|code";"";"";"";"";"";"";"";"";"";"";"";"";"";"";"";"";"";""
"OWN";"owned entity";"parent|_RoleClassPassive|code";"";"";"";"";"";"";"";"";"";"";"";"";"";"";"";"";"";""
"RGPR";"regulated product";"parent|_RoleClassPassive|code";"";"";"";"";"";"";"";"";"";"";"";"";"";"";"";"";"";""
"SDLOC";"service delivery location";"parent|_RoleClassPassive|code";"child|DSDLOC|code";"child|ISDLOC|code";"";"";"";"";"";"";"";"";"";"";"";"";"";"";"";""
"DSDLOC";"dedicated service delivery location";"parent|SDLOC|code";"";"";"";"";"";"";"";"";"";"";"";"";"";"";"";"";"";""
"ISDLOC";"incidental service delivery location";"parent|SDLOC|code";"";"";"";"";"";"";"";"";"";"";"";"";"";"";"";"";"";""
"TERR";"territory of authority";"parent|_RoleClassPassive|code";"";"";"";"";"";"";"";"";"";"";"";"";"";"";"";"";"";""
"USED";"used entity";"parent|_RoleClassPassive|code";"";"";"";"";"";"";"";"";"";"";"";"";"";"";"";"";"";""
"WRTE";"warranted product";"parent|_RoleClassPassive|code";"";"";"";"";"";"";"";"";"";"";"";"";"";"";"";"";"";""
"_RoleClassOntological";"RoleClassOntological";"parent|ROL|code";"child|EQUIV|code";"child|GEN|code";"child|INST|code";"child|SUBS|code";"";"";"";"";"";"";"";"";"";"";"";"";"";""
"EQUIV";"equivalent entity";"parent|_RoleClassOntological|code";"child|SAME|code";"child|SUBY|code";"";"";"";"";"";"";"";"";"";"";"";"";"";"";"";""
"SAME";"same";"parent|EQUIV|code";"";"";"";"";"";"";"";"";"";"";"";"";"";"";"";"";"";""
"SUBY";"subsumed by";"parent|EQUIV|code";"";"";"";"";"";"";"";"";"";"";"";"";"";"";"";"";"";""
"GEN";"has generalization";"parent|_RoleClassOntological|code";"child|GRIC|code";"";"";"";"";"";"";"";"";"";"";"";"";"";"";"";"";""
"GRIC";"has generic";"parent|GEN|code";"";"";"";"";"";"";"";"";"";"";"";"";"";"";"";"";"";""
"INST";"instance";"parent|_RoleClassOntological|code";"";"";"";"";"";"";"";"";"";"";"";"";"";"";"";"";"";""
"SUBS";"subsumer";"parent|_RoleClassOntological|code";"";"";"";"";"";"";"";"";"";"";"";"";"";"";"";"";"";""
"_RoleClassPartitive";"RoleClassPartitive";"parent|ROL|code";"child|CONT|code";"child|EXPAGTCAR|code";"child|INGR|code";"child|LOCE|code";"child|MBR|code";"child|PART|code";"child|SPEC|code";"";"";"";"";"";"";"";"";"";"";""
"CONT";"content";"parent|_RoleClassPartitive|code";"";"";"";"";"";"";"";"";"";"";"";"";"";"";"";"";"";""
"EXPAGTCAR";"exposure agent carrier";"parent|_RoleClassPartitive|code";"child|EXPVECTOR|code";"child|FOMITE|code";"";"";"";"";"";"";"";"";"";"";"";"";"";"";"";""
"EXPVECTOR";"exposure vector";"parent|EXPAGTCAR|code";"";"";"";"";"";"";"";"";"";"";"";"";"";"";"";"";"";""
"FOMITE";"fomite";"parent|EXPAGTCAR|code";"";"";"";"";"";"";"";"";"";"";"";"";"";"";"";"";"";""
"INGR";"ingredient";"parent|_RoleClassPartitive|code";"child|ACTI|code";"child|ADJV|code";"child|ADTV|code";"child|BASE|code";"child|IACT|code";"child|MECH|code";"";"";"";"";"";"";"";"";"";"";"";""
"ACTI";"active ingredient";"parent|INGR|code";"child|ACTIB|code";"child|ACTIM|code";"child|ACTIR|code";"";"";"";"";"";"";"";"";"";"";"";"";"";"";""
"ACTIB";"active ingredient - basis of strength";"parent|ACTI|code";"";"";"";"";"";"";"";"";"";"";"";"";"";"";"";"";"";""
"ACTIM";"active ingredient - moiety is basis of strength";"parent|ACTI|code";"";"";"";"";"";"";"";"";"";"";"";"";"";"";"";"";"";""
"ACTIR";"active ingredient - reference substance is basis of strength";"parent|ACTI|code";"";"";"";"";"";"";"";"";"";"";"";"";"";"";"";"";"";""
"ADJV";"adjuvant";"parent|INGR|code";"";"";"";"";"";"";"";"";"";"";"";"";"";"";"";"";"";""
"ADTV";"additive";"parent|INGR|code";"";"";"";"";"";"";"";"";"";"";"";"";"";"";"";"";"";""
"BASE";"base";"parent|INGR|code";"";"";"";"";"";"";"";"";"";"";"";"";"";"";"";"";"";""
"IACT";"inactive ingredient";"parent|INGR|code";"child|COLR|code";"child|FLVR|code";"child|PRSV|code";"child|STBL|code";"";"";"";"";"";"";"";"";"";"";"";"";"";""
"COLR";"color additive";"parent|IACT|code";"";"";"";"";"";"";"";"";"";"";"";"";"";"";"";"";"";""
"FLVR";"flavor additive";"parent|IACT|code";"";"";"";"";"";"";"";"";"";"";"";"";"";"";"";"";"";""
"PRSV";"preservative";"parent|IACT|code";"";"";"";"";"";"";"";"";"";"";"";"";"";"";"";"";"";""
"STBL";"stabilizer";"parent|IACT|code";"";"";"";"";"";"";"";"";"";"";"";"";"";"";"";"";"";""
"MECH";"mechanical ingredient";"parent|INGR|code";"";"";"";"";"";"";"";"";"";"";"";"";"";"";"";"";"";""
"LOCE";"located entity";"parent|_RoleClassPartitive|code";"child|STOR|code";"";"";"";"";"";"";"";"";"";"";"";"";"";"";"";"";""
"STOR";"stored entity";"parent|LOCE|code";"";"";"";"";"";"";"";"";"";"";"";"";"";"";"";"";"";""
"MBR";"member";"parent|_RoleClassPartitive|code";"";"";"";"";"";"";"";"";"";"";"";"";"";"";"";"";"";""
"PART";"part";"parent|_RoleClassPartitive|code";"child|ACTM|code";"";"";"";"";"";"";"";"";"";"";"";"";"";"";"";"";""
"ACTM";"active moiety";"parent|PART|code";"";"";"";"";"";"";"";"";"";"";"";"";"";"";"";"";"";""
"SPEC";"specimen";"parent|_RoleClassPartitive|code";"child|ALQT|code";"child|ISLT|code";"";"";"";"";"";"";"";"";"";"";"";"";"";"";"";""
"ALQT";"aliquot";"parent|SPEC|code";"";"";"";"";"";"";"";"";"";"";"";"";"";"";"";"";"";""
"ISLT";"isolate";"parent|SPEC|code";"";"";"";"";"";"";"";"";"";"";"";"";"";"";"";"";"";""