'code';'codeSystem';'displayName';'parentCodeSystemName';'concept_Beschreibung';'meaning';'hints';'orderNumber';'level';'type';'relationships';'einheit print';'einheit codiert';'codeSystemVersion'
'0';'1.2.40.0.34.5.38.2';'Lateralitaet unbestimmt';'https://termgit.elga.gv.at/CodeSystem/appc-lateralitaet';;;'APPC: 1.2.40.0.34.5.38';'1';'0';'L';;;;'1.0.0+20230131'
'1';'1.2.40.0.34.5.38.2';'rechts';'https://termgit.elga.gv.at/CodeSystem/appc-lateralitaet';;;'APPC: 1.2.40.0.34.5.38';'2';'0';'L';;;;'1.0.0+20230131'
'2';'1.2.40.0.34.5.38.2';'links';'https://termgit.elga.gv.at/CodeSystem/appc-lateralitaet';;;'APPC: 1.2.40.0.34.5.38';'3';'0';'L';;;;'1.0.0+20230131'
'3';'1.2.40.0.34.5.38.2';'beidseits';'https://termgit.elga.gv.at/CodeSystem/appc-lateralitaet';;;'APPC: 1.2.40.0.34.5.38';'4';'0';'L';;;;'1.0.0+20230131'
'4';'1.2.40.0.34.5.38.2';'unpaariges Organ';'https://termgit.elga.gv.at/CodeSystem/appc-lateralitaet';;;'APPC: 1.2.40.0.34.5.38';'5';'0';'L';;;;'1.0.0+20230131'
'5';'1.2.40.0.34.5.38.2';'Atypische Situation ( - Transplantat etc.)';'https://termgit.elga.gv.at/CodeSystem/appc-lateralitaet';;;'APPC: 1.2.40.0.34.5.38';'6';'0';'L';;;;'1.0.0+20230131'
