'code';'codeSystem';'displayName';'parentCode';'concept_Beschreibung';'meaning';'hints';'level';'type';'relationships';'status'
'B';'1.2.40.0.34.5.183';'Auffrischung';;;;;'0';'L';
'B.I';'1.2.40.0.34.5.183';'Auffrischungsserie Teil 1';;;;;'0';'L';
'B.II';'1.2.40.0.34.5.183';'Auffrischungsserie Teil 2';;;;;'0';'L';
'D1';'1.2.40.0.34.5.183';'Dosis 1';;;;;'0';'L';
'D2';'1.2.40.0.34.5.183';'Dosis 2';;;;;'0';'L';
'D3';'1.2.40.0.34.5.183';'Dosis 3';;;;;'0';'L';
'D4';'1.2.40.0.34.5.183';'Dosis 4';;;;;'0';'L';
'D5';'1.2.40.0.34.5.183';'Dosis 5';;;;;'0';'L';
'D6';'1.2.40.0.34.5.183';'Dosis 6';;;;;'0';'L';
'D7';'1.2.40.0.34.5.183';'Dosis 7';;;;;'0';'L';
'D8';'1.2.40.0.34.5.183';'Dosis 8';;;;;'0';'L';
'D9';'1.2.40.0.34.5.183';'Dosis 9';;;;;'0';'L';
'DGC-R';'1.2.40.0.34.5.183';'Genesungs-Zertifikat';;;;'DEPRECATED';'0';'D';;'retired'
'DGC-T';'1.2.40.0.34.5.183';'Test-Zertifikat';;;;'DEPRECATED';'0';'D';;'retired'
'DGC-V';'1.2.40.0.34.5.183';'Impf-Zertifikat';;;;'DEPRECATED';'0';'D';;'retired'
'IG1';'1.2.40.0.34.5.183';'Indikationsimpfung für Risikogruppe';;;;;'0';'L';
'IG2';'1.2.40.0.34.5.183';'Wiederholungsimpfung aufgrund medizinischer Indikation';;;;;'0';'L';
'IS001';'1.2.40.0.34.5.183';'Bildungseinrichtung';;;;;'0';'L';
'IS002';'1.2.40.0.34.5.183';'Arbeitsplatz/Betrieb';;;;;'0';'L';
'IS003';'1.2.40.0.34.5.183';'Krankenhaus inkl. Kur- und Rehaeinrichtungen';;;;;'0';'L';
'IS004';'1.2.40.0.34.5.183';'Ordination';;;;;'0';'L';
'IS005';'1.2.40.0.34.5.183';'Öffentliche Impfstelle';;;;;'0';'L';
'IS006';'1.2.40.0.34.5.183';'Wohnbereich';;;;;'0';'L';
'IS007';'1.2.40.0.34.5.183';'Öffentliche Impfstraße / Impfbus';;;;;'0';'L';
'IS008';'1.2.40.0.34.5.183';'Betreute Wohneinrichtung';;;;;'0';'L';
'IS009';'1.2.40.0.34.5.183';'Impfprogramm';;;;;'0';'L';
'IS010';'1.2.40.0.34.5.183';'Kostenfreies Impfprogramm';;'Kostenfreies Impfprogramm des Bundes, der Bundesländer und der Sozialversicherung';;;'0';'L';
'IS011';'1.2.40.0.34.5.183';'Öffentliches Impfprogramm (ÖIP) Influenza';;'Öffentliches Impfprogramm (ÖIP) Influenza des Bundes, der Bundesländer und der Sozialversicherung';;;'0';'L';
'SCHEMA001';'1.2.40.0.34.5.183';'Kombinationsschema Di-Te-Pert-HiB-IPV-HepB, Erstimpfung bis 1 Jahr';;;;'DEPRECATED';'0';'D';;'retired'
'SCHEMA002';'1.2.40.0.34.5.183';'Kombinationsschema Di-Te-Pert-HiB-IPV-HepB, Erstimpfung ab 1 Jahr';;;;'DEPRECATED';'0';'D';;'retired'
'SCHEMA003';'1.2.40.0.34.5.183';'Kombinationsschema Di-Te-Pert-IPV-HepB, Erstimpfung ab 6 Jahren';;;;'DEPRECATED';'0';'D';;'retired'
'SCHEMA004';'1.2.40.0.34.5.183';'Kombinationsschema Di-Te-Pert-HiB-IPV-HepB, Indikation';;;;'DEPRECATED';'0';'D';;'retired'
'SCHEMA005';'1.2.40.0.34.5.183';'FSME Grundschema, FSME-Immun';;;;'DEPRECATED';'0';'D';;'retired'
'SCHEMA006';'1.2.40.0.34.5.183';'FSME Grundschema, Encepur';;;;'DEPRECATED';'0';'D';;'retired'
'SCHEMA007';'1.2.40.0.34.5.183';'FSME Grundschema, FSME-Immun, Erstimpfung bis 1 Jahr';;;;'DEPRECATED';'0';'D';;'retired'
'SCHEMA008';'1.2.40.0.34.5.183';'FSME Grundschema, Encepur, Erstimpfung bis 1 Jahr';;;;'DEPRECATED';'0';'D';;'retired'
'SCHEMA009';'1.2.40.0.34.5.183';'FSME Schnellschema, FSME-Immun';;;;'DEPRECATED';'0';'D';;'retired'
'SCHEMA010';'1.2.40.0.34.5.183';'FSME Schnellschema, Encepur';;;;'DEPRECATED';'0';'D';;'retired'
'SCHEMA011';'1.2.40.0.34.5.183';'Haemophilus influenzae Typ B Indikationsschema';;;;'DEPRECATED';'0';'D';;'retired'
'SCHEMA012';'1.2.40.0.34.5.183';'Hepatitis A Monokomponente Indikationsschema';;;;'DEPRECATED';'0';'D';;'retired'
'SCHEMA013';'1.2.40.0.34.5.183';'Hepatitis AB Grundschema';;;;'DEPRECATED';'0';'D';;'retired'
'SCHEMA014';'1.2.40.0.34.5.183';'Hepatitis A Monokomponente Grundschema';;;;'DEPRECATED';'0';'D';;'retired'
'SCHEMA015';'1.2.40.0.34.5.183';'Hepatitis AB Schnellschema';;;;'DEPRECATED';'0';'D';;'retired'
'SCHEMA016';'1.2.40.0.34.5.183';'Hepatitis A & Typhus Grundschema';;;;'DEPRECATED';'0';'D';;'retired'
'SCHEMA017';'1.2.40.0.34.5.183';'Hepatitis B Monokomponente Grundschema';;;;'DEPRECATED';'0';'D';;'retired'
'SCHEMA019';'1.2.40.0.34.5.183';'Hepatitis B Non-/Low-Responder Grundschema';;;;'DEPRECATED';'0';'D';;'retired'
'SCHEMA020';'1.2.40.0.34.5.183';'HPV Grundschema';;;;'DEPRECATED';'0';'D';;'retired'
'SCHEMA021';'1.2.40.0.34.5.183';'HPV Grundschema, ab 21 Jahren';;;;'DEPRECATED';'0';'D';;'retired'
'SCHEMA022';'1.2.40.0.34.5.183';'HPV Indikationsschema';;;;'DEPRECATED';'0';'D';;'retired'
'SCHEMA023';'1.2.40.0.34.5.183';'Influenza Grundschema, Erstimpfung Kinder';;;;'DEPRECATED';'0';'D';;'retired'
'SCHEMA024';'1.2.40.0.34.5.183';'Influenza Grundschema, Einmalimpfung';;;;'DEPRECATED';'0';'D';;'retired'
'SCHEMA025';'1.2.40.0.34.5.183';'MMR Grundschema ab 9 Monaten';;;;'DEPRECATED';'0';'D';;'retired'
'SCHEMA027';'1.2.40.0.34.5.183';'MMR Indikationsschema, Erstimpfung 6-8 Monate';;;;'DEPRECATED';'0';'D';;'retired'
'SCHEMA028';'1.2.40.0.34.5.183';'Meningokokken B Grundschema, Erstimpfung 2-5 Monate, 4 Dosen';;;;'DEPRECATED';'0';'D';;'retired'
'SCHEMA029';'1.2.40.0.34.5.183';'Meningokokken B Grundschema, Erstimpfung 2-5 Monate';;;;'DEPRECATED';'0';'D';;'retired'
'SCHEMA030';'1.2.40.0.34.5.183';'Meningokokken B Grundschema, Erstimpfung 6-11 Monate';;;;'DEPRECATED';'0';'D';;'retired'
'SCHEMA031';'1.2.40.0.34.5.183';'Meningokokken B Grundschema, Erstimpfung 12-23 Monate';;;;'DEPRECATED';'0';'D';;'retired'
'SCHEMA032';'1.2.40.0.34.5.183';'Meningokokken B Grundschema, Erstimpfung 2-25 Jahre, Bexsero';;;;'DEPRECATED';'0';'D';;'retired'
'SCHEMA033';'1.2.40.0.34.5.183';'Meningokokken B Indikationsschema, ab 25 Jahren, Bexsero';;;;'DEPRECATED';'0';'D';;'retired'
'SCHEMA034';'1.2.40.0.34.5.183';'Meningokokken B Indikationsschema, ab 25 Jahren, Trumenba';;;;'DEPRECATED';'0';'D';;'retired'
'SCHEMA035';'1.2.40.0.34.5.183';'Meningokokken C Indikationsschema, 2-4 Monate, Neisvac C';;;;'DEPRECATED';'0';'D';;'retired'
'SCHEMA036';'1.2.40.0.34.5.183';'Meningokokken C Indikationsschema, 2-12 Monate, Menjugate';;;;'DEPRECATED';'0';'D';;'retired'
'SCHEMA037';'1.2.40.0.34.5.183';'Meningokokken C Indikationsschema, 4-12 Monate, Neisvac C';;;;'DEPRECATED';'0';'D';;'retired'
'SCHEMA038';'1.2.40.0.34.5.183';'Meningokokken C Grundschema, ab 1 Jahr';;;;'DEPRECATED';'0';'D';;'retired'
'SCHEMA039';'1.2.40.0.34.5.183';'Meningokokken ACWY Grundschema, ab 10 Jahren';;;;'DEPRECATED';'0';'D';;'retired'
'SCHEMA040';'1.2.40.0.34.5.183';'Meningokokken ACWY Indikationsschema, ab 1 Jahr';;;;'DEPRECATED';'0';'D';;'retired'
'SCHEMA041';'1.2.40.0.34.5.183';'Meningokokken ACWY Indikationsschema, Erstimpfung bis 1 Jahr';;;;'DEPRECATED';'0';'D';;'retired'
'SCHEMA042';'1.2.40.0.34.5.183';'Pneumokokken Grundschema, Erstimpfung bis 1 Jahr';;;;'DEPRECATED';'0';'D';;'retired'
'SCHEMA043';'1.2.40.0.34.5.183';'Pneumokokken Grundschema, Erstimpfung 1-2 Jahre';;;;'DEPRECATED';'0';'D';;'retired'
'SCHEMA044';'1.2.40.0.34.5.183';'Pneumokokken Indikationsschema (hohes Risiko), Erstimpfung bis 1 Jahr';;;;'DEPRECATED';'0';'D';;'retired'
'SCHEMA045';'1.2.40.0.34.5.183';'Pneumokokken Indikationsschema (hohes Risiko), Erstimpfung im 2. Lebensjahr';;;;'DEPRECATED';'0';'D';;'retired'
'SCHEMA046';'1.2.40.0.34.5.183';'Pneumokokken Indikationsschema (hohes Risiko), Erstimpfung ab 3 Jahren';;;;'DEPRECATED';'0';'D';;'retired'
'SCHEMA050';'1.2.40.0.34.5.183';'Rotavirus Grundschema, 2 Dosen, Erstimpfung ab der vollendeten 6.-20. Lebenswoche, Rotarix';;;;'DEPRECATED';'0';'D';;'retired'
'SCHEMA051';'1.2.40.0.34.5.183';'Rotavirus Grundschema, 2 Dosen, Erstimpfung ab der vollendeten 24.-28. Lebenswoche, Rotateq';;;;'DEPRECATED';'0';'D';;'retired'
'SCHEMA052';'1.2.40.0.34.5.183';'Rotavirus Grundschema, 1 Dosis, Erstimpfung ab der vollendeten 20.-24. Lebenswoche, Rotarix';;;;'DEPRECATED';'0';'D';;'retired'
'SCHEMA053';'1.2.40.0.34.5.183';'Rotavirus Grundschema, 1 Dosis, Erstimpfung ab der vollendeten 28.-32. Lebenswoche, Rotateq';;;;'DEPRECATED';'0';'D';;'retired'
'SCHEMA054';'1.2.40.0.34.5.183';'Rotavirus Grundschema, 3 Dosen, Erstimpfung ab der vollendeten 6.- 24. Lebenswoche, Rotateq';;;;'DEPRECATED';'0';'D';;'retired'
'SCHEMA060';'1.2.40.0.34.5.183';'Varizellen Grundschema, ab 1 Jahr';;;;'DEPRECATED';'0';'D';;'retired'
'SCHEMA061';'1.2.40.0.34.5.183';'Kombinationsschema MMRV, ab 9 Monaten, MMR - MMRV - V';;;;'DEPRECATED';'0';'D';;'retired'
'SCHEMA062';'1.2.40.0.34.5.183';'Kombinationsschema MMRV, ab 12 Monaten, MMR - MMRV - V';;;;'DEPRECATED';'0';'D';;'retired'
'SCHEMA063';'1.2.40.0.34.5.183';'Varizellen Indikationsschema, Erstimpfung bis 1 Jahr';;;;'DEPRECATED';'0';'D';;'retired'
'SCHEMA064';'1.2.40.0.34.5.183';'Herpes Zoster Grundschema, ab 50 Jahren';;;;'DEPRECATED';'0';'D';;'retired'
'SCHEMA065';'1.2.40.0.34.5.183';'Gelbfieber Grundschema, ab dem vollendeten 9. Lebensmonat';;;;'DEPRECATED';'0';'D';;'retired'
'SCHEMA066';'1.2.40.0.34.5.183';'Japanische Enzephalitis Grundschema, ab 2 Monaten';;;;'DEPRECATED';'0';'D';;'retired'
'SCHEMA067';'1.2.40.0.34.5.183';'Japanische Enzephalitis Schnellschema, ab 18 Jahren';;;;'DEPRECATED';'0';'D';;'retired'
'SCHEMA068';'1.2.40.0.34.5.183';'Typhus Grundschema, Injektion';;;;'DEPRECATED';'0';'D';;'retired'
'SCHEMA069';'1.2.40.0.34.5.183';'Typhus Grundschema, Oral';;;;'DEPRECATED';'0';'D';;'retired'
'SCHEMA070';'1.2.40.0.34.5.183';'Tollwut Grundschema';;;;'DEPRECATED';'0';'D';;'retired'
'SCHEMA071';'1.2.40.0.34.5.183';'Tollwut Schnellschema';;;;'DEPRECATED';'0';'D';;'retired'
'SCHEMA072';'1.2.40.0.34.5.183';'Tollwut postexpositionelles Schema, Essen 4 Dosen';;;;'DEPRECATED';'0';'D';;'retired'
'SCHEMA073';'1.2.40.0.34.5.183';'Tollwut postexpositionelles Schema, Essen 5 Dosen';;;;'DEPRECATED';'0';'D';;'retired'
'SCHEMA074';'1.2.40.0.34.5.183';'Tollwut postexpositionelles Schema, Zagreb';;;;'DEPRECATED';'0';'D';;'retired'
'SCHEMA075';'1.2.40.0.34.5.183';'Tollwut postexpositionelles Schema, mit Tollwut-Vorimpfung';;;;'DEPRECATED';'0';'D';;'retired'
'SCHEMA076';'1.2.40.0.34.5.183';'Cholera Grundschema, Erstimpfung 2-6 Jahre';;;;'DEPRECATED';'0';'D';;'retired'
'SCHEMA078';'1.2.40.0.34.5.183';'Cholera Grundschema, Erstimpfung ab 6 Jahren';;;;'DEPRECATED';'0';'D';;'retired'
'SCHEMA079';'1.2.40.0.34.5.183';'Meningokokken B Grundschema, Erstimpfung 10-25 Jahre, Trumenba';;;;'DEPRECATED';'0';'D';;'retired'
'SCHEMA080';'1.2.40.0.34.5.183';'Kombinationsschema Di-Te-Pert-IPV';;;;'DEPRECATED';'0';'D';;'retired'
'SCHEMA081';'1.2.40.0.34.5.183';'Kombinationsschema Di-Te-Pert';;;;'DEPRECATED';'0';'D';;'retired'
'SCHEMA082';'1.2.40.0.34.5.183';'Kombinationsschema Di-Te';;;;'DEPRECATED';'0';'D';;'retired'
'SCHEMA083';'1.2.40.0.34.5.183';'Tetanus Monokomponente';;;;'DEPRECATED';'0';'D';;'retired'
'SCHEMA084';'1.2.40.0.34.5.183';'Poliomyelitis Indikationsschema ab dem vollendeten 2. Lebensmonat';;;;'DEPRECATED';'0';'D';;'retired'
'SCHEMA085';'1.2.40.0.34.5.183';'Hepatitis B Monokomponente Indikationsschema';;;;'DEPRECATED';'0';'D';;'retired'
'SCHEMA086';'1.2.40.0.34.5.183';'SARS-CoV-2 Grundschema, Comirnaty';;;;'DEPRECATED';'0';'D';;'retired'
'SCHEMA087';'1.2.40.0.34.5.183';'SARS-CoV-2 Grundschema, Spikevax';;;;'DEPRECATED';'0';'D';;'retired'
'SCHEMA088';'1.2.40.0.34.5.183';'SARS-CoV-2 Grundschema, Vaxzevria';;;;'DEPRECATED';'0';'D';;'retired'
'SCHEMA089';'1.2.40.0.34.5.183';'SARS-CoV-2 Grundschema, Jcovden';;;;'DEPRECATED';'0';'D';;'retired'
'SCHEMA090';'1.2.40.0.34.5.183';'SARS-CoV-2 Grundschema, Auslandsimpfung';;;;'DEPRECATED';'0';'D';;'retired'
'SCHEMA091';'1.2.40.0.34.5.183';'Herpes Zoster Grundschema, nach Zostavax';;;;'DEPRECATED';'0';'D';;'retired'
'SCHEMA092';'1.2.40.0.34.5.183';'Herpes Zoster Indikationsschema, ab 18 Jahren';;;;'DEPRECATED';'0';'D';;'retired'
'SCHEMA093';'1.2.40.0.34.5.183';'MMR Grundschema, ab 1 Jahr';;;;'DEPRECATED';'0';'D';;'retired'
'SCHEMA094';'1.2.40.0.34.5.183';'SARS-CoV-2 Indikationsschema, Comirnaty';;;;'DEPRECATED';'0';'D';;'retired'
'SCHEMA095';'1.2.40.0.34.5.183';'SARS-CoV-2 Indikationsschema, Spikevax';;;;'DEPRECATED';'0';'D';;'retired'
'SCHEMA096';'1.2.40.0.34.5.183';'SARS-CoV-2 heterologes Schema (Impfstoffwechsel)';;;;'DEPRECATED';'0';'D';;'retired'
'SCHEMA097';'1.2.40.0.34.5.183';'Pneumokokken Grundschema, Erstimpfung 2-5 Jahre';;;;'DEPRECATED';'0';'D';;'retired'
'SCHEMA098';'1.2.40.0.34.5.183';'Pneumokokken Grundschema, ab 60 Jahre';;;;'DEPRECATED';'0';'D';;'retired'
'SCHEMA099';'1.2.40.0.34.5.183';'SARS-CoV-2 Grundschema, Nuvaxovid';;;;'DEPRECATED';'0';'D';;'retired'
'SCHEMA100';'1.2.40.0.34.5.183';'Kombinationsschema MMRV, ab 9 Monaten, MMRV - MMRV';;;;'DEPRECATED';'0';'D';;'retired'
'SCHEMA101';'1.2.40.0.34.5.183';'Kombinationsschema MMRV, ab 12 Monaten, MMRV - MMRV';;;;'DEPRECATED';'0';'D';;'retired'
'SCHEMA102';'1.2.40.0.34.5.183';'Hepatitis B Monokomponente Schnellschema durch Indikation';;;;'DEPRECATED';'0';'D';;'retired'
'SCHEMA103';'1.2.40.0.34.5.183';'Hepatitis B Prophylaxe Neugeborener Indikationsschema';;;;'DEPRECATED';'0';'D';;'retired'
'SCHEMA104';'1.2.40.0.34.5.183';'Influenza Indikationsschema';;;;'DEPRECATED';'0';'D';;'retired'
'SCHEMA105';'1.2.40.0.34.5.183';'Kombinationsschema Di-Te-IPV';;;;'DEPRECATED';'0';'D';;'retired'
'SCHEMA106';'1.2.40.0.34.5.183';'Meningokokken ACWY Indikationsschema, Nimenrix bis 6 Monate';;;;'DEPRECATED';'0';'D';;'retired'
'SCHEMA107';'1.2.40.0.34.5.183';'Meningokokken ACWY Indikationsschema, Nimenrix ab 6 Monate';;;;'DEPRECATED';'0';'D';;'retired'
'SCHEMA108';'1.2.40.0.34.5.183';'Meningokokken ACWY Indikationsschema, Nimenrix ab 1 Jahr';;;;'DEPRECATED';'0';'D';;'retired'
'SCHEMA109';'1.2.40.0.34.5.183';'Meningokokken ACWY Indikationsschema, Menveo ab 2 Jahre';;;;'DEPRECATED';'0';'D';;'retired'
'SCHEMA110';'1.2.40.0.34.5.183';'COVID-19 Indikationsschema';;;;'DEPRECATED';'0';'D';;'retired'
'SCHEMA111';'1.2.40.0.34.5.183';'Mpox/Pocken Indikationsschema';;;;'DEPRECATED';'0';'D';;'retired'
'SCHEMA112';'1.2.40.0.34.5.183';'SARS-CoV-2 Grundschema, Valneva';;;;'DEPRECATED';'0';'D';;'retired'
'SCHEMA113';'1.2.40.0.34.5.183';'Kombinationsschema MMRV, ab 9 Monaten, MMRV - MMR - V';;;;'DEPRECATED';'0';'D';;'retired'
'SCHEMA114';'1.2.40.0.34.5.183';'Kombinationsschema MMRV, ab 12 Monaten, MMRV - MMR - V';;;;'DEPRECATED';'0';'D';;'retired'
'SCHEMA115';'1.2.40.0.34.5.183';'Mpox/Pocken Indikationsschema, einmalige Impfung';;;;'DEPRECATED';'0';'D';;'retired'
'SCHEMA116';'1.2.40.0.34.5.183';'Pneumokokken Indikationsschema (erhöhtes Risiko), ab 50 Jahren';;;;'DEPRECATED';'0';'D';;'retired'
'SCHEMA117';'1.2.40.0.34.5.183';'COVID-19 Grundschema, Kleinkind';;;;'DEPRECATED';'0';'D';;'retired'
'SCHEMA118';'1.2.40.0.34.5.183';'Pneumokokken Indikationsschema, Frühgeborene';;;;'DEPRECATED';'0';'D';;'retired'
'SCHEMA119';'1.2.40.0.34.5.183';'Dengue-Fieber Grundschema, 2 Dosen';;;;'DEPRECATED';'0';'D';;'retired'
'SCHEMA120';'1.2.40.0.34.5.183';'Poliomyelitis Indikationsschema ab dem vollendeten 1. Lebensjahr';;;;'DEPRECATED';'0';'D';;'retired'
'SCHEMA121';'1.2.40.0.34.5.183';'RSV Grundschema';;;;'DEPRECATED';'0';'D';;'retired'
'SCHEMA122';'1.2.40.0.34.5.183';'COVID-19 Grundschema';;;;'DEPRECATED';'0';'D';;'retired'
'SCHEMA123';'1.2.40.0.34.5.183';'Tollwut Schnellschema (WHO)';;;;'DEPRECATED';'0';'D';;'retired'
'SCHEMA124';'1.2.40.0.34.5.183';'Tollwut Schnellschema (WHO), intradermal';;;;'DEPRECATED';'0';'D';;'retired'
'SCHEMA125';'1.2.40.0.34.5.183';'Meningokokken ACWY, ab 1 Jahr';;;;'DEPRECATED';'0';'D';;'retired'
'SCHEMA126';'1.2.40.0.34.5.183';'FSME beschleunigtes konventionelles Schema, Encepur';;;;'DEPRECATED';'0';'D';;'retired'
'SCHEMA201';'1.2.40.0.34.5.183';'6-fach (2+1) Di-Te-Pert-HiB-IPV-HepB inkl. Auffrischungsimpfungen';;;;;'0';'L';
'SCHEMA202';'1.2.40.0.34.5.183';'6-fach (3+1) Di-Te-Pert-HiB-IPV-HepB inkl. Auffrischungsimpfungen, Indikation';;;;;'0';'L';
'SCHEMA203';'1.2.40.0.34.5.183';'Cholera';;;;;'0';'L';
'SCHEMA204';'1.2.40.0.34.5.183';'COVID-19';;;;;'0';'L';
'SCHEMA205';'1.2.40.0.34.5.183';'COVID-19, Indikation';;;;;'0';'L';
'SCHEMA206';'1.2.40.0.34.5.183';'Dengue';;;;;'0';'L';
'SCHEMA207';'1.2.40.0.34.5.183';'Di-Te-Pert';;;;;'0';'L';
'SCHEMA208';'1.2.40.0.34.5.183';'Di-Te-Pert-IPV';;;;;'0';'L';
'SCHEMA209';'1.2.40.0.34.5.183';'FSME';;;;;'0';'L';
'SCHEMA210';'1.2.40.0.34.5.183';'FSME, beschleunigtes konventionelles Schema';;;;;'0';'L';
'SCHEMA211';'1.2.40.0.34.5.183';'FSME, Schnellschema';;;;;'0';'L';
'SCHEMA212';'1.2.40.0.34.5.183';'Gelbfieber';;;;;'0';'L';
'SCHEMA213';'1.2.40.0.34.5.183';'Hepatitis A';;;;;'0';'L';
'SCHEMA215';'1.2.40.0.34.5.183';'Hepatitis AB';;;;;'0';'L';
'SCHEMA216';'1.2.40.0.34.5.183';'Hepatitis B';;;;;'0';'L';
'SCHEMA217';'1.2.40.0.34.5.183';'Hepatitis B, Indikation';;;;;'0';'L';
'SCHEMA218';'1.2.40.0.34.5.183';'Hepatitis B, Indikation Prophylaxe Neugeborener';;;;;'0';'L';
'SCHEMA219';'1.2.40.0.34.5.183';'Hepatitis B, Schnellschema';;;;;'0';'L';
'SCHEMA220';'1.2.40.0.34.5.183';'Herpes Zoster';;;;;'0';'L';
'SCHEMA221';'1.2.40.0.34.5.183';'Herpes Zoster, Indikation';;;;;'0';'L';
'SCHEMA222';'1.2.40.0.34.5.183';'HiB, Indikation';;;;;'0';'L';
'SCHEMA223';'1.2.40.0.34.5.183';'HPV';;;;;'0';'L';
'SCHEMA224';'1.2.40.0.34.5.183';'HPV, Indikation';;;;;'0';'L';
'SCHEMA225';'1.2.40.0.34.5.183';'Influenza';;;;;'0';'L';
'SCHEMA226';'1.2.40.0.34.5.183';'Influenza, Indikation';;;;;'0';'L';
'SCHEMA227';'1.2.40.0.34.5.183';'Japanische Enzephalitis';;;;;'0';'L';
'SCHEMA228';'1.2.40.0.34.5.183';'Japanische Enzephalitis, Schnellschema';;;;;'0';'L';
'SCHEMA229';'1.2.40.0.34.5.183';'Meningokokken ACWY';;;;;'0';'L';
'SCHEMA230';'1.2.40.0.34.5.183';'Meningokokken ACWY, Indikation';;;;;'0';'L';
'SCHEMA231';'1.2.40.0.34.5.183';'Meningokokken B';;;;;'0';'L';
'SCHEMA232';'1.2.40.0.34.5.183';'Meningokokken B, Indikation';;;;;'0';'L';
'SCHEMA233';'1.2.40.0.34.5.183';'Meningokokken C';;;;;'0';'L';
'SCHEMA234';'1.2.40.0.34.5.183';'MMR';;;;;'0';'L';
'SCHEMA235';'1.2.40.0.34.5.183';'MMR - MMRV - V';;;;;'0';'L';
'SCHEMA236';'1.2.40.0.34.5.183';'MMR, Indikation';;;;;'0';'L';
'SCHEMA237';'1.2.40.0.34.5.183';'MMRV';;;;;'0';'L';
'SCHEMA238';'1.2.40.0.34.5.183';'Mpox';;;;;'0';'L';
'SCHEMA239';'1.2.40.0.34.5.183';'Pneumokokken';;;;;'0';'L';
'SCHEMA241';'1.2.40.0.34.5.183';'Pneumokokken, Indikation Frühgeborene';;;;;'0';'L';
'SCHEMA242';'1.2.40.0.34.5.183';'Pneumokokken, Indikation';;;;;'0';'L';
'SCHEMA244';'1.2.40.0.34.5.183';'Rotavirus';;;;;'0';'L';
'SCHEMA245';'1.2.40.0.34.5.183';'RSV';;;;;'0';'L';
'SCHEMA246';'1.2.40.0.34.5.183';'Tollwut';;;;;'0';'L';
'SCHEMA247';'1.2.40.0.34.5.183';'Tollwut postexpositionell, Essen';;;;;'0';'L';
'SCHEMA248';'1.2.40.0.34.5.183';'Tollwut postexpositionell, mit Vorimpfung';;;;;'0';'L';
'SCHEMA249';'1.2.40.0.34.5.183';'Tollwut postexpositionell, Zagreb';;;;;'0';'L';
'SCHEMA250';'1.2.40.0.34.5.183';'Tollwut, Schnellschema';;;;;'0';'L';
'SCHEMA251';'1.2.40.0.34.5.183';'Tollwut, Schnellschema (WHO)';;;;;'0';'L';
'SCHEMA252';'1.2.40.0.34.5.183';'Tollwut, Schnellschema (WHO) intradermal';;;;;'0';'L';
'SCHEMA253';'1.2.40.0.34.5.183';'Typhus';;;;;'0';'L';
'SCHEMA254';'1.2.40.0.34.5.183';'Varizellen';;;;;'0';'L';
'SCHEMA255';'1.2.40.0.34.5.183';'Varizellen, Indikation';;;;;'0';'L';
'SCHEMA256';'1.2.40.0.34.5.183';'Chikungunya';;;;;'0';'L';
'SCHEMA257';'1.2.40.0.34.5.183';'Zoonotische Influenza (H5N8)';;;;;'0';'L';
'SCHEMA258';'1.2.40.0.34.5.183';'Hepatitis AB, Schnellschema';;;;;'0';'L';
'_AllgemeineBevölkerung';'1.2.40.0.34.5.183';'Allgemeine Bevölkerung';;;;'DEPRECATED';'0';'D';;'retired'
'_Ausnahme';'1.2.40.0.34.5.183';'Ausnahme';;;;;'0';'L';
'_Blau';'1.2.40.0.34.5.183';'Blau';;;;;'0';'L';
'_Einzel';'1.2.40.0.34.5.183';'Impfungen';;;;;'0';'L';
'_Empfohlene';'1.2.40.0.34.5.183';'Allgemein empfohlene Impfungen';;;;;'0';'L';
'_Gelb';'1.2.40.0.34.5.183';'Gelb';;;;;'0';'L';
'_Grau';'1.2.40.0.34.5.183';'Grau';;;;;'0';'L';
'_Grün';'1.2.40.0.34.5.183';'Grün';;;;;'0';'L';
'_Kombinationen';'1.2.40.0.34.5.183';'Kombinationsimpfungen';;;;;'0';'L';
'_Reise';'1.2.40.0.34.5.183';'Reise-/Indikationsimpfungen';;;;;'0';'L';
'_Rot';'1.2.40.0.34.5.183';'Rot';;;;;'0';'L';
'_SpezielleRisikogruppefür';'1.2.40.0.34.5.183';'Spezielle Risikogruppe für';;;;;'0';'L';
'_Weitere';'1.2.40.0.34.5.183';'Weitere Impfungen';;;;;'0';'L';
'off-label-use';'1.2.40.0.34.5.183';'off-label-use';;;;;'0';'L';
