{
  "resourceType": "CodeSystem",
  "id": "ems-genogruppe",
  "url": "https://termgit.elga.gv.at/CodeSystem/ems-genogruppe",
  "identifier": [
    {
      "use": "official",
      "system": "urn:ietf:rfc:3986",
      "value": "urn:oid:1.2.40.0.34.5.70"
    }
  ],
  "version": "1.0.0+20230131",
  "name": "ems-genogruppe",
  "title": "EMS_Genogruppe",
  "status": "active",
  "date": "2017-01-26",
  "description": "EMS Liste Genogruppe",
  "content": "complete",
  "count": 5,
  "concept": [
    {
      "code": "I",
      "display": "I"
    },
    {
      "code": "II",
      "display": "II"
    },
    {
      "code": "III",
      "display": "III"
    },
    {
      "code": "IV",
      "display": "IV"
    },
    {
      "code": "V",
      "display": "V"
    }
  ]
}