{
  "resourceType": "CodeSystem",
  "id": "elga-lebensmittelallergene",
  "url": "https://termgit.elga.gv.at/CodeSystem/elga-lebensmittelallergene",
  "identifier": [
    {
      "use": "official",
      "system": "urn:ietf:rfc:3986",
      "value": "urn:oid:1.2.40.0.34.5.215"
    }
  ],
  "version": "2.0.0+20230131",
  "name": "elga-lebensmittelallergene",
  "title": "ELGA-Lebensmittelallergene",
  "status": "active",
  "date": "2022-11-02",
  "publisher": "ELGA GmbH",
  "description": "Liste von Stoffen oder Erzeugnissen, die Allergien oder Unvertr\u00e4glichkeiten ausl\u00f6sen (Quelle: https://eur-lex.europa.eu/legal-content/DE/TXT/HTML/?uri=CELEX:02011R1169-20180101&from=DE#E0017)",
  "content": "complete",
  "count": 14,
  "concept": [
    {
      "code": "EU0001",
      "display": "Glutenhaltiges Getreide",
      "definition": "Glutenhaltiges Getreide, namentlich Weizen (wie Dinkel und Khorasan-Weizen), Roggen, Gerste, Hafer oder Hybridst\u00e4mme davon, sowie daraus hergestellte Erzeugnisse, ausgenommen\na) Glukosesirupe auf Weizenbasis einschlie\u00dflich Dextrose und daraus gewonnene Erzeugnisse, soweit das Verfahren, das sie durchlaufen haben, die Allergenit\u00e4t, die von der EFSA f\u00fcr das entsprechende Erzeugnis ermittelt wurde, aus dem sie gewonnen wurden, wahrscheinlich nicht erh\u00f6ht,\nb) Maltodextrine auf Weizenbasis und daraus gewonnene Erzeugnisse, soweit das Verfahren, das sie durchlaufen haben, die Allergenit\u00e4t, die von der EFSA f\u00fcr das entsprechende Erzeugnis ermittelt wurde, aus dem sie gewonnen wurden, wahrscheinlich nicht erh\u00f6ht,\nc) Glukosesirupe auf Gerstenbasis,\nd) Getreide zur Herstellung von alkoholischen Destillaten einschlie\u00dflich Ethylalkohol landwirtschaftlichen Ursprungs"
    },
    {
      "code": "EU0002",
      "display": "Krebstiere",
      "definition": "Krebstiere und daraus gewonnene Erzeugnisse"
    },
    {
      "code": "EU0003",
      "display": "Eier",
      "definition": "Eier und daraus gewonnene Erzeugnisse"
    },
    {
      "code": "EU0004",
      "display": "Fische",
      "definition": "Fische und daraus gewonnene Erzeugnisse, au\u00dfer\na) Fischgelatine, die als Tr\u00e4gerstoff f\u00fcr Vitamin- oder Karotinoidzubereitungen verwendet wird,\nb) Fischgelatine oder Hausenblase, die als Kl\u00e4rhilfsmittel in Bier und Wein verwendet wird"
    },
    {
      "code": "EU0005",
      "display": "Erdn\u00fcsse",
      "definition": "Erdn\u00fcsse und daraus gewonnene Erzeugnisse"
    },
    {
      "code": "EU0006",
      "display": "Sojabohnen",
      "definition": "Sojabohnen und daraus gewonnene Erzeugnisse, au\u00dfer\na) vollst\u00e4ndig raffiniertes Sojabohnen\u00f6l und -fett und daraus gewonnene Erzeugnisse, soweit das Verfahren, das sie durchlaufen haben, die Allergenit\u00e4t, die von der EFSA f\u00fcr das entsprechende Erzeugnis ermittelt wurde, aus dem sie gewonnen wurden, wahrscheinlich nicht erh\u00f6ht,\nb) nat\u00fcrliche gemischte Tocopherole (E306), nat\u00fcrliches D-alpha-Tocopherol, nat\u00fcrliches D-alpha-Tocopherolacetat, nat\u00fcrliches D-alpha-Tocopherolsukzinat aus Sojabohnenquellen,\nc) aus pflanzlichen \u00d6len gewonnene Phytosterine und Phytosterinester aus Sojabohnenquellen,\nd) aus Pflanzen\u00f6lsterinen gewonnene Phytostanolester aus Sojabohnenquellen"
    },
    {
      "code": "EU0007",
      "display": "Milch",
      "definition": "Milch und daraus gewonnene Erzeugnisse (einschlie\u00dflich Laktose), au\u00dfer\na) Molke zur Herstellung von alkoholischen Destillaten einschlie\u00dflich Ethylalkohol landwirtschaftlichen Ursprungs; \nb) Lactit"
    },
    {
      "code": "EU0008",
      "display": "Schalenfr\u00fcchte",
      "definition": "Schalenfr\u00fcchte, namentlich Mandeln (Amygdalus communis L.), Haseln\u00fcsse (Corylus avellana), Waln\u00fcsse (Juglans regia), Kaschun\u00fcsse (Anacardium occidentale), Pecann\u00fcsse (Carya illinoiesis (Wangenh.) K. Koch), Paran\u00fcsse (Bertholletia excelsa), Pistazien (Pistacia vera), Macadamia- oder Queenslandn\u00fcsse (Macadamia ternifolia) sowie daraus gewonnene Erzeugnisse, au\u00dfer N\u00fcssen zur Herstellung von alkoholischen Destillaten einschlie\u00dflich Ethylalkohol landwirtschaftlichen Ursprungs"
    },
    {
      "code": "EU0009",
      "display": "Sellerie",
      "definition": "Sellerie und daraus gewonnene Erzeugnisse"
    },
    {
      "code": "EU0010",
      "display": "Senf",
      "definition": "Senf und daraus gewonnene Erzeugnisse"
    },
    {
      "code": "EU0011",
      "display": "Sesamsamen",
      "definition": "Sesamsamen und daraus gewonnene Erzeugnisse"
    },
    {
      "code": "EU0012",
      "display": "Schwefeldioxid und Sulphite",
      "definition": "Schwefeldioxid und Sulphite in Konzentrationen von mehr als 10 mg/kg oder 10 mg/l als insgesamt vorhandenes SO 2 , die f\u00fcr verzehrfertige oder gem\u00e4\u00df den Anweisungen des Herstellers in den urspr\u00fcnglichen Zustand zur\u00fcckgef\u00fchrte Erzeugnisse zu berechnen sind"
    },
    {
      "code": "EU0013",
      "display": "Lupinen",
      "definition": "Lupinen und daraus gewonnene Erzeugnisse"
    },
    {
      "code": "EU0014",
      "display": "Weichtiere",
      "definition": "Weichtiere und daraus gewonnene Erzeugnisse"
    }
  ]
}