{
  "resourceType": "CodeSystem",
  "id": "ems-organ",
  "url": "https://termgit.elga.gv.at/CodeSystem/ems-organ",
  "identifier": [
    {
      "use": "official",
      "system": "urn:ietf:rfc:3986",
      "value": "urn:oid:1.2.40.0.34.5.84"
    }
  ],
  "version": "1.0.0+20230131",
  "name": "ems-organ",
  "title": "EMS_Organ",
  "status": "active",
  "date": "2017-01-26",
  "description": "EMS Organ, welches histologisch untersucht wurde: Verwendung bei TBC",
  "content": "complete",
  "count": 11,
  "concept": [
    {
      "code": "BONEOTHER",
      "display": "Sonstige Knochen und Gelenke"
    },
    {
      "code": "CNSOTHER",
      "display": "Sonstiges Zentrales Nervensystem"
    },
    {
      "code": "GASTROINTEST",
      "display": "Peritoneum, Verdauungstrakt"
    },
    {
      "code": "LYMPHEXTHOR",
      "display": "Lymphknoten extrathorakal"
    },
    {
      "code": "LYMPHINTHOR",
      "display": "Lymphknoten intrathorakal"
    },
    {
      "code": "MENING",
      "display": "Hirnhaut"
    },
    {
      "code": "OTHER",
      "display": "Sonstige Organe"
    },
    {
      "code": "PLEURAL",
      "display": "Pleura"
    },
    {
      "code": "PULMONARY",
      "display": "Lunge"
    },
    {
      "code": "SPINE",
      "display": "Wirbels\u00e4ule"
    },
    {
      "code": "UROGEN",
      "display": "Urogenitaltrakt (inkludiert Niere)"
    }
  ]
}