'code';'codeSystem';'displayName';'parentCodeSystemName';'concept_Beschreibung';'meaning';'hints';'orderNumber';'level';'type';'relationships';'einheit print';'einheit codiert'
'TR1';'2.16.840.1.113883.6.76';'TR1';'http://terminology.hl7.org/CodeSystem/ACR';'';'';'';'1';'0';'L';'';'';''
'TR2';'2.16.840.1.113883.6.76';'TR2';'http://terminology.hl7.org/CodeSystem/ACR';'';'';'';'2';'0';'L';'';'';''
'TR3';'2.16.840.1.113883.6.76';'TR3';'http://terminology.hl7.org/CodeSystem/ACR';'';'';'';'3';'0';'L';'';'';''
'TR4';'2.16.840.1.113883.6.76';'TR4';'http://terminology.hl7.org/CodeSystem/ACR';'';'';'';'4';'0';'L';'';'';''
'TR5';'2.16.840.1.113883.6.76';'TR5';'http://terminology.hl7.org/CodeSystem/ACR';'';'';'';'5';'0';'L';'';'';''
