'code';'codeSystem';'displayName';'parentCode';'concept_Beschreibung';'meaning';'hints';'level';'type';'relationships'
'Pflegestufe_1';'1.2.40.0.34.5.190';'Pflegestufe 1';'';'durchschnittlicher monatlicher Pflegebedarf von mehr als 65 Stunden (Wert 2020)';'';'';'0';'L';''
'Pflegestufe_2';'1.2.40.0.34.5.190';'Pflegestufe 2';'';'durchschnittlicher monatlicher Pflegebedarf von mehr als 95 Stunden (Wert 2020)';'';'';'0';'L';''
'Pflegestufe_3';'1.2.40.0.34.5.190';'Pflegestufe 3';'';'durchschnittlicher monatlicher Pflegebedarf von mehr als 120 Stunden (Wert 2020)';'';'';'0';'L';''
'Pflegestufe_4';'1.2.40.0.34.5.190';'Pflegestufe 4';'';'durchschnittlicher monatlicher Pflegebedarf von mehr als 160 Stunden (Wert 2020)';'';'';'0';'L';''
'Pflegestufe_5';'1.2.40.0.34.5.190';'Pflegestufe 5';'';'durchschnittlicher monatlicher Pflegebedarf von mehr als 180 Stunden und zusätzlich ein außergewöhnlicher Pflegeaufwand (Wert 2020)';'';'insbesondere Notwendigkeit der dauernden Bereitschaft einer Pflegeperson, der regelmäßigen Nachschau durch eine Pflegeperson in relativ kurzen, jedoch planbaren Zeitabständen (mindestens auch eine einmalige Nachschau in den Nachtstunden) oder von mehr als fünf Pflegeeinheiten, davon auch eine in den Nachtstunden';'0';'L';''
'Pflegestufe_6';'1.2.40.0.34.5.190';'Pflegestufe 6';'';'durchschnittlicher monatlicher Pflegebedarf von mehr als 180 Stunden und zeitlich nicht planbare Betreuungsmaßnahmen oder dauernde Anwesenheit einer Pflegeperson (Wert 2020)';'';'zeitlich nicht planbare Betreuungsmaßnahmen regelmäßig während des Tages und der Nacht oder dauernde Anwesenheit einer Pflegeperson während des Tages und der Nacht auf Grund von Eigen- oder Fremdgefährdung';'0';'L';''
'Pflegestufe_7';'1.2.40.0.34.5.190';'Pflegestufe 7';'';'durchschnittlicher monatlicher Pflegebedarf von mehr als 180 Stunden und keine zielgerichteten Bewegungen aller vier Extremitäten oder ein gleichzuachtender Zustand (Wert 2020)';'';'';'0';'L';''
