'code';'codeSystem';'displayName';'parentCodeSystemName';'concept_Beschreibung';'meaning';'hints';'orderNumber';'level';'type';'relationships';'einheit print';'einheit codiert'
'N';'2.16.840.1.113883.5.25';'normal';'http://terminology.hl7.org/CodeSystem/v3-Confidentiality';'';'';'';'1';'0';'L';'';'';''
'R';'2.16.840.1.113883.5.25';'restricted';'http://terminology.hl7.org/CodeSystem/v3-Confidentiality';'';'';'';'2';'0';'L';'';'';''
'V';'2.16.840.1.113883.5.25';'very restricted';'http://terminology.hl7.org/CodeSystem/v3-Confidentiality';'';'';'';'3';'0';'L';'';'';''
