'code';'codeSystem';'displayName';'parentCode';'concept_Beschreibung';'meaning';'hints';'level';'type';'relationships'
'ESGN';'2.16.840.1.113883.5.60';'Expressed signed';;;;;'0';'L';
'ESP';'2.16.840.1.113883.5.60';'Expressed spoken';;;;;'0';'L';
'EWR';'2.16.840.1.113883.5.60';'Expressed written';;;;;'0';'L';
'RSGN';'2.16.840.1.113883.5.60';'Received signed';;;;;'0';'L';
'RSP';'2.16.840.1.113883.5.60';'Received spoken';;;;;'0';'L';
'RWR';'2.16.840.1.113883.5.60';'Received written';;;;;'0';'L';
