{
  "resourceType": "ValueSet",
  "id": "elga-informationrecipienttype",
  "meta": {
    "profile": [
      "http://hl7.at/fhir/HL7ATCoreProfiles/4.0.1/StructureDefinition/at-core-valueset"
    ]
  },
  "url": "https://termgit.elga.gv.at/ValueSet/elga-informationrecipienttype",
  "identifier": [
    {
      "use": "official",
      "system": "urn:ietf:rfc:3986",
      "value": "urn:oid:1.2.40.0.34.10.29"
    }
  ],
  "version": "1.3.0+20240820",
  "name": "elga-informationrecipienttype",
  "title": "ELGA_InformationRecipientType",
  "status": "active",
  "date": "2024-08-20",
  "publisher": "ELGA GmbH",
  "contact": [
    {
      "name": "https://www.elga.gv.at",
      "telecom": [
        {
          "system": "url",
          "value": "https://www.elga.gv.at"
        }
      ]
    }
  ],
  "description": "**Description:** Describes the kinds of information recipients\n\n**Beschreibung:** Beschreibt die Arten von Informationsempf\u00e4ngern ",
  "compose": {
    "include": [
      {
        "extension": [
          {
            "url": "http://hl7.at/fhir/HL7ATCoreProfiles/4.0.1/StructureDefinition/at-core-ext-valueset-systemoid",
            "valueOid": "urn:oid:2.16.840.1.113883.5.90"
          }
        ],
        "system": "http://terminology.hl7.org/CodeSystem/v3-ParticipationType",
        "version": "4.0.0",
        "concept": [
          {
            "code": "PRCP",
            "display": "primary information recipient",
            "designation": [
              {
                "language": "de-AT",
                "value": "Empf\u00e4ngerIn Prim\u00e4r"
              },
              {
                "use": {
                  "system": "https://termgit.elga.gv.at/CodeSystem/austrian-designation-use",
                  "code": "concept_beschreibung",
                  "display": "concept_beschreibung"
                },
                "value": "Information recipient to whom an act statement is primarily directed. E.g., a primary care provider receiving a discharge letter from a hospitalist, a health department receiving information on a suspected case of infectious disease. Multiple of these participations may exist on the same act without requiring that recipients be ranked as primary vs. secondary."
              }
            ]
          },
          {
            "code": "TRC",
            "display": "tracker",
            "designation": [
              {
                "language": "de-AT",
                "value": "Empf\u00e4ngerIn Sekund\u00e4r"
              },
              {
                "use": {
                  "system": "https://termgit.elga.gv.at/CodeSystem/austrian-designation-use",
                  "code": "concept_beschreibung",
                  "display": "concept_beschreibung"
                },
                "value": "A secondary information recipient, who receives copies (e.g., a primary care provider receiving copies of results as ordered by specialist)."
              }
            ]
          }
        ]
      }
    ]
  },
  "expansion": {
    "timestamp": "2024-08-19T10:38:49+00:00",
    "contains": [
      {
        "extension": [
          {
            "url": "http://hl7.at/fhir/HL7ATCoreProfiles/4.0.1/StructureDefinition/at-core-ext-valueset-systemoid",
            "valueOid": "urn:oid:2.16.840.1.113883.5.90"
          }
        ],
        "system": "http://terminology.hl7.org/CodeSystem/v3-ParticipationType",
        "version": "4.0.0",
        "code": "PRCP",
        "display": "primary information recipient",
        "designation": [
          {
            "language": "de-AT",
            "value": "Empf\u00e4ngerIn Prim\u00e4r"
          },
          {
            "use": {
              "system": "https://termgit.elga.gv.at/CodeSystem/austrian-designation-use",
              "code": "concept_beschreibung",
              "display": "concept_beschreibung"
            },
            "value": "Information recipient to whom an act statement is primarily directed. E.g., a primary care provider receiving a discharge letter from a hospitalist, a health department receiving information on a suspected case of infectious disease. Multiple of these participations may exist on the same act without requiring that recipients be ranked as primary vs. secondary."
          }
        ]
      },
      {
        "extension": [
          {
            "url": "http://hl7.at/fhir/HL7ATCoreProfiles/4.0.1/StructureDefinition/at-core-ext-valueset-systemoid",
            "valueOid": "urn:oid:2.16.840.1.113883.5.90"
          }
        ],
        "system": "http://terminology.hl7.org/CodeSystem/v3-ParticipationType",
        "version": "4.0.0",
        "code": "TRC",
        "display": "tracker",
        "designation": [
          {
            "language": "de-AT",
            "value": "Empf\u00e4ngerIn Sekund\u00e4r"
          },
          {
            "use": {
              "system": "https://termgit.elga.gv.at/CodeSystem/austrian-designation-use",
              "code": "concept_beschreibung",
              "display": "concept_beschreibung"
            },
            "value": "A secondary information recipient, who receives copies (e.g., a primary care provider receiving copies of results as ordered by specialist)."
          }
        ]
      }
    ]
  }
}