"resource";"id";"url";"version";"name";"title";"status";"description";"identifier";"date";"count"
"ValueSet";"elga-absentorunknownproblems";"https://termgit.elga.gv.at/ValueSet/elga-absentorunknownproblems";"2.0.0+20231117";"elga-absentorunknownproblems";"ELGA_AbsentOrUnknownProblems";"active";"Keine Probleme";"1.2.40.0.34.10.179";"2023-11-17";"2"

"system";"version";"code";"display"
"http://hl7.org/fhir/uv/ips/CodeSystem/absent-unknown-uv-ips";"1.1.0";"no-problem-info";"No information about problems"
"http://hl7.org/fhir/uv/ips/CodeSystem/absent-unknown-uv-ips";"1.1.0";"no-known-problems";"No known problems"