'code';'codeSystem';'displayName';'parentCodeSystemName';'concept_Beschreibung';'meaning';'hints';'orderNumber';'level';'type';'relationships';'einheit print';'einheit codiert';'codeSystemVersion'
'urn:elga:2015-v2.06:EIS_Basic';'1.2.40.0.34.5.37';'ELGA Dokument v2.06';'https://termgit.elga.gv.at/CodeSystem/elga-formatcode';'CDA Dokument entsprechend den Vorgaben des Allgemeinen Implementierungsleitfadens für ELGA Dokumente (EIS Basic) v2-06';;;'1';'0';'L';;;;'1.5.0+20241010'
'urn:elga:2015:EIS_Basic';'1.2.40.0.34.5.37';'ELGA Dokument';'https://termgit.elga.gv.at/CodeSystem/elga-formatcode';'CDA Dokument entsprechend den Vorgaben des Allgemeinen Implementierungsleitfadens für ELGA Dokumente (EIS Basic)';;;'2';'0';'L';;;;'1.5.0+20241010'
'urn:elga:2016-v2.06.1:EIS_Basic';'1.2.40.0.34.5.37';'ELGA Dokument v2.06.1';'https://termgit.elga.gv.at/CodeSystem/elga-formatcode';'CDA Dokument entsprechend den Vorgaben des Allgemeinen Implementierungsleitfadens für ELGA Dokumente (EIS Basic) v2-06.1';'ELGA Dokument v2.06';;'3';'0';'L';;;;'1.5.0+20241010'
'urn:elga:2017-v2.06.2:EIS_Basic';'1.2.40.0.34.5.37';'ELGA Dokument v2.06.2';'https://termgit.elga.gv.at/CodeSystem/elga-formatcode';'CDA Dokument entsprechend den Vorgaben des Allgemeinen Implementierungsleitfadens für ELGA Dokumente (EIS Basic) v2-06.2';'ELGA Dokument v2.06';;'4';'0';'L';;;;'1.5.0+20241010'
'urn:elga:dissum-n:2015-v2.06:EIS_Basic';'1.2.40.0.34.5.37';'ELGA Entlassungsbrief Pflege, EIS Basic v2.06';'https://termgit.elga.gv.at/CodeSystem/elga-formatcode';;;'Gilt für EIS Basic und Structured';'5';'0';'L';;;;'1.5.0+20241010'
'urn:elga:dissum-n:2015-v2.06:EIS_Enhanced';'1.2.40.0.34.5.37';'ELGA Entlassungsbrief Pflege, EIS Enhanced v2.06';'https://termgit.elga.gv.at/CodeSystem/elga-formatcode';;;;'6';'0';'L';;;;'1.5.0+20241010'
'urn:elga:dissum-n:2015-v2.06:EIS_FullSupport';'1.2.40.0.34.5.37';'ELGA Entlassungsbrief Pflege, EIS Full Support v2.06';'https://termgit.elga.gv.at/CodeSystem/elga-formatcode';;;;'7';'0';'L';;;;'1.5.0+20241010'
'urn:elga:dissum-n:2015:EIS_Basic';'1.2.40.0.34.5.37';'ELGA Entlassungsbrief Pflege, EIS Basic';'https://termgit.elga.gv.at/CodeSystem/elga-formatcode';;;'Gilt für EIS Basic und Structured';'8';'0';'L';;;;'1.5.0+20241010'
'urn:elga:dissum-n:2015:EIS_Enhanced';'1.2.40.0.34.5.37';'ELGA Entlassungsbrief Pflege, EIS Enhanced';'https://termgit.elga.gv.at/CodeSystem/elga-formatcode';;;;'9';'0';'L';;;;'1.5.0+20241010'
'urn:elga:dissum-n:2015:EIS_FullSupport';'1.2.40.0.34.5.37';'ELGA Entlassungsbrief Pflege, EIS Full Support';'https://termgit.elga.gv.at/CodeSystem/elga-formatcode';;;;'10';'0';'L';;;;'1.5.0+20241010'
'urn:elga:dissum-n:2017-v2.06.2:EIS_Basic';'1.2.40.0.34.5.37';'ELGA Entlassungsbrief Pflege, EIS Basic v2.06.2';'https://termgit.elga.gv.at/CodeSystem/elga-formatcode';;;'Gilt für EIS Basic und Structured';'11';'0';'L';;;;'1.5.0+20241010'
'urn:elga:dissum-n:2017-v2.06.2:EIS_Enhanced';'1.2.40.0.34.5.37';'ELGA Entlassungsbrief Pflege, EIS Enhanced v2.06.2';'https://termgit.elga.gv.at/CodeSystem/elga-formatcode';;;;'12';'0';'L';;;;'1.5.0+20241010'
'urn:elga:dissum-n:2017-v2.06.2:EIS_FullSupport';'1.2.40.0.34.5.37';'ELGA Entlassungsbrief Pflege, EIS Full Support v2.06.2';'https://termgit.elga.gv.at/CodeSystem/elga-formatcode';;;;'13';'0';'L';;;;'1.5.0+20241010'
'urn:elga:dissum:2015-v2.06:EIS_Basic';'1.2.40.0.34.5.37';'ELGA Entlassungsbrief Ärztlich, EIS Basic v2.06';'https://termgit.elga.gv.at/CodeSystem/elga-formatcode';;;'Gilt für EIS Basic und Structured';'14';'0';'L';;;;'1.5.0+20241010'
'urn:elga:dissum:2015-v2.06:EIS_Enhanced';'1.2.40.0.34.5.37';'ELGA Entlassungsbrief Ärztlich, EIS Enhanced v2.06';'https://termgit.elga.gv.at/CodeSystem/elga-formatcode';;;;'15';'0';'L';;;;'1.5.0+20241010'
'urn:elga:dissum:2015-v2.06:EIS_FullSupport';'1.2.40.0.34.5.37';'ELGA Entlassungsbrief Ärztlich, EIS Full Support v2.06';'https://termgit.elga.gv.at/CodeSystem/elga-formatcode';;;;'16';'0';'L';;;;'1.5.0+20241010'
'urn:elga:dissum:2015:EIS_Basic';'1.2.40.0.34.5.37';'ELGA Entlassungsbrief Ärztlich, EIS Basic';'https://termgit.elga.gv.at/CodeSystem/elga-formatcode';;;'Gilt für EIS Basic und Structured';'17';'0';'L';;;;'1.5.0+20241010'
'urn:elga:dissum:2015:EIS_Enhanced';'1.2.40.0.34.5.37';'ELGA Entlassungsbrief Ärztlich, EIS Enhanced';'https://termgit.elga.gv.at/CodeSystem/elga-formatcode';;;;'18';'0';'L';;;;'1.5.0+20241010'
'urn:elga:dissum:2015:EIS_FullSupport';'1.2.40.0.34.5.37';'ELGA Entlassungsbrief Ärztlich, EIS Full Support';'https://termgit.elga.gv.at/CodeSystem/elga-formatcode';;;;'19';'0';'L';;;;'1.5.0+20241010'
'urn:elga:dissum:2017-v2.06.2:EIS_Basic';'1.2.40.0.34.5.37';'ELGA Entlassungsbrief Ärztlich, EIS Basic v2.06.2';'https://termgit.elga.gv.at/CodeSystem/elga-formatcode';;;'Gilt für EIS Basic und Structured';'20';'0';'L';;;;'1.5.0+20241010'
'urn:elga:dissum:2017-v2.06.2:EIS_Enhanced';'1.2.40.0.34.5.37';'ELGA Entlassungsbrief Ärztlich, EIS Enhanced v2.06.2';'https://termgit.elga.gv.at/CodeSystem/elga-formatcode';;;;'21';'0';'L';;;;'1.5.0+20241010'
'urn:elga:dissum:2017-v2.06.2:EIS_FullSupport';'1.2.40.0.34.5.37';'ELGA Entlassungsbrief Ärztlich, EIS Full Support v2.06.2';'https://termgit.elga.gv.at/CodeSystem/elga-formatcode';;;;'22';'0';'L';;;;'1.5.0+20241010'
'urn:elga:emedat:2015';'1.2.40.0.34.5.37';'ELGA e-Medikation';'https://termgit.elga.gv.at/CodeSystem/elga-formatcode';;;'CDA für eMedikation sind nur in EIS Full Support zulässig';'23';'0';'L';;;;'1.5.0+20241010'
'urn:elga:emedat:2015-v2.06';'1.2.40.0.34.5.37';'ELGA e-Medikation v2.06';'https://termgit.elga.gv.at/CodeSystem/elga-formatcode';;;;'24';'0';'L';;;;'1.5.0+20241010'
'urn:elga:lab:2015-v2.06:EIS_Basic';'1.2.40.0.34.5.37';'ELGA Laborbefund, EIS Basic v2.06';'https://termgit.elga.gv.at/CodeSystem/elga-formatcode';;;'Gilt für EIS Basic und Structured';'25';'0';'L';;;;'1.5.0+20241010'
'urn:elga:lab:2015-v2.06:EIS_Enhanced';'1.2.40.0.34.5.37';'ELGA Laborbefund, EIS Enhanced v2.06';'https://termgit.elga.gv.at/CodeSystem/elga-formatcode';;;;'26';'0';'L';;;;'1.5.0+20241010'
'urn:elga:lab:2015-v2.06:EIS_FullSupport';'1.2.40.0.34.5.37';'ELGA Laborbefund, EIS Full Support v2.06';'https://termgit.elga.gv.at/CodeSystem/elga-formatcode';;;;'27';'0';'L';;;;'1.5.0+20241010'
'urn:elga:lab:2015:EIS_Basic';'1.2.40.0.34.5.37';'ELGA Laborbefund, EIS Basic';'https://termgit.elga.gv.at/CodeSystem/elga-formatcode';;;'Gilt für EIS Basic und Structured';'28';'0';'L';;;;'1.5.0+20241010'
'urn:elga:lab:2015:EIS_Enhanced';'1.2.40.0.34.5.37';'ELGA Laborbefund, EIS Enhanced';'https://termgit.elga.gv.at/CodeSystem/elga-formatcode';;;;'29';'0';'L';;;;'1.5.0+20241010'
'urn:elga:lab:2015:EIS_FullSupport';'1.2.40.0.34.5.37';'ELGA Laborbefund, EIS Full Support';'https://termgit.elga.gv.at/CodeSystem/elga-formatcode';;;;'30';'0';'L';;;;'1.5.0+20241010'
'urn:elga:lab:2017-v2.06.2:EIS_Basic';'1.2.40.0.34.5.37';'ELGA Laborbefund, EIS Basic v2.06.2';'https://termgit.elga.gv.at/CodeSystem/elga-formatcode';;;'Gilt für EIS Basic und Structured';'31';'0';'L';;;;'1.5.0+20241010'
'urn:elga:lab:2017-v2.06.2:EIS_Enhanced';'1.2.40.0.34.5.37';'ELGA Laborbefund, EIS Enhanced v2.06.2';'https://termgit.elga.gv.at/CodeSystem/elga-formatcode';;;;'32';'0';'L';;;;'1.5.0+20241010'
'urn:elga:lab:2017-v2.06.2:EIS_FullSupport';'1.2.40.0.34.5.37';'ELGA Laborbefund, EIS Full Support v2.06.2';'https://termgit.elga.gv.at/CodeSystem/elga-formatcode';;;;'33';'0';'L';;;;'1.5.0+20241010'
'urn:elga:nurse-tf:2015-v2.06:EIS_Basic';'1.2.40.0.34.5.37';'ELGA Pflegesituationsbericht, EIS Basic v2.06';'https://termgit.elga.gv.at/CodeSystem/elga-formatcode';;;;'34';'0';'L';;;;'1.5.0+20241010'
'urn:elga:nurse-tf:2015-v2.06:EIS_Enhanced';'1.2.40.0.34.5.37';'ELGA Pflegesituationsbericht, EIS Enhanced v2.06';'https://termgit.elga.gv.at/CodeSystem/elga-formatcode';;;;'35';'0';'L';;;;'1.5.0+20241010'
'urn:elga:nurse-tf:2015-v2.06:EIS_FullSupport';'1.2.40.0.34.5.37';'ELGA Pflegesituationsbericht, EIS Full Support v2.06';'https://termgit.elga.gv.at/CodeSystem/elga-formatcode';;;;'36';'0';'L';;;;'1.5.0+20241010'
'urn:elga:nurse-tf:2017-v2.06.2:EIS_Basic';'1.2.40.0.34.5.37';'ELGA Pflegesituationsbericht, EIS Basic v2.06.2';'https://termgit.elga.gv.at/CodeSystem/elga-formatcode';;;;'37';'0';'L';;;;'1.5.0+20241010'
'urn:elga:nurse-tf:2017-v2.06.2:EIS_Enhanced';'1.2.40.0.34.5.37';'ELGA Pflegesituationsbericht, EIS Enhanced v2.06.2';'https://termgit.elga.gv.at/CodeSystem/elga-formatcode';;;;'38';'0';'L';;;;'1.5.0+20241010'
'urn:elga:nurse-tf:2017-v2.06.2:EIS_FullSupport';'1.2.40.0.34.5.37';'ELGA Pflegesituationsbericht, EIS Full Support v2.06.2';'https://termgit.elga.gv.at/CodeSystem/elga-formatcode';;;;'39';'0';'L';;;;'1.5.0+20241010'
'urn:elga:radio:2015-v2.06:EIS_Basic';'1.2.40.0.34.5.37';'ELGA Befund bildgebende Diagnostik, EIS Basic v2.06';'https://termgit.elga.gv.at/CodeSystem/elga-formatcode';;;'Gilt für EIS Basic und Structured';'40';'0';'L';;;;'1.5.0+20241010'
'urn:elga:radio:2015-v2.06:EIS_Enhanced';'1.2.40.0.34.5.37';'ELGA Befund bildgebende Diagnostik, EIS Enhanced v2.06';'https://termgit.elga.gv.at/CodeSystem/elga-formatcode';;;;'41';'0';'L';;;;'1.5.0+20241010'
'urn:elga:radio:2015-v2.06:EIS_FullSupport';'1.2.40.0.34.5.37';'ELGA Befund bildgebende Diagnostik, EIS Full Support v2.06';'https://termgit.elga.gv.at/CodeSystem/elga-formatcode';;;;'42';'0';'L';;;;'1.5.0+20241010'
'urn:elga:radio:2015:EIS_Basic';'1.2.40.0.34.5.37';'ELGA Befund bildgebende Diagnostik, EIS Basic';'https://termgit.elga.gv.at/CodeSystem/elga-formatcode';;;'Gilt für EIS Basic und Structured';'43';'0';'L';;;;'1.5.0+20241010'
'urn:elga:radio:2015:EIS_Enhanced';'1.2.40.0.34.5.37';'ELGA Befund bildgebende Diagnostik, EIS Enhanced';'https://termgit.elga.gv.at/CodeSystem/elga-formatcode';;;;'44';'0';'L';;;;'1.5.0+20241010'
'urn:elga:radio:2015:EIS_FullSupport';'1.2.40.0.34.5.37';'ELGA Befund bildgebende Diagnostik,EIS Full Support';'https://termgit.elga.gv.at/CodeSystem/elga-formatcode';;;;'45';'0';'L';;;;'1.5.0+20241010'
'urn:elga:radio:2017-v2.06.2:EIS_Basic';'1.2.40.0.34.5.37';'ELGA Befund bildgebende Diagnostik, EIS Basic v2.06.2';'https://termgit.elga.gv.at/CodeSystem/elga-formatcode';;;'Gilt für EIS Basic und Structured';'46';'0';'L';;;;'1.5.0+20241010'
'urn:elga:radio:2017-v2.06.2:EIS_Enhanced';'1.2.40.0.34.5.37';'ELGA Befund bildgebende Diagnostik, EIS Enhanced v2.06.2';'https://termgit.elga.gv.at/CodeSystem/elga-formatcode';;;;'47';'0';'L';;;;'1.5.0+20241010'
'urn:elga:radio:2017-v2.06.2:EIS_FullSupport';'1.2.40.0.34.5.37';'ELGA Befund bildgebende Diagnostik, EIS Full Support v2.06.2';'https://termgit.elga.gv.at/CodeSystem/elga-formatcode';;;;'48';'0';'L';;;;'1.5.0+20241010'
'urn:elga:bppc:2024:cda';'1.2.40.0.34.5.37';'Willenserklärung im Berechtigungssystem, CDA-Format';'https://termgit.elga.gv.at/CodeSystem/elga-formatcode';;;;'49';'0';'L';;;;'1.5.0+20241010'
'urn:elga:bppc:2024:pdf';'1.2.40.0.34.5.37';'Willenserklärung im Berechtigungssystem, PDF-Format';'https://termgit.elga.gv.at/CodeSystem/elga-formatcode';;;;'50';'0';'L';;;;'1.5.0+20241010'
'urn:hl7-at:eImpf:2019';'1.2.40.0.34.5.37';'HL7 Austria e-Impfpass 2019';'https://termgit.elga.gv.at/CodeSystem/elga-formatcode';;;;'51';'0';'L';;;;'1.5.0+20241010'
'urn:hl7-at:telemon-epi:1.2.0+20210304';'1.2.40.0.34.5.37';'HL7 Austria Telemonitoring Episodenbericht 1.2.0+20210304';'https://termgit.elga.gv.at/CodeSystem/elga-formatcode';;;;'52';'0';'L';;;;'1.5.0+20241010'
'urn:hl7-at:arztb:1.2.0+20210304:EIS_Enhanced';'1.2.40.0.34.5.37';'HL7 Austria Arztbrief 1.2.0+20210304, EIS Enhanced';'https://termgit.elga.gv.at/CodeSystem/elga-formatcode';;;;'53';'0';'L';;;;'1.5.0+20241010'
'urn:hl7-at:arztb:1.2.0+20210304:EIS_Enhanced+';'1.2.40.0.34.5.37';'HL7 Austria Arztbrief 1.2.0+20210304, EIS Enhanced+';'https://termgit.elga.gv.at/CodeSystem/elga-formatcode';;;;'54';'0';'L';;;;'1.5.0+20241010'
'urn:hl7-at:arztb:1.2.0+20210304:EIS_FullSupport';'1.2.40.0.34.5.37';'HL7 Austria Arztbrief 1.2.0+20210304, EIS FullSupport';'https://termgit.elga.gv.at/CodeSystem/elga-formatcode';;;;'55';'0';'L';;;;'1.5.0+20241010'
'urn:hl7-at:arztb:1.2.0+20210304:EIS_FullSupport+';'1.2.40.0.34.5.37';'HL7 Austria Arztbrief 1.2.0+20210304, EIS FullSupport+';'https://termgit.elga.gv.at/CodeSystem/elga-formatcode';;;;'56';'0';'L';;;;'1.5.0+20241010'
'urn:hl7-at:lab:3.0.0+20211214';'1.2.40.0.34.5.37';'HL7 Austria Labor- und Mikrobiologiebefund 3.0.0+20211214';'https://termgit.elga.gv.at/CodeSystem/elga-formatcode';;;;'57';'0';'L';;;;'1.5.0+20241010'
'urn:hl7-at:eImpf:1.3.0+20220127';'1.2.40.0.34.5.37';'HL7 Austria e-Impfpass 1.3.0+20220127';'https://termgit.elga.gv.at/CodeSystem/elga-formatcode';;;;'58';'0';'L';;;;'1.5.0+20241010'
'urn:hl7-at:eImpf:1.2.0+20220103';'1.2.40.0.34.5.37';'HL7 Austria e-Impfpass 1.2.0+20220103';'https://termgit.elga.gv.at/CodeSystem/elga-formatcode';;;;'59';'0';'L';;;;'1.5.0+20241010'
'urn:hl7-at:eImpf:1.1.1+20210601';'1.2.40.0.34.5.37';'HL7 Austria e-Impfpass 1.1.1+20210601';'https://termgit.elga.gv.at/CodeSystem/elga-formatcode';;;;'60';'0';'L';;;;'1.5.0+20241010'
'urn:hl7-at:eImpf:1.1.0+20210512';'1.2.40.0.34.5.37';'HL7 Austria e-Impfpass 1.1.0+20210512';'https://termgit.elga.gv.at/CodeSystem/elga-formatcode';;;;'61';'0';'L';;;;'1.5.0+20241010'
'urn:hl7-at:arztb:1.3.0+20220209:EIS_Enhanced';'1.2.40.0.34.5.37';'HL7 Austria Arztbrief 1.3.0+20220209, EIS Enhanced';'https://termgit.elga.gv.at/CodeSystem/elga-formatcode';;;;'62';'0';'L';;;;'1.5.0+20241010'
'urn:hl7-at:arztb:1.3.0+20220209:EIS_Enhanced+';'1.2.40.0.34.5.37';'HL7 Austria Arztbrief 1.3.0+20220209, EIS Enhanced+';'https://termgit.elga.gv.at/CodeSystem/elga-formatcode';;;;'63';'0';'L';;;;'1.5.0+20241010'
'urn:hl7-at:arztb:1.3.0+20220209:EIS_FullSupport';'1.2.40.0.34.5.37';'HL7 Austria Arztbrief 1.3.0+20220209, EIS FullSupport';'https://termgit.elga.gv.at/CodeSystem/elga-formatcode';;;;'64';'0';'L';;;;'1.5.0+20241010'
'urn:hl7-at:arztb:1.3.0+20220209:EIS_FullSupport+';'1.2.40.0.34.5.37';'HL7 Austria Arztbrief 1.3.0+20220209, EIS FullSupport+';'https://termgit.elga.gv.at/CodeSystem/elga-formatcode';;;;'65';'0';'L';;;;'1.5.0+20241010'
'urn:hl7-at:eImpf:1.3.1+20220719';'1.2.40.0.34.5.37';'HL7 Austria e-Impfpass 1.3.1+20220719';'https://termgit.elga.gv.at/CodeSystem/elga-formatcode';;;;'66';'0';'L';;;;'1.5.0+20241010'
'urn:hl7-at:eImpf:2.0.0+20230717';'1.2.40.0.34.5.37';'HL7 Austria e-Impfpass 2.0.0+20230717';'https://termgit.elga.gv.at/CodeSystem/elga-formatcode';;;;'67';'0';'L';;;;'1.5.0+20241010'
'urn:hl7-at:eImpf:2.0.1+20250217';'1.2.40.0.34.5.37';'HL7 Austria e-Impfpass 2.0.1+20250217';'https://termgit.elga.gv.at/CodeSystem/elga-formatcode';;;;'68';'0';'L';;;;'1.6.0+20250226'
'urn:hl7-at:bgd:3.0.0+20240628';'1.2.40.0.34.5.37';'HL7 Austria Befund bildgebende Diagnostik 3.0.0+20240628';'https://termgit.elga.gv.at/CodeSystem/elga-formatcode';;;;'69';'0';'L';;;;'1.5.0+20241010'
'urn:hl7-at:bgd:3.0.1+20240911';'1.2.40.0.34.5.37';'HL7 Austria Befund bildgebende Diagnostik 3.0.1+20240911';'https://termgit.elga.gv.at/CodeSystem/elga-formatcode';;;;'70';'0';'L';;;;'1.5.0+20241010'
'1.2.840.10008.5.1.4.1.1.88.59';'1.2.840.10008.2.6.1';'Key Object Selection Document';'https://termgit.elga.gv.at/CodeSystem/dicom-sopclasses';'DICOM Austria KOS Implementierungsleitfaden 1.2';'DICOM Austria KOS Implementierungsleitfaden 1.2';;'71';'0';'L';;;;'1.1.0+20240820'
