{
  "resourceType": "CodeSystem",
  "id": "hl7-at-religionaustria",
  "url": "https://termgit.elga.gv.at/CodeSystem/hl7-at-religionaustria",
  "identifier": [
    {
      "use": "official",
      "system": "urn:ietf:rfc:3986",
      "value": "urn:oid:2.16.840.1.113883.2.16.1.4.1"
    }
  ],
  "version": "1.0.0+20230131",
  "name": "hl7-at-religionaustria",
  "title": "HL7 AT ReligionAustria",
  "status": "active",
  "date": "2013-01-10",
  "content": "complete",
  "count": 62,
  "property": [
    {
      "code": "child",
      "type": "code"
    },
    {
      "code": "parent",
      "type": "code"
    }
  ],
  "concept": [
    {
      "code": "100",
      "display": "Katholische Kirche (o.n.A.)",
      "property": [
        {
          "code": "child",
          "valueCode": "101"
        },
        {
          "code": "child",
          "valueCode": "102"
        },
        {
          "code": "child",
          "valueCode": "103"
        },
        {
          "code": "child",
          "valueCode": "104"
        },
        {
          "code": "child",
          "valueCode": "105"
        },
        {
          "code": "child",
          "valueCode": "106"
        },
        {
          "code": "child",
          "valueCode": "107"
        },
        {
          "code": "child",
          "valueCode": "108"
        },
        {
          "code": "child",
          "valueCode": "109"
        }
      ]
    },
    {
      "code": "101",
      "display": "R\u00f6misch-Katholisch",
      "property": [
        {
          "code": "parent",
          "valueCode": "100"
        }
      ]
    },
    {
      "code": "102",
      "display": "Griechisch-Katholische Kirche",
      "property": [
        {
          "code": "parent",
          "valueCode": "100"
        }
      ]
    },
    {
      "code": "103",
      "display": "Armenisch-Katholische Kirche",
      "property": [
        {
          "code": "parent",
          "valueCode": "100"
        }
      ]
    },
    {
      "code": "104",
      "display": "Bulgarisch-Katholische Kirche",
      "property": [
        {
          "code": "parent",
          "valueCode": "100"
        }
      ]
    },
    {
      "code": "105",
      "display": "Rum\u00e4nische griechisch-katholische Kirche",
      "property": [
        {
          "code": "parent",
          "valueCode": "100"
        }
      ]
    },
    {
      "code": "106",
      "display": "Russisch-Katholische Kirche",
      "property": [
        {
          "code": "parent",
          "valueCode": "100"
        }
      ]
    },
    {
      "code": "107",
      "display": "Syrisch-Katholische Kirche",
      "property": [
        {
          "code": "parent",
          "valueCode": "100"
        }
      ]
    },
    {
      "code": "108",
      "display": "Ukrainische Griechisch-Katholische Kirche",
      "property": [
        {
          "code": "parent",
          "valueCode": "100"
        }
      ]
    },
    {
      "code": "109",
      "display": "Katholische Ostkirche (ohne n\u00e4here Angabe)",
      "property": [
        {
          "code": "parent",
          "valueCode": "100"
        }
      ]
    },
    {
      "code": "110",
      "display": "Griechisch-Orientalische Kirchen",
      "property": [
        {
          "code": "child",
          "valueCode": "111"
        },
        {
          "code": "child",
          "valueCode": "112"
        },
        {
          "code": "child",
          "valueCode": "113"
        },
        {
          "code": "child",
          "valueCode": "114"
        },
        {
          "code": "child",
          "valueCode": "115"
        },
        {
          "code": "child",
          "valueCode": "116"
        },
        {
          "code": "child",
          "valueCode": "117"
        },
        {
          "code": "child",
          "valueCode": "118"
        }
      ]
    },
    {
      "code": "111",
      "display": "Orthodoxe Kirchen (o.n.A.)",
      "property": [
        {
          "code": "parent",
          "valueCode": "110"
        }
      ]
    },
    {
      "code": "112",
      "display": "Griechisch-Orthodoxe Kirche (Hl.Dreifaltigkeit)",
      "property": [
        {
          "code": "parent",
          "valueCode": "110"
        }
      ]
    },
    {
      "code": "113",
      "display": "Griechisch-Orthodoxe Kirche (Hl.Georg)",
      "property": [
        {
          "code": "parent",
          "valueCode": "110"
        }
      ]
    },
    {
      "code": "114",
      "display": "Bulgarisch-Orthodoxe Kirche",
      "property": [
        {
          "code": "parent",
          "valueCode": "110"
        }
      ]
    },
    {
      "code": "115",
      "display": "Rum\u00e4nisch-griechisch-orientalische Kirche",
      "property": [
        {
          "code": "parent",
          "valueCode": "110"
        }
      ]
    },
    {
      "code": "116",
      "display": "Russisch-Orthodoxe Kirche",
      "property": [
        {
          "code": "parent",
          "valueCode": "110"
        }
      ]
    },
    {
      "code": "117",
      "display": "Serbisch-griechisch-Orthodoxe Kirche",
      "property": [
        {
          "code": "parent",
          "valueCode": "110"
        }
      ]
    },
    {
      "code": "118",
      "display": "Ukrainisch-Orthodoxe Kirche",
      "property": [
        {
          "code": "parent",
          "valueCode": "110"
        }
      ]
    },
    {
      "code": "119",
      "display": "Orientalisch-Orthodoxe Kirchen",
      "property": [
        {
          "code": "child",
          "valueCode": "120"
        },
        {
          "code": "child",
          "valueCode": "121"
        },
        {
          "code": "child",
          "valueCode": "122"
        },
        {
          "code": "child",
          "valueCode": "123"
        },
        {
          "code": "child",
          "valueCode": "124"
        },
        {
          "code": "child",
          "valueCode": "125"
        }
      ]
    },
    {
      "code": "120",
      "display": "Armenisch-apostolische Kirche",
      "property": [
        {
          "code": "parent",
          "valueCode": "119"
        }
      ]
    },
    {
      "code": "121",
      "display": "Syrisch-orthodoxe Kirche",
      "property": [
        {
          "code": "parent",
          "valueCode": "119"
        }
      ]
    },
    {
      "code": "122",
      "display": "Syrisch-orthodoxe Kirche",
      "property": [
        {
          "code": "parent",
          "valueCode": "119"
        }
      ]
    },
    {
      "code": "123",
      "display": "Koptisch-orthodoxe Kirche",
      "property": [
        {
          "code": "parent",
          "valueCode": "119"
        }
      ]
    },
    {
      "code": "124",
      "display": "Armenisch-apostolische Kirche",
      "property": [
        {
          "code": "parent",
          "valueCode": "119"
        }
      ]
    },
    {
      "code": "125",
      "display": "\u00c4thiopisch-Orthodoxe Kirche",
      "property": [
        {
          "code": "parent",
          "valueCode": "119"
        }
      ]
    },
    {
      "code": "126",
      "display": "Evangelische Kirchen \u00d6sterreich",
      "property": [
        {
          "code": "child",
          "valueCode": "127"
        },
        {
          "code": "child",
          "valueCode": "128"
        },
        {
          "code": "child",
          "valueCode": "129"
        }
      ]
    },
    {
      "code": "127",
      "display": "Evangelische Kirche (o.n.A.)",
      "property": [
        {
          "code": "parent",
          "valueCode": "126"
        }
      ]
    },
    {
      "code": "128",
      "display": "Evangelische Kirche A.B.",
      "property": [
        {
          "code": "parent",
          "valueCode": "126"
        }
      ]
    },
    {
      "code": "129",
      "display": "Evangelische Kirche H.B.",
      "property": [
        {
          "code": "parent",
          "valueCode": "126"
        }
      ]
    },
    {
      "code": "130",
      "display": "Andere Christliche Kirchen",
      "property": [
        {
          "code": "child",
          "valueCode": "131"
        },
        {
          "code": "child",
          "valueCode": "132"
        },
        {
          "code": "child",
          "valueCode": "133"
        }
      ]
    },
    {
      "code": "131",
      "display": "Altkatholische Kirche \u00d6sterreichs",
      "property": [
        {
          "code": "parent",
          "valueCode": "130"
        }
      ]
    },
    {
      "code": "132",
      "display": "Anglikanische Kirche",
      "property": [
        {
          "code": "parent",
          "valueCode": "130"
        }
      ]
    },
    {
      "code": "133",
      "display": "Evangelisch-methodistische Kirche (EmK)",
      "property": [
        {
          "code": "parent",
          "valueCode": "130"
        }
      ]
    },
    {
      "code": "134",
      "display": "Sonstige Christliche Gemeinschaften",
      "property": [
        {
          "code": "child",
          "valueCode": "135"
        },
        {
          "code": "child",
          "valueCode": "136"
        },
        {
          "code": "child",
          "valueCode": "137"
        },
        {
          "code": "child",
          "valueCode": "138"
        },
        {
          "code": "child",
          "valueCode": "139"
        },
        {
          "code": "child",
          "valueCode": "140"
        },
        {
          "code": "child",
          "valueCode": "141"
        },
        {
          "code": "child",
          "valueCode": "142"
        },
        {
          "code": "child",
          "valueCode": "143"
        },
        {
          "code": "child",
          "valueCode": "144"
        },
        {
          "code": "child",
          "valueCode": "145"
        },
        {
          "code": "child",
          "valueCode": "146"
        }
      ]
    },
    {
      "code": "135",
      "display": "Baptisten",
      "property": [
        {
          "code": "parent",
          "valueCode": "134"
        }
      ]
    },
    {
      "code": "136",
      "display": "Bund evangelikaler Gemeinden in \u00d6sterreich",
      "property": [
        {
          "code": "parent",
          "valueCode": "134"
        }
      ]
    },
    {
      "code": "137",
      "display": "Freie Christengemeinde/Pfingstgemeinde",
      "property": [
        {
          "code": "parent",
          "valueCode": "134"
        }
      ]
    },
    {
      "code": "138",
      "display": "Mennonitische Freikirche",
      "property": [
        {
          "code": "parent",
          "valueCode": "134"
        }
      ]
    },
    {
      "code": "139",
      "display": "Kirche der Siebenten-Tags-Adventisten",
      "property": [
        {
          "code": "parent",
          "valueCode": "134"
        }
      ]
    },
    {
      "code": "140",
      "display": "Christengemeinschaft",
      "property": [
        {
          "code": "parent",
          "valueCode": "134"
        }
      ]
    },
    {
      "code": "141",
      "display": "Jehovas Zeugen",
      "property": [
        {
          "code": "parent",
          "valueCode": "134"
        }
      ]
    },
    {
      "code": "142",
      "display": "Neuapostolische Kirche",
      "property": [
        {
          "code": "parent",
          "valueCode": "134"
        }
      ]
    },
    {
      "code": "143",
      "display": "Mormonen",
      "property": [
        {
          "code": "parent",
          "valueCode": "134"
        }
      ]
    },
    {
      "code": "144",
      "display": "Sonstige Christliche Gemeinschaften (O.n.A.)",
      "property": [
        {
          "code": "parent",
          "valueCode": "134"
        }
      ]
    },
    {
      "code": "145",
      "display": "ELAIA Christengemeinden",
      "property": [
        {
          "code": "parent",
          "valueCode": "134"
        }
      ]
    },
    {
      "code": "146",
      "display": "Pfingstkirche Gemeinde Gottes",
      "property": [
        {
          "code": "parent",
          "valueCode": "134"
        }
      ]
    },
    {
      "code": "148",
      "display": "Nicht-christliche Gemeinschaften",
      "property": [
        {
          "code": "child",
          "valueCode": "149"
        },
        {
          "code": "child",
          "valueCode": "150"
        },
        {
          "code": "child",
          "valueCode": "151"
        },
        {
          "code": "child",
          "valueCode": "152"
        },
        {
          "code": "child",
          "valueCode": "153"
        },
        {
          "code": "child",
          "valueCode": "154"
        },
        {
          "code": "child",
          "valueCode": "155"
        },
        {
          "code": "child",
          "valueCode": "156"
        },
        {
          "code": "child",
          "valueCode": "157"
        },
        {
          "code": "child",
          "valueCode": "158"
        },
        {
          "code": "child",
          "valueCode": "162"
        }
      ]
    },
    {
      "code": "149",
      "display": "Israelitische Religionsgesellschaft",
      "property": [
        {
          "code": "parent",
          "valueCode": "148"
        }
      ]
    },
    {
      "code": "150",
      "display": "Islamische Glaubensgemeinschaft",
      "property": [
        {
          "code": "parent",
          "valueCode": "148"
        }
      ]
    },
    {
      "code": "151",
      "display": "Alevitische Religionsgesellschaft",
      "property": [
        {
          "code": "parent",
          "valueCode": "148"
        }
      ]
    },
    {
      "code": "152",
      "display": "Buddhistische Religionsgesellschaft",
      "property": [
        {
          "code": "parent",
          "valueCode": "148"
        }
      ]
    },
    {
      "code": "153",
      "display": "Baha` i",
      "property": [
        {
          "code": "parent",
          "valueCode": "148"
        }
      ]
    },
    {
      "code": "154",
      "display": "Hinduistische Religionsgesellschaft",
      "property": [
        {
          "code": "parent",
          "valueCode": "148"
        }
      ]
    },
    {
      "code": "155",
      "display": "Sikh",
      "property": [
        {
          "code": "parent",
          "valueCode": "148"
        }
      ]
    },
    {
      "code": "156",
      "display": "Shintoismus",
      "property": [
        {
          "code": "parent",
          "valueCode": "148"
        }
      ]
    },
    {
      "code": "157",
      "display": "Vereinigungskirche",
      "property": [
        {
          "code": "parent",
          "valueCode": "148"
        }
      ]
    },
    {
      "code": "158",
      "display": "Andere religi\u00f6se Bekenntnisgemeinschaften",
      "property": [
        {
          "code": "parent",
          "valueCode": "148"
        }
      ]
    },
    {
      "code": "162",
      "display": "Pastafarianismus",
      "property": [
        {
          "code": "parent",
          "valueCode": "148"
        }
      ]
    },
    {
      "code": "159",
      "display": "Konfessionslos; ohne Angabe",
      "property": [
        {
          "code": "child",
          "valueCode": "160"
        },
        {
          "code": "child",
          "valueCode": "161"
        }
      ]
    },
    {
      "code": "160",
      "display": "Konfessionslos",
      "property": [
        {
          "code": "parent",
          "valueCode": "159"
        }
      ]
    },
    {
      "code": "161",
      "display": "Ohne Angabe",
      "property": [
        {
          "code": "parent",
          "valueCode": "159"
        }
      ]
    }
  ]
}