'code';'codeSystem';'displayName';'parentCode';'concept_Beschreibung';'meaning';'hints';'level';'type';'relationships'
'alt';'1.2.40.0.34.5.217';'alt';'';'Alternativer oder vergangener Displayname';'';'';'0';'L';''
'alterslimit_max';'1.2.40.0.34.5.217';'alterslimit_max';'';'Maximalalter in Monaten für kostenfreies Impfprogramm';'';'';'0';'L';''
'alterslimit_min';'1.2.40.0.34.5.217';'alterslimit_min';'';'Mindestalter in Monaten für kostenfreies Impfprogramm';'';'';'0';'L';''
'concept_beschreibung';'1.2.40.0.34.5.217';'concept_beschreibung';'';'Weiterführende Beschreibung';'';'';'0';'L';''
'einheit_codiert';'1.2.40.0.34.5.217';'einheit_codiert';'';'Wird nur im Laborbereich genutzt';'';'';'0';'L';''
'einheit_print';'1.2.40.0.34.5.217';'einheit_print';'';'Wird nur im Laborbereich genutzt';'';'';'0';'L';''
'hinweise';'1.2.40.0.34.5.217';'hinweise';'';'Spezielle Hinweise';'';'';'0';'L';''
'relationships';'1.2.40.0.34.5.217';'relationships';'';'Mapping zu anderen Konzepten';'';'';'0';'L';''
