'code';'codeSystem';'displayName';'parentCode';'concept_Beschreibung';'meaning';'hints';'level';'type';'relationships'
'01';'2.16.840.1.113883.6.8';'Most Common Healthcare Units';;;;;'0';'S';
'%';'2.16.840.1.113883.6.8';'Percent';;;;;'2';'L';
'/uL';'2.16.840.1.113883.6.8';'PerMicroLiter';;;;;'2';'L';
'10*3/uL';'2.16.840.1.113883.6.8';'ThousandsPerMicroLiter';;;;;'2';'L';
'10*6/uL';'2.16.840.1.113883.6.8';'MillionsPerMicroLiter';;;;;'2';'L';
'U/L';'2.16.840.1.113883.6.8';'UnitsPerLiter';;;;;'1';'L';
'[iU]/L';'2.16.840.1.113883.6.8';'InternationalUnitsPerLiter';;;;;'2';'L';
'fL';'2.16.840.1.113883.6.8';'FemtoLiter';;;;;'2';'L';
'g/L';'2.16.840.1.113883.6.8';'GramsPerLiter';;;;;'2';'L';
'g/dL';'2.16.840.1.113883.6.8';'GramsPerDeciLiter';;;;;'2';'L';
'g/mL';'2.16.840.1.113883.6.8';'GramsPerMilliLiter';;;;;'2';'L';
'kPa';'2.16.840.1.113883.6.8';'KiloPascal';;;;;'1';'L';
'm[iU]/mL';'2.16.840.1.113883.6.8';'MilliInternationalUnitsPerMilliLiter';;;;;'2';'L';
'meq/L';'2.16.840.1.113883.6.8';'MilliEquivalentsPerLiter';;;;;'2';'L';
'mg/dL';'2.16.840.1.113883.6.8';'MilliGramsPerDeciLiter';;;;;'2';'L';
'mm[Hg]';'2.16.840.1.113883.6.8';'MilliMetersOfMercury';;;;;'2';'L';
'mmol/L';'2.16.840.1.113883.6.8';'MilliMolesPerLiter';;;;;'2';'L';
'mmol/kg';'2.16.840.1.113883.6.8';'MilliMolesPerKiloGram';;;;;'2';'L';
'mosm/kg';'2.16.840.1.113883.6.8';'MilliOsmolesPerKiloGram';;;;;'2';'L';
'ng/mL';'2.16.840.1.113883.6.8';'NanoGramsPerMilliLiter';;;;;'2';'L';
'nmol/L';'2.16.840.1.113883.6.8';'NanoMolesPerLiter';;;;;'2';'L';
'pg';'2.16.840.1.113883.6.8';'PicoGrams';;;;;'2';'L';
'pg/mL';'2.16.840.1.113883.6.8';'PicoGramsPerMilliLiter';;;;;'2';'L';
'pmol/L';'2.16.840.1.113883.6.8';'PicoMolesPerLiter';;;;;'1';'L';
'u[iU]/mL';'2.16.840.1.113883.6.8';'MicroInternationalUnitsPerMilliLiter';;;;;'2';'L';
'ug/L';'2.16.840.1.113883.6.8';'MicroGramsPerLiter';;;;;'2';'L';
'ug/dL';'2.16.840.1.113883.6.8';'MicroGramsPerDeciLiter';;;;;'2';'L';
'ug/mL';'2.16.840.1.113883.6.8';'MicroGramsPerMilliLiter';;;;;'2';'L';
'umol/L';'2.16.840.1.113883.6.8';'MicroMolesPerLiter';;;;;'2';'L';
'02';'2.16.840.1.113883.6.8';'Unity';;;;;'0';'S';
'/{tot}';'2.16.840.1.113883.6.8';'PerTotalCount';;;;;'1';'L';
'10*3';'2.16.840.1.113883.6.8';'Thousand';;;;;'1';'L';
'10*3.{RBC}';'2.16.840.1.113883.6.8';'ThousandRedBloodCells';;;;;'1';'L';
'10*5';'2.16.840.1.113883.6.8';'OneHundredThousand';;;;;'1';'L';
'10*6';'2.16.840.1.113883.6.8';'Million';;;;;'1';'L';
'10*6/{Specimen}';'2.16.840.1.113883.6.8';'MillionPerSpecimen';;;;;'1';'L';
'10*8';'2.16.840.1.113883.6.8';'TenToEighth';;;;;'1';'L';
'[lg]';'2.16.840.1.113883.6.8';'Log10';;;;;'1';'L';
'03';'2.16.840.1.113883.6.8';'General Fraction Unit';;;;;'0';'S';
'%{0to3Hours}';'2.16.840.1.113883.6.8';'Percent0to3Hours';;;;;'1';'L';
'%{Total}';'2.16.840.1.113883.6.8';'PercentTotal';;;;;'1';'L';
'{Relative}%';'2.16.840.1.113883.6.8';'RelativePercent';;;;;'1';'L';
'04';'2.16.840.1.113883.6.8';'Number Fraction Units';;;;;'0';'S';
'%/100{WBC}';'2.16.840.1.113883.6.8';'PercentPer100WBC';;;;;'1';'L';
'%{Abnormal}';'2.16.840.1.113883.6.8';'PercentAbnormal';;;;;'1';'L';
'%{Blockade}';'2.16.840.1.113883.6.8';'PercentBlockade';;;;;'1';'L';
'%{EosSeen}';'2.16.840.1.113883.6.8';'PercentEosinophilsSeen';;;;;'1';'L';
'%{FetalErythrocytes}';'2.16.840.1.113883.6.8';'PercentFetalErythrocytes';;;;;'1';'L';
'%{Hemolysis}';'2.16.840.1.113883.6.8';'PercentHemolysis';;;;;'1';'L';
'%{Normal}';'2.16.840.1.113883.6.8';'PercentNormal';;;;;'1';'L';
'%{OfLymphocytes}';'2.16.840.1.113883.6.8';'PercentOfLymphocytes';;;;;'1';'L';
'%{OfWBCs}';'2.16.840.1.113883.6.8';'PercentOfWBCs';;;;;'1';'L';
'%{Positive}';'2.16.840.1.113883.6.8';'PercentPositive';;;;;'1';'L';
'%{SpermMotility}';'2.16.840.1.113883.6.8';'PercentSpermMotility';;;;;'1';'L';
'%{ofBacteria}';'2.16.840.1.113883.6.8';'PercentofBacteria';;;;;'1';'L';
'/10*10';'2.16.840.1.113883.6.8';'PerTenGiga';;;;;'1';'L';
'/10*12';'2.16.840.1.113883.6.8';'PerTrillion';;;;;'1';'L';
'/10*6';'2.16.840.1.113883.6.8';'PerMillion';;;;;'1';'L';
'/10*9';'2.16.840.1.113883.6.8';'PerBillion';;;;;'1';'L';
'05';'2.16.840.1.113883.6.8';'Mass Or Substance Fraction Units';;;;;'0';'S';
'%{Binding}';'2.16.840.1.113883.6.8';'PercentBinding';;;;;'1';'L';
'%{Bound}';'2.16.840.1.113883.6.8';'PercentBound';;;;;'1';'L';
'%{Carboxyhemoglobin}';'2.16.840.1.113883.6.8';'PercentCarboxyhemoglobin';;;;;'1';'L';
'%{HemoglobinA1C}';'2.16.840.1.113883.6.8';'PercentHemoglobinA1C';;;;;'1';'L';
'%{HemoglobinSaturation}';'2.16.840.1.113883.6.8';'PercentHemoglobinSaturation';;;;;'1';'L';
'%{Hemoglobin}';'2.16.840.1.113883.6.8';'PercentHemoglobin';;;;;'1';'L';
'%{TotalProtein}';'2.16.840.1.113883.6.8';'PercentTotalProtein';;;;;'1';'L';
'06';'2.16.840.1.113883.6.8';'Mass Or Substance Rate Fraction Units';;;;;'0';'S';
'%{Excretion}';'2.16.840.1.113883.6.8';'PercentExcretion';;;;;'1';'L';
'%{Uptake}';'2.16.840.1.113883.6.8';'PercentUptake';;;;;'1';'L';
'07';'2.16.840.1.113883.6.8';'Mass Ratio Or Mass Fraction Or Mass Content Units';;;;;'0';'S';
'g/[100]g';'2.16.840.1.113883.6.8';'GramsPer100Gram';;;;;'1';'L';
'g/g';'2.16.840.1.113883.6.8';'GramsPerGram';;;;;'1';'L';
'g/g{Cre}';'2.16.840.1.113883.6.8';'GramsPerGramCreatinine';;;;;'1';'L';
'g/kg';'2.16.840.1.113883.6.8';'GramsPerKiloGram';;;;;'1';'L';
'mg/g';'2.16.840.1.113883.6.8';'MilliGramsPerGram';;;;;'1';'L';
'mg/g{Cre}';'2.16.840.1.113883.6.8';'MilliGramPerGramCreatinine';;;;;'1';'L';
'mg/kg';'2.16.840.1.113883.6.8';'MilliGramsPerKiloGram';;;;;'1';'L';
'mg/mg';'2.16.840.1.113883.6.8';'MilliGramsPerMilliGram';;;;;'1';'L';
'mg/mg{Cre}';'2.16.840.1.113883.6.8';'MilligramsPerMilligramCreatinine';;;;;'1';'L';
'ng/g';'2.16.840.1.113883.6.8';'NanoGramsPerGram';;;;;'1';'L';
'ng/g{Cre}';'2.16.840.1.113883.6.8';'NanoGramsPerGramCreatinine';;;;;'1';'L';
'ng/kg';'2.16.840.1.113883.6.8';'NanoGramsPerKiloGram';;;;;'1';'L';
'ng/mg';'2.16.840.1.113883.6.8';'NanoGramsPerMilliGram';;;;;'1';'L';
'ng/mg{Protein}';'2.16.840.1.113883.6.8';'NanoGramsPerMilliGramProtein';;;;;'1';'L';
'ug/[100]g';'2.16.840.1.113883.6.8';'MicroGramPer100Gram';;;;;'1';'L';
'ug/g';'2.16.840.1.113883.6.8';'MicroGramsPerGram';;;;;'1';'L';
'ug/g{Cre}';'2.16.840.1.113883.6.8';'MicroGramPerGramCreatinine';;;;;'1';'L';
'ug/g{DryWeight}';'2.16.840.1.113883.6.8';'MicroGramPerGramDryWeight';;;;;'1';'L';
'ug/g{Hgb}';'2.16.840.1.113883.6.8';'MicroGramsPerGramHemoglobin';;;;;'1';'L';
'ug/kg';'2.16.840.1.113883.6.8';'MicroGramsPerKiloGram';;;;;'1';'L';
'ug/mg';'2.16.840.1.113883.6.8';'MicroGramsPerMilliGram';;;;;'1';'L';
'ug/mg{Cre}';'2.16.840.1.113883.6.8';'MicroGramsPerMilliGramCreatinine';;;;;'1';'L';
'ug/ng';'2.16.840.1.113883.6.8';'MicroGramsPerNanoGram';;;;;'1';'L';
'08';'2.16.840.1.113883.6.8';'Substance Ratio Or Substance Fraction Units';;;;;'0';'S';
'eq/mmol';'2.16.840.1.113883.6.8';'EquivalentsPerMilliMole';;;;;'1';'L';
'eq/umol';'2.16.840.1.113883.6.8';'EquivalentsPerMicroMole';;;;;'1';'L';
'mmol/mol';'2.16.840.1.113883.6.8';'MilliMolesPerMole';;;;;'1';'L';
'mmol/mol{Cre}';'2.16.840.1.113883.6.8';'MilliMolesPerMoleCreatinine';;;;;'1';'L';
'nmol/mmol';'2.16.840.1.113883.6.8';'NanoMolesPerMilliMole';;;;;'1';'L';
'nmol/mmol{Cre}';'2.16.840.1.113883.6.8';'NanoMolesPerMilliMoleCreatinine';;;;;'1';'L';
'nmol/mol';'2.16.840.1.113883.6.8';'NanoMolesPerMole';;;;;'1';'L';
'pmol/umol';'2.16.840.1.113883.6.8';'PicoMolesPerMicroMole';;;;;'1';'L';
'umol/mol';'2.16.840.1.113883.6.8';'MicroMolesPerMole';;;;;'1';'L';
'umol/mol{Cre}';'2.16.840.1.113883.6.8';'MicroMolesPerMoleCreatinine';;;;;'1';'L';
'{BoneCollagen}eq/mmol{Cre}';'2.16.840.1.113883.6.8';'BoneCollagenEquivalentsPerMilliMoleCreatinine';;;;;'1';'L';
'{BoneCollagen}eq/umol{Cre}';'2.16.840.1.113883.6.8';'BoneCollagenEquivalentsPerMicroMoleCreatinine';;;;;'1';'L';
'09';'2.16.840.1.113883.6.8';'Volume Fraction Units';;;;;'0';'S';
'%{Oxygen}';'2.16.840.1.113883.6.8';'PercentOxygen';;;;;'1';'L';
'%{vol}';'2.16.840.1.113883.6.8';'VolumePercent';;;;;'1';'L';
'mL/dL';'2.16.840.1.113883.6.8';'MilliLitersPerDeciLiter';;;;;'1';'L';
'10';'2.16.840.1.113883.6.8';'Catalytic Fraction Or Arbitrary Fraction Units';;;;;'0';'S';
'%{Activity}';'2.16.840.1.113883.6.8';'PercentActivity';;;;;'1';'L';
'%{BasalActivity}';'2.16.840.1.113883.6.8';'PercentBasalActivity';;;;;'1';'L';
'%{Inhibition}';'2.16.840.1.113883.6.8';'PercentInhibition';;;;;'1';'L';
'%{NormalPooledPlasma}';'2.16.840.1.113883.6.8';'PercentNormalPooledPlasma';;;;;'1';'L';
'100';'2.16.840.1.113883.6.8';'ELGA specific use';;'Einheiten, die fuer die Verwendung in ELGA benoetigt werden';;;'0';'S';
'/d';'2.16.840.1.113883.6.8';'PerDay';;;;;'1';'L';
'/h';'2.16.840.1.113883.6.8';'PerHour';;;;;'1';'L';
'/min';'2.16.840.1.113883.6.8';'PerMinute';;;;;'1';'L';
'/s';'2.16.840.1.113883.6.8';'PerSecond';;;;;'1';'L';
'1';'2.16.840.1.113883.6.8';'Unit';;;;;'1';'L';
'10*6[iU]';'2.16.840.1.113883.6.8';'MillionInternationalUnits';;;;;'1';'L';
'GBq';'2.16.840.1.113883.6.8';'GBq';;;;;'1';'L';
'IE';'2.16.840.1.113883.6.8';'IE';;;;;'1';'L';
'J';'2.16.840.1.113883.6.8';'Joule';;;;;'1';'L';
'L/s';'2.16.840.1.113883.6.8';'LitersPerSecond';;;;;'1';'L';
'[iU]/{Broteinheiten}';'2.16.840.1.113883.6.8';'IE/BE';;;;;'1';'L';
'bar';'2.16.840.1.113883.6.8';'Bar';;;;;'1';'L';
'cal';'2.16.840.1.113883.6.8';'Calorie';;;;;'1';'L';
'cal/d';'2.16.840.1.113883.6.8';'CaloriesPerDay';;;;;'1';'L';
'cal/g';'2.16.840.1.113883.6.8';'CaloriesPerGram';;;;;'1';'L';
'cal/h';'2.16.840.1.113883.6.8';'CaloriesPerHour';;;;;'1';'L';
'cal/mL';'2.16.840.1.113883.6.8';'CaloriesPerMiliLiter';;;;;'1';'L';
'cm3';'2.16.840.1.113883.6.8';'CubicCentimeter';;;;;'1';'L';
'kJ';'2.16.840.1.113883.6.8';'KiloJoule';;;;;'1';'L';
'k[iU]';'2.16.840.1.113883.6.8';'KiloInternationalUnits';;;;;'1';'L';
'k[iU]/L';'2.16.840.1.113883.6.8';'KiloInternationalUnitsPerLiter';;;;;'1';'L';
'kat';'2.16.840.1.113883.6.8';'Katal';;;;;'1';'L';
'kcal';'2.16.840.1.113883.6.8';'KiloCalorie';;;;;'1';'L';
'kcal/d';'2.16.840.1.113883.6.8';'KiloCaloriesPerDay';;;;;'1';'L';
'kcal/g';'2.16.840.1.113883.6.8';'KiloCaloriesPerGram';;;;;'1';'L';
'kcal/h';'2.16.840.1.113883.6.8';'KiloCaloriesPerHour';;;;;'1';'L';
'kcal/mL';'2.16.840.1.113883.6.8';'KiloCaloriesPerMililiter';;;;;'1';'L';
'mL/s';'2.16.840.1.113883.6.8';'MilliLitersPerSecond';;;;;'1';'L';
'mL{Konzentrat}';'2.16.840.1.113883.6.8';'MilliLiterKonzentrat';;;;;'1';'L';
'm[iU]';'2.16.840.1.113883.6.8';'MilliInternationalUnit';;;;;'1';'L';
'mbar';'2.16.840.1.113883.6.8';'MilliBar';;;;;'1';'L';
'ug/(kg.min)';'2.16.840.1.113883.6.8';'MicroGramsPerKiloGramAndMinute';;;;;'1';'L';
'ukat';'2.16.840.1.113883.6.8';'MicroKatal';;;;;'1';'L';
'ukat/L';'2.16.840.1.113883.6.8';'MicroKatalsPerLiter';;;;;'1';'L';
'ukat/mL';'2.16.840.1.113883.6.8';'MicroKatalsPerMilliLiter';;;;;'1';'L';
'{Ampulle}';'2.16.840.1.113883.6.8';'Ampulle(n)';;;;;'1';'L';
'{Beutel/Aufgussbeutel}';'2.16.840.1.113883.6.8';'Beutel/Aufgussbeutel';;;;;'1';'L';
'{Broteinheiten}';'2.16.840.1.113883.6.8';'Broteinheit(en)';;;;;'1';'L';
'{Essloeffel}';'2.16.840.1.113883.6.8';'Essloeffel';;;;;'1';'L';
'{Flaschen}';'2.16.840.1.113883.6.8';'Flasche(n)';;;;;'1';'L';
'{Globuli}';'2.16.840.1.113883.6.8';'Globuli';;;;;'1';'L';
'{Hub}';'2.16.840.1.113883.6.8';'Hub/Huebe';;;;;'1';'L';
'{Messloeffel}';'2.16.840.1.113883.6.8';'Messloeffel';;;;;'1';'L';
'{PackYears}';'2.16.840.1.113883.6.8';'Packungsjahre';;;;;'1';'L';
'{Packungsbeutel}';'2.16.840.1.113883.6.8';'Packungsbeutel';;;;;'1';'L';
'{Packung}';'2.16.840.1.113883.6.8';'Packung(en)';;;;;'1';'L';
'{Stueck}';'2.16.840.1.113883.6.8';'Stueck';;;;;'1';'L';
'{Teeloeffel}';'2.16.840.1.113883.6.8';'Teeloeffel';;;;;'1';'L';
'{Tropfen}';'2.16.840.1.113883.6.8';'Tropfen';;;;;'1';'L';
'11';'2.16.840.1.113883.6.8';'Entitic Number Units';;;;;'0';'S';
'/10*12{rbc}';'2.16.840.1.113883.6.8';'PerTrillionRedBloodCells';;;;;'1';'L';
'/100';'2.16.840.1.113883.6.8';'Per100';;;;;'1';'L';
'/100{Spermatozoa}';'2.16.840.1.113883.6.8';'Per100Spermatozoa';;;;;'1';'L';
'/100{WBC}';'2.16.840.1.113883.6.8';'Per100WBC';;;;;'1';'L';
'/{Entity}';'2.16.840.1.113883.6.8';'PerEntity';;;;;'1';'L';
'12';'2.16.840.1.113883.6.8';'Plane Angle Units';;;;;'0';'S';
'deg';'2.16.840.1.113883.6.8';'DegreesOfArc';;;;;'1';'L';
'13';'2.16.840.1.113883.6.8';'Arbitrary Number Units';;;;;'0';'S';
'/[arb`U]';'2.16.840.1.113883.6.8';'PerArbitraryUnit';;;;;'1';'L';
'14';'2.16.840.1.113883.6.8';'Arbitrary Units';;;;;'0';'S';
'10*6.[iU]';'2.16.840.1.113883.6.8';'MillionInternationalUnit';;;;;'1';'L';
'[iU]';'2.16.840.1.113883.6.8';'InternationalUnit';;;;;'1';'L';
'u[iU]';'2.16.840.1.113883.6.8';'MicroInternationalUnit';;;;;'1';'L';
'15';'2.16.840.1.113883.6.8';'English Length Units';;;;;'0';'S';
'[Ch]';'2.16.840.1.113883.6.8';'French';;;;;'1';'L';
'[ft_i]';'2.16.840.1.113883.6.8';'Feet';;;;;'1';'L';
'[fth_i]';'2.16.840.1.113883.6.8';'Fathom';;;;;'1';'L';
'[in_i]';'2.16.840.1.113883.6.8';'Inch';;;;;'1';'L';
'[mi_i]';'2.16.840.1.113883.6.8';'StatuteMile';;;;;'1';'L';
'[nmi_i]';'2.16.840.1.113883.6.8';'NauticalMile';;;;;'1';'L';
'[yd_i]';'2.16.840.1.113883.6.8';'Yard';;;;;'1';'L';
'16';'2.16.840.1.113883.6.8';'SI Length Units';;;;;'0';'S';
'cm';'2.16.840.1.113883.6.8';'CentiMeter';;;;;'1';'L';
'dm';'2.16.840.1.113883.6.8';'DeciMeter';;;;;'1';'L';
'fm';'2.16.840.1.113883.6.8';'FemtoMeter';;;;;'1';'L';
'km';'2.16.840.1.113883.6.8';'KiloMeter';;;;;'1';'L';
'm';'2.16.840.1.113883.6.8';'Meter';;;;;'1';'L';
'mm';'2.16.840.1.113883.6.8';'MilliMeter';;;;;'1';'L';
'nm';'2.16.840.1.113883.6.8';'NanoMeter';;;;;'1';'L';
'pm';'2.16.840.1.113883.6.8';'PicoMeter';;;;;'1';'L';
'um';'2.16.840.1.113883.6.8';'MicroMeter';;;;;'1';'L';
'17';'2.16.840.1.113883.6.8';'English Mass Units';;;;;'0';'S';
'[dr_av]';'2.16.840.1.113883.6.8';'Dram';;;;;'1';'L';
'[gr]';'2.16.840.1.113883.6.8';'Grain';;;;;'1';'L';
'[lb_av]';'2.16.840.1.113883.6.8';'Pound';;;;;'1';'L';
'[oz_av]';'2.16.840.1.113883.6.8';'Ounce';;;;;'1';'L';
'[oz_tr]';'2.16.840.1.113883.6.8';'TroyOunce';;;;;'1';'L';
'[ston_av]';'2.16.840.1.113883.6.8';'Ton';;;;;'1';'L';
'18';'2.16.840.1.113883.6.8';'SI Mass Units';;;;;'0';'S';
'cg';'2.16.840.1.113883.6.8';'CentiGram';;;;;'1';'L';
'dg';'2.16.840.1.113883.6.8';'DeciGram';;;;;'1';'L';
'fg';'2.16.840.1.113883.6.8';'FemtoGram';;;;;'1';'L';
'g';'2.16.840.1.113883.6.8';'Gram';;;;;'1';'L';
'g/{TotalWeight}';'2.16.840.1.113883.6.8';'GramsPerTotalWeight';;;;;'1';'L';
'kg';'2.16.840.1.113883.6.8';'KiloGram';;;;;'1';'L';
'mg';'2.16.840.1.113883.6.8';'MilliGram';;;;;'1';'L';
'mg/{TotalVolume}';'2.16.840.1.113883.6.8';'MilliGramPerTotalVolume';;;;;'1';'L';
'mg/{Volume}';'2.16.840.1.113883.6.8';'MilliGramsPerVolume';;;;;'1';'L';
'ng';'2.16.840.1.113883.6.8';'NanoGram';;;;;'1';'L';
't';'2.16.840.1.113883.6.8';'MetricTon';;;;;'1';'L';
'ug';'2.16.840.1.113883.6.8';'MicroGram';;;;;'1';'L';
'ug/{Specimen}';'2.16.840.1.113883.6.8';'MicroGramsPerSpecimen';;;;;'1';'L';
'ug/{TotalVolume}';'2.16.840.1.113883.6.8';'MicroGramsPerTotalVolume';;;;;'1';'L';
'19';'2.16.840.1.113883.6.8';'Lineic Mass Units';;;;;'0';'S';
'g.m/({hb}.m2)';'2.16.840.1.113883.6.8';'GramMeterPerHeartbeatPerSquareMeter';;;;;'1';'L';
'pg/mm';'2.16.840.1.113883.6.8';'PicoGramsPerMilliMeter';;;;;'1';'L';
'20';'2.16.840.1.113883.6.8';'Temperature Units';;;;;'0';'S';
'Cel';'2.16.840.1.113883.6.8';'DegreesCelsius';;;;;'1';'L';
'K';'2.16.840.1.113883.6.8';'DegreesKelvin';;;;;'1';'L';
'[degF]';'2.16.840.1.113883.6.8';'DegreesFahrenheit';;;;;'1';'L';
'21';'2.16.840.1.113883.6.8';'Thermal Resistance Units';;;;;'0';'S';
'K/W';'2.16.840.1.113883.6.8';'KelvinPerWatt';;;;;'1';'L';
'22';'2.16.840.1.113883.6.8';'Time Units';;;;;'0';'S';
'Ms';'2.16.840.1.113883.6.8';'Megasecond';;;;;'1';'L';
'a';'2.16.840.1.113883.6.8';'Year';;;;;'1';'L';
'd';'2.16.840.1.113883.6.8';'Day';;;;;'1';'L';
'h';'2.16.840.1.113883.6.8';'Hour';;;;;'1';'L';
'ks';'2.16.840.1.113883.6.8';'KiloSecond';;;;;'1';'L';
'min';'2.16.840.1.113883.6.8';'Minute';;;;;'1';'L';
'mo';'2.16.840.1.113883.6.8';'Month';;;;;'1';'L';
'ms';'2.16.840.1.113883.6.8';'MilliSecond';;;;;'1';'L';
'ns';'2.16.840.1.113883.6.8';'NanoSecond';;;;;'1';'L';
'ps';'2.16.840.1.113883.6.8';'PicoSecond';;;;;'1';'L';
's';'2.16.840.1.113883.6.8';'Second';;;;;'1';'L';
'us';'2.16.840.1.113883.6.8';'MicroSecond';;;;;'1';'L';
'wk';'2.16.840.1.113883.6.8';'Week';;;;;'1';'L';
'23';'2.16.840.1.113883.6.8';'Substance Units';;;;;'0';'S';
'eq';'2.16.840.1.113883.6.8';'Equivalent';;;;;'1';'L';
'fmol';'2.16.840.1.113883.6.8';'Femtomole';;;;;'1';'L';
'meq';'2.16.840.1.113883.6.8';'MilliEquivalent';;;;;'1';'L';
'meq/{Specimen}';'2.16.840.1.113883.6.8';'MilliEquivalentsPerSpecimen';;;;;'1';'L';
'mmol';'2.16.840.1.113883.6.8';'MilliMole';;;;;'1';'L';
'mmol/{TotalVolume}';'2.16.840.1.113883.6.8';'MilliMolesPerTotalVolume';;;;;'1';'L';
'mol';'2.16.840.1.113883.6.8';'Mole';;;;;'1';'L';
'mosm';'2.16.840.1.113883.6.8';'MilliOsmole';;;;;'1';'L';
'nmol';'2.16.840.1.113883.6.8';'NanoMole';;;;;'1';'L';
'pmol';'2.16.840.1.113883.6.8';'PicoMole';;;;;'1';'L';
'ueq';'2.16.840.1.113883.6.8';'MicroEquivalent';;;;;'1';'L';
'umol';'2.16.840.1.113883.6.8';'MicroMole';;;;;'1';'L';
'24';'2.16.840.1.113883.6.8';'Areic Substance Units';;;;;'0';'S';
'meq/m2';'2.16.840.1.113883.6.8';'MilliEquivalentsPerSquareMeter';;;;;'1';'L';
'mmol/m2';'2.16.840.1.113883.6.8';'MilliMolesPerSquareMeter';;;;;'1';'L';
'25';'2.16.840.1.113883.6.8';'English Area Units';;;;;'0';'S';
'[sft_i]';'2.16.840.1.113883.6.8';'SquareFeet';;;;;'1';'L';
'[sin_i]';'2.16.840.1.113883.6.8';'SquareInch';;;;;'1';'L';
'[syd_i]';'2.16.840.1.113883.6.8';'SquareYard';;;;;'1';'L';
'26';'2.16.840.1.113883.6.8';'SI Area Units';;;;;'0';'S';
'cm2';'2.16.840.1.113883.6.8';'SquareCentiMeter';;;;;'1';'L';
'm2';'2.16.840.1.113883.6.8';'SquareMeter';;;;;'1';'L';
'mm2';'2.16.840.1.113883.6.8';'SquareMilliMeter';;;;;'1';'L';
'27';'2.16.840.1.113883.6.8';'English Volume Units';;;;;'0';'S';
'[cin_i]';'2.16.840.1.113883.6.8';'CubicInch';;;;;'1';'L';
'[cup_us]';'2.16.840.1.113883.6.8';'Cup';;;;;'1';'L';
'[fdr_us]';'2.16.840.1.113883.6.8';'FluidDram';;;;;'1';'L';
'[foz_us]';'2.16.840.1.113883.6.8';'FluidOunce';;;;;'1';'L';
'[gal_us]';'2.16.840.1.113883.6.8';'Gallon';;;;;'1';'L';
'[pt_us]';'2.16.840.1.113883.6.8';'Pint';;;;;'1';'L';
'[qt_us]';'2.16.840.1.113883.6.8';'Quart';;;;;'1';'L';
'28';'2.16.840.1.113883.6.8';'SI Volume Units';;;;;'0';'S';
'L';'2.16.840.1.113883.6.8';'Liter';;;;;'1';'L';
'cL';'2.16.840.1.113883.6.8';'CentiLiter';;;;;'1';'L';
'dL';'2.16.840.1.113883.6.8';'DeciLiter';;;;;'1';'L';
'hL';'2.16.840.1.113883.6.8';'HectoLiter';;;;;'1';'L';
'kL';'2.16.840.1.113883.6.8';'KiloLiter';;;;;'1';'L';
'mL';'2.16.840.1.113883.6.8';'MilliLiter';;;;;'1';'L';
'mL/{h`b}';'2.16.840.1.113883.6.8';'MilliLitersPerHeartbeat';;;;;'1';'L';
'nL';'2.16.840.1.113883.6.8';'NanoLiter';;;;;'1';'L';
'pL';'2.16.840.1.113883.6.8';'PicoLiter';;;;;'1';'L';
'uL';'2.16.840.1.113883.6.8';'MicroLiter';;;;;'1';'L';
'29';'2.16.840.1.113883.6.8';'Volume Duration Units';;;;;'0';'S';
'L.s2/s';'2.16.840.1.113883.6.8';'LiterSquareSecondPerSecond';;;;;'1';'L';
'30';'2.16.840.1.113883.6.8';'Number Content Units';;;;;'0';'S';
'/g';'2.16.840.1.113883.6.8';'PerGram';;;;;'1';'L';
'/g{HGB}';'2.16.840.1.113883.6.8';'PerGramHemoglobin';;;;;'1';'L';
'/g{creat}';'2.16.840.1.113883.6.8';'PerGramCreatinine';;;;;'1';'L';
'/g{tot`nit}';'2.16.840.1.113883.6.8';'PerGramTotalNitrogen';;;;;'1';'L';
'/g{tot`prot}';'2.16.840.1.113883.6.8';'PerGramTotalProtein';;;;;'1';'L';
'/g{wet`tis}';'2.16.840.1.113883.6.8';'PerGramWetTissue';;;;;'1';'L';
'/kg';'2.16.840.1.113883.6.8';'PerKiloGram';;;;;'1';'L';
'/kg{body`wt}';'2.16.840.1.113883.6.8';'PerKiloGramBodyWeight';;;;;'1';'L';
'/mg';'2.16.840.1.113883.6.8';'PerMilliGram';;;;;'1';'L';
'31';'2.16.840.1.113883.6.8';'Substance Content Units';;;;;'0';'S';
'fmol/g';'2.16.840.1.113883.6.8';'FemtoMolesPerGram';;;;;'1';'L';
'fmol/mg';'2.16.840.1.113883.6.8';'FemtoMolesPerMilliGram';;;;;'1';'L';
'meq/g';'2.16.840.1.113883.6.8';'MilliEquivalentsPerGram';;;;;'1';'L';
'meq/g{Cre}';'2.16.840.1.113883.6.8';'MilliEquivalentsPerGramCreatinine';;;;;'1';'L';
'meq/kg';'2.16.840.1.113883.6.8';'MilliEquivalentsPerKiloGram';;;;;'1';'L';
'mmol/g';'2.16.840.1.113883.6.8';'MilliMolesPerGram';;;;;'1';'L';
'mol/kg';'2.16.840.1.113883.6.8';'MolesPerKiloGram';;;;;'1';'L';
'nmol/g';'2.16.840.1.113883.6.8';'NanoMolesPerGram';;;;;'1';'L';
'nmol/g{Cre}';'2.16.840.1.113883.6.8';'NanoMolesPerGramCreatinine';;;;;'1';'L';
'nmol/mg';'2.16.840.1.113883.6.8';'NanoMolesPerMilliGram';;;;;'1';'L';
'osm/kg';'2.16.840.1.113883.6.8';'OsmolesPerKiloGram';;;;;'1';'L';
'umol/g';'2.16.840.1.113883.6.8';'MicroMolesPerGram';;;;;'1';'L';
'umol/g{Cre}';'2.16.840.1.113883.6.8';'MicroMolesPerGramCreatinine';;;;;'1';'L';
'umol/g{Hgb}';'2.16.840.1.113883.6.8';'MicroMolesPerGramHemoglobin';;;;;'1';'L';
'umol/mg';'2.16.840.1.113883.6.8';'MicroMolesPerMilliGram';;;;;'1';'L';
'umol/mg{Cre}';'2.16.840.1.113883.6.8';'MicroMolesPerMilliGramCreatinine';;;;;'1';'L';
'32';'2.16.840.1.113883.6.8';'Substance Rate Content Units';;;;;'0';'S';
'U/g';'2.16.840.1.113883.6.8';'UnitsPerGram';;;;;'1';'L';
'U/g{Cre}';'2.16.840.1.113883.6.8';'UnitsPerGramCreatinine';;;;;'1';'L';
'U/g{Hgb}';'2.16.840.1.113883.6.8';'UnitsPerGramHemoglobin';;;;;'1';'L';
'kU/g';'2.16.840.1.113883.6.8';'KiloUnitsPerGram';;;;;'1';'L';
'kat/kg';'2.16.840.1.113883.6.8';'KatalPerKilogram';;;;;'1';'L';
'mU/g';'2.16.840.1.113883.6.8';'MilliUnitsPerGram';;;;;'1';'L';
'mU/g{Hgb}';'2.16.840.1.113883.6.8';'MilliUnitsPerGramHemoglobin';;;;;'1';'L';
'mU/mg';'2.16.840.1.113883.6.8';'MilliUnitsPerMilligram';;;;;'1';'L';
'mU/mg{Cre}';'2.16.840.1.113883.6.8';'MilliUnitsPerMilliGramCreatinine';;;;;'1';'L';
'umol/min/g';'2.16.840.1.113883.6.8';'MicroMolesPerMinutePerGram';;;;;'1';'L';
'33';'2.16.840.1.113883.6.8';'Arbitrary Concentration Content Units';;;;;'0';'S';
'[iU]/g';'2.16.840.1.113883.6.8';'InternationalUnitsPerGram';;;;;'1';'L';
'[iU]/g{Hgb}';'2.16.840.1.113883.6.8';'InternationalUnitsPerGramHemoglobin';;;;;'1';'L';
'[iU]/kg';'2.16.840.1.113883.6.8';'InternationalUnitsPerKilogram';;;;;'1';'L';
'{Ehrlich_U}/100g';'2.16.840.1.113883.6.8';'EhrlichUnitsPer100Gram';;;;;'1';'L';
'34';'2.16.840.1.113883.6.8';'Volume Content Units';;;;;'0';'S';
'L/kg';'2.16.840.1.113883.6.8';'LitersPerKilogram';;;;;'1';'L';
'mL/kg';'2.16.840.1.113883.6.8';'MilliLitersPerKiloGram';;;;;'1';'L';
'35';'2.16.840.1.113883.6.8';'Energy Content Units';;;;;'0';'S';
'kCal/[oz_av]';'2.16.840.1.113883.6.8';'KiloCaloriesPerOunce';;;;;'1';'L';
'36';'2.16.840.1.113883.6.8';'Areic Number Units';;;;;'0';'S';
'/m2';'2.16.840.1.113883.6.8';'PerSquareMeter';;;;;'1';'L';
'37';'2.16.840.1.113883.6.8';'Areic Mass Units';;;;;'0';'S';
'g/m2';'2.16.840.1.113883.6.8';'GramsPerSquareMeter';;;;;'1';'L';
'kg/m2';'2.16.840.1.113883.6.8';'KiloGramsPerSquareMeter';;;;;'1';'L';
'mg/m2';'2.16.840.1.113883.6.8';'MilliGramsPerSquareMeter';;;;;'1';'L';
'ng/m2';'2.16.840.1.113883.6.8';'NanoGramsPerSquareMeter';;;;;'1';'L';
'ug/m2';'2.16.840.1.113883.6.8';'MicroGramsPerSquareMeter';;;;;'1';'L';
'38';'2.16.840.1.113883.6.8';'Massive Distance Units';;;;;'0';'S';
'g.m';'2.16.840.1.113883.6.8';'GramMeter';;;;;'1';'L';
'g.m/{hb}';'2.16.840.1.113883.6.8';'GramMeterPerHeartbeat';;;;;'1';'L';
'40';'2.16.840.1.113883.6.8';'Molar Mass Units';;;;;'0';'S';
'kg/mol';'2.16.840.1.113883.6.8';'KiloGramsPerMole';;;;;'1';'L';
'41';'2.16.840.1.113883.6.8';'Number Concentration Units';;;;;'0';'S';
'/L';'2.16.840.1.113883.6.8';'PerLiter';;;;;'1';'L';
'/dL';'2.16.840.1.113883.6.8';'PerDeciLiter';;;;;'1';'L';
'/mL';'2.16.840.1.113883.6.8';'PerMilliLiter';;;;;'1';'L';
'10*12/L';'2.16.840.1.113883.6.8';'TrillionPerLiter';;;;;'1';'L';
'10*3/L';'2.16.840.1.113883.6.8';'ThousandPerLiter';;;;;'1';'L';
'10*3/mL';'2.16.840.1.113883.6.8';'ThousandPerMilliLiter';;;;;'1';'L';
'10*3{Copies}/mL';'2.16.840.1.113883.6.8';'ThousandCopiesPerMilliLiter';;;;;'1';'L';
'10*6/L';'2.16.840.1.113883.6.8';'MillionPerLiter';;;;;'1';'L';
'10*6/mL';'2.16.840.1.113883.6.8';'MillionPerMilliLiter';;;;;'1';'L';
'10*9/L';'2.16.840.1.113883.6.8';'BillionPerLiter';;;;;'1';'L';
'10*9/mL';'2.16.840.1.113883.6.8';'BillionsPerMilliliter';;;;;'1';'L';
'10*9/uL';'2.16.840.1.113883.6.8';'BillionsPerMicroLiter';;;;;'1';'L';
'{Cells}/uL';'2.16.840.1.113883.6.8';'CellsPerMicroLiter';;;;;'1';'L';
'{Copies}/mL';'2.16.840.1.113883.6.8';'CopiesPerMilliLiter';;;;;'1';'L';
'{Spermatozoa}/mL';'2.16.840.1.113883.6.8';'SpermatozoaPerMilliLiter';;;;;'1';'L';
'{cfu}/mL';'2.16.840.1.113883.6.8';'ColonyFormingUnitsPerMilliLiter';;;;;'1';'L';
'{rbc}/uL';'2.16.840.1.113883.6.8';'RedBloodCellsPerMicroLiter';;;;;'1';'L';
'42';'2.16.840.1.113883.6.8';'Mass Concentration Units';;;;;'0';'S';
'kg/L';'2.16.840.1.113883.6.8';'KiloGramsPerLiter';;;;;'1';'L';
'kg/m3';'2.16.840.1.113883.6.8';'KiloGramsPerCubicMeter';;;;;'1';'L';
'mg/L';'2.16.840.1.113883.6.8';'MilliGramsPerLiter';;;;;'1';'L';
'mg/m3';'2.16.840.1.113883.6.8';'MilliGramsPerCubicMeter';;;;;'1';'L';
'mg/mL';'2.16.840.1.113883.6.8';'MilliGramsPerMilliLiter';;;;;'1';'L';
'mg{Phenylketones}/dL';'2.16.840.1.113883.6.8';'MilliGramsPhenylketonesPerDeciLiter';;;;;'1';'L';
'ng/L';'2.16.840.1.113883.6.8';'NanoGramsPerLiter';;;;;'1';'L';
'ng/dL';'2.16.840.1.113883.6.8';'NanoGramsPerDeciLiter';;;;;'1';'L';
'ng/mL{rbc}';'2.16.840.1.113883.6.8';'NanoGramsPerMilliLiterRedBloodCells';;;;;'1';'L';
'pg/L';'2.16.840.1.113883.6.8';'PicoGramsPerLiter';;;;;'1';'L';
'pg/dL';'2.16.840.1.113883.6.8';'PicoGramsPerDeciLiter';;;;;'1';'L';
'ug/dL{rbc}';'2.16.840.1.113883.6.8';'MicroGramsPerDeciLiterRedBloodCells';;;;;'1';'L';
'43';'2.16.840.1.113883.6.8';'Substance Concentration Units';;;;;'0';'S';
'10*6.eq/mL';'2.16.840.1.113883.6.8';'MillionEquivalentsPerMilliLiter';;;;;'1';'L';
'eq/L';'2.16.840.1.113883.6.8';'EquivalentsPerLiter';;;;;'1';'L';
'eq/mL';'2.16.840.1.113883.6.8';'EquivalentsPerMilliLiter';;;;;'1';'L';
'fmol/mL';'2.16.840.1.113883.6.8';'FemtoMolesPerMilliLiter';;;;;'1';'L';
'meq/dL';'2.16.840.1.113883.6.8';'MilliEquivalentsPerDeciLiter';;;;;'1';'L';
'meq/mL';'2.16.840.1.113883.6.8';'MilliEquivalentPerMilliLiter';;;;;'1';'L';
'mmol/dL';'2.16.840.1.113883.6.8';'MilliMolesPerDeciLiter';;;;;'1';'L';
'mol/L';'2.16.840.1.113883.6.8';'MolesPerLiter';;;;;'1';'L';
'mol/m3';'2.16.840.1.113883.6.8';'MolesPerCubicMeter';;;;;'1';'L';
'mol/mL';'2.16.840.1.113883.6.8';'MolesPerMilliLiter';;;;;'1';'L';
'mosm/L';'2.16.840.1.113883.6.8';'MilliOsmolesPerLiter';;;;;'1';'L';
'nmol/dL';'2.16.840.1.113883.6.8';'NanoMolesPerDeciLiter';;;;;'1';'L';
'nmol/mL';'2.16.840.1.113883.6.8';'NanoMolesPerMilliLiter';;;;;'1';'L';
'osm/L';'2.16.840.1.113883.6.8';'OsmolesPerLiter';;;;;'1';'L';
'pmol/dL';'2.16.840.1.113883.6.8';'PicoMolesPerDeciLiter';;;;;'1';'L';
'pmol/mL';'2.16.840.1.113883.6.8';'PicoMolesPerMilliLiter';;;;;'1';'L';
'ueq/L';'2.16.840.1.113883.6.8';'MicroEquivalentsPerLiter';;;;;'1';'L';
'ueq/mL';'2.16.840.1.113883.6.8';'MicroEquivalentsPerMilliLiter';;;;;'1';'L';
'umol/dL';'2.16.840.1.113883.6.8';'MicroMolesPerDeciLiter';;;;;'1';'L';
'umol/mL';'2.16.840.1.113883.6.8';'MicroMolesPerMilliLiter';;;;;'1';'L';
'{AHG}eq/mL';'2.16.840.1.113883.6.8';'AHGEquivalentsPerMilliLiter';;;;;'1';'L';
'44';'2.16.840.1.113883.6.8';'Arbitrary Concentration Units';;;;;'0';'S';
'[iU]/dL';'2.16.840.1.113883.6.8';'InternationalUnitsPerDeciLiter';;;;;'1';'L';
'[iU]/mL';'2.16.840.1.113883.6.8';'InternationalUnitsPerMilliLiter';;;;;'1';'L';
'k[iU]/mL';'2.16.840.1.113883.6.8';'KiloInternationalUnitsPerMilliLiter';;;;;'1';'L';
'm[iU]/L';'2.16.840.1.113883.6.8';'MilliInternationalUnitsPerLiter';;;;;'1';'L';
'{ComplementCh50}U/mL';'2.16.840.1.113883.6.8';'ComplementCh50UnitsPerMilliLiter';;;;;'1';'L';
'{Ehrlich_U}/dL';'2.16.840.1.113883.6.8';'EhrlichUnitsPerDeciLiter';;;;;'1';'L';
'{Elisa_U}/mL';'2.16.840.1.113883.6.8';'ElisaUnitsPerMilliLiter';;;;;'1';'L';
'{IgAPhospholipid}U/mL';'2.16.840.1.113883.6.8';'IgAPhospholipidUnitsPerMilliLiter';;;;;'1';'L';
'{IgGPhospholipid}U/mL';'2.16.840.1.113883.6.8';'IgGPhospholipidUnitsPerMilliLiter';;;;;'1';'L';
'{IgMPhospholipid}U/mL';'2.16.840.1.113883.6.8';'IgMPhospholipidUnitsPerMilliLiter';;;;;'1';'L';
'45';'2.16.840.1.113883.6.8';'pH Units';;;;;'0';'S';
'[pH]';'2.16.840.1.113883.6.8';'pH';;;;;'1';'L';
